{"page":{"from":0,"size":15},"total":36,"next":"/v0/eth/operators?window=1d&from=15&size=15&idType=entity","data":[{"id":"Lido","idType":"entity","timeWindow":"1d","validatorCount":139379,"avgCorrectness":0.9888097707428798,"avgInclusionDelay":1.029990058756469,"avgUptime":0.9992684773760795,"avgValidatorEffectiveness":96.0521760780622,"clientPercentages":[{"client":"Teku","percentage":0.1635681037348997},{"client":"Prysm","percentage":0.3560207248143633},{"client":"Lighthouse","percentage":0.45778842956887955},{"client":"Nimbus","percentage":0.01863293804721268},{"client":"Lodestar","percentage":0.003989803834644797}],"networkPenetration":0.30431515836558914,"relayerPercentages":[{"relayer":"blocknative","percentage":0.038160178914937205},{"relayer":"bloxroute_ethical","percentage":0.049748987347711174},{"relayer":"bloxroute_maxprofit","percentage":0.03739384745312085},{"relayer":"bloxroute_regulated","percentage":0.012308221641826059},{"relayer":"edennetwork","percentage":0.04917032889695188},{"relayer":"flashbots","percentage":0.5890899422905491},{"relayer":"manifold","percentage":0.015842730016734176},{"relayer":"no_mev_boost","percentage":0.20828576343816957}],"nodeOperatorCount":29},{"id":"Coinbase","idType":"entity","timeWindow":"1d","validatorCount":54645,"avgCorrectness":0.9875528922819312,"avgInclusionDelay":1.0287526134488536,"avgUptime":0.9979520745010761,"avgValidatorEffectiveness":95.89192003039189,"clientPercentages":[{"client":"Nimbus","percentage":0.0068415443325196825},{"client":"Prysm","percentage":0.3576168047581394},{"client":"Teku","percentage":0.20679341286485373},{"client":"Lighthouse","percentage":0.42874823804448725}],"networkPenetration":0.11970243610722289,"relayerPercentages":[{"relayer":"bloxroute_ethical","percentage":0.00027118118777360244},{"relayer":"bloxroute_maxprofit","percentage":0.008484097160345563},{"relayer":"bloxroute_regulated","percentage":3.8740169681943204e-05},{"relayer":"flashbots","percentage":0.048657653120520665},{"relayer":"manifold","percentage":7.748033936388641e-05},{"relayer":"no_mev_boost","percentage":0.9424708480223143}],"nodeOperatorCount":null},{"id":"Kraken","idType":"entity","timeWindow":"1d","validatorCount":38016,"avgCorrectness":0.9888717855323892,"avgInclusionDelay":1.0257200784345952,"avgUptime":0.99790679156162,"avgValidatorEffectiveness":96.27926659813477,"clientPercentages":[{"client":"Lighthouse","percentage":0.25358074518875817},{"client":"Prysm","percentage":0.6941969779002806},{"client":"Nimbus","percentage":9.843973027513905e-05},{"client":"Teku","percentage":0.052123837180686125}],"networkPenetration":0.08320354342868784,"relayerPercentages":[{"relayer":"blocknative","percentage":0.007832322118036405},{"relayer":"bloxroute_ethical","percentage":0.0028681742967457255},{"relayer":"bloxroute_maxprofit","percentage":0.009597352454495311},{"relayer":"edennetwork","percentage":0.006563706563706564},{"relayer":"flashbots","percentage":0.4361831218974076},{"relayer":"manifold","percentage":0.004964147821290678},{"relayer":"no_mev_boost","percentage":0.5319911748483177}],"nodeOperatorCount":null},{"id":"Binance","idType":"entity","timeWindow":"1d","validatorCount":23826,"avgCorrectness":0.9901843890979609,"avgInclusionDelay":1.0228314271544745,"avgUptime":0.9999521531100498,"avgValidatorEffectiveness":96.86352926244439,"clientPercentages":[{"client":"Lighthouse","percentage":0.4613848734126667},{"client":"Prysm","percentage":0.5314272023001357},{"client":"Teku","percentage":0.006069802731411229},{"client":"Nimbus","percentage":0.0011181215557862791}],"networkPenetration":0.05219197076934198,"relayerPercentages":[{"relayer":"blocknative","percentage":0.0017752529735487307},{"relayer":"bloxroute_ethical","percentage":8.876264867743653e-05},{"relayer":"bloxroute_maxprofit","percentage":0.0031066927037102787},{"relayer":"bloxroute_regulated","percentage":0.041895970175750044},{"relayer":"edennetwork","percentage":0.004260607136516954},{"relayer":"flashbots","percentage":0.7220841469909463},{"relayer":"no_mev_boost","percentage":0.22678856737085035}],"nodeOperatorCount":null},{"id":"Staked.us","idType":"entity","timeWindow":"1d","validatorCount":12841,"avgCorrectness":0.9885494391796793,"avgInclusionDelay":1.0259356494446707,"avgUptime":0.9992124958381905,"avgValidatorEffectiveness":96.35569856673979,"clientPercentages":[{"client":"Prysm","percentage":0.6296512476287757},{"client":"Teku","percentage":0.25857288778637094},{"client":"Nimbus","percentage":0.00029184298847220193},{"client":"Lighthouse","percentage":0.11148402159638114}],"networkPenetration":0.028087192529358804,"relayerPercentages":[{"relayer":"blocknative","percentage":0.008521846916640843},{"relayer":"bloxroute_ethical","percentage":0.0021691973969631237},{"relayer":"bloxroute_maxprofit","percentage":0.01642392314843508},{"relayer":"edennetwork","percentage":0.019522776572668113},{"relayer":"flashbots","percentage":0.5432290052680508},{"relayer":"manifold","percentage":0.004183452122714595},{"relayer":"no_mev_boost","percentage":0.4059497985745274}],"nodeOperatorCount":null},{"id":"Bitcoin Suisse","idType":"entity","timeWindow":"1d","validatorCount":9214,"avgCorrectness":0.9904011694803387,"avgInclusionDelay":1.0249066122641548,"avgUptime":0.9999003931215787,"avgValidatorEffectiveness":96.69250912745079,"clientPercentages":[{"client":"Nimbus","percentage":0.024842271293375396},{"client":"Prysm","percentage":0.0005914826498422713},{"client":"Teku","percentage":0.9743690851735016},{"client":"Lighthouse","percentage":0.0001971608832807571}],"networkPenetration":0.02018369926419529,"relayerPercentages":[{"relayer":"no_mev_boost","percentage":1.0}],"nodeOperatorCount":null},{"id":"Rocketpool","idType":"entity","timeWindow":"1d","validatorCount":9131,"avgCorrectness":0.9871183473337288,"avgInclusionDelay":1.0318479877746236,"avgUptime":0.9838497311689564,"avgValidatorEffectiveness":94.32257810313314,"clientPercentages":[{"client":"Lighthouse","percentage":0.4125169760072431},{"client":"Nimbus","percentage":0.1949977365323676},{"client":"Teku","percentage":0.3408782254413762},{"client":"Prysm","percentage":0.05160706201901313}],"networkPenetration":0.019951501291327407,"relayerPercentages":[{"relayer":"blocknative","percentage":0.05119851058878287},{"relayer":"bloxroute_ethical","percentage":0.036537118920176866},{"relayer":"bloxroute_maxprofit","percentage":0.08401210146613916},{"relayer":"bloxroute_regulated","percentage":0.05352571561554573},{"relayer":"edennetwork","percentage":0.050500349080754015},{"relayer":"flashbots","percentage":0.562718175471259},{"relayer":"manifold","percentage":0.0016290435187340006},{"relayer":"no_mev_boost","percentage":0.15918082383057947},{"relayer":"relayooor","percentage":0.0006981615080288574}],"nodeOperatorCount":1588},{"id":"Stakefish","idType":"entity","timeWindow":"1d","validatorCount":8065,"avgCorrectness":0.9868192300134515,"avgInclusionDelay":1.0495385409749383,"avgUptime":0.9982563890611011,"avgValidatorEffectiveness":94.08512411517012,"clientPercentages":[{"client":"Prysm","percentage":0.000847816871555744},{"client":"Teku","percentage":0.30479016532428993},{"client":"Nimbus","percentage":0.006570580754557015},{"client":"Lighthouse","percentage":0.6877914370495973}],"networkPenetration":0.017666760860183962,"relayerPercentages":[{"relayer":"bloxroute_ethical","percentage":0.0004528985507246377},{"relayer":"bloxroute_maxprofit","percentage":0.003170289855072464},{"relayer":"bloxroute_regulated","percentage":0.00022644927536231884},{"relayer":"edennetwork","percentage":0.0006793478260869565},{"relayer":"flashbots","percentage":0.8937952898550725},{"relayer":"manifold","percentage":0.07767210144927536},{"relayer":"no_mev_boost","percentage":0.024003623188405796}],"nodeOperatorCount":null},{"id":"Celsius Network","idType":"entity","timeWindow":"1d","validatorCount":4943,"avgCorrectness":0.990278212381593,"avgInclusionDelay":1.0224592761238855,"avgUptime":0.9999541439072086,"avgValidatorEffectiveness":96.90592409107546,"clientPercentages":[{"client":"Prysm","percentage":0.9890689785148888},{"client":"Teku","percentage":0.00603090840557859},{"client":"Lighthouse","percentage":0.004900113079532605}],"networkPenetration":0.010827873395150567,"relayerPercentages":[{"relayer":"flashbots","percentage":0.9433097123801584},{"relayer":"no_mev_boost","percentage":0.0566902876198416}],"nodeOperatorCount":null},{"id":"Bitfinex","idType":"entity","timeWindow":"1d","validatorCount":3214,"avgCorrectness":0.9905724911450007,"avgInclusionDelay":1.0230331391779095,"avgUptime":0.999975108898569,"avgValidatorEffectiveness":96.8853246132273,"clientPercentages":[{"client":"Nimbus","percentage":0.0005767012687427913},{"client":"Prysm","percentage":0.9792387543252595},{"client":"Teku","percentage":0.016724336793540944},{"client":"Lighthouse","percentage":0.0034602076124567475}],"networkPenetration":0.007040417781107409,"relayerPercentages":[{"relayer":"blocknative","percentage":0.001287001287001287},{"relayer":"bloxroute_maxprofit","percentage":0.001287001287001287},{"relayer":"edennetwork","percentage":0.0045045045045045045},{"relayer":"flashbots","percentage":0.7824967824967825},{"relayer":"no_mev_boost","percentage":0.21042471042471042}],"nodeOperatorCount":null},{"id":"Abyss","idType":"entity","timeWindow":"1d","validatorCount":2988,"avgCorrectness":0.9897214120385265,"avgInclusionDelay":1.0253756346368859,"avgUptime":0.998823224270598,"avgValidatorEffectiveness":96.43960335887206,"clientPercentages":[{"client":"Nimbus","percentage":0.04461221688400824},{"client":"Prysm","percentage":0.033630748112560054},{"client":"Teku","percentage":0.8407687028140014},{"client":"Lighthouse","percentage":0.08098833218943034}],"networkPenetration":0.006543163631663918,"relayerPercentages":[{"relayer":"blocknative","percentage":0.007220216606498195},{"relayer":"bloxroute_ethical","percentage":0.005776173285198556},{"relayer":"bloxroute_maxprofit","percentage":0.021660649819494584},{"relayer":"bloxroute_regulated","percentage":0.01516245487364621},{"relayer":"edennetwork","percentage":0.01444043321299639},{"relayer":"flashbots","percentage":0.3768953068592058},{"relayer":"manifold","percentage":0.004332129963898917},{"relayer":"no_mev_boost","percentage":0.5530685920577617},{"relayer":"relayooor","percentage":0.001444043321299639}],"nodeOperatorCount":null},{"id":"Huobi","idType":"entity","timeWindow":"1d","validatorCount":2855,"avgCorrectness":0.9900852680955339,"avgInclusionDelay":1.0223453163264193,"avgUptime":0.9999252772913021,"avgValidatorEffectiveness":96.89373294782328,"clientPercentages":[{"client":"Teku","percentage":0.010876519513755598},{"client":"Lighthouse","percentage":0.007677543186180422},{"client":"Prysm","percentage":0.981445937300064}],"networkPenetration":0.006254011439035984,"relayerPercentages":[{"relayer":"blocknative","percentage":0.058695652173913045},{"relayer":"bloxroute_ethical","percentage":0.020289855072463767},{"relayer":"bloxroute_maxprofit","percentage":0.1036231884057971},{"relayer":"bloxroute_regulated","percentage":0.060144927536231886},{"relayer":"edennetwork","percentage":0.10072463768115943},{"relayer":"flashbots","percentage":0.5927536231884057},{"relayer":"manifold","percentage":0.059420289855072465},{"relayer":"no_mev_boost","percentage":0.004347826086956522}],"nodeOperatorCount":null},{"id":"Bloxstaking","idType":"entity","timeWindow":"1d","validatorCount":2640,"avgCorrectness":0.9890122272910917,"avgInclusionDelay":1.0230120636452202,"avgUptime":0.9998981357084809,"avgValidatorEffectiveness":96.74315780391525,"clientPercentages":[{"client":"Teku","percentage":0.006046863189720333},{"client":"Lighthouse","percentage":0.30839002267573695},{"client":"Prysm","percentage":0.6855631141345427}],"networkPenetration":0.00578085330564482,"relayerPercentages":[{"relayer":"blocknative","percentage":0.04628099173553719},{"relayer":"bloxroute_ethical","percentage":0.003305785123966942},{"relayer":"flashbots","percentage":0.9338842975206612},{"relayer":"no_mev_boost","percentage":0.01652892561983471}],"nodeOperatorCount":null},{"id":"wedex.eth","idType":"entity","timeWindow":"1d","validatorCount":2399,"avgCorrectness":0.9900819750085532,"avgInclusionDelay":1.0219505778515556,"avgUptime":0.999968505395767,"avgValidatorEffectiveness":96.93226753709381,"clientPercentages":[{"client":"Lighthouse","percentage":0.993841416474211},{"client":"Nimbus","percentage":0.006158583525789068}],"networkPenetration":0.005255122046321305,"relayerPercentages":[{"relayer":"blocknative","percentage":0.04679376083188908},{"relayer":"bloxroute_ethical","percentage":0.009532062391681109},{"relayer":"bloxroute_maxprofit","percentage":0.10398613518197573},{"relayer":"edennetwork","percentage":0.11525129982668977},{"relayer":"flashbots","percentage":0.49913344887348354},{"relayer":"manifold","percentage":0.04592720970537262},{"relayer":"no_mev_boost","percentage":0.17937608318890816}],"nodeOperatorCount":null},{"id":"Ankr","idType":"entity","timeWindow":"1d","validatorCount":2304,"avgCorrectness":0.989872883879577,"avgInclusionDelay":1.0230673021667849,"avgUptime":0.9999613958604954,"avgValidatorEffectiveness":96.81308183575103,"clientPercentages":[{"client":"Lighthouse","percentage":0.8369132856006364},{"client":"Prysm","percentage":0.162291169451074},{"client":"Teku","percentage":0.0007955449482895784}],"networkPenetration":0.005040448448764203,"relayerPercentages":[{"relayer":"flashbots","percentage":0.15185185185185185},{"relayer":"no_mev_boost","percentage":0.8481481481481481}],"nodeOperatorCount":null}]}