{"page":{"from":0,"size":15},"total":31,"next":"/v0/eth/operators?window=1d&from=15&size=15&idType=entity","data":[{"id":"Lido","idType":"entity","timeWindow":"1d","validatorCount":128856,"avgCorrectness":0.9850715624128583,"avgInclusionDelay":1.0182349082653193,"avgUptime":0.9995488742596523,"avgValidatorEffectiveness":97.52859637273102,"clientPercentages":[{"client":"Prysm","percentage":0.3543988731007508},{"client":"Lighthouse","percentage":0.3901341611848853},{"client":"Teku","percentage":0.1765840182710849},{"client":"Nimbus","percentage":0.07888294744327895}],"networkPenetration":0.3196086991031034},{"id":"Coinbase","idType":"entity","timeWindow":"1d","validatorCount":56844,"avgCorrectness":0.9845185345758247,"avgInclusionDelay":1.0191234306101107,"avgUptime":0.9998149320948526,"avgValidatorEffectiveness":97.44649411235869,"clientPercentages":[{"client":"Teku","percentage":0.16583114263006662},{"client":"Lighthouse","percentage":0.36210796600843675},{"client":"Nimbus","percentage":0.09720608913614966},{"client":"Prysm","percentage":0.37485480222534695}],"networkPenetration":0.1409933328041908},{"id":"Kraken","idType":"entity","timeWindow":"1d","validatorCount":35700,"avgCorrectness":0.9781593289045712,"avgInclusionDelay":1.030423684687838,"avgUptime":0.9984010492437543,"avgValidatorEffectiveness":96.29360432901458,"clientPercentages":[{"client":"Nimbus","percentage":0.038755137991779216},{"client":"Prysm","percentage":0.6030045018594636},{"client":"Teku","percentage":0.08519279702485809},{"client":"Lighthouse","percentage":0.273047563123899}],"networkPenetration":0.08852637114056672},{"id":"Binance","idType":"entity","timeWindow":"1d","validatorCount":20641,"avgCorrectness":0.9848346225574013,"avgInclusionDelay":1.0183389252350536,"avgUptime":0.9998697306870377,"avgValidatorEffectiveness":97.53229005662831,"clientPercentages":[{"client":"Lighthouse","percentage":0.3196625459405279},{"client":"Prysm","percentage":0.5929669228199131},{"client":"Teku","percentage":0.01110925492816572},{"client":"Nimbus","percentage":0.07626127631139325}],"networkPenetration":0.05119701960473053},{"id":"Bitcoin Suisse","idType":"entity","timeWindow":"1d","validatorCount":9000,"avgCorrectness":0.9821838553240158,"avgInclusionDelay":1.0492977443361613,"avgUptime":0.9963320248168075,"avgValidatorEffectiveness":94.6470177149763,"clientPercentages":[{"client":"Teku","percentage":0.9930375969763279},{"client":"Nimbus","percentage":0.00696240302367217}],"networkPenetration":0.022171898563378045},{"id":"Rocketpool","idType":"entity","timeWindow":"1d","validatorCount":5905,"avgCorrectness":0.9841246470963237,"avgInclusionDelay":1.0235834522327798,"avgUptime":0.992788744243478,"avgValidatorEffectiveness":96.51734042450877,"clientPercentages":[{"client":"Nimbus","percentage":0.25508037609948436},{"client":"Lighthouse","percentage":0.42796481649984836},{"client":"Prysm","percentage":0.056414922656960874},{"client":"Teku","percentage":0.2605398847437064}],"networkPenetration":0.014631617588697516},{"id":"Staked.us","idType":"entity","timeWindow":"1d","validatorCount":5263,"avgCorrectness":0.9841526434009042,"avgInclusionDelay":1.0181083086398013,"avgUptime":0.9998644626005447,"avgValidatorEffectiveness":97.51783963120208,"clientPercentages":[{"client":"Teku","percentage":0.5096401028277635},{"client":"Lighthouse","percentage":0.0016066838046272494},{"client":"Prysm","percentage":0.43316195372750643},{"client":"Nimbus","percentage":0.05559125964010283}],"networkPenetration":0.013054111437415668},{"id":"f2pool.eth","idType":"entity","timeWindow":"1d","validatorCount":3501,"avgCorrectness":0.9844872691382113,"avgInclusionDelay":1.0355501273117935,"avgUptime":0.999384937636866,"avgValidatorEffectiveness":96.11558989999767,"clientPercentages":[{"client":"Nimbus","percentage":0.00045024763619990995},{"client":"Lighthouse","percentage":0.9995497523638001}],"networkPenetration":0.008683724898801492},{"id":"Bitfinex","idType":"entity","timeWindow":"1d","validatorCount":3214,"avgCorrectness":0.9822993053644498,"avgInclusionDelay":1.0219980632554362,"avgUptime":0.9974604162345284,"avgValidatorEffectiveness":96.93797337581478,"clientPercentages":[{"client":"Lighthouse","percentage":0.0031364349189754314},{"client":"Prysm","percentage":0.865656037637219},{"client":"Nimbus","percentage":0.1097752221641401},{"client":"Teku","percentage":0.021432305279665446}],"networkPenetration":0.00797186284625764},{"id":"Huobi","idType":"entity","timeWindow":"1d","validatorCount":2855,"avgCorrectness":0.9815894505877828,"avgInclusionDelay":1.0251946947718555,"avgUptime":0.9996637478108577,"avgValidatorEffectiveness":96.77325519581723,"clientPercentages":[{"client":"Lighthouse","percentage":0.0034924330616996507},{"client":"Prysm","percentage":0.8795110593713621},{"client":"Teku","percentage":0.018044237485448197},{"client":"Nimbus","percentage":0.0989522700814901}],"networkPenetration":0.007081415191681879},{"id":"wedex.eth","idType":"entity","timeWindow":"1d","validatorCount":2399,"avgCorrectness":0.9834633352083753,"avgInclusionDelay":1.025159231832095,"avgUptime":0.9995711175952944,"avgValidatorEffectiveness":96.88662513521393,"clientPercentages":[{"client":"Lighthouse","percentage":1.0}],"networkPenetration":0.0059503730454798},{"id":"Bloxstaking","idType":"entity","timeWindow":"1d","validatorCount":2306,"avgCorrectness":0.9825933091751813,"avgInclusionDelay":1.0212468344241135,"avgUptime":0.9998689409270494,"avgValidatorEffectiveness":97.14305767485979,"clientPercentages":[{"client":"Teku","percentage":0.008733624454148471},{"client":"Lighthouse","percentage":0.49417758369723436},{"client":"Nimbus","percentage":0.04439592430858806},{"client":"Prysm","percentage":0.45269286754002913}],"networkPenetration":0.0057196999761885865},{"id":"Ankr","idType":"entity","timeWindow":"1d","validatorCount":2284,"avgCorrectness":0.9066760693480863,"avgInclusionDelay":1.290061133983244,"avgUptime":0.9795728741000205,"avgValidatorEffectiveness":78.53537251018523,"clientPercentages":[{"client":"Teku","percentage":0.008008008008008008},{"client":"Lighthouse","percentage":0.01001001001001001},{"client":"Prysm","percentage":0.8898898898898899},{"client":"Nimbus","percentage":0.0920920920920921}],"networkPenetration":0.005665132153345504},{"id":"StakeWise","idType":"entity","timeWindow":"1d","validatorCount":1968,"avgCorrectness":0.9842376717609896,"avgInclusionDelay":1.022691557171509,"avgUptime":0.998903568202348,"avgValidatorEffectiveness":97.07737538456942,"clientPercentages":[{"client":"Prysm","percentage":0.3770197486535009},{"client":"Nimbus","percentage":0.0466786355475763},{"client":"Teku","percentage":0.04039497307001795},{"client":"Lighthouse","percentage":0.5359066427289049}],"networkPenetration":0.004881339788872133},{"id":"OKex","idType":"entity","timeWindow":"1d","validatorCount":1534,"avgCorrectness":0.9822995448268067,"avgInclusionDelay":1.023196298330452,"avgUptime":0.9996624655946693,"avgValidatorEffectiveness":96.96316369309147,"clientPercentages":[{"client":"Teku","percentage":0.021134593993325918},{"client":"Prysm","percentage":0.8765294771968855},{"client":"Nimbus","percentage":0.10233592880978866}],"networkPenetration":0.003804865465513136}]}