{"page":{"from":0,"size":15},"total":30,"next":"/v0/eth/operators?window=1d&from=15&size=15&idType=entity","data":[{"id":"Lido","idType":"entity","timeWindow":"1d","validatorCount":129785,"avgCorrectness":0.986747325631694,"avgInclusionDelay":1.0290201359239508,"avgUptime":0.998760704081471,"avgValidatorEffectiveness":96.72462362479082,"clientPercentages":[{"client":"Teku","percentage":0.22193660113917715},{"client":"Lighthouse","percentage":0.3503037354727856},{"client":"Lodestar","percentage":0.00037882375224926605},{"client":"Prysm","percentage":0.40259494270290747},{"client":"Nimbus","percentage":0.02478589693288055}],"networkPenetration":0.3108632267925893},{"id":"Coinbase","idType":"entity","timeWindow":"1d","validatorCount":54493,"avgCorrectness":0.9871369335236803,"avgInclusionDelay":1.0279909978241206,"avgUptime":0.9999666691147803,"avgValidatorEffectiveness":96.93201155973887,"clientPercentages":[{"client":"Prysm","percentage":0.38777885548011637},{"client":"Nimbus","percentage":0.05767862916262528},{"client":"Teku","percentage":0.13970255415454252},{"client":"Lighthouse","percentage":0.4148399612027158}],"networkPenetration":0.13045790718233632},{"id":"Kraken","idType":"entity","timeWindow":"1d","validatorCount":36586,"avgCorrectness":0.9865788827210706,"avgInclusionDelay":1.0285781948244836,"avgUptime":0.9966297280357269,"avgValidatorEffectiveness":96.56818376437457,"clientPercentages":[{"client":"Teku","percentage":0.0939898624185373},{"client":"Prysm","percentage":0.6236543567463191},{"client":"Lighthouse","percentage":0.26280473087134926},{"client":"Nimbus","percentage":0.01955104996379435}],"networkPenetration":0.08763317592998546},{"id":"Binance","idType":"entity","timeWindow":"1d","validatorCount":21584,"avgCorrectness":0.9866021916853672,"avgInclusionDelay":1.02813849649346,"avgUptime":0.9999905279630986,"avgValidatorEffectiveness":96.88654092136579,"clientPercentages":[{"client":"Prysm","percentage":0.6109586763116321},{"client":"Teku","percentage":0.0005820237798287187},{"client":"Lighthouse","percentage":0.35769518583187826},{"client":"Nimbus","percentage":0.030764114076660846}],"networkPenetration":0.051710713250391116},{"id":"Bitcoin Suisse","idType":"entity","timeWindow":"1d","validatorCount":9000,"avgCorrectness":0.9869978682233778,"avgInclusionDelay":1.0371671694534998,"avgUptime":0.9988770370370392,"avgValidatorEffectiveness":96.121625583807,"clientPercentages":[{"client":"Teku","percentage":0.9935897435897436},{"client":"Nimbus","percentage":0.00641025641025641}],"networkPenetration":0.0215621024487361},{"id":"Rocketpool","idType":"entity","timeWindow":"1d","validatorCount":6837,"avgCorrectness":0.9855764287659403,"avgInclusionDelay":1.0315650506051894,"avgUptime":0.9906472435227172,"avgValidatorEffectiveness":95.85167469595923,"clientPercentages":[{"client":"Prysm","percentage":0.05251700680272109},{"client":"Lighthouse","percentage":0.41714285714285715},{"client":"Teku","percentage":0.30272108843537415},{"client":"Nimbus","percentage":0.2276190476190476}],"networkPenetration":0.01635844839110779},{"id":"Staked.us","idType":"entity","timeWindow":"1d","validatorCount":5263,"avgCorrectness":0.9849373087275621,"avgInclusionDelay":1.0306780060902752,"avgUptime":0.99862013638187,"avgValidatorEffectiveness":96.4807467449407,"clientPercentages":[{"client":"Nimbus","percentage":0.02821210061182869},{"client":"Prysm","percentage":0.47178789938817134},{"client":"Teku","percentage":0.49422161794697483},{"client":"Lighthouse","percentage":0.005778382053025153}],"networkPenetration":0.012609038354188678},{"id":"f2pool.eth","idType":"entity","timeWindow":"1d","validatorCount":3501,"avgCorrectness":0.9860352323081523,"avgInclusionDelay":1.0303498285228976,"avgUptime":0.9999866704751024,"avgValidatorEffectiveness":96.67932435289151,"clientPercentages":[{"client":"Lighthouse","percentage":0.986387943607195},{"client":"Prysm","percentage":0.013612056392805057}],"networkPenetration":0.008387657852558343},{"id":"Bitfinex","idType":"entity","timeWindow":"1d","validatorCount":3214,"avgCorrectness":0.9859985426199895,"avgInclusionDelay":1.0317252364054643,"avgUptime":0.990602226370739,"avgValidatorEffectiveness":95.78024701151588,"clientPercentages":[{"client":"Lighthouse","percentage":0.004501969611705121},{"client":"Prysm","percentage":0.943725379853686},{"client":"Teku","percentage":0.012380416432189083},{"client":"Nimbus","percentage":0.03939223410241981}],"networkPenetration":0.007700066363359759},{"id":"Huobi","idType":"entity","timeWindow":"1d","validatorCount":2855,"avgCorrectness":0.9855201401050788,"avgInclusionDelay":1.0296726989686709,"avgUptime":1.0,"avgValidatorEffectiveness":96.70606606117228,"clientPercentages":[{"client":"Teku","percentage":0.002430133657351154},{"client":"Nimbus","percentage":0.04495747266099635},{"client":"Lighthouse","percentage":0.0006075334143377885},{"client":"Prysm","percentage":0.9520048602673147}],"networkPenetration":0.006839978054571286},{"id":"wedex.eth","idType":"entity","timeWindow":"1d","validatorCount":2399,"avgCorrectness":0.9738614856159851,"avgInclusionDelay":1.0921841198399118,"avgUptime":0.9994034551433468,"avgValidatorEffectiveness":91.55591901330058,"clientPercentages":[{"client":"Lighthouse","percentage":1.0}],"networkPenetration":0.005747498197168657},{"id":"Bloxstaking","idType":"entity","timeWindow":"1d","validatorCount":2386,"avgCorrectness":0.9850666686552917,"avgInclusionDelay":1.0379401697291493,"avgUptime":0.9996656081978317,"avgValidatorEffectiveness":95.98220173012936,"clientPercentages":[{"client":"Prysm","percentage":0.4818731117824773},{"client":"Lighthouse","percentage":0.49244712990936557},{"client":"Nimbus","percentage":0.02416918429003021},{"client":"Teku","percentage":0.0015105740181268882}],"networkPenetration":0.0057139571489150665},{"id":"Ankr","idType":"entity","timeWindow":"1d","validatorCount":2296,"avgCorrectness":0.934395768027365,"avgInclusionDelay":1.1809277232527988,"avgUptime":0.9951345334881925,"avgValidatorEffectiveness":87.08120029855321,"clientPercentages":[{"client":"Prysm","percentage":0.9464105156723963},{"client":"Lighthouse","percentage":0.011122345803842264},{"client":"Teku","percentage":0.006066734074823054},{"client":"Nimbus","percentage":0.03640040444893832}],"networkPenetration":0.005500731913588677},{"id":"StakeWise","idType":"entity","timeWindow":"1d","validatorCount":1980,"avgCorrectness":0.986143432183402,"avgInclusionDelay":1.030605185248413,"avgUptime":0.9992951739618396,"avgValidatorEffectiveness":96.5202372861331,"clientPercentages":[{"client":"Lighthouse","percentage":0.5298245614035088},{"client":"Teku","percentage":0.060526315789473685},{"client":"Nimbus","percentage":0.02456140350877193},{"client":"Prysm","percentage":0.3850877192982456}],"networkPenetration":0.004743662538721942},{"id":"OKex","idType":"entity","timeWindow":"1d","validatorCount":1731,"avgCorrectness":0.9861735562442708,"avgInclusionDelay":1.0290779631945317,"avgUptime":0.9999435137043458,"avgValidatorEffectiveness":96.78260657101099,"clientPercentages":[{"client":"Prysm","percentage":0.9401888772298006},{"client":"Lighthouse","percentage":0.012591815320041973},{"client":"Teku","percentage":0.002098635886673662},{"client":"Nimbus","percentage":0.04512067156348373}],"networkPenetration":0.0041471110376402436}]}