{"page":{"from":0,"size":15},"total":30,"next":"/v0/eth/operators?window=1d&from=15&size=15&idType=entity","data":[{"id":"Lido","idType":"entity","timeWindow":"1d","validatorCount":129914,"avgCorrectness":0.9861229255602189,"avgInclusionDelay":1.0358150628124487,"avgUptime":0.9978243439220595,"avgValidatorEffectiveness":96.04833573680696,"clientPercentages":[{"client":"Lodestar","percentage":0.00037882375224926605},{"client":"Nimbus","percentage":0.02478589693288055},{"client":"Prysm","percentage":0.40259494270290747},{"client":"Lighthouse","percentage":0.3503037354727856},{"client":"Teku","percentage":0.22193660113917715}],"networkPenetration":0.3082662161071851},{"id":"Coinbase","idType":"entity","timeWindow":"1d","validatorCount":54286,"avgCorrectness":0.9871282890157316,"avgInclusionDelay":1.0319566214345963,"avgUptime":0.9997339195290758,"avgValidatorEffectiveness":96.56203023515238,"clientPercentages":[{"client":"Teku","percentage":0.1365323435843054},{"client":"Prysm","percentage":0.38421261930010603},{"client":"Lighthouse","percentage":0.4231508483563097},{"client":"Nimbus","percentage":0.056104188759278896}],"networkPenetration":0.12882235964708283},{"id":"Kraken","idType":"entity","timeWindow":"1d","validatorCount":36649,"avgCorrectness":0.9862265007593631,"avgInclusionDelay":1.0341439166842312,"avgUptime":0.9972266002857445,"avgValidatorEffectiveness":96.12025470869634,"clientPercentages":[{"client":"Prysm","percentage":0.6236543567463191},{"client":"Lighthouse","percentage":0.26280473087134926},{"client":"Nimbus","percentage":0.01955104996379435},{"client":"Teku","percentage":0.0939898624185373}],"networkPenetration":0.08695734714120958},{"id":"Binance","idType":"entity","timeWindow":"1d","validatorCount":21861,"avgCorrectness":0.9845853997933294,"avgInclusionDelay":1.038440206393461,"avgUptime":0.9975840283813395,"avgValidatorEffectiveness":95.70766848793568,"clientPercentages":[{"client":"Teku","percentage":0.0005820237798287187},{"client":"Nimbus","percentage":0.030764114076660846},{"client":"Prysm","percentage":0.6109586763116321},{"client":"Lighthouse","percentage":0.35769518583187826}],"networkPenetration":0.05187683020014143},{"id":"Bitcoin Suisse","idType":"entity","timeWindow":"1d","validatorCount":9000,"avgCorrectness":0.9903054454445656,"avgInclusionDelay":1.0243679310925506,"avgUptime":0.9999886419753113,"avgValidatorEffectiveness":97.37608941468419,"clientPercentages":[{"client":"Nimbus","percentage":0.00641025641025641},{"client":"Teku","percentage":0.9935897435897436}],"networkPenetration":0.021357278797917427},{"id":"Rocketpool","idType":"entity","timeWindow":"1d","validatorCount":6925,"avgCorrectness":0.9861695311261193,"avgInclusionDelay":1.0350504988398697,"avgUptime":0.9933514011438234,"avgValidatorEffectiveness":95.7644872605022,"clientPercentages":[{"client":"Teku","percentage":0.30272108843537415},{"client":"Prysm","percentage":0.05251700680272109},{"client":"Lighthouse","percentage":0.41714285714285715},{"client":"Nimbus","percentage":0.2276190476190476}],"networkPenetration":0.01640001708582304},{"id":"Staked.us","idType":"entity","timeWindow":"1d","validatorCount":5263,"avgCorrectness":0.978641264058628,"avgInclusionDelay":1.047878338593184,"avgUptime":0.9967487913526301,"avgValidatorEffectiveness":94.58736115994418,"clientPercentages":[{"client":"Lighthouse","percentage":0.005778382053025153},{"client":"Prysm","percentage":0.47178789938817134},{"client":"Teku","percentage":0.49422161794697483},{"client":"Nimbus","percentage":0.02821210061182869}],"networkPenetration":0.012489262034826603},{"id":"f2pool.eth","idType":"entity","timeWindow":"1d","validatorCount":3501,"avgCorrectness":0.9875595156948159,"avgInclusionDelay":1.040052772600038,"avgUptime":0.9963845250563328,"avgValidatorEffectiveness":95.66258675403489,"clientPercentages":[{"client":"Prysm","percentage":0.013612056392805057},{"client":"Lighthouse","percentage":0.986387943607195}],"networkPenetration":0.00830798145238988},{"id":"Bitfinex","idType":"entity","timeWindow":"1d","validatorCount":3214,"avgCorrectness":0.9850831617363357,"avgInclusionDelay":1.0361944049928848,"avgUptime":0.9999433036022948,"avgValidatorEffectiveness":96.11685515391193,"clientPercentages":[{"client":"Lighthouse","percentage":0.004501969611705121},{"client":"Nimbus","percentage":0.03939223410241981},{"client":"Prysm","percentage":0.943725379853686},{"client":"Teku","percentage":0.012380416432189083}],"networkPenetration":0.007626921561834068},{"id":"Huobi","idType":"entity","timeWindow":"1d","validatorCount":2855,"avgCorrectness":0.9833153597648683,"avgInclusionDelay":1.0421672383404266,"avgUptime":0.9989227476162681,"avgValidatorEffectiveness":95.45500668114016,"clientPercentages":[{"client":"Prysm","percentage":0.9520048602673147},{"client":"Teku","percentage":0.002430133657351154},{"client":"Nimbus","percentage":0.04495747266099635},{"client":"Lighthouse","percentage":0.0006075334143377885}],"networkPenetration":0.006775003440894918},{"id":"Bloxstaking","idType":"entity","timeWindow":"1d","validatorCount":2408,"avgCorrectness":0.9818130647338982,"avgInclusionDelay":1.0450553791599282,"avgUptime":0.9951864156515315,"avgValidatorEffectiveness":94.8905359351599,"clientPercentages":[{"client":"Prysm","percentage":0.484984984984985},{"client":"Nimbus","percentage":0.024024024024024024},{"client":"Teku","percentage":0.0015015015015015015},{"client":"Lighthouse","percentage":0.4894894894894895}],"networkPenetration":0.005714258593931685},{"id":"wedex.eth","idType":"entity","timeWindow":"1d","validatorCount":2399,"avgCorrectness":0.9777838406129186,"avgInclusionDelay":1.074862586926028,"avgUptime":0.996499467370665,"avgValidatorEffectiveness":92.50868156891971,"clientPercentages":[{"client":"Lighthouse","percentage":1.0}],"networkPenetration":0.005692901315133767},{"id":"Ankr","idType":"entity","timeWindow":"1d","validatorCount":2297,"avgCorrectness":0.9180518047419349,"avgInclusionDelay":1.2549932281383092,"avgUptime":0.9488102843666029,"avgValidatorEffectiveness":78.81508546357588,"clientPercentages":[{"client":"Lighthouse","percentage":0.011122345803842264},{"client":"Prysm","percentage":0.9464105156723963},{"client":"Teku","percentage":0.006066734074823054},{"client":"Nimbus","percentage":0.03640040444893832}],"networkPenetration":0.0054484791244464904},{"id":"StakeWise","idType":"entity","timeWindow":"1d","validatorCount":1981,"avgCorrectness":0.9847628807594289,"avgInclusionDelay":1.0398850698705069,"avgUptime":0.9982971563183579,"avgValidatorEffectiveness":95.67191873873111,"clientPercentages":[{"client":"Nimbus","percentage":0.02456140350877193},{"client":"Prysm","percentage":0.3850877192982456},{"client":"Lighthouse","percentage":0.5298245614035088},{"client":"Teku","percentage":0.060526315789473685}],"networkPenetration":0.004700974366519381},{"id":"OKex","idType":"entity","timeWindow":"1d","validatorCount":1737,"avgCorrectness":0.9844486969574683,"avgInclusionDelay":1.0381813695376698,"avgUptime":0.9959817958571062,"avgValidatorEffectiveness":95.58696172043003,"clientPercentages":[{"client":"Prysm","percentage":0.9401888772298006},{"client":"Lighthouse","percentage":0.012591815320041973},{"client":"Teku","percentage":0.002098635886673662},{"client":"Nimbus","percentage":0.04512067156348373}],"networkPenetration":0.004121954807998064}]}