{"page":{"from":0,"size":15},"total":31,"next":"/v0/eth/operators?window=1d&from=15&size=15&idType=entity","data":[{"id":"Lido","idType":"entity","timeWindow":"1d","validatorCount":128984,"avgCorrectness":0.9869040758682514,"avgInclusionDelay":1.0226919715235923,"avgUptime":0.9998515035538851,"avgValidatorEffectiveness":97.31418684118664,"clientPercentages":[{"client":"Prysm","percentage":0.35219787605861},{"client":"Nimbus","percentage":0.07909665277591074},{"client":"Teku","percentage":0.19212259712326926},{"client":"Lighthouse","percentage":0.37658287404220997}],"networkPenetration":0.3181380916203763},{"id":"Coinbase","idType":"entity","timeWindow":"1d","validatorCount":57288,"avgCorrectness":0.9866308747445557,"avgInclusionDelay":1.0239089191275892,"avgUptime":0.9998198575617925,"avgValidatorEffectiveness":97.19994770973896,"clientPercentages":[{"client":"Nimbus","percentage":0.09274935590725064},{"client":"Prysm","percentage":0.363513679303153},{"client":"Lighthouse","percentage":0.37403386087596613},{"client":"Teku","percentage":0.16970310391363022}],"networkPenetration":0.14130810138821742},{"id":"Kraken","idType":"entity","timeWindow":"1d","validatorCount":35790,"avgCorrectness":0.9796916588331241,"avgInclusionDelay":1.0355676924084158,"avgUptime":0.9988090091712374,"avgValidatorEffectiveness":96.02734486684183,"clientPercentages":[{"client":"Lighthouse","percentage":0.26855364264176634},{"client":"Prysm","percentage":0.6030055442077619},{"client":"Nimbus","percentage":0.04148429141134131},{"client":"Teku","percentage":0.08695652173913043}],"networkPenetration":0.08826083095714976},{"id":"Binance","idType":"entity","timeWindow":"1d","validatorCount":20810,"avgCorrectness":0.9871490293117532,"avgInclusionDelay":1.022207465823886,"avgUptime":0.9999383843237779,"avgValidatorEffectiveness":97.36738697471245,"clientPercentages":[{"client":"Nimbus","percentage":0.0726083675693804},{"client":"Prysm","percentage":0.5931080741175484},{"client":"Lighthouse","percentage":0.3254800033537352},{"client":"Teku","percentage":0.008803554959335961}],"networkPenetration":0.05133049835722672},{"id":"Bitcoin Suisse","idType":"entity","timeWindow":"1d","validatorCount":9000,"avgCorrectness":0.9829289023085477,"avgInclusionDelay":1.0594735175798546,"avgUptime":0.9990461728395058,"avgValidatorEffectiveness":94.14276856161493,"clientPercentages":[{"client":"Teku","percentage":0.9928966061562746},{"client":"Nimbus","percentage":0.006906077348066298},{"client":"Prysm","percentage":0.0001973164956590371}],"networkPenetration":0.022199638885874125},{"id":"Rocketpool","idType":"entity","timeWindow":"1d","validatorCount":6189,"avgCorrectness":0.986206261483475,"avgInclusionDelay":1.0245745460703086,"avgUptime":0.992885370778851,"avgValidatorEffectiveness":96.54120289404298,"clientPercentages":[{"client":"Teku","percentage":0.267433179035389},{"client":"Prysm","percentage":0.05987755711512618},{"client":"Nimbus","percentage":0.2553382111393161},{"client":"Lighthouse","percentage":0.41735105271016876}],"networkPenetration":0.015258551794224147},{"id":"Staked.us","idType":"entity","timeWindow":"1d","validatorCount":5263,"avgCorrectness":0.9861676716263451,"avgInclusionDelay":1.02253418798906,"avgUptime":0.9996094327274275,"avgValidatorEffectiveness":97.26428441142707,"clientPercentages":[{"client":"Teku","percentage":0.5096774193548387},{"client":"Lighthouse","percentage":0.000967741935483871},{"client":"Nimbus","percentage":0.05838709677419355},{"client":"Prysm","percentage":0.4309677419354839}],"networkPenetration":0.012981855495150612},{"id":"f2pool.eth","idType":"entity","timeWindow":"1d","validatorCount":3501,"avgCorrectness":0.9879310136894829,"avgInclusionDelay":1.0214987149646162,"avgUptime":0.999995556825034,"avgValidatorEffectiveness":97.47878705300565,"clientPercentages":[{"client":"Lighthouse","percentage":1.0}],"networkPenetration":0.008635659526605034},{"id":"Bitfinex","idType":"entity","timeWindow":"1d","validatorCount":3214,"avgCorrectness":0.9862915257144557,"avgInclusionDelay":1.0227455542560249,"avgUptime":0.9996688100670683,"avgValidatorEffectiveness":97.27799654750274,"clientPercentages":[{"client":"Prysm","percentage":0.8753358409457281},{"client":"Nimbus","percentage":0.10370768404083826},{"client":"Teku","percentage":0.018807092960773777},{"client":"Lighthouse","percentage":0.0021493820526598604}],"networkPenetration":0.007927737708799936},{"id":"Huobi","idType":"entity","timeWindow":"1d","validatorCount":2855,"avgCorrectness":0.9833413783438697,"avgInclusionDelay":1.0307347949300862,"avgUptime":0.9997587079198295,"avgValidatorEffectiveness":96.4514056710814,"clientPercentages":[{"client":"Prysm","percentage":0.886150234741784},{"client":"Nimbus","percentage":0.09800469483568075},{"client":"Teku","percentage":0.014084507042253521},{"client":"Lighthouse","percentage":0.0017605633802816902}],"networkPenetration":0.007042218779907847},{"id":"wedex.eth","idType":"entity","timeWindow":"1d","validatorCount":2399,"avgCorrectness":0.9863214983100547,"avgInclusionDelay":1.0255414822029807,"avgUptime":0.9995173915057199,"avgValidatorEffectiveness":97.02200925104093,"clientPercentages":[{"client":"Lighthouse","percentage":1.0}],"networkPenetration":0.0059174370763568915},{"id":"Bloxstaking","idType":"entity","timeWindow":"1d","validatorCount":2318,"avgCorrectness":0.9848370348064422,"avgInclusionDelay":1.025733213904164,"avgUptime":0.9999347956340262,"avgValidatorEffectiveness":96.95539197991437,"clientPercentages":[{"client":"Lighthouse","percentage":0.5064247921390779},{"client":"Teku","percentage":0.008314436885865457},{"client":"Prysm","percentage":0.43386243386243384},{"client":"Nimbus","percentage":0.05139833711262283}],"networkPenetration":0.005715173699841149},{"id":"Ankr","idType":"entity","timeWindow":"1d","validatorCount":2287,"avgCorrectness":0.8073540753762565,"avgInclusionDelay":1.6749145801826024,"avgUptime":0.902060924063548,"avgValidatorEffectiveness":57.92642420610237,"clientPercentages":[{"client":"Prysm","percentage":0.8990731204943357},{"client":"Teku","percentage":0.009268795056642637},{"client":"Nimbus","percentage":0.08341915550978372},{"client":"Lighthouse","percentage":0.008238928939237899}],"networkPenetration":0.0056411749035549024},{"id":"StakeWise","idType":"entity","timeWindow":"1d","validatorCount":1975,"avgCorrectness":0.9876196896509811,"avgInclusionDelay":1.0234798795338012,"avgUptime":0.9997727144866381,"avgValidatorEffectiveness":97.29248059849824,"clientPercentages":[{"client":"Lighthouse","percentage":0.5461056401074306},{"client":"Prysm","percentage":0.36436884512085943},{"client":"Teku","percentage":0.049239033124440466},{"client":"Nimbus","percentage":0.04028648164726947}],"networkPenetration":0.0048715874221779325},{"id":"OKex","idType":"entity","timeWindow":"1d","validatorCount":1548,"avgCorrectness":0.9836721485945219,"avgInclusionDelay":1.0288128402234957,"avgUptime":0.9996337152660553,"avgValidatorEffectiveness":96.6121684354712,"clientPercentages":[{"client":"Prysm","percentage":0.8736263736263736},{"client":"Nimbus","percentage":0.1087912087912088},{"client":"Teku","percentage":0.017582417582417582}],"networkPenetration":0.0038134046352845995}]}