{"page":{"from":0,"size":15},"total":30,"next":"/v0/eth/operators?window=1d&from=15&size=15&idType=entity","data":[{"id":"Lido","idType":"entity","timeWindow":"1d","validatorCount":129969,"avgCorrectness":0.987612150110707,"avgInclusionDelay":1.0347532373749524,"avgUptime":0.9993410300773562,"avgValidatorEffectiveness":96.34829855940004,"clientPercentages":[{"client":"Nimbus","percentage":0.02478589693288055},{"client":"Teku","percentage":0.22193660113917715},{"client":"Lighthouse","percentage":0.3503037354727856},{"client":"Lodestar","percentage":0.00037882375224926605},{"client":"Prysm","percentage":0.40259494270290747}],"networkPenetration":0.30583578658044414},{"id":"Coinbase","idType":"entity","timeWindow":"1d","validatorCount":54348,"avgCorrectness":0.988637163688653,"avgInclusionDelay":1.0303438923190054,"avgUptime":0.9996281320885141,"avgValidatorEffectiveness":96.77038496413955,"clientPercentages":[{"client":"Lighthouse","percentage":0.42492342522306564},{"client":"Teku","percentage":0.13553735517379145},{"client":"Nimbus","percentage":0.055733120255693165},{"client":"Prysm","percentage":0.38380609934744975}],"networkPenetration":0.12789359614257778},{"id":"Kraken","idType":"entity","timeWindow":"1d","validatorCount":36687,"avgCorrectness":0.9884115680876189,"avgInclusionDelay":1.0309966334980365,"avgUptime":0.9999596556235935,"avgValidatorEffectiveness":96.73092581853538,"clientPercentages":[{"client":"Teku","percentage":0.0939898624185373},{"client":"Prysm","percentage":0.6236543567463191},{"client":"Nimbus","percentage":0.01955104996379435},{"client":"Lighthouse","percentage":0.26280473087134926}],"networkPenetration":0.08631899978114918},{"id":"Binance","idType":"entity","timeWindow":"1d","validatorCount":22284,"avgCorrectness":0.9869561059033692,"avgInclusionDelay":1.0348647325727698,"avgUptime":0.9999154350904493,"avgValidatorEffectiveness":96.3285730776649,"clientPercentages":[{"client":"Lighthouse","percentage":0.35769518583187826},{"client":"Prysm","percentage":0.6109586763116321},{"client":"Teku","percentage":0.0005820237798287187},{"client":"Nimbus","percentage":0.030764114076660846}],"networkPenetration":0.05243948068817994},{"id":"Bitcoin Suisse","idType":"entity","timeWindow":"1d","validatorCount":9062,"avgCorrectness":0.9911762224170334,"avgInclusionDelay":1.0255420686691448,"avgUptime":0.9997503617057801,"avgValidatorEffectiveness":97.31346733708229,"clientPercentages":[{"client":"Teku","percentage":0.9935897435897436},{"client":"Nimbus","percentage":0.00641025641025641}],"networkPenetration":0.021325012295650987},{"id":"Rocketpool","idType":"entity","timeWindow":"1d","validatorCount":7048,"avgCorrectness":0.988390232880892,"avgInclusionDelay":1.0313476425460477,"avgUptime":0.9888561540621441,"avgValidatorEffectiveness":95.76592193372295,"clientPercentages":[{"client":"Nimbus","percentage":0.2270629750271444},{"client":"Lighthouse","percentage":0.4161237785016287},{"client":"Prysm","percentage":0.05238870792616721},{"client":"Teku","percentage":0.30442453854505974}],"networkPenetration":0.01642557777793466},{"id":"Staked.us","idType":"entity","timeWindow":"1d","validatorCount":5263,"avgCorrectness":0.9850719327903024,"avgInclusionDelay":1.0383634502883188,"avgUptime":0.9988434986382917,"avgValidatorEffectiveness":95.86347747975051,"clientPercentages":[{"client":"Prysm","percentage":0.47178789938817134},{"client":"Lighthouse","percentage":0.005778382053025153},{"client":"Teku","percentage":0.49422161794697483},{"client":"Nimbus","percentage":0.02821210061182869}],"networkPenetration":0.012385073903333828},{"id":"f2pool.eth","idType":"entity","timeWindow":"1d","validatorCount":3501,"avgCorrectness":0.9882790173185921,"avgInclusionDelay":1.0443105915261082,"avgUptime":0.9839258624519983,"avgValidatorEffectiveness":94.35310427597278,"clientPercentages":[{"client":"Lighthouse","percentage":0.986387943607195},{"client":"Prysm","percentage":0.013612056392805057}],"networkPenetration":0.008238674469992728},{"id":"Bitfinex","idType":"entity","timeWindow":"1d","validatorCount":3214,"avgCorrectness":0.9875344344997732,"avgInclusionDelay":1.0335100233435484,"avgUptime":0.9999474521192007,"avgValidatorEffectiveness":96.47737476227891,"clientPercentages":[{"client":"Teku","percentage":0.012380416432189083},{"client":"Nimbus","percentage":0.03939223410241981},{"client":"Prysm","percentage":0.943725379853686},{"client":"Lighthouse","percentage":0.004501969611705121}],"networkPenetration":0.007563296128693696},{"id":"Huobi","idType":"entity","timeWindow":"1d","validatorCount":2855,"avgCorrectness":0.9865919439579685,"avgInclusionDelay":1.0358404358824673,"avgUptime":1.0,"avgValidatorEffectiveness":96.23487452096765,"clientPercentages":[{"client":"Lighthouse","percentage":0.0006075334143377885},{"client":"Nimbus","percentage":0.04495747266099635},{"client":"Prysm","percentage":0.9520048602673147},{"client":"Teku","percentage":0.002430133657351154}],"networkPenetration":0.006718484893410237},{"id":"Bloxstaking","idType":"entity","timeWindow":"1d","validatorCount":2425,"avgCorrectness":0.9853274681140652,"avgInclusionDelay":1.0385200998176374,"avgUptime":0.9993904240528076,"avgValidatorEffectiveness":95.87483653427256,"clientPercentages":[{"client":"Nimbus","percentage":0.02391629297458894},{"client":"Teku","percentage":0.0014947683109118087},{"client":"Lighthouse","percentage":0.4872944693572496},{"client":"Prysm","percentage":0.4872944693572496}],"networkPenetration":0.005701887529503679},{"id":"wedex.eth","idType":"entity","timeWindow":"1d","validatorCount":2399,"avgCorrectness":0.9861243721200548,"avgInclusionDelay":1.0387813751278403,"avgUptime":0.9818127923671905,"avgValidatorEffectiveness":94.46555326624919,"clientPercentages":[{"client":"Lighthouse","percentage":1.0}],"networkPenetration":0.005645409898175537},{"id":"Ankr","idType":"entity","timeWindow":"1d","validatorCount":2297,"avgCorrectness":0.976698935187201,"avgInclusionDelay":1.0512164796834105,"avgUptime":0.9998693948628645,"avgValidatorEffectiveness":94.8636613165846,"clientPercentages":[{"client":"Nimbus","percentage":0.03640040444893832},{"client":"Prysm","percentage":0.9464105156723963},{"client":"Teku","percentage":0.006066734074823054},{"client":"Lighthouse","percentage":0.011122345803842264}],"networkPenetration":0.005405379965030933},{"id":"StakeWise","idType":"entity","timeWindow":"1d","validatorCount":1981,"avgCorrectness":0.9875492951425703,"avgInclusionDelay":1.0340283738072398,"avgUptime":0.9998485613326603,"avgValidatorEffectiveness":96.42372374345666,"clientPercentages":[{"client":"Teku","percentage":0.060526315789473685},{"client":"Lighthouse","percentage":0.5298245614035088},{"client":"Prysm","percentage":0.3850877192982456},{"client":"Nimbus","percentage":0.02456140350877193}],"networkPenetration":0.004661757819210396},{"id":"OKex","idType":"entity","timeWindow":"1d","validatorCount":1737,"avgCorrectness":0.9878705302884923,"avgInclusionDelay":1.0318492931619012,"avgUptime":1.0,"avgValidatorEffectiveness":96.63174329523764,"clientPercentages":[{"client":"Nimbus","percentage":0.04512067156348373},{"client":"Prysm","percentage":0.9401888772298006},{"client":"Lighthouse","percentage":0.012591815320041973},{"client":"Teku","percentage":0.002098635886673662}],"networkPenetration":0.0040875685673742845}]}