{"page":{"from":0,"size":15},"total":36,"next":"/v0/eth/operators?window=1d&from=15&size=15&idType=entity","data":[{"id":"Lido","idType":"entity","timeWindow":"1d","validatorCount":141541,"avgCorrectness":0.9884286141905692,"avgInclusionDelay":1.0243890374517788,"avgUptime":0.9988216066366697,"avgValidatorEffectiveness":96.47109762769094,"clientPercentages":[{"client":"Teku","percentage":0.1635681037348997},{"client":"Prysm","percentage":0.3560207248143633},{"client":"Lodestar","percentage":0.003989803834644797},{"client":"Lighthouse","percentage":0.45778842956887955},{"client":"Nimbus","percentage":0.01863293804721268}],"networkPenetration":0.30606247497863037,"relayerPercentages":[{"relayer":"bloxroute_regulated","percentage":0.012942779291553134},{"relayer":"blocknative","percentage":0.010899182561307902},{"relayer":"edennetwork","percentage":0.0681198910081744},{"relayer":"no_mev_boost","percentage":0.11580381471389646},{"relayer":"flashbots","percentage":0.6771117166212534},{"relayer":"bloxroute_maxprofit","percentage":0.07152588555858311},{"relayer":"manifold","percentage":0.0006811989100817438},{"relayer":"bloxroute_ethical","percentage":0.042915531335149866}],"nodeOperatorCount":29},{"id":"Coinbase","idType":"entity","timeWindow":"1d","validatorCount":54683,"avgCorrectness":0.9868337573993877,"avgInclusionDelay":1.0247297224828302,"avgUptime":0.9987725618565253,"avgValidatorEffectiveness":96.26587208067329,"clientPercentages":[{"client":"Lighthouse","percentage":0.42874823804448725},{"client":"Prysm","percentage":0.3576168047581394},{"client":"Nimbus","percentage":0.0068415443325196825},{"client":"Teku","percentage":0.20679341286485373}],"networkPenetration":0.11833457763928111,"relayerPercentages":[{"relayer":"blocknative","percentage":0.0034071550255536627},{"relayer":"edennetwork","percentage":0.0017035775127768314},{"relayer":"flashbots","percentage":0.7155025553662692},{"relayer":"bloxroute_regulated","percentage":0.0017035775127768314},{"relayer":"no_mev_boost","percentage":0.11584327086882454},{"relayer":"bloxroute_ethical","percentage":0.01192504258943782},{"relayer":"bloxroute_maxprofit","percentage":0.14991482112436116}],"nodeOperatorCount":null},{"id":"Kraken","idType":"entity","timeWindow":"1d","validatorCount":38205,"avgCorrectness":0.9879422482998623,"avgInclusionDelay":1.021923654202419,"avgUptime":0.9993388888878558,"avgValidatorEffectiveness":96.67132254240418,"clientPercentages":[{"client":"Nimbus","percentage":9.843973027513905e-05},{"client":"Lighthouse","percentage":0.25358074518875817},{"client":"Prysm","percentage":0.6941969779002806},{"client":"Teku","percentage":0.052123837180686125}],"networkPenetration":0.08262407894309735,"relayerPercentages":[{"relayer":"blocknative","percentage":0.0026246719160104987},{"relayer":"no_mev_boost","percentage":0.14698162729658792},{"relayer":"flashbots","percentage":0.7270341207349081},{"relayer":"bloxroute_ethical","percentage":0.0026246719160104987},{"relayer":"bloxroute_maxprofit","percentage":0.09711286089238845},{"relayer":"edennetwork","percentage":0.013123359580052493},{"relayer":"manifold","percentage":0.010498687664041995}],"nodeOperatorCount":null},{"id":"Binance","idType":"entity","timeWindow":"1d","validatorCount":23826,"avgCorrectness":0.9903340984442744,"avgInclusionDelay":1.0167243921100266,"avgUptime":0.9995989441972819,"avgValidatorEffectiveness":97.39733553563248,"clientPercentages":[{"client":"Lighthouse","percentage":0.4614217252396166},{"client":"Nimbus","percentage":0.0011182108626198084},{"client":"Prysm","percentage":0.5313897763578275},{"client":"Teku","percentage":0.0060702875399361025}],"networkPenetration":0.05155971045541598,"relayerPercentages":[{"relayer":"no_mev_boost","percentage":0.16929133858267717},{"relayer":"bloxroute_regulated","percentage":0.027559055118110236},{"relayer":"edennetwork","percentage":0.031496062992125984},{"relayer":"bloxroute_maxprofit","percentage":0.003937007874015748},{"relayer":"flashbots","percentage":0.7677165354330708}],"nodeOperatorCount":null},{"id":"Staked.us","idType":"entity","timeWindow":"1d","validatorCount":12915,"avgCorrectness":0.9875039768006282,"avgInclusionDelay":1.0228547062184818,"avgUptime":0.9991758076310893,"avgValidatorEffectiveness":96.52528840666335,"clientPercentages":[{"client":"Teku","percentage":0.25857288778637094},{"client":"Lighthouse","percentage":0.11148402159638114},{"client":"Prysm","percentage":0.6296512476287757},{"client":"Nimbus","percentage":0.00029184298847220193}],"networkPenetration":0.0279460295820214,"relayerPercentages":[{"relayer":"bloxroute_maxprofit","percentage":0.24812030075187969},{"relayer":"flashbots","percentage":0.37593984962406013},{"relayer":"bloxroute_ethical","percentage":0.022556390977443608},{"relayer":"no_mev_boost","percentage":0.2857142857142857},{"relayer":"manifold","percentage":0.022556390977443608},{"relayer":"edennetwork","percentage":0.03007518796992481},{"relayer":"blocknative","percentage":0.015037593984962405}],"nodeOperatorCount":null},{"id":"Bitcoin Suisse","idType":"entity","timeWindow":"1d","validatorCount":9214,"avgCorrectness":0.9906725347084184,"avgInclusionDelay":1.0168080606128442,"avgUptime":0.999781009574804,"avgValidatorEffectiveness":97.43923871167156,"clientPercentages":[{"client":"Prysm","percentage":0.0005915992900808519},{"client":"Lighthouse","percentage":0.00019719976336028398},{"client":"Nimbus","percentage":0.02484717018339578},{"client":"Teku","percentage":0.9743640307631631}],"networkPenetration":0.01993919130933446,"relayerPercentages":[{"relayer":"no_mev_boost","percentage":1.0}],"nodeOperatorCount":null},{"id":"Rocketpool","idType":"entity","timeWindow":"1d","validatorCount":9212,"avgCorrectness":0.9867486630633513,"avgInclusionDelay":1.0272331239690704,"avgUptime":0.9896323635837316,"avgValidatorEffectiveness":95.28181426084383,"clientPercentages":[{"client":"Teku","percentage":0.3408782254413762},{"client":"Lighthouse","percentage":0.4125169760072431},{"client":"Prysm","percentage":0.05160706201901313},{"client":"Nimbus","percentage":0.1949977365323676}],"networkPenetration":0.01992404323692667,"relayerPercentages":[{"relayer":"flashbots","percentage":0.5494505494505495},{"relayer":"bloxroute_regulated","percentage":0.01098901098901099},{"relayer":"no_mev_boost","percentage":0.1978021978021978},{"relayer":"blocknative","percentage":0.01098901098901099},{"relayer":"bloxroute_maxprofit","percentage":0.12087912087912088},{"relayer":"bloxroute_ethical","percentage":0.054945054945054944},{"relayer":"edennetwork","percentage":0.04395604395604396},{"relayer":"relayooor","percentage":0.01098901098901099}],"nodeOperatorCount":1611},{"id":"Stakefish","idType":"entity","timeWindow":"1d","validatorCount":8078,"avgCorrectness":0.9863081197253237,"avgInclusionDelay":1.0444828851496566,"avgUptime":0.9971197491128182,"avgValidatorEffectiveness":94.36586313004418,"clientPercentages":[{"client":"Nimbus","percentage":0.006570580754557015},{"client":"Lighthouse","percentage":0.6877914370495973},{"client":"Teku","percentage":0.30479016532428993},{"client":"Prysm","percentage":0.000847816871555744}],"networkPenetration":0.01748087555858517,"relayerPercentages":[{"relayer":"blocknative","percentage":0.009523809523809525},{"relayer":"edennetwork","percentage":0.009523809523809525},{"relayer":"bloxroute_maxprofit","percentage":0.009523809523809525},{"relayer":"no_mev_boost","percentage":0.2},{"relayer":"manifold","percentage":0.009523809523809525},{"relayer":"flashbots","percentage":0.7523809523809524},{"relayer":"relayooor","percentage":0.009523809523809525}],"nodeOperatorCount":null},{"id":"Celsius Network","idType":"entity","timeWindow":"1d","validatorCount":4943,"avgCorrectness":0.9901112251128302,"avgInclusionDelay":1.0165799064626386,"avgUptime":0.9999046912581182,"avgValidatorEffectiveness":97.41860738290808,"clientPercentages":[{"client":"Teku","percentage":0.00603090840557859},{"client":"Lighthouse","percentage":0.004900113079532605},{"client":"Prysm","percentage":0.9890689785148888}],"networkPenetration":0.010696703130240962,"relayerPercentages":[{"relayer":"no_mev_boost","percentage":0.3333333333333333},{"relayer":"flashbots","percentage":0.6666666666666666}],"nodeOperatorCount":null},{"id":"Bitfinex","idType":"entity","timeWindow":"1d","validatorCount":3214,"avgCorrectness":0.9907128007264916,"avgInclusionDelay":1.0160597972645933,"avgUptime":0.9999446864412641,"avgValidatorEffectiveness":97.52865942400959,"clientPercentages":[{"client":"Lighthouse","percentage":0.003462204270051933},{"client":"Teku","percentage":0.01673398730525101},{"client":"Nimbus","percentage":0.0005770340450086555},{"client":"Prysm","percentage":0.9792267743796884}],"networkPenetration":0.006955129245517794,"relayerPercentages":[{"relayer":"edennetwork","percentage":0.03225806451612903},{"relayer":"bloxroute_maxprofit","percentage":0.03225806451612903},{"relayer":"flashbots","percentage":0.7741935483870968},{"relayer":"no_mev_boost","percentage":0.16129032258064516}],"nodeOperatorCount":null},{"id":"Abyss","idType":"entity","timeWindow":"1d","validatorCount":3069,"avgCorrectness":0.9896500940701505,"avgInclusionDelay":1.01908551261299,"avgUptime":0.9945563158466378,"avgValidatorEffectiveness":96.63747801129612,"clientPercentages":[{"client":"Nimbus","percentage":0.04461221688400824},{"client":"Teku","percentage":0.8407687028140014},{"client":"Prysm","percentage":0.033630748112560054},{"client":"Lighthouse","percentage":0.08098833218943034}],"networkPenetration":0.00661970764220253,"relayerPercentages":[{"relayer":"flashbots","percentage":0.36666666666666664},{"relayer":"edennetwork","percentage":0.03333333333333333},{"relayer":"bloxroute_ethical","percentage":0.03333333333333333},{"relayer":"bloxroute_regulated","percentage":0.03333333333333333},{"relayer":"bloxroute_maxprofit","percentage":0.03333333333333333},{"relayer":"no_mev_boost","percentage":0.4},{"relayer":"manifold","percentage":0.03333333333333333},{"relayer":"relayooor","percentage":0.03333333333333333},{"relayer":"blocknative","percentage":0.03333333333333333}],"nodeOperatorCount":null},{"id":"Huobi","idType":"entity","timeWindow":"1d","validatorCount":2855,"avgCorrectness":0.9899568132070008,"avgInclusionDelay":1.016994485666157,"avgUptime":0.9999237205682052,"avgValidatorEffectiveness":97.36778332972088,"clientPercentages":[{"client":"Teku","percentage":0.010876519513755598},{"client":"Lighthouse","percentage":0.007677543186180422},{"client":"Prysm","percentage":0.981445937300064}],"networkPenetration":0.006178249532032763,"relayerPercentages":[{"relayer":"edennetwork","percentage":0.09375},{"relayer":"bloxroute_maxprofit","percentage":0.0625},{"relayer":"blocknative","percentage":0.03125},{"relayer":"no_mev_boost","percentage":0.09375},{"relayer":"flashbots","percentage":0.6875},{"relayer":"bloxroute_regulated","percentage":0.03125}],"nodeOperatorCount":null},{"id":"Bloxstaking","idType":"entity","timeWindow":"1d","validatorCount":2684,"avgCorrectness":0.9893904416822057,"avgInclusionDelay":1.0164260471832782,"avgUptime":0.9999304520615999,"avgValidatorEffectiveness":97.36297752959294,"clientPercentages":[{"client":"Teku","percentage":0.0060882800608828},{"client":"Prysm","percentage":0.684931506849315},{"client":"Lighthouse","percentage":0.3089802130898021}],"networkPenetration":0.005808203763213988,"relayerPercentages":[{"relayer":"flashbots","percentage":0.7586206896551724},{"relayer":"no_mev_boost","percentage":0.1724137931034483},{"relayer":"blocknative","percentage":0.06896551724137931}],"nodeOperatorCount":null},{"id":"wedex.eth","idType":"entity","timeWindow":"1d","validatorCount":2399,"avgCorrectness":0.9895199872520354,"avgInclusionDelay":1.016778026066623,"avgUptime":0.9998499374739477,"avgValidatorEffectiveness":97.33288966097469,"clientPercentages":[{"client":"Nimbus","percentage":0.006158583525789068},{"client":"Lighthouse","percentage":0.993841416474211}],"networkPenetration":0.005191460815182697,"relayerPercentages":[{"relayer":"blocknative","percentage":0.08695652173913043},{"relayer":"manifold","percentage":0.043478260869565216},{"relayer":"no_mev_boost","percentage":0.21739130434782608},{"relayer":"bloxroute_maxprofit","percentage":0.08695652173913043},{"relayer":"flashbots","percentage":0.4782608695652174},{"relayer":"edennetwork","percentage":0.08695652173913043}],"nodeOperatorCount":null},{"id":"Ankr","idType":"entity","timeWindow":"1d","validatorCount":2304,"avgCorrectness":0.990085964086458,"avgInclusionDelay":1.0161857873739284,"avgUptime":0.9999151234567897,"avgValidatorEffectiveness":97.4531817891966,"clientPercentages":[{"client":"Prysm","percentage":0.162291169451074},{"client":"Lighthouse","percentage":0.8369132856006364},{"client":"Teku","percentage":0.0007955449482895784}],"networkPenetration":0.0049858798325055995,"relayerPercentages":[{"relayer":"flashbots","percentage":0.10714285714285714},{"relayer":"no_mev_boost","percentage":0.8928571428571429}],"nodeOperatorCount":null}]}