{"page":{"from":0,"size":15},"total":30,"next":"/v0/eth/operators?window=1d&from=15&size=15&idType=entity","data":[{"id":"Lido","idType":"entity","timeWindow":"1d","validatorCount":129932,"avgCorrectness":0.9863762086780052,"avgInclusionDelay":1.0378420836435716,"avgUptime":0.9981074373945994,"avgValidatorEffectiveness":95.94337553441149,"clientPercentages":[{"client":"Lighthouse","percentage":0.3503037354727856},{"client":"Lodestar","percentage":0.00037882375224926605},{"client":"Teku","percentage":0.22193660113917715},{"client":"Nimbus","percentage":0.02478589693288055},{"client":"Prysm","percentage":0.40259494270290747}],"networkPenetration":0.3076748211592151},{"id":"Coinbase","idType":"entity","timeWindow":"1d","validatorCount":54286,"avgCorrectness":0.9873836311539566,"avgInclusionDelay":1.0334161655963832,"avgUptime":0.9996123002861339,"avgValidatorEffectiveness":96.4638962627459,"clientPercentages":[{"client":"Teku","percentage":0.1365323435843054},{"client":"Lighthouse","percentage":0.4231508483563097},{"client":"Prysm","percentage":0.38421261930010603},{"client":"Nimbus","percentage":0.056104188759278896}],"networkPenetration":0.1285475120943967},{"id":"Kraken","idType":"entity","timeWindow":"1d","validatorCount":36667,"avgCorrectness":0.9868850126701397,"avgInclusionDelay":1.0346496178832796,"avgUptime":0.9998567962881737,"avgValidatorEffectiveness":96.3577921040193,"clientPercentages":[{"client":"Nimbus","percentage":0.01955104996379435},{"client":"Teku","percentage":0.0939898624185373},{"client":"Lighthouse","percentage":0.26280473087134926},{"client":"Prysm","percentage":0.6236543567463191}],"networkPenetration":0.08682628349786764},{"id":"Binance","idType":"entity","timeWindow":"1d","validatorCount":22060,"avgCorrectness":0.9849467715006658,"avgInclusionDelay":1.0419829791914637,"avgUptime":0.9996568731508435,"avgValidatorEffectiveness":95.65639621793567,"clientPercentages":[{"client":"Prysm","percentage":0.6109586763116321},{"client":"Nimbus","percentage":0.030764114076660846},{"client":"Lighthouse","percentage":0.35769518583187826},{"client":"Teku","percentage":0.0005820237798287187}],"networkPenetration":0.052237374586493586},{"id":"Bitcoin Suisse","idType":"entity","timeWindow":"1d","validatorCount":9031,"avgCorrectness":0.9899347996029223,"avgInclusionDelay":1.0279447876649603,"avgUptime":0.9999613676349347,"avgValidatorEffectiveness":97.07860646480344,"clientPercentages":[{"client":"Teku","percentage":0.9935897435897436},{"client":"Nimbus","percentage":0.00641025641025641}],"networkPenetration":0.021385119215350117},{"id":"Rocketpool","idType":"entity","timeWindow":"1d","validatorCount":6970,"avgCorrectness":0.9868109804124111,"avgInclusionDelay":1.035785763167069,"avgUptime":0.9878600160973224,"avgValidatorEffectiveness":95.27450060889127,"clientPercentages":[{"client":"Prysm","percentage":0.05238870792616721},{"client":"Nimbus","percentage":0.2270629750271444},{"client":"Teku","percentage":0.30442453854505974},{"client":"Lighthouse","percentage":0.4161237785016287}],"networkPenetration":0.016502369152006972},{"id":"Staked.us","idType":"entity","timeWindow":"1d","validatorCount":5263,"avgCorrectness":0.9807427077063925,"avgInclusionDelay":1.0459416616511397,"avgUptime":0.9961956636476879,"avgValidatorEffectiveness":94.84118908061345,"clientPercentages":[{"client":"Lighthouse","percentage":0.005778382053025153},{"client":"Prysm","percentage":0.47178789938817134},{"client":"Teku","percentage":0.49422161794697483},{"client":"Nimbus","percentage":0.02821210061182869}],"networkPenetration":0.012462615704837521},{"id":"f2pool.eth","idType":"entity","timeWindow":"1d","validatorCount":3501,"avgCorrectness":0.9869506266174843,"avgInclusionDelay":1.0412438276130644,"avgUptime":0.9999447776825665,"avgValidatorEffectiveness":95.84198727079696,"clientPercentages":[{"client":"Lighthouse","percentage":0.986387943607195},{"client":"Prysm","percentage":0.013612056392805057}],"networkPenetration":0.008290256048382324},{"id":"Bitfinex","idType":"entity","timeWindow":"1d","validatorCount":3214,"avgCorrectness":0.9855844851127524,"avgInclusionDelay":1.0374688566499786,"avgUptime":0.9996086565719418,"avgValidatorEffectiveness":96.0422181693047,"clientPercentages":[{"client":"Teku","percentage":0.012380416432189083},{"client":"Lighthouse","percentage":0.004501969611705121},{"client":"Prysm","percentage":0.943725379853686},{"client":"Nimbus","percentage":0.03939223410241981}],"networkPenetration":0.007610649225792855},{"id":"Huobi","idType":"entity","timeWindow":"1d","validatorCount":2855,"avgCorrectness":0.9854088147245224,"avgInclusionDelay":1.0384809381698963,"avgUptime":0.999971978984239,"avgValidatorEffectiveness":95.97689551395268,"clientPercentages":[{"client":"Nimbus","percentage":0.04495747266099635},{"client":"Lighthouse","percentage":0.0006075334143377885},{"client":"Teku","percentage":0.002430133657351154},{"client":"Prysm","percentage":0.9520048602673147}],"networkPenetration":0.00676054870555028},{"id":"Bloxstaking","idType":"entity","timeWindow":"1d","validatorCount":2418,"avgCorrectness":0.9842197886711082,"avgInclusionDelay":1.0409962595190916,"avgUptime":0.9992050363018108,"avgValidatorEffectiveness":95.61968299795731,"clientPercentages":[{"client":"Nimbus","percentage":0.02393418100224383},{"client":"Lighthouse","percentage":0.487658937920718},{"client":"Teku","percentage":0.0014958863126402393},{"client":"Prysm","percentage":0.4869109947643979}],"networkPenetration":0.00572574667951684},{"id":"wedex.eth","idType":"entity","timeWindow":"1d","validatorCount":2399,"avgCorrectness":0.9865847261430555,"avgInclusionDelay":1.0354515409724243,"avgUptime":0.9994849705895978,"avgValidatorEffectiveness":96.24464139071046,"clientPercentages":[{"client":"Lighthouse","percentage":1.0}],"networkPenetration":0.005680755287080603},{"id":"Ankr","idType":"entity","timeWindow":"1d","validatorCount":2297,"avgCorrectness":0.9865724402141675,"avgInclusionDelay":1.0357287663889096,"avgUptime":0.9997552362985535,"avgValidatorEffectiveness":96.2453233138076,"clientPercentages":[{"client":"Teku","percentage":0.006066734074823054},{"client":"Prysm","percentage":0.9464105156723963},{"client":"Nimbus","percentage":0.03640040444893832},{"client":"Lighthouse","percentage":0.011122345803842264}],"networkPenetration":0.005439222548738702},{"id":"StakeWise","idType":"entity","timeWindow":"1d","validatorCount":1981,"avgCorrectness":0.9862022584343526,"avgInclusionDelay":1.0370332976596732,"avgUptime":0.9999596163553768,"avgValidatorEffectiveness":96.13363881840375,"clientPercentages":[{"client":"Lighthouse","percentage":0.5298245614035088},{"client":"Prysm","percentage":0.3850877192982456},{"client":"Nimbus","percentage":0.02456140350877193},{"client":"Teku","percentage":0.060526315789473685}],"networkPenetration":0.004690944653483399},{"id":"OKex","idType":"entity","timeWindow":"1d","validatorCount":1737,"avgCorrectness":0.9859337557876368,"avgInclusionDelay":1.0370114492536684,"avgUptime":0.9999654576856647,"avgValidatorEffectiveness":96.12254233232477,"clientPercentages":[{"client":"Lighthouse","percentage":0.012591815320041973},{"client":"Teku","percentage":0.002098635886673662},{"client":"Nimbus","percentage":0.04512067156348373},{"client":"Prysm","percentage":0.9401888772298006}],"networkPenetration":0.004113160455881204}]}