{"page":{"from":0,"size":15},"total":30,"next":"/v0/eth/operators?window=1d&from=15&size=15&idType=entity","data":[{"id":"Lido","idType":"entity","timeWindow":"1d","validatorCount":132450,"avgCorrectness":0.9889435051115549,"avgInclusionDelay":1.0343278765875152,"avgUptime":0.9984991561274996,"avgValidatorEffectiveness":96.17830766041021,"clientPercentages":[{"client":"Prysm","percentage":0.40259494270290747},{"client":"Nimbus","percentage":0.02478589693288055},{"client":"Teku","percentage":0.22193660113917715},{"client":"Lodestar","percentage":0.00037882375224926605},{"client":"Lighthouse","percentage":0.3503037354727856}],"networkPenetration":0.3017628428034924,"relayerPercentages":[{"relayer":"no_mev_boost","percentage":0.7042167066986923},{"relayer":"flashbots","percentage":0.23610888710968775},{"relayer":"edennetwork","percentage":0.0008540165465705898},{"relayer":"bloxroute_regulated","percentage":0.006351748065118762},{"relayer":"manifold","percentage":0.0016279690419001868},{"relayer":"bloxroute_ethical","percentage":0.02119028556178276},{"relayer":"blocknative","percentage":0.0137176407792901},{"relayer":"bloxroute_maxprofit","percentage":0.015932746196957566}]},{"id":"Coinbase","idType":"entity","timeWindow":"1d","validatorCount":54486,"avgCorrectness":0.9882073747126617,"avgInclusionDelay":1.0321347564519936,"avgUptime":0.9987024913815679,"avgValidatorEffectiveness":96.28750112484448,"clientPercentages":[{"client":"Prysm","percentage":0.38225220905541474},{"client":"Lighthouse","percentage":0.4325638742379615},{"client":"Teku","percentage":0.13096787451195288},{"client":"Nimbus","percentage":0.05421604219467087}],"networkPenetration":0.12414006972931436,"relayerPercentages":[{"relayer":"flashbots","percentage":0.00019787612954290615},{"relayer":"bloxroute_regulated","percentage":6.595870984763538e-05},{"relayer":"no_mev_boost","percentage":0.9997361651606095}]},{"id":"Kraken","idType":"entity","timeWindow":"1d","validatorCount":37474,"avgCorrectness":0.989162045655713,"avgInclusionDelay":1.029396563335572,"avgUptime":0.9983399828849424,"avgValidatorEffectiveness":96.54647823869229,"clientPercentages":[{"client":"Lighthouse","percentage":0.26280473087134926},{"client":"Nimbus","percentage":0.01955104996379435},{"client":"Prysm","percentage":0.6236543567463191},{"client":"Teku","percentage":0.0939898624185373}],"networkPenetration":0.08544007223756307,"relayerPercentages":[{"relayer":"bloxroute_maxprofit","percentage":0.0037367059499856282},{"relayer":"blocknative","percentage":0.0055571524384401645},{"relayer":"flashbots","percentage":0.3876592890677398},{"relayer":"edennetwork","percentage":0.0009581297307655457},{"relayer":"no_mev_boost","percentage":0.6019929098399923},{"relayer":"manifold","percentage":9.581297307655457e-05}]},{"id":"Binance","idType":"entity","timeWindow":"1d","validatorCount":23051,"avgCorrectness":0.9908900175524515,"avgInclusionDelay":1.0271869914370184,"avgUptime":0.9995464607798769,"avgValidatorEffectiveness":96.96439787947534,"clientPercentages":[{"client":"Teku","percentage":0.0005820237798287187},{"client":"Prysm","percentage":0.6109586763116321},{"client":"Lighthouse","percentage":0.35769518583187826},{"client":"Nimbus","percentage":0.030764114076660846}],"networkPenetration":0.05256149199754648,"relayerPercentages":[{"relayer":"edennetwork","percentage":0.0017046335037966837},{"relayer":"bloxroute_maxprofit","percentage":0.007593367426003409},{"relayer":"blocknative","percentage":0.0006198667286533395},{"relayer":"bloxroute_regulated","percentage":0.0021695335502866886},{"relayer":"flashbots","percentage":0.17356268402293507},{"relayer":"bloxroute_ethical","percentage":0.0001549666821633349},{"relayer":"no_mev_boost","percentage":0.8141949480861614}]},{"id":"Bitcoin Suisse","idType":"entity","timeWindow":"1d","validatorCount":9184,"avgCorrectness":0.9913438419545735,"avgInclusionDelay":1.032674641179615,"avgUptime":0.9990826469688485,"avgValidatorEffectiveness":96.53503306885382,"clientPercentages":[{"client":"Teku","percentage":0.9935897435897436},{"client":"Nimbus","percentage":0.00641025641025641}],"networkPenetration":0.020941596568715755,"relayerPercentages":[{"relayer":"no_mev_boost","percentage":1.0}]},{"id":"Rocketpool","idType":"entity","timeWindow":"1d","validatorCount":8807,"avgCorrectness":0.9854941837026905,"avgInclusionDelay":1.040883068652882,"avgUptime":0.9851419478512171,"avgValidatorEffectiveness":94.36542229731842,"clientPercentages":[{"client":"Nimbus","percentage":0.22571082064411804},{"client":"Teku","percentage":0.3027893814849751},{"client":"Lighthouse","percentage":0.4175987063738041},{"client":"Prysm","percentage":0.053901091497102815}],"networkPenetration":0.020002143412540786,"relayerPercentages":[{"relayer":"bloxroute_regulated","percentage":0.07502287282708142},{"relayer":"no_mev_boost","percentage":0.3618481244281793},{"relayer":"edennetwork","percentage":0.004574565416285453},{"relayer":"blocknative","percentage":0.020128087831655993},{"relayer":"flashbots","percentage":0.41582799634034767},{"relayer":"bloxroute_maxprofit","percentage":0.0919487648673376},{"relayer":"bloxroute_ethical","percentage":0.029734675205855442},{"relayer":"manifold","percentage":0.0009149130832570906}]},{"id":"Staked.us","idType":"entity","timeWindow":"1d","validatorCount":5263,"avgCorrectness":0.9883728255065591,"avgInclusionDelay":1.0307362087429148,"avgUptime":0.998786421529154,"avgValidatorEffectiveness":96.41178941390709,"clientPercentages":[{"client":"Teku","percentage":0.49422161794697483},{"client":"Lighthouse","percentage":0.005778382053025153},{"client":"Prysm","percentage":0.47178789938817134},{"client":"Nimbus","percentage":0.02821210061182869}],"networkPenetration":0.012000830002303028,"relayerPercentages":[{"relayer":"flashbots","percentage":0.39934426229508196},{"relayer":"no_mev_boost","percentage":0.5822950819672131},{"relayer":"bloxroute_maxprofit","percentage":0.018360655737704918}]},{"id":"f2pool.eth","idType":"entity","timeWindow":"1d","validatorCount":3501,"avgCorrectness":0.9872843417050231,"avgInclusionDelay":1.0531590023158008,"avgUptime":0.9909105448329951,"avgValidatorEffectiveness":93.9945796903442,"clientPercentages":[{"client":"Prysm","percentage":0.013612056392805057},{"client":"Lighthouse","percentage":0.986387943607195}],"networkPenetration":0.007983071601379992,"relayerPercentages":[{"relayer":"flashbots","percentage":0.5930599369085173},{"relayer":"no_mev_boost","percentage":0.35751840168243953},{"relayer":"manifold","percentage":0.04942166140904311}]},{"id":"Bitfinex","idType":"entity","timeWindow":"1d","validatorCount":3214,"avgCorrectness":0.9914554155592787,"avgInclusionDelay":1.0270131170992685,"avgUptime":0.9995705821998999,"avgValidatorEffectiveness":97.02940148851586,"clientPercentages":[{"client":"Prysm","percentage":0.943725379853686},{"client":"Nimbus","percentage":0.03939223410241981},{"client":"Lighthouse","percentage":0.004501969611705121},{"client":"Teku","percentage":0.012380416432189083}],"networkPenetration":0.007328646708607625,"relayerPercentages":[{"relayer":"no_mev_boost","percentage":0.8853362734288864},{"relayer":"flashbots","percentage":0.11466372657111357}]},{"id":"Huobi","idType":"entity","timeWindow":"1d","validatorCount":2855,"avgCorrectness":0.989681972891101,"avgInclusionDelay":1.0268396946802687,"avgUptime":0.9995127178717375,"avgValidatorEffectiveness":96.88690640635627,"clientPercentages":[{"client":"Lighthouse","percentage":0.0006075334143377885},{"client":"Prysm","percentage":0.9520048602673147},{"client":"Nimbus","percentage":0.04495747266099635},{"client":"Teku","percentage":0.002430133657351154}],"networkPenetration":0.006510045536115361,"relayerPercentages":[{"relayer":"bloxroute_ethical","percentage":0.10695187165775401},{"relayer":"bloxroute_regulated","percentage":0.0106951871657754},{"relayer":"no_mev_boost","percentage":0.47192513368983957},{"relayer":"edennetwork","percentage":0.012032085561497326},{"relayer":"flashbots","percentage":0.39037433155080214},{"relayer":"blocknative","percentage":0.0053475935828877},{"relayer":"bloxroute_maxprofit","percentage":0.00267379679144385}]},{"id":"Bloxstaking","idType":"entity","timeWindow":"1d","validatorCount":2529,"avgCorrectness":0.9897609329651317,"avgInclusionDelay":1.0254238630543484,"avgUptime":0.9992773934963635,"avgValidatorEffectiveness":96.98009200085293,"clientPercentages":[{"client":"Lighthouse","percentage":0.4876773711725168},{"client":"Nimbus","percentage":0.02389843166542196},{"client":"Teku","percentage":0.0022404779686333084},{"client":"Prysm","percentage":0.48618371919342795}],"networkPenetration":0.005762131372946942,"relayerPercentages":[{"relayer":"flashbots","percentage":0.6192528735632183},{"relayer":"blocknative","percentage":0.11494252873563218},{"relayer":"bloxroute_ethical","percentage":0.02586206896551724},{"relayer":"no_mev_boost","percentage":0.23994252873563218}]},{"id":"wedex.eth","idType":"entity","timeWindow":"1d","validatorCount":2399,"avgCorrectness":0.9823578781654105,"avgInclusionDelay":1.0588588040516758,"avgUptime":0.994859519012551,"avgValidatorEffectiveness":93.45303324221995,"clientPercentages":[{"client":"Lighthouse","percentage":1.0}],"networkPenetration":0.00547026243122268,"relayerPercentages":[{"relayer":"bloxroute_maxprofit","percentage":0.28257686676427524},{"relayer":"manifold","percentage":0.005856515373352855},{"relayer":"blocknative","percentage":0.048316251830161056},{"relayer":"edennetwork","percentage":0.02342606149341142},{"relayer":"flashbots","percentage":0.3967789165446559},{"relayer":"no_mev_boost","percentage":0.22693997071742314},{"relayer":"bloxroute_ethical","percentage":0.016105417276720352}]},{"id":"Ankr","idType":"entity","timeWindow":"1d","validatorCount":2299,"avgCorrectness":0.9900595037198286,"avgInclusionDelay":1.0251447459656324,"avgUptime":0.9995853140081609,"avgValidatorEffectiveness":97.05483131480312,"clientPercentages":[{"client":"Teku","percentage":0.006066734074823054},{"client":"Prysm","percentage":0.9464105156723963},{"client":"Nimbus","percentage":0.03640040444893832},{"client":"Lighthouse","percentage":0.011122345803842264}],"networkPenetration":0.005242239820500601,"relayerPercentages":[{"relayer":"no_mev_boost","percentage":0.8918518518518519},{"relayer":"flashbots","percentage":0.10814814814814815}]},{"id":"StakeWise","idType":"entity","timeWindow":"1d","validatorCount":1990,"avgCorrectness":0.9893479188920643,"avgInclusionDelay":1.032515505545085,"avgUptime":0.9988907277044161,"avgValidatorEffectiveness":96.3813849583889,"clientPercentages":[{"client":"Lighthouse","percentage":0.5298245614035088},{"client":"Nimbus","percentage":0.02456140350877193},{"client":"Prysm","percentage":0.3850877192982456},{"client":"Teku","percentage":0.060526315789473685}],"networkPenetration":0.004535369727262155,"relayerPercentages":[{"relayer":"no_mev_boost","percentage":0.10590277777777778},{"relayer":"flashbots","percentage":0.4774305555555556},{"relayer":"manifold","percentage":0.001736111111111111},{"relayer":"blocknative","percentage":0.052083333333333336},{"relayer":"bloxroute_regulated","percentage":0.019097222222222224},{"relayer":"bloxroute_maxprofit","percentage":0.34375}]},{"id":"OKex","idType":"entity","timeWindow":"1d","validatorCount":1811,"avgCorrectness":0.9900071719645408,"avgInclusionDelay":1.0259861860836035,"avgUptime":0.9996661154808768,"avgValidatorEffectiveness":96.99293022474299,"clientPercentages":[{"client":"Lighthouse","percentage":0.012591815320041973},{"client":"Prysm","percentage":0.9401888772298006},{"client":"Nimbus","percentage":0.04512067156348373},{"client":"Teku","percentage":0.002098635886673662}],"networkPenetration":0.004124929027962413,"relayerPercentages":[{"relayer":"no_mev_boost","percentage":1.0}]}]}