{"page":{"from":0,"size":15},"total":36,"next":"/v0/eth/operators?window=1d&from=15&size=15&idType=entity","data":[{"id":"Lido","idType":"entity","timeWindow":"1d","validatorCount":141051,"avgCorrectness":0.9893287614487954,"avgInclusionDelay":1.0196195075805794,"avgUptime":0.9992933438377745,"avgValidatorEffectiveness":97.04733182420938,"clientPercentages":[{"client":"Teku","percentage":0.1635681037348997},{"client":"Lighthouse","percentage":0.45778842956887955},{"client":"Prysm","percentage":0.3560207248143633},{"client":"Lodestar","percentage":0.003989803834644797},{"client":"Nimbus","percentage":0.01863293804721268}],"networkPenetration":0.3058582987858403,"relayerPercentages":[{"relayer":"blocknative","percentage":0.03967933380977535},{"relayer":"bloxroute_ethical","percentage":0.056660348631264956},{"relayer":"bloxroute_maxprofit","percentage":0.04556753565547028},{"relayer":"bloxroute_regulated","percentage":0.01322126588571606},{"relayer":"edennetwork","percentage":0.059612217630426},{"relayer":"flashbots","percentage":0.618556380697884},{"relayer":"manifold","percentage":0.01402914582232856},{"relayer":"no_mev_boost","percentage":0.15223875959357425},{"relayer":"relayooor","percentage":0.0004350122735605755}],"nodeOperatorCount":29},{"id":"Coinbase","idType":"entity","timeWindow":"1d","validatorCount":54683,"avgCorrectness":0.9884640627044847,"avgInclusionDelay":1.0182221122193011,"avgUptime":0.9993328844256497,"avgValidatorEffectiveness":97.07646310108126,"clientPercentages":[{"client":"Nimbus","percentage":0.0068415443325196825},{"client":"Prysm","percentage":0.3576168047581394},{"client":"Lighthouse","percentage":0.42874823804448725},{"client":"Teku","percentage":0.20679341286485373}],"networkPenetration":0.11881512962914678,"relayerPercentages":[{"relayer":"bloxroute_ethical","percentage":0.0016301183776440908},{"relayer":"bloxroute_maxprofit","percentage":0.039278090432757616},{"relayer":"bloxroute_regulated","percentage":0.0001552493692994372},{"relayer":"edennetwork","percentage":0.0001552493692994372},{"relayer":"flashbots","percentage":0.1497380166893072},{"relayer":"manifold","percentage":7.76246846497186e-05},{"relayer":"no_mev_boost","percentage":0.8089656510770425}],"nodeOperatorCount":null},{"id":"Kraken","idType":"entity","timeWindow":"1d","validatorCount":38123,"avgCorrectness":0.9893855698659443,"avgInclusionDelay":1.0157700204859634,"avgUptime":0.9995013308797336,"avgValidatorEffectiveness":97.39707427014118,"clientPercentages":[{"client":"Teku","percentage":0.052123837180686125},{"client":"Prysm","percentage":0.6941969779002806},{"client":"Nimbus","percentage":9.843973027513905e-05},{"client":"Lighthouse","percentage":0.25358074518875817}],"networkPenetration":0.08282055293371227,"relayerPercentages":[{"relayer":"blocknative","percentage":0.008077455048409406},{"relayer":"bloxroute_ethical","percentage":0.0032088520055325036},{"relayer":"bloxroute_maxprofit","percentage":0.026887966804979253},{"relayer":"edennetwork","percentage":0.009128630705394191},{"relayer":"flashbots","percentage":0.488686030428769},{"relayer":"manifold","percentage":0.006085753803596127},{"relayer":"no_mev_boost","percentage":0.45792531120331953}],"nodeOperatorCount":null},{"id":"Binance","idType":"entity","timeWindow":"1d","validatorCount":23826,"avgCorrectness":0.9909835696781953,"avgInclusionDelay":1.0116615413345975,"avgUptime":0.9999386241387624,"avgValidatorEffectiveness":97.97283453311036,"clientPercentages":[{"client":"Lighthouse","percentage":0.4613848734126667},{"client":"Nimbus","percentage":0.0011181215557862791},{"client":"Teku","percentage":0.006069802731411229},{"client":"Prysm","percentage":0.5314272023001357}],"networkPenetration":0.05176909237869267,"relayerPercentages":[{"relayer":"blocknative","percentage":0.0012465497284302378},{"relayer":"bloxroute_ethical","percentage":8.903926631644555e-05},{"relayer":"bloxroute_maxprofit","percentage":0.0024040601905440297},{"relayer":"bloxroute_regulated","percentage":0.051731813729854866},{"relayer":"edennetwork","percentage":0.0039177277179236044},{"relayer":"flashbots","percentage":0.8210310747039444},{"relayer":"no_mev_boost","percentage":0.11957973466298638}],"nodeOperatorCount":null},{"id":"Staked.us","idType":"entity","timeWindow":"1d","validatorCount":12887,"avgCorrectness":0.988661638623621,"avgInclusionDelay":1.0169789684063393,"avgUptime":0.999085656487837,"avgValidatorEffectiveness":97.17972693841776,"clientPercentages":[{"client":"Teku","percentage":0.25857288778637094},{"client":"Lighthouse","percentage":0.11148402159638114},{"client":"Prysm","percentage":0.6296512476287757},{"client":"Nimbus","percentage":0.00029184298847220193}],"networkPenetration":0.028000851736934965,"relayerPercentages":[{"relayer":"blocknative","percentage":0.016325273371322963},{"relayer":"bloxroute_ethical","percentage":0.010318804866779609},{"relayer":"bloxroute_maxprofit","percentage":0.067765285692284},{"relayer":"edennetwork","percentage":0.02987833050977976},{"relayer":"flashbots","percentage":0.508547666718004},{"relayer":"manifold","percentage":0.0033882642846142},{"relayer":"no_mev_boost","percentage":0.36377637455721545}],"nodeOperatorCount":null},{"id":"Bitcoin Suisse","idType":"entity","timeWindow":"1d","validatorCount":9214,"avgCorrectness":0.9915712911831129,"avgInclusionDelay":1.0129132146645778,"avgUptime":0.9995060053541718,"avgValidatorEffectiveness":97.87461465848969,"clientPercentages":[{"client":"Lighthouse","percentage":0.0001971608832807571},{"client":"Teku","percentage":0.9743690851735016},{"client":"Nimbus","percentage":0.024842271293375396},{"client":"Prysm","percentage":0.0005914826498422713}],"networkPenetration":0.020020163568256286,"relayerPercentages":[{"relayer":"no_mev_boost","percentage":1.0}],"nodeOperatorCount":null},{"id":"Rocketpool","idType":"entity","timeWindow":"1d","validatorCount":9193,"avgCorrectness":0.9883157395342229,"avgInclusionDelay":1.0204937863699948,"avgUptime":0.9908379921965818,"avgValidatorEffectiveness":96.1301374313621,"clientPercentages":[{"client":"Lighthouse","percentage":0.4125169760072431},{"client":"Prysm","percentage":0.05160706201901313},{"client":"Nimbus","percentage":0.1949977365323676},{"client":"Teku","percentage":0.3408782254413762}],"networkPenetration":0.019965843610669307,"relayerPercentages":[{"relayer":"blocknative","percentage":0.048438934802571165},{"relayer":"bloxroute_ethical","percentage":0.03902662993572085},{"relayer":"bloxroute_maxprofit","percentage":0.0844811753902663},{"relayer":"bloxroute_regulated","percentage":0.047979797979797977},{"relayer":"edennetwork","percentage":0.05876951331496786},{"relayer":"flashbots","percentage":0.5658861340679523},{"relayer":"manifold","percentage":0.0013774104683195593},{"relayer":"no_mev_boost","percentage":0.15335169880624427},{"relayer":"relayooor","percentage":0.0006887052341597796}],"nodeOperatorCount":1598},{"id":"Stakefish","idType":"entity","timeWindow":"1d","validatorCount":8078,"avgCorrectness":0.9871090069693264,"avgInclusionDelay":1.0410056761099402,"avgUptime":0.9979075135975826,"avgValidatorEffectiveness":94.85288601256747,"clientPercentages":[{"client":"Teku","percentage":0.30479016532428993},{"client":"Lighthouse","percentage":0.6877914370495973},{"client":"Nimbus","percentage":0.006570580754557015},{"client":"Prysm","percentage":0.000847816871555744}],"networkPenetration":0.017551864695504047,"relayerPercentages":[{"relayer":"blocknative","percentage":0.0009031384059607134},{"relayer":"bloxroute_ethical","percentage":0.0004515692029803567},{"relayer":"bloxroute_maxprofit","percentage":0.004515692029803568},{"relayer":"bloxroute_regulated","percentage":0.00022578460149017836},{"relayer":"edennetwork","percentage":0.0015804922104312486},{"relayer":"flashbots","percentage":0.8972680063219688},{"relayer":"manifold","percentage":0.06796116504854369},{"relayer":"no_mev_boost","percentage":0.027094152178821405}],"nodeOperatorCount":null},{"id":"Celsius Network","idType":"entity","timeWindow":"1d","validatorCount":4943,"avgCorrectness":0.9909347591922231,"avgInclusionDelay":1.0119533484438166,"avgUptime":0.999932106971859,"avgValidatorEffectiveness":97.94023093167338,"clientPercentages":[{"client":"Lighthouse","percentage":0.004900113079532605},{"client":"Teku","percentage":0.00603090840557859},{"client":"Prysm","percentage":0.9890689785148888}],"networkPenetration":0.010740142014097115,"relayerPercentages":[{"relayer":"flashbots","percentage":0.9361525704809287},{"relayer":"no_mev_boost","percentage":0.06384742951907131}],"nodeOperatorCount":null},{"id":"Bitfinex","idType":"entity","timeWindow":"1d","validatorCount":3214,"avgCorrectness":0.9916472981997064,"avgInclusionDelay":1.0118444428001514,"avgUptime":0.9999191039203484,"avgValidatorEffectiveness":98.0194380350201,"clientPercentages":[{"client":"Lighthouse","percentage":0.0034602076124567475},{"client":"Prysm","percentage":0.9792387543252595},{"client":"Teku","percentage":0.016724336793540944},{"client":"Nimbus","percentage":0.0005767012687427913}],"networkPenetration":0.006983373747381778,"relayerPercentages":[{"relayer":"blocknative","percentage":0.001953125},{"relayer":"bloxroute_maxprofit","percentage":0.0032552083333333335},{"relayer":"edennetwork","percentage":0.007161458333333333},{"relayer":"flashbots","percentage":0.9264322916666666},{"relayer":"no_mev_boost","percentage":0.061197916666666664}],"nodeOperatorCount":null},{"id":"Abyss","idType":"entity","timeWindow":"1d","validatorCount":2994,"avgCorrectness":0.9904462118655114,"avgInclusionDelay":1.0153365658403999,"avgUptime":0.998623688869527,"avgValidatorEffectiveness":97.4785075712275,"clientPercentages":[{"client":"Nimbus","percentage":0.04461221688400824},{"client":"Prysm","percentage":0.033630748112560054},{"client":"Lighthouse","percentage":0.08098833218943034},{"client":"Teku","percentage":0.8407687028140014}],"networkPenetration":0.0065031853223129,"relayerPercentages":[{"relayer":"blocknative","percentage":0.007902298850574713},{"relayer":"bloxroute_ethical","percentage":0.010775862068965518},{"relayer":"bloxroute_maxprofit","percentage":0.022270114942528736},{"relayer":"bloxroute_regulated","percentage":0.013649425287356323},{"relayer":"edennetwork","percentage":0.011494252873563218},{"relayer":"flashbots","percentage":0.3922413793103448},{"relayer":"manifold","percentage":0.005028735632183908},{"relayer":"no_mev_boost","percentage":0.5308908045977011},{"relayer":"relayooor","percentage":0.005747126436781609}],"nodeOperatorCount":null},{"id":"Huobi","idType":"entity","timeWindow":"1d","validatorCount":2855,"avgCorrectness":0.9899571959243357,"avgInclusionDelay":1.0122480119264947,"avgUptime":0.9999011446084568,"avgValidatorEffectiveness":97.81282775865498,"clientPercentages":[{"client":"Prysm","percentage":0.981445937300064},{"client":"Lighthouse","percentage":0.007677543186180422},{"client":"Teku","percentage":0.010876519513755598}],"networkPenetration":0.006203339156432786,"relayerPercentages":[{"relayer":"blocknative","percentage":0.057352941176470586},{"relayer":"bloxroute_ethical","percentage":0.014705882352941176},{"relayer":"bloxroute_maxprofit","percentage":0.11102941176470588},{"relayer":"bloxroute_regulated","percentage":0.05808823529411765},{"relayer":"edennetwork","percentage":0.09411764705882353},{"relayer":"flashbots","percentage":0.6088235294117647},{"relayer":"manifold","percentage":0.052941176470588235},{"relayer":"no_mev_boost","percentage":0.0029411764705882353}],"nodeOperatorCount":null},{"id":"Bloxstaking","idType":"entity","timeWindow":"1d","validatorCount":2674,"avgCorrectness":0.9899963913505495,"avgInclusionDelay":1.0133411936481118,"avgUptime":0.9995520651541586,"avgValidatorEffectiveness":97.69296198265121,"clientPercentages":[{"client":"Lighthouse","percentage":0.3096872616323417},{"client":"Teku","percentage":0.006102212051868803},{"client":"Prysm","percentage":0.6842105263157895}],"networkPenetration":0.005810062663503072,"relayerPercentages":[{"relayer":"blocknative","percentage":0.06633499170812604},{"relayer":"bloxroute_ethical","percentage":0.003316749585406302},{"relayer":"bloxroute_regulated","percentage":0.0008291873963515755},{"relayer":"edennetwork","percentage":0.0008291873963515755},{"relayer":"flashbots","percentage":0.9137645107794361},{"relayer":"no_mev_boost","percentage":0.014925373134328358}],"nodeOperatorCount":null},{"id":"wedex.eth","idType":"entity","timeWindow":"1d","validatorCount":2399,"avgCorrectness":0.9904970313259501,"avgInclusionDelay":1.0120661637863149,"avgUptime":0.9999017985337808,"avgValidatorEffectiveness":97.88465390878291,"clientPercentages":[{"client":"Lighthouse","percentage":0.993841416474211},{"client":"Nimbus","percentage":0.006158583525789068}],"networkPenetration":0.0052125431300463244,"relayerPercentages":[{"relayer":"blocknative","percentage":0.04745166959578207},{"relayer":"bloxroute_ethical","percentage":0.009666080843585237},{"relayer":"bloxroute_maxprofit","percentage":0.1195079086115993},{"relayer":"edennetwork","percentage":0.10984182776801406},{"relayer":"flashbots","percentage":0.5114235500878734},{"relayer":"manifold","percentage":0.05360281195079086},{"relayer":"no_mev_boost","percentage":0.14850615114235502}],"nodeOperatorCount":null},{"id":"Ankr","idType":"entity","timeWindow":"1d","validatorCount":2304,"avgCorrectness":0.9908887664883069,"avgInclusionDelay":1.0115726427625404,"avgUptime":0.9999421253237983,"avgValidatorEffectiveness":97.9712214938993,"clientPercentages":[{"client":"Lighthouse","percentage":0.8369132856006364},{"client":"Prysm","percentage":0.162291169451074},{"client":"Teku","percentage":0.0007955449482895784}],"networkPenetration":0.005006127291215811,"relayerPercentages":[{"relayer":"flashbots","percentage":0.1496282527881041},{"relayer":"no_mev_boost","percentage":0.8503717472118959}],"nodeOperatorCount":null}]}