{"page":{"from":0,"size":15},"total":30,"next":"/v0/eth/operators?window=1d&from=15&size=15&idType=entity","data":[{"id":"Lido","idType":"entity","timeWindow":"1d","validatorCount":131439,"avgCorrectness":0.9912190813124959,"avgInclusionDelay":1.02754234391359,"avgUptime":0.9987571118811466,"avgValidatorEffectiveness":97.13186852664384,"clientPercentages":[{"client":"Nimbus","percentage":0.02478589693288055},{"client":"Prysm","percentage":0.40259494270290747},{"client":"Lodestar","percentage":0.00037882375224926605},{"client":"Lighthouse","percentage":0.3503037354727856},{"client":"Teku","percentage":0.22193660113917715}],"networkPenetration":0.3022913339806808},{"id":"Coinbase","idType":"entity","timeWindow":"1d","validatorCount":54602,"avgCorrectness":0.9899224084028786,"avgInclusionDelay":1.0252050331169333,"avgUptime":0.9990289775165119,"avgValidatorEffectiveness":97.25612687897359,"clientPercentages":[{"client":"Prysm","percentage":0.3843697992731719},{"client":"Nimbus","percentage":0.05447814421084808},{"client":"Teku","percentage":0.1314743742145841},{"client":"Lighthouse","percentage":0.4296776823013959}],"networkPenetration":0.1256391022425528},{"id":"Kraken","idType":"entity","timeWindow":"1d","validatorCount":37361,"avgCorrectness":0.991370365717817,"avgInclusionDelay":1.0224549513211718,"avgUptime":0.9994644200742955,"avgValidatorEffectiveness":97.58900835405659,"clientPercentages":[{"client":"Nimbus","percentage":0.01955104996379435},{"client":"Lighthouse","percentage":0.26280473087134926},{"client":"Prysm","percentage":0.6236543567463191},{"client":"Teku","percentage":0.0939898624185373}],"networkPenetration":0.08594458276000129},{"id":"Binance","idType":"entity","timeWindow":"1d","validatorCount":22496,"avgCorrectness":0.9932550641881986,"avgInclusionDelay":1.0184731486667602,"avgUptime":0.9993652046078032,"avgValidatorEffectiveness":98.01179853827736,"clientPercentages":[{"client":"Lighthouse","percentage":0.35769518583187826},{"client":"Prysm","percentage":0.6109586763116321},{"client":"Nimbus","percentage":0.030764114076660846},{"client":"Teku","percentage":0.0005820237798287187}],"networkPenetration":0.05176325489997561},{"id":"Bitcoin Suisse","idType":"entity","timeWindow":"1d","validatorCount":9153,"avgCorrectness":0.9931721485855136,"avgInclusionDelay":1.0232713000175646,"avgUptime":0.9994291846805361,"avgValidatorEffectiveness":97.62105251754792,"clientPercentages":[{"client":"Teku","percentage":0.9935897435897436},{"client":"Nimbus","percentage":0.00641025641025641}],"networkPenetration":0.021061036277537196},{"id":"Rocketpool","idType":"entity","timeWindow":"1d","validatorCount":8105,"avgCorrectness":0.9820988048102454,"avgInclusionDelay":1.0415973099370437,"avgUptime":0.9742514845260158,"avgValidatorEffectiveness":93.76688466933383,"clientPercentages":[{"client":"Teku","percentage":0.3027893814849751},{"client":"Nimbus","percentage":0.22571082064411804},{"client":"Prysm","percentage":0.053901091497102815},{"client":"Lighthouse","percentage":0.4175987063738041}],"networkPenetration":0.018562152261651105},{"id":"Staked.us","idType":"entity","timeWindow":"1d","validatorCount":5263,"avgCorrectness":0.9890086260772004,"avgInclusionDelay":1.0313702112009775,"avgUptime":0.996616409404981,"avgValidatorEffectiveness":96.52016290212742,"clientPercentages":[{"client":"Lighthouse","percentage":0.005778382053025153},{"client":"Teku","percentage":0.49422161794697483},{"client":"Nimbus","percentage":0.02821210061182869},{"client":"Prysm","percentage":0.47178789938817134}],"networkPenetration":0.012110153384538212},{"id":"f2pool.eth","idType":"entity","timeWindow":"1d","validatorCount":3501,"avgCorrectness":0.9902083199149043,"avgInclusionDelay":1.032945883502315,"avgUptime":0.9954106083069236,"avgValidatorEffectiveness":96.33653830687001,"clientPercentages":[{"client":"Prysm","percentage":0.013612056392805057},{"client":"Lighthouse","percentage":0.986387943607195}],"networkPenetration":0.008055794603699085},{"id":"Bitfinex","idType":"entity","timeWindow":"1d","validatorCount":3214,"avgCorrectness":0.9938491426769284,"avgInclusionDelay":1.0185103216275582,"avgUptime":0.9997773567526991,"avgValidatorEffectiveness":98.0748089495527,"clientPercentages":[{"client":"Prysm","percentage":0.943725379853686},{"client":"Nimbus","percentage":0.03939223410241981},{"client":"Lighthouse","percentage":0.004501969611705121},{"client":"Teku","percentage":0.012380416432189083}],"networkPenetration":0.007395408128045946},{"id":"Huobi","idType":"entity","timeWindow":"1d","validatorCount":2855,"avgCorrectness":0.9927593160689537,"avgInclusionDelay":1.0193936185122319,"avgUptime":0.9997470324965949,"avgValidatorEffectiveness":97.94525611589093,"clientPercentages":[{"client":"Lighthouse","percentage":0.0006075334143377885},{"client":"Nimbus","percentage":0.04495747266099635},{"client":"Teku","percentage":0.002430133657351154},{"client":"Prysm","percentage":0.9520048602673147}],"networkPenetration":0.006569349783936271},{"id":"Bloxstaking","idType":"entity","timeWindow":"1d","validatorCount":2506,"avgCorrectness":0.9893271478194021,"avgInclusionDelay":1.0233829825575254,"avgUptime":0.9993187767189746,"avgValidatorEffectiveness":97.37585144659738,"clientPercentages":[{"client":"Nimbus","percentage":0.02389843166542196},{"client":"Teku","percentage":0.0022404779686333084},{"client":"Prysm","percentage":0.48618371919342795},{"client":"Lighthouse","percentage":0.4876773711725168}],"networkPenetration":0.005764000423383664},{"id":"wedex.eth","idType":"entity","timeWindow":"1d","validatorCount":2399,"avgCorrectness":0.9786263493430931,"avgInclusionDelay":1.0760958025420395,"avgUptime":0.9914360439534993,"avgValidatorEffectiveness":92.11861443453873,"clientPercentages":[{"client":"Lighthouse","percentage":1.0}],"networkPenetration":0.005520094617044874},{"id":"Ankr","idType":"entity","timeWindow":"1d","validatorCount":2298,"avgCorrectness":0.9929466425089697,"avgInclusionDelay":1.0184268541242045,"avgUptime":0.9997630531034578,"avgValidatorEffectiveness":98.0306530279052,"clientPercentages":[{"client":"Prysm","percentage":0.9464105156723963},{"client":"Nimbus","percentage":0.03640040444893832},{"client":"Teku","percentage":0.006066734074823054},{"client":"Lighthouse","percentage":0.011122345803842264}],"networkPenetration":0.0052876938015711215},{"id":"StakeWise","idType":"entity","timeWindow":"1d","validatorCount":1989,"avgCorrectness":0.991732478478615,"avgInclusionDelay":1.0198369082108318,"avgUptime":0.9995195350219864,"avgValidatorEffectiveness":97.81898688728222,"clientPercentages":[{"client":"Lighthouse","percentage":0.5298245614035088},{"client":"Prysm","percentage":0.3850877192982456},{"client":"Nimbus","percentage":0.02456140350877193},{"client":"Teku","percentage":0.060526315789473685}],"networkPenetration":0.004576685366111819},{"id":"OKex","idType":"entity","timeWindow":"1d","validatorCount":1797,"avgCorrectness":0.9926497820574912,"avgInclusionDelay":1.0186839715950122,"avgUptime":0.9997908803556224,"avgValidatorEffectiveness":97.99471473600812,"clientPercentages":[{"client":"Prysm","percentage":0.9401888772298006},{"client":"Lighthouse","percentage":0.012591815320041973},{"client":"Nimbus","percentage":0.04512067156348373},{"client":"Teku","percentage":0.002098635886673662}],"networkPenetration":0.004130291720548374}]}