{"page":{"from":0,"size":15},"total":31,"next":"/v0/eth/operators?window=1d&from=15&size=15&idType=entity","data":[{"id":"Lido","idType":"entity","timeWindow":"1d","validatorCount":129079,"avgCorrectness":0.9879978390517834,"avgInclusionDelay":1.0185839239392511,"avgUptime":0.9999469804477114,"avgValidatorEffectiveness":97.72615861474011,"clientPercentages":[{"client":"Prysm","percentage":0.35219787605861},{"client":"Lighthouse","percentage":0.37658287404220997},{"client":"Teku","percentage":0.19212259712326926},{"client":"Nimbus","percentage":0.07909665277591074}],"networkPenetration":0.31551850584266367},{"id":"Coinbase","idType":"entity","timeWindow":"1d","validatorCount":56699,"avgCorrectness":0.9876028825055874,"avgInclusionDelay":1.0208583210541013,"avgUptime":0.9997901589485272,"avgValidatorEffectiveness":97.52960159759343,"clientPercentages":[{"client":"Nimbus","percentage":0.09138609532138173},{"client":"Prysm","percentage":0.3645761759010557},{"client":"Teku","percentage":0.16434505590605283},{"client":"Lighthouse","percentage":0.37969267287150976}],"networkPenetration":0.1386080281621278},{"id":"Kraken","idType":"entity","timeWindow":"1d","validatorCount":35911,"avgCorrectness":0.9804664397690906,"avgInclusionDelay":1.030660108616645,"avgUptime":0.9991473987789344,"avgValidatorEffectiveness":96.46454488532842,"clientPercentages":[{"client":"Prysm","percentage":0.6030055442077619},{"client":"Nimbus","percentage":0.04148429141134131},{"client":"Lighthouse","percentage":0.26855364264176634},{"client":"Teku","percentage":0.08695652173913043}],"networkPenetration":0.087747518701413},{"id":"Binance","idType":"entity","timeWindow":"1d","validatorCount":20810,"avgCorrectness":0.9877941977707851,"avgInclusionDelay":1.0184288151227965,"avgUptime":0.9999673234022117,"avgValidatorEffectiveness":97.72055042931618,"clientPercentages":[{"client":"Teku","percentage":0.008803554959335961},{"client":"Nimbus","percentage":0.0726083675693804},{"client":"Prysm","percentage":0.5931080741175484},{"client":"Lighthouse","percentage":0.3254800033537352}],"networkPenetration":0.0508727326064636},{"id":"Bitcoin Suisse","idType":"entity","timeWindow":"1d","validatorCount":9000,"avgCorrectness":0.9850623657804638,"avgInclusionDelay":1.0427759020244307,"avgUptime":0.9998360493827162,"avgValidatorEffectiveness":95.62161443292726,"clientPercentages":[{"client":"Teku","percentage":0.9928966061562746},{"client":"Nimbus","percentage":0.006906077348066298},{"client":"Prysm","percentage":0.0001973164956590371}],"networkPenetration":0.022001662347821836},{"id":"Rocketpool","idType":"entity","timeWindow":"1d","validatorCount":6273,"avgCorrectness":0.9870779001351319,"avgInclusionDelay":1.021121184450589,"avgUptime":0.9935165496171567,"avgValidatorEffectiveness":96.93026376478754,"clientPercentages":[{"client":"Teku","percentage":0.267433179035389},{"client":"Nimbus","percentage":0.2553382111393161},{"client":"Lighthouse","percentage":0.41735105271016876},{"client":"Prysm","percentage":0.05987755711512618}],"networkPenetration":0.01532293551068303},{"id":"Staked.us","idType":"entity","timeWindow":"1d","validatorCount":5263,"avgCorrectness":0.9861794384196184,"avgInclusionDelay":1.0205333453937873,"avgUptime":0.9989482128908306,"avgValidatorEffectiveness":97.38037848949058,"clientPercentages":[{"client":"Lighthouse","percentage":0.000967741935483871},{"client":"Prysm","percentage":0.4309677419354839},{"client":"Nimbus","percentage":0.05838709677419355},{"client":"Teku","percentage":0.5096774193548387}],"networkPenetration":0.012866083215176257},{"id":"f2pool.eth","idType":"entity","timeWindow":"1d","validatorCount":3501,"avgCorrectness":0.989023115344407,"avgInclusionDelay":1.0168625158447095,"avgUptime":0.9999980957821573,"avgValidatorEffectiveness":97.92871140781591,"clientPercentages":[{"client":"Lighthouse","percentage":1.0}],"networkPenetration":0.008558646653302695},{"id":"Bitfinex","idType":"entity","timeWindow":"1d","validatorCount":3214,"avgCorrectness":0.9870777042242396,"avgInclusionDelay":1.0200409910465467,"avgUptime":0.9978856392173128,"avgValidatorEffectiveness":97.43328943259694,"clientPercentages":[{"client":"Prysm","percentage":0.8753358409457281},{"client":"Lighthouse","percentage":0.0021493820526598604},{"client":"Nimbus","percentage":0.10370768404083826},{"client":"Teku","percentage":0.018807092960773777}],"networkPenetration":0.007857038087322153},{"id":"Huobi","idType":"entity","timeWindow":"1d","validatorCount":2855,"avgCorrectness":0.9865577608800057,"avgInclusionDelay":1.0195723734139528,"avgUptime":0.999975870791981,"avgValidatorEffectiveness":97.56463267733068,"clientPercentages":[{"client":"Prysm","percentage":0.886150234741784},{"client":"Nimbus","percentage":0.09800469483568075},{"client":"Teku","percentage":0.014084507042253521},{"client":"Lighthouse","percentage":0.0017605633802816902}],"networkPenetration":0.006979416222559038},{"id":"wedex.eth","idType":"entity","timeWindow":"1d","validatorCount":2399,"avgCorrectness":0.9870600692179996,"avgInclusionDelay":1.0225282726625955,"avgUptime":0.9999425686628702,"avgValidatorEffectiveness":97.3513195680388,"clientPercentages":[{"client":"Lighthouse","percentage":1.0}],"networkPenetration":0.0058646653302693984},{"id":"Bloxstaking","idType":"entity","timeWindow":"1d","validatorCount":2337,"avgCorrectness":0.9850715534410899,"avgInclusionDelay":1.0215345136211196,"avgUptime":0.9999220272904499,"avgValidatorEffectiveness":97.31267616336254,"clientPercentages":[{"client":"Prysm","percentage":0.43810952738184544},{"client":"Lighthouse","percentage":0.5026256564141035},{"client":"Teku","percentage":0.008252063015753939},{"client":"Nimbus","percentage":0.05101275318829707}],"networkPenetration":0.005713098322984403},{"id":"Ankr","idType":"entity","timeWindow":"1d","validatorCount":2288,"avgCorrectness":0.9291797292648913,"avgInclusionDelay":1.218195288742629,"avgUptime":0.9910712898212906,"avgValidatorEffectiveness":84.01780885681329,"clientPercentages":[{"client":"Prysm","percentage":0.8990731204943357},{"client":"Nimbus","percentage":0.08341915550978372},{"client":"Teku","percentage":0.009268795056642637},{"client":"Lighthouse","percentage":0.008238928939237899}],"networkPenetration":0.0055933114946462624},{"id":"StakeWise","idType":"entity","timeWindow":"1d","validatorCount":1977,"avgCorrectness":0.988343819097512,"avgInclusionDelay":1.0205456496262688,"avgUptime":0.9994953071432593,"avgValidatorEffectiveness":97.55654938773915,"clientPercentages":[{"client":"Nimbus","percentage":0.04028648164726947},{"client":"Lighthouse","percentage":0.5461056401074306},{"client":"Teku","percentage":0.049239033124440466},{"client":"Prysm","percentage":0.36436884512085943}],"networkPenetration":0.00483303182907153},{"id":"OKex","idType":"entity","timeWindow":"1d","validatorCount":1593,"avgCorrectness":0.980705559595518,"avgInclusionDelay":1.0356114518223967,"avgUptime":0.9994139140986368,"avgValidatorEffectiveness":95.91353227523982,"clientPercentages":[{"client":"Nimbus","percentage":0.1087912087912088},{"client":"Teku","percentage":0.017582417582417582},{"client":"Prysm","percentage":0.8736263736263736}],"networkPenetration":0.003891849606414707}]}