{"page":{"from":0,"size":15},"total":30,"next":"/v0/eth/operators?window=1d&from=15&size=15&idType=entity","data":[{"id":"Lido","idType":"entity","timeWindow":"1d","validatorCount":130019,"avgCorrectness":0.9867268957608543,"avgInclusionDelay":1.039103647933552,"avgUptime":0.9989922214441613,"avgValidatorEffectiveness":95.93378498192885,"clientPercentages":[{"client":"Teku","percentage":0.22193660113917715},{"client":"Lodestar","percentage":0.00037882375224926605},{"client":"Lighthouse","percentage":0.3503037354727856},{"client":"Prysm","percentage":0.40259494270290747},{"client":"Nimbus","percentage":0.02478589693288055}],"networkPenetration":0.30567922837568},{"id":"Coinbase","idType":"entity","timeWindow":"1d","validatorCount":54348,"avgCorrectness":0.9879009479794018,"avgInclusionDelay":1.0339148039470845,"avgUptime":0.9996699050563003,"avgValidatorEffectiveness":96.4468145594732,"clientPercentages":[{"client":"Nimbus","percentage":0.055733120255693165},{"client":"Lighthouse","percentage":0.42492342522306564},{"client":"Prysm","percentage":0.38380609934744975},{"client":"Teku","percentage":0.13553735517379145}],"networkPenetration":0.12782320940963965},{"id":"Kraken","idType":"entity","timeWindow":"1d","validatorCount":36688,"avgCorrectness":0.987467205764213,"avgInclusionDelay":1.035106302484635,"avgUptime":0.9999320995302958,"avgValidatorEffectiveness":96.34650193725031,"clientPercentages":[{"client":"Nimbus","percentage":0.01955104996379435},{"client":"Teku","percentage":0.0939898624185373},{"client":"Lighthouse","percentage":0.26280473087134926},{"client":"Prysm","percentage":0.6236543567463191}],"networkPenetration":0.08628560542451333},{"id":"Binance","idType":"entity","timeWindow":"1d","validatorCount":22284,"avgCorrectness":0.9857419169072054,"avgInclusionDelay":1.0402902202802926,"avgUptime":0.9998656734278698,"avgValidatorEffectiveness":95.82454874754383,"clientPercentages":[{"client":"Teku","percentage":0.0005820237798287187},{"client":"Nimbus","percentage":0.030764114076660846},{"client":"Prysm","percentage":0.6109586763116321},{"client":"Lighthouse","percentage":0.35769518583187826}],"networkPenetration":0.05241062041812781},{"id":"Bitcoin Suisse","idType":"entity","timeWindow":"1d","validatorCount":9062,"avgCorrectness":0.9907101249696229,"avgInclusionDelay":1.027534556273151,"avgUptime":0.9989921283013319,"avgValidatorEffectiveness":97.0582901031947,"clientPercentages":[{"client":"Teku","percentage":0.9935897435897436},{"client":"Nimbus","percentage":0.00641025641025641}],"networkPenetration":0.021313275993047668},{"id":"Rocketpool","idType":"entity","timeWindow":"1d","validatorCount":7062,"avgCorrectness":0.9875269872236004,"avgInclusionDelay":1.0347453721140747,"avgUptime":0.9911521491543399,"avgValidatorEffectiveness":95.64456358516023,"clientPercentages":[{"client":"Teku","percentage":0.30442453854505974},{"client":"Nimbus","percentage":0.2270629750271444},{"client":"Lighthouse","percentage":0.4161237785016287},{"client":"Prysm","percentage":0.05238870792616721}],"networkPenetration":0.01658352560438966},{"id":"Staked.us","idType":"entity","timeWindow":"1d","validatorCount":5263,"avgCorrectness":0.9833089971812388,"avgInclusionDelay":1.0445499716430924,"avgUptime":0.9976312622712032,"avgValidatorEffectiveness":95.17793167273628,"clientPercentages":[{"client":"Nimbus","percentage":0.02821210061182869},{"client":"Teku","percentage":0.49422161794697483},{"client":"Prysm","percentage":0.47178789938817134},{"client":"Lighthouse","percentage":0.005778382053025153}],"networkPenetration":0.01237825773023724},{"id":"f2pool.eth","idType":"entity","timeWindow":"1d","validatorCount":3501,"avgCorrectness":0.9874085470549775,"avgInclusionDelay":1.0495671243436697,"avgUptime":0.9814890983528524,"avgValidatorEffectiveness":93.69774117425598,"clientPercentages":[{"client":"Lighthouse","percentage":0.986387943607195},{"client":"Prysm","percentage":0.013612056392805057}],"networkPenetration":0.008234140283785024},{"id":"Bitfinex","idType":"entity","timeWindow":"1d","validatorCount":3214,"avgCorrectness":0.9865699807623955,"avgInclusionDelay":1.0372505576969089,"avgUptime":0.9998796930097492,"avgValidatorEffectiveness":96.11606503434545,"clientPercentages":[{"client":"Teku","percentage":0.012380416432189083},{"client":"Nimbus","percentage":0.03939223410241981},{"client":"Prysm","percentage":0.943725379853686},{"client":"Lighthouse","percentage":0.004501969611705121}],"networkPenetration":0.00755913363955586},{"id":"Huobi","idType":"entity","timeWindow":"1d","validatorCount":2855,"avgCorrectness":0.985464876435104,"avgInclusionDelay":1.0408593111500293,"avgUptime":1.0,"avgValidatorEffectiveness":95.77323169444163,"clientPercentages":[{"client":"Prysm","percentage":0.9520048602673147},{"client":"Lighthouse","percentage":0.0006075334143377885},{"client":"Nimbus","percentage":0.04495747266099635},{"client":"Teku","percentage":0.002430133657351154}],"networkPenetration":0.006714787349387672},{"id":"Bloxstaking","idType":"entity","timeWindow":"1d","validatorCount":2425,"avgCorrectness":0.9804904651649194,"avgInclusionDelay":1.05242324613708,"avgUptime":0.999250400916381,"avgValidatorEffectiveness":94.55247541186355,"clientPercentages":[{"client":"Prysm","percentage":0.48616305160807777},{"client":"Nimbus","percentage":0.02393418100224383},{"client":"Teku","percentage":0.002243829468960359},{"client":"Lighthouse","percentage":0.487658937920718}],"networkPenetration":0.0057034533528073925},{"id":"wedex.eth","idType":"entity","timeWindow":"1d","validatorCount":2399,"avgCorrectness":0.9819853179715814,"avgInclusionDelay":1.056233837255647,"avgUptime":0.9993701079153352,"avgValidatorEffectiveness":94.33418843723524,"clientPercentages":[{"client":"Lighthouse","percentage":1.0}],"networkPenetration":0.00564230292510719},{"id":"Ankr","idType":"entity","timeWindow":"1d","validatorCount":2297,"avgCorrectness":0.975337561622231,"avgInclusionDelay":1.0570373918133746,"avgUptime":0.9998693948628647,"avgValidatorEffectiveness":94.32018183609674,"clientPercentages":[{"client":"Nimbus","percentage":0.03640040444893832},{"client":"Lighthouse","percentage":0.011122345803842264},{"client":"Teku","percentage":0.006066734074823054},{"client":"Prysm","percentage":0.9464105156723963}],"networkPenetration":0.0054024050933602396},{"id":"StakeWise","idType":"entity","timeWindow":"1d","validatorCount":1981,"avgCorrectness":0.986490443680263,"avgInclusionDelay":1.0385899169186408,"avgUptime":0.9998261259745354,"avgValidatorEffectiveness":95.99839109425787,"clientPercentages":[{"client":"Teku","percentage":0.060526315789473685},{"client":"Lighthouse","percentage":0.5298245614035088},{"client":"Nimbus","percentage":0.02456140350877193},{"client":"Prysm","percentage":0.3850877192982456}],"networkPenetration":0.00465919220285008},{"id":"OKex","idType":"entity","timeWindow":"1d","validatorCount":1737,"avgCorrectness":0.9867538698219381,"avgInclusionDelay":1.0367552824000472,"avgUptime":0.9962489605322078,"avgValidatorEffectiveness":95.85879794684632,"clientPercentages":[{"client":"Lighthouse","percentage":0.012591815320041973},{"client":"Nimbus","percentage":0.04512067156348373},{"client":"Teku","percentage":0.002098635886673662},{"client":"Prysm","percentage":0.9401888772298006}],"networkPenetration":0.004085318958278945}]}