{"page":{"from":0,"size":15},"total":31,"next":"/v0/eth/operators?window=1d&from=15&size=15&idType=entity","data":[{"id":"Lido","idType":"entity","timeWindow":"1d","validatorCount":129066,"avgCorrectness":0.9872282630734294,"avgInclusionDelay":1.0183705093939681,"avgUptime":0.9999423193878859,"avgValidatorEffectiveness":97.69861093806219,"clientPercentages":[{"client":"Prysm","percentage":0.35219787605861},{"client":"Lighthouse","percentage":0.37658287404220997},{"client":"Teku","percentage":0.19212259712326926},{"client":"Nimbus","percentage":0.07909665277591074}],"networkPenetration":0.3155781597672201},{"id":"Coinbase","idType":"entity","timeWindow":"1d","validatorCount":56699,"avgCorrectness":0.9868774221040745,"avgInclusionDelay":1.020261280970247,"avgUptime":0.9997916874881236,"avgValidatorEffectiveness":97.52457215029956,"clientPercentages":[{"client":"Nimbus","percentage":0.09138609532138173},{"client":"Prysm","percentage":0.3645761759010557},{"client":"Teku","percentage":0.16434505590605283},{"client":"Lighthouse","percentage":0.37969267287150976}],"networkPenetration":0.13863853094359},{"id":"Kraken","idType":"entity","timeWindow":"1d","validatorCount":35894,"avgCorrectness":0.9797742423859108,"avgInclusionDelay":1.0308823449167395,"avgUptime":0.9985961117730885,"avgValidatorEffectiveness":96.37168531126136,"clientPercentages":[{"client":"Prysm","percentage":0.6030055442077619},{"client":"Nimbus","percentage":0.04148429141134131},{"client":"Lighthouse","percentage":0.26855364264176634},{"client":"Teku","percentage":0.08695652173913043}],"networkPenetration":0.0877546030271169},{"id":"Binance","idType":"entity","timeWindow":"1d","validatorCount":20810,"avgCorrectness":0.9868472790858187,"avgInclusionDelay":1.0184485011815558,"avgUptime":0.9988539697794871,"avgValidatorEffectiveness":97.57060723362818,"clientPercentages":[{"client":"Teku","percentage":0.008803554959335961},{"client":"Nimbus","percentage":0.0726083675693804},{"client":"Prysm","percentage":0.5931080741175484},{"client":"Lighthouse","percentage":0.3254800033537352}],"networkPenetration":0.050883927916473094},{"id":"Bitcoin Suisse","idType":"entity","timeWindow":"1d","validatorCount":9000,"avgCorrectness":0.983981904766845,"avgInclusionDelay":1.046886899111467,"avgUptime":0.9995948148148137,"avgValidatorEffectiveness":95.2257742508331,"clientPercentages":[{"client":"Teku","percentage":0.9928966061562746},{"client":"Nimbus","percentage":0.006906077348066298},{"client":"Prysm","percentage":0.0001973164956590371}],"networkPenetration":0.02200650414455828},{"id":"Rocketpool","idType":"entity","timeWindow":"1d","validatorCount":6268,"avgCorrectness":0.9846465492404517,"avgInclusionDelay":1.0255767967803529,"avgUptime":0.9913283121649525,"avgValidatorEffectiveness":96.31602946051851,"clientPercentages":[{"client":"Teku","percentage":0.267433179035389},{"client":"Nimbus","percentage":0.2553382111393161},{"client":"Lighthouse","percentage":0.41735105271016876},{"client":"Prysm","percentage":0.05987755711512618}],"networkPenetration":0.015316526884612562},{"id":"Staked.us","idType":"entity","timeWindow":"1d","validatorCount":5263,"avgCorrectness":0.9846992957070398,"avgInclusionDelay":1.0224026315934158,"avgUptime":0.9983739734414254,"avgValidatorEffectiveness":97.09912854616374,"clientPercentages":[{"client":"Lighthouse","percentage":0.000967741935483871},{"client":"Prysm","percentage":0.4309677419354839},{"client":"Nimbus","percentage":0.05838709677419355},{"client":"Teku","percentage":0.5096774193548387}],"networkPenetration":0.012868914590312247},{"id":"f2pool.eth","idType":"entity","timeWindow":"1d","validatorCount":3501,"avgCorrectness":0.9886727529739141,"avgInclusionDelay":1.016397230249916,"avgUptime":0.9999993652607189,"avgValidatorEffectiveness":97.9470447189928,"clientPercentages":[{"client":"Lighthouse","percentage":1.0}],"networkPenetration":0.008560530112233171},{"id":"Bitfinex","idType":"entity","timeWindow":"1d","validatorCount":3214,"avgCorrectness":0.9865332569006549,"avgInclusionDelay":1.0193478902843642,"avgUptime":0.9950736361750676,"avgValidatorEffectiveness":97.23277999175764,"clientPercentages":[{"client":"Prysm","percentage":0.8753358409457281},{"client":"Lighthouse","percentage":0.0021493820526598604},{"client":"Nimbus","percentage":0.10370768404083826},{"client":"Teku","percentage":0.018807092960773777}],"networkPenetration":0.00785876714673448},{"id":"Huobi","idType":"entity","timeWindow":"1d","validatorCount":2855,"avgCorrectness":0.9841461174276334,"avgInclusionDelay":1.0217711137300935,"avgUptime":0.9999128235065193,"avgValidatorEffectiveness":97.2428699974084,"clientPercentages":[{"client":"Prysm","percentage":0.886150234741784},{"client":"Nimbus","percentage":0.09800469483568075},{"client":"Teku","percentage":0.014084507042253521},{"client":"Lighthouse","percentage":0.0017605633802816902}],"networkPenetration":0.006980952148079321},{"id":"wedex.eth","idType":"entity","timeWindow":"1d","validatorCount":2399,"avgCorrectness":0.9862767733555198,"avgInclusionDelay":1.0231586398329346,"avgUptime":0.9998036218794855,"avgValidatorEffectiveness":97.24521974696405,"clientPercentages":[{"client":"Lighthouse","percentage":1.0}],"networkPenetration":0.005865955938088368},{"id":"Bloxstaking","idType":"entity","timeWindow":"1d","validatorCount":2337,"avgCorrectness":0.9837253042170365,"avgInclusionDelay":1.0215698940484674,"avgUptime":0.9999067996703164,"avgValidatorEffectiveness":97.23306094682843,"clientPercentages":[{"client":"Prysm","percentage":0.43810952738184544},{"client":"Lighthouse","percentage":0.5026256564141035},{"client":"Teku","percentage":0.008252063015753939},{"client":"Nimbus","percentage":0.05101275318829707}],"networkPenetration":0.005711910409076461},{"id":"Ankr","idType":"entity","timeWindow":"1d","validatorCount":2288,"avgCorrectness":0.8979631010990103,"avgInclusionDelay":1.337960117360386,"avgUptime":0.9765442890442892,"avgValidatorEffectiveness":77.38217207165076,"clientPercentages":[{"client":"Prysm","percentage":0.8990731204943357},{"client":"Nimbus","percentage":0.08341915550978372},{"client":"Teku","percentage":0.009268795056642637},{"client":"Lighthouse","percentage":0.008238928939237899}],"networkPenetration":0.00559454238697215},{"id":"StakeWise","idType":"entity","timeWindow":"1d","validatorCount":1977,"avgCorrectness":0.9878650111100116,"avgInclusionDelay":1.0197337645397218,"avgUptime":0.9999122898032736,"avgValidatorEffectiveness":97.62983108931584,"clientPercentages":[{"client":"Nimbus","percentage":0.04028648164726947},{"client":"Lighthouse","percentage":0.5461056401074306},{"client":"Teku","percentage":0.049239033124440466},{"client":"Prysm","percentage":0.36436884512085943}],"networkPenetration":0.0048316502432941295},{"id":"OKex","idType":"entity","timeWindow":"1d","validatorCount":1592,"avgCorrectness":0.977589777297175,"avgInclusionDelay":1.043979390624006,"avgUptime":0.998912881095946,"avgValidatorEffectiveness":95.04884572213871,"clientPercentages":[{"client":"Nimbus","percentage":0.1087912087912088},{"client":"Teku","percentage":0.017582417582417582},{"client":"Prysm","percentage":0.8736263736263736}],"networkPenetration":0.0038438027239161795}]}