{"page":{"from":0,"size":15},"total":30,"next":"/v0/eth/operators?window=1d&from=15&size=15&idType=entity","data":[{"id":"Lido","idType":"entity","timeWindow":"1d","validatorCount":129804,"avgCorrectness":0.9895009646945792,"avgInclusionDelay":1.0222495176869577,"avgUptime":0.999836140741885,"avgValidatorEffectiveness":97.51963243300874,"clientPercentages":[{"client":"Lodestar","percentage":0.00037882375224926605},{"client":"Nimbus","percentage":0.02478589693288055},{"client":"Prysm","percentage":0.40259494270290747},{"client":"Teku","percentage":0.22193660113917715},{"client":"Lighthouse","percentage":0.3503037354727856}],"networkPenetration":0.3106704325139424},{"id":"Coinbase","idType":"entity","timeWindow":"1d","validatorCount":54533,"avgCorrectness":0.9901876980447696,"avgInclusionDelay":1.020027591266162,"avgUptime":0.999953300448047,"avgValidatorEffectiveness":97.73623754941607,"clientPercentages":[{"client":"Teku","percentage":0.13761287144967985},{"client":"Prysm","percentage":0.38581513708750614},{"client":"Nimbus","percentage":0.05641109834181579},{"client":"Lighthouse","percentage":0.4201608931209982}],"networkPenetration":0.13052729840350416},{"id":"Kraken","idType":"entity","timeWindow":"1d","validatorCount":36595,"avgCorrectness":0.9900848690790507,"avgInclusionDelay":1.0200253729480153,"avgUptime":0.9997828848631649,"avgValidatorEffectiveness":97.7157966378527,"clientPercentages":[{"client":"Teku","percentage":0.0939898624185373},{"client":"Nimbus","percentage":0.01955104996379435},{"client":"Prysm","percentage":0.6236543567463191},{"client":"Lighthouse","percentage":0.26280473087134926}],"networkPenetration":0.08758227817803202},{"id":"Binance","idType":"entity","timeWindow":"1d","validatorCount":21584,"avgCorrectness":0.9900699915808531,"avgInclusionDelay":1.0198743705905453,"avgUptime":0.9970223828350215,"avgValidatorEffectiveness":97.48936490128266,"clientPercentages":[{"client":"Nimbus","percentage":0.030764114076660846},{"client":"Lighthouse","percentage":0.35769518583187826},{"client":"Prysm","percentage":0.6109586763116321},{"client":"Teku","percentage":0.0005820237798287187}],"networkPenetration":0.05166231838962158},{"id":"Bitcoin Suisse","idType":"entity","timeWindow":"1d","validatorCount":9000,"avgCorrectness":0.9910892707804343,"avgInclusionDelay":1.017861896349449,"avgUptime":0.9952767901234592,"avgValidatorEffectiveness":97.56468079808502,"clientPercentages":[{"client":"Nimbus","percentage":0.00641025641025641},{"client":"Teku","percentage":0.9935897435897436}],"networkPenetration":0.021541922975657626},{"id":"Rocketpool","idType":"entity","timeWindow":"1d","validatorCount":6869,"avgCorrectness":0.9888735467683215,"avgInclusionDelay":1.0223127559957457,"avgUptime":0.9921271147448312,"avgValidatorEffectiveness":96.84116513886698,"clientPercentages":[{"client":"Nimbus","percentage":0.2276190476190476},{"client":"Prysm","percentage":0.05251700680272109},{"client":"Teku","percentage":0.30272108843537415},{"client":"Lighthouse","percentage":0.41714285714285715}],"networkPenetration":0.016391009837478158},{"id":"Staked.us","idType":"entity","timeWindow":"1d","validatorCount":5263,"avgCorrectness":0.9881024121189138,"avgInclusionDelay":1.023361898918117,"avgUptime":0.9998526400236465,"avgValidatorEffectiveness":97.33910018401065,"clientPercentages":[{"client":"Nimbus","percentage":0.02821210061182869},{"client":"Lighthouse","percentage":0.005778382053025153},{"client":"Teku","percentage":0.49422161794697483},{"client":"Prysm","percentage":0.47178789938817134}],"networkPenetration":0.01259723784676512},{"id":"f2pool.eth","idType":"entity","timeWindow":"1d","validatorCount":3501,"avgCorrectness":0.9898142353890783,"avgInclusionDelay":1.0205930785904278,"avgUptime":0.9798305246120156,"avgValidatorEffectiveness":95.94609190161026,"clientPercentages":[{"client":"Lighthouse","percentage":0.986387943607195},{"client":"Prysm","percentage":0.013612056392805057}],"networkPenetration":0.008379808037530818},{"id":"Bitfinex","idType":"entity","timeWindow":"1d","validatorCount":3214,"avgCorrectness":0.9897623621856448,"avgInclusionDelay":1.021616906381432,"avgUptime":0.9987035884671223,"avgValidatorEffectiveness":97.47796217910806,"clientPercentages":[{"client":"Lighthouse","percentage":0.004501969611705121},{"client":"Nimbus","percentage":0.03939223410241981},{"client":"Prysm","percentage":0.943725379853686},{"client":"Teku","percentage":0.012380416432189083}],"networkPenetration":0.007692860049307068},{"id":"Huobi","idType":"entity","timeWindow":"1d","validatorCount":2855,"avgCorrectness":0.9891923237087804,"avgInclusionDelay":1.021584996127606,"avgUptime":0.999988324576766,"avgValidatorEffectiveness":97.55195055325308,"clientPercentages":[{"client":"Teku","percentage":0.002430133657351154},{"client":"Prysm","percentage":0.9520048602673147},{"client":"Nimbus","percentage":0.04495747266099635},{"client":"Lighthouse","percentage":0.0006075334143377885}],"networkPenetration":0.006833576677278058},{"id":"wedex.eth","idType":"entity","timeWindow":"1d","validatorCount":2399,"avgCorrectness":0.9783878975562159,"avgInclusionDelay":1.0806672059615248,"avgUptime":0.9996637487842155,"avgValidatorEffectiveness":92.64290902477416,"clientPercentages":[{"client":"Lighthouse","percentage":1.0}],"networkPenetration":0.005742119246511405},{"id":"Bloxstaking","idType":"entity","timeWindow":"1d","validatorCount":2387,"avgCorrectness":0.9897516467658217,"avgInclusionDelay":1.0333161092102507,"avgUptime":0.9999785877205225,"avgValidatorEffectiveness":96.6311384176741,"clientPercentages":[{"client":"Prysm","percentage":0.48265460030165913},{"client":"Nimbus","percentage":0.024132730015082957},{"client":"Lighthouse","percentage":0.4917043740573152},{"client":"Teku","percentage":0.0015082956259426848}],"networkPenetration":0.005713396682543862},{"id":"Ankr","idType":"entity","timeWindow":"1d","validatorCount":2296,"avgCorrectness":0.9636538614676743,"avgInclusionDelay":1.0939675917563496,"avgUptime":0.9966492450638786,"avgValidatorEffectiveness":91.16879295350748,"clientPercentages":[{"client":"Nimbus","percentage":0.03640040444893832},{"client":"Prysm","percentage":0.9464105156723963},{"client":"Teku","percentage":0.006066734074823054},{"client":"Lighthouse","percentage":0.011122345803842264}],"networkPenetration":0.00549558390578999},{"id":"StakeWise","idType":"entity","timeWindow":"1d","validatorCount":1980,"avgCorrectness":0.9898524502948525,"avgInclusionDelay":1.021087508446003,"avgUptime":0.9999483726150409,"avgValidatorEffectiveness":97.6275409118955,"clientPercentages":[{"client":"Nimbus","percentage":0.02456140350877193},{"client":"Teku","percentage":0.060526315789473685},{"client":"Prysm","percentage":0.3850877192982456},{"client":"Lighthouse","percentage":0.5298245614035088}],"networkPenetration":0.0047392230546446775},{"id":"OKex","idType":"entity","timeWindow":"1d","validatorCount":1733,"avgCorrectness":0.9898872049204736,"avgInclusionDelay":1.020457905923667,"avgUptime":0.9999923062127338,"avgValidatorEffectiveness":97.68207490317943,"clientPercentages":[{"client":"Lighthouse","percentage":0.012591815320041973},{"client":"Nimbus","percentage":0.04512067156348373},{"client":"Prysm","percentage":0.9401888772298006},{"client":"Teku","percentage":0.002098635886673662}],"networkPenetration":0.00414322985231815}]}