{"page":{"from":0,"size":15},"total":36,"next":"/v0/eth/operators?window=1d&from=15&size=15&idType=entity","data":[{"id":"Lido","idType":"entity","timeWindow":"1d","validatorCount":141803,"avgCorrectness":0.9897422052350959,"avgInclusionDelay":1.0231830036925624,"avgUptime":0.9983049139504949,"avgValidatorEffectiveness":96.68454858384011,"clientPercentages":[{"client":"Teku","percentage":0.1635681037348997},{"client":"Lodestar","percentage":0.003989803834644797},{"client":"Nimbus","percentage":0.01863293804721268},{"client":"Lighthouse","percentage":0.45778842956887955},{"client":"Prysm","percentage":0.3560207248143633}],"networkPenetration":0.3058627029546573,"relayerPercentages":[{"relayer":"bloxroute_regulated","percentage":0.01588201928530913},{"relayer":"bloxroute_maxprofit","percentage":0.10266591038003403},{"relayer":"manifold","percentage":0.0022688598979013048},{"relayer":"edennetwork","percentage":0.04310833806012479},{"relayer":"bloxroute_ethical","percentage":0.039137833238797506},{"relayer":"flashbots","percentage":0.7532614861032332},{"relayer":"no_mev_boost","percentage":0.008508224617129892},{"relayer":"blocknative","percentage":0.03516732841747022}],"nodeOperatorCount":29},{"id":"Coinbase","idType":"entity","timeWindow":"1d","validatorCount":54682,"avgCorrectness":0.9886830195650458,"avgInclusionDelay":1.021087214644202,"avgUptime":0.998722309596089,"avgValidatorEffectiveness":96.76507760003335,"clientPercentages":[{"client":"Prysm","percentage":0.3576168047581394},{"client":"Lighthouse","percentage":0.42874823804448725},{"client":"Teku","percentage":0.20679341286485373},{"client":"Nimbus","percentage":0.0068415443325196825}],"networkPenetration":0.11800070780571596,"relayerPercentages":[{"relayer":"bloxroute_maxprofit","percentage":0.23788546255506607},{"relayer":"bloxroute_ethical","percentage":0.01762114537444934},{"relayer":"no_mev_boost","percentage":0.01908957415565345},{"relayer":"edennetwork","percentage":0.002936857562408223},{"relayer":"flashbots","percentage":0.7224669603524229}],"nodeOperatorCount":null},{"id":"Kraken","idType":"entity","timeWindow":"1d","validatorCount":38257,"avgCorrectness":0.9897188892895993,"avgInclusionDelay":1.0183943534175321,"avgUptime":0.9991302638899606,"avgValidatorEffectiveness":97.14218277722846,"clientPercentages":[{"client":"Teku","percentage":0.052123837180686125},{"client":"Nimbus","percentage":9.843973027513905e-05},{"client":"Prysm","percentage":0.6941969779002806},{"client":"Lighthouse","percentage":0.25358074518875817}],"networkPenetration":0.08253057807010729,"relayerPercentages":[{"relayer":"flashbots","percentage":0.8474945533769063},{"relayer":"blocknative","percentage":0.006535947712418301},{"relayer":"bloxroute_maxprofit","percentage":0.1111111111111111},{"relayer":"manifold","percentage":0.010893246187363835},{"relayer":"no_mev_boost","percentage":0.015250544662309368},{"relayer":"edennetwork","percentage":0.006535947712418301},{"relayer":"bloxroute_ethical","percentage":0.002178649237472767}],"nodeOperatorCount":null},{"id":"Binance","idType":"entity","timeWindow":"1d","validatorCount":23826,"avgCorrectness":0.9915463977144158,"avgInclusionDelay":1.0142177442447657,"avgUptime":0.9999449714131134,"avgValidatorEffectiveness":97.78219621877595,"clientPercentages":[{"client":"Teku","percentage":0.0060702875399361025},{"client":"Prysm","percentage":0.5313897763578275},{"client":"Lighthouse","percentage":0.4614217252396166},{"client":"Nimbus","percentage":0.0011182108626198084}],"networkPenetration":0.051415179843074296,"relayerPercentages":[{"relayer":"bloxroute_maxprofit","percentage":0.006756756756756757},{"relayer":"flashbots","percentage":0.8445945945945946},{"relayer":"blocknative","percentage":0.030405405405405407},{"relayer":"bloxroute_regulated","percentage":0.07094594594594594},{"relayer":"no_mev_boost","percentage":0.030405405405405407},{"relayer":"edennetwork","percentage":0.016891891891891893}],"nodeOperatorCount":null},{"id":"Staked.us","idType":"entity","timeWindow":"1d","validatorCount":12917,"avgCorrectness":0.9893477589560395,"avgInclusionDelay":1.018353807414216,"avgUptime":0.9987227856485393,"avgValidatorEffectiveness":97.07005311498244,"clientPercentages":[{"client":"Teku","percentage":0.25857288778637094},{"client":"Nimbus","percentage":0.00029184298847220193},{"client":"Lighthouse","percentage":0.11148402159638114},{"client":"Prysm","percentage":0.6296512476287757}],"networkPenetration":0.027874165954545064,"relayerPercentages":[{"relayer":"blocknative","percentage":0.031055900621118012},{"relayer":"edennetwork","percentage":0.043478260869565216},{"relayer":"no_mev_boost","percentage":0.13664596273291926},{"relayer":"bloxroute_ethical","percentage":0.024844720496894408},{"relayer":"flashbots","percentage":0.43478260869565216},{"relayer":"manifold","percentage":0.024844720496894408},{"relayer":"bloxroute_maxprofit","percentage":0.30434782608695654}],"nodeOperatorCount":null},{"id":"Rocketpool","idType":"entity","timeWindow":"1d","validatorCount":9232,"avgCorrectness":0.9887010359265946,"avgInclusionDelay":1.0226112525885165,"avgUptime":0.9885958928741683,"avgValidatorEffectiveness":95.72811808390651,"clientPercentages":[{"client":"Teku","percentage":0.3408782254413762},{"client":"Nimbus","percentage":0.1949977365323676},{"client":"Lighthouse","percentage":0.4125169760072431},{"client":"Prysm","percentage":0.05160706201901313}],"networkPenetration":0.019891930151660322,"relayerPercentages":[{"relayer":"blocknative","percentage":0.00909090909090909},{"relayer":"no_mev_boost","percentage":0.11818181818181818},{"relayer":"bloxroute_maxprofit","percentage":0.09090909090909091},{"relayer":"edennetwork","percentage":0.01818181818181818},{"relayer":"bloxroute_ethical","percentage":0.08181818181818182},{"relayer":"flashbots","percentage":0.6727272727272727},{"relayer":"bloxroute_regulated","percentage":0.00909090909090909}],"nodeOperatorCount":1614},{"id":"Bitcoin Suisse","idType":"entity","timeWindow":"1d","validatorCount":9214,"avgCorrectness":0.9919464993903933,"avgInclusionDelay":1.0158969085001166,"avgUptime":0.999494006704774,"avgValidatorEffectiveness":97.62042551426309,"clientPercentages":[{"client":"Lighthouse","percentage":0.00019719976336028398},{"client":"Teku","percentage":0.9743640307631631},{"client":"Nimbus","percentage":0.02484717018339578},{"client":"Prysm","percentage":0.0005915992900808519}],"networkPenetration":0.019883298374636385,"relayerPercentages":[{"relayer":"no_mev_boost","percentage":1.0}],"nodeOperatorCount":null},{"id":"Stakefish","idType":"entity","timeWindow":"1d","validatorCount":8078,"avgCorrectness":0.9882369048065945,"avgInclusionDelay":1.035488575863904,"avgUptime":0.9966317295260114,"avgValidatorEffectiveness":95.26944350362018,"clientPercentages":[{"client":"Prysm","percentage":0.000847816871555744},{"client":"Teku","percentage":0.30479016532428993},{"client":"Nimbus","percentage":0.006570580754557015},{"client":"Lighthouse","percentage":0.6877914370495973}],"networkPenetration":0.017431873699838587,"relayerPercentages":[{"relayer":"manifold","percentage":0.008333333333333333},{"relayer":"edennetwork","percentage":0.008333333333333333},{"relayer":"blocknative","percentage":0.008333333333333333},{"relayer":"no_mev_boost","percentage":0.025},{"relayer":"flashbots","percentage":0.925},{"relayer":"relayooor","percentage":0.025}],"nodeOperatorCount":null},{"id":"Celsius Network","idType":"entity","timeWindow":"1d","validatorCount":4943,"avgCorrectness":0.9914319250937138,"avgInclusionDelay":1.014501732798357,"avgUptime":0.9999091869534928,"avgValidatorEffectiveness":97.74171277260717,"clientPercentages":[{"client":"Prysm","percentage":0.9890689785148888},{"client":"Teku","percentage":0.00603090840557859},{"client":"Lighthouse","percentage":0.004900113079532605}],"networkPenetration":0.01066671845732881,"relayerPercentages":[{"relayer":"flashbots","percentage":0.9016393442622951},{"relayer":"no_mev_boost","percentage":0.09836065573770492}],"nodeOperatorCount":null},{"id":"Bitfinex","idType":"entity","timeWindow":"1d","validatorCount":3214,"avgCorrectness":0.9920761048017781,"avgInclusionDelay":1.0144176441868153,"avgUptime":0.9997967226716435,"avgValidatorEffectiveness":97.80176385304017,"clientPercentages":[{"client":"Nimbus","percentage":0.0005770340450086555},{"client":"Teku","percentage":0.01673398730525101},{"client":"Lighthouse","percentage":0.003462204270051933},{"client":"Prysm","percentage":0.9792267743796884}],"networkPenetration":0.00693563283873251,"relayerPercentages":[{"relayer":"flashbots","percentage":1.0}],"nodeOperatorCount":null},{"id":"Abyss","idType":"entity","timeWindow":"1d","validatorCount":3070,"avgCorrectness":0.9915657481336851,"avgInclusionDelay":1.0165295259347071,"avgUptime":0.9967354325009037,"avgValidatorEffectiveness":97.2696278829446,"clientPercentages":[{"client":"Lighthouse","percentage":0.08098833218943034},{"client":"Prysm","percentage":0.033630748112560054},{"client":"Nimbus","percentage":0.04461221688400824},{"client":"Teku","percentage":0.8407687028140014}],"networkPenetration":0.0066227309216148325,"relayerPercentages":[{"relayer":"no_mev_boost","percentage":0.30952380952380953},{"relayer":"relayooor","percentage":0.07142857142857142},{"relayer":"bloxroute_ethical","percentage":0.047619047619047616},{"relayer":"flashbots","percentage":0.5238095238095238},{"relayer":"bloxroute_maxprofit","percentage":0.023809523809523808},{"relayer":"edennetwork","percentage":0.023809523809523808}],"nodeOperatorCount":null},{"id":"Huobi","idType":"entity","timeWindow":"1d","validatorCount":2855,"avgCorrectness":0.9909702329057167,"avgInclusionDelay":1.0143308631211858,"avgUptime":0.9999143802296157,"avgValidatorEffectiveness":97.71241270314685,"clientPercentages":[{"client":"Lighthouse","percentage":0.007677543186180422},{"client":"Teku","percentage":0.010876519513755598},{"client":"Prysm","percentage":0.981445937300064}],"networkPenetration":0.006160930850834261,"relayerPercentages":[{"relayer":"blocknative","percentage":0.02631578947368421},{"relayer":"edennetwork","percentage":0.05263157894736842},{"relayer":"bloxroute_maxprofit","percentage":0.05263157894736842},{"relayer":"bloxroute_regulated","percentage":0.07894736842105263},{"relayer":"flashbots","percentage":0.7894736842105263}],"nodeOperatorCount":null},{"id":"Bloxstaking","idType":"entity","timeWindow":"1d","validatorCount":2687,"avgCorrectness":0.9912837452987748,"avgInclusionDelay":1.0138336357666395,"avgUptime":0.9999437621469635,"avgValidatorEffectiveness":97.79174757639836,"clientPercentages":[{"client":"Teku","percentage":0.007598784194528876},{"client":"Lighthouse","percentage":0.30851063829787234},{"client":"Prysm","percentage":0.6838905775075987}],"networkPenetration":0.0057962382715729685,"relayerPercentages":[{"relayer":"blocknative","percentage":0.05128205128205128},{"relayer":"flashbots","percentage":0.9487179487179487}],"nodeOperatorCount":null},{"id":"wedex.eth","idType":"entity","timeWindow":"1d","validatorCount":2399,"avgCorrectness":0.9898204500929821,"avgInclusionDelay":1.0157448014558907,"avgUptime":0.9935695428650827,"avgValidatorEffectiveness":96.85117301046608,"clientPercentages":[{"client":"Lighthouse","percentage":0.993841416474211},{"client":"Nimbus","percentage":0.006158583525789068}],"networkPenetration":0.005176908270105566,"relayerPercentages":[{"relayer":"manifold","percentage":0.05128205128205128},{"relayer":"blocknative","percentage":0.02564102564102564},{"relayer":"edennetwork","percentage":0.07692307692307693},{"relayer":"no_mev_boost","percentage":0.15384615384615385},{"relayer":"bloxroute_maxprofit","percentage":0.1282051282051282},{"relayer":"flashbots","percentage":0.5641025641025641}],"nodeOperatorCount":null},{"id":"Ankr","idType":"entity","timeWindow":"1d","validatorCount":2304,"avgCorrectness":0.991637535658155,"avgInclusionDelay":1.0143899465224135,"avgUptime":0.9998996913580247,"avgValidatorEffectiveness":97.77263649328805,"clientPercentages":[{"client":"Prysm","percentage":0.162291169451074},{"client":"Lighthouse","percentage":0.8369132856006364},{"client":"Teku","percentage":0.0007955449482895784}],"networkPenetration":0.004971903565787089,"relayerPercentages":[{"relayer":"no_mev_boost","percentage":0.8235294117647058},{"relayer":"flashbots","percentage":0.17647058823529413}],"nodeOperatorCount":null}]}