{"page":{"from":0,"size":15},"total":36,"next":"/v0/eth/operators?window=1d&from=15&size=15&idType=entity","data":[{"id":"Lido","idType":"entity","timeWindow":"1d","validatorCount":136450,"avgCorrectness":0.9895186725931957,"avgInclusionDelay":1.0306448543325382,"avgUptime":0.9987872106668987,"avgValidatorEffectiveness":96.03019312505235,"clientPercentages":[{"client":"Nimbus","percentage":0.01863293804721268},{"client":"Lighthouse","percentage":0.45778842956887955},{"client":"Prysm","percentage":0.3560207248143633},{"client":"Lodestar","percentage":0.003989803834644797},{"client":"Teku","percentage":0.1635681037348997}],"networkPenetration":0.30043529474280856,"relayerPercentages":[{"relayer":"blocknative","percentage":0.036651823249151436},{"relayer":"bloxroute_ethical","percentage":0.04996418895774297},{"relayer":"bloxroute_maxprofit","percentage":0.035935602404010836},{"relayer":"bloxroute_regulated","percentage":0.011630803724348394},{"relayer":"edennetwork","percentage":0.04004608725438296},{"relayer":"flashbots","percentage":0.5446236726559337},{"relayer":"manifold","percentage":0.01899542241459845},{"relayer":"no_mev_boost","percentage":0.2621523993398312}],"nodeOperatorCount":29},{"id":"Coinbase","idType":"entity","timeWindow":"1d","validatorCount":54468,"avgCorrectness":0.9880894911828505,"avgInclusionDelay":1.0299129318943545,"avgUptime":0.9967498475149528,"avgValidatorEffectiveness":95.74278639264622,"clientPercentages":[{"client":"Teku","percentage":0.20678630363036304},{"client":"Prysm","percentage":0.3576388888888889},{"client":"Lighthouse","percentage":0.428733498349835},{"client":"Nimbus","percentage":0.006841309130913091}],"networkPenetration":0.12059834207170185,"relayerPercentages":[{"relayer":"bloxroute_ethical","percentage":3.869070649230055e-05},{"relayer":"bloxroute_maxprofit","percentage":0.0031726379323686453},{"relayer":"bloxroute_regulated","percentage":3.869070649230055e-05},{"relayer":"flashbots","percentage":0.024375145090149347},{"relayer":"manifold","percentage":7.73814129846011e-05},{"relayer":"no_mev_boost","percentage":0.9722974541515128}],"nodeOperatorCount":null},{"id":"Kraken","idType":"entity","timeWindow":"1d","validatorCount":37930,"avgCorrectness":0.9894365060373954,"avgInclusionDelay":1.0267314710883249,"avgUptime":0.9967598373182341,"avgValidatorEffectiveness":96.15390210263809,"clientPercentages":[{"client":"Lighthouse","percentage":0.25358074518875817},{"client":"Prysm","percentage":0.6941969779002806},{"client":"Nimbus","percentage":9.843973027513905e-05},{"client":"Teku","percentage":0.052123837180686125}],"networkPenetration":0.08395033300269236,"relayerPercentages":[{"relayer":"blocknative","percentage":0.007764229864946143},{"relayer":"bloxroute_ethical","percentage":0.0023511400295259445},{"relayer":"bloxroute_maxprofit","percentage":0.007217453113893597},{"relayer":"edennetwork","percentage":0.00399147028268358},{"relayer":"flashbots","percentage":0.4367105910656679},{"relayer":"manifold","percentage":0.0045382470337361255},{"relayer":"no_mev_boost","percentage":0.5374268686095467}],"nodeOperatorCount":null},{"id":"Binance","idType":"entity","timeWindow":"1d","validatorCount":23826,"avgCorrectness":0.9908842392139079,"avgInclusionDelay":1.0235891825911436,"avgUptime":0.9998139162699407,"avgValidatorEffectiveness":96.86720502683868,"clientPercentages":[{"client":"Lighthouse","percentage":0.4613848734126667},{"client":"Nimbus","percentage":0.0011181215557862791},{"client":"Teku","percentage":0.006069802731411229},{"client":"Prysm","percentage":0.5314272023001357}],"networkPenetration":0.05275347173019697,"relayerPercentages":[{"relayer":"blocknative","percentage":0.0021158423697434543},{"relayer":"bloxroute_ethical","percentage":8.816009873931059e-05},{"relayer":"bloxroute_maxprofit","percentage":0.005025125628140704},{"relayer":"bloxroute_regulated","percentage":0.03658644097681389},{"relayer":"edennetwork","percentage":0.004319844838226219},{"relayer":"flashbots","percentage":0.6306091862822887},{"relayer":"no_mev_boost","percentage":0.3212553998060478}],"nodeOperatorCount":null},{"id":"Staked.us","idType":"entity","timeWindow":"1d","validatorCount":12776,"avgCorrectness":0.9892730273766319,"avgInclusionDelay":1.0270635424146235,"avgUptime":0.9991760646944886,"avgValidatorEffectiveness":96.34145663265775,"clientPercentages":[{"client":"Prysm","percentage":0.6296512476287757},{"client":"Nimbus","percentage":0.00029184298847220193},{"client":"Teku","percentage":0.25857288778637094},{"client":"Lighthouse","percentage":0.11148402159638114}],"networkPenetration":0.028256518350573898,"relayerPercentages":[{"relayer":"blocknative","percentage":0.0037209302325581397},{"relayer":"bloxroute_ethical","percentage":0.0001550387596899225},{"relayer":"bloxroute_maxprofit","percentage":0.0032558139534883722},{"relayer":"edennetwork","percentage":0.008992248062015503},{"relayer":"flashbots","percentage":0.5655813953488372},{"relayer":"manifold","percentage":0.004806201550387597},{"relayer":"no_mev_boost","percentage":0.41348837209302325}],"nodeOperatorCount":null},{"id":"Bitcoin Suisse","idType":"entity","timeWindow":"1d","validatorCount":9214,"avgCorrectness":0.9912594526124925,"avgInclusionDelay":1.0264687225005495,"avgUptime":0.9996133557974225,"avgValidatorEffectiveness":96.62213446576358,"clientPercentages":[{"client":"Teku","percentage":0.9743690851735016},{"client":"Prysm","percentage":0.0005914826498422713},{"client":"Lighthouse","percentage":0.0001971608832807571},{"client":"Nimbus","percentage":0.024842271293375396}],"networkPenetration":0.020400843134476408,"relayerPercentages":[{"relayer":"no_mev_boost","percentage":1.0}],"nodeOperatorCount":null},{"id":"Rocketpool","idType":"entity","timeWindow":"1d","validatorCount":9076,"avgCorrectness":0.9870789697783221,"avgInclusionDelay":1.033596971440236,"avgUptime":0.9908177460244807,"avgValidatorEffectiveness":94.88183876696019,"clientPercentages":[{"client":"Teku","percentage":0.3408782254413762},{"client":"Prysm","percentage":0.05160706201901313},{"client":"Nimbus","percentage":0.1949977365323676},{"client":"Lighthouse","percentage":0.4125169760072431}],"networkPenetration":0.020082010769448773,"relayerPercentages":[{"relayer":"blocknative","percentage":0.05407319952774498},{"relayer":"bloxroute_ethical","percentage":0.03683589138134593},{"relayer":"bloxroute_maxprofit","percentage":0.08524203069657615},{"relayer":"bloxroute_regulated","percentage":0.05926800472255018},{"relayer":"edennetwork","percentage":0.0448642266824085},{"relayer":"flashbots","percentage":0.5447461629279811},{"relayer":"manifold","percentage":0.001652892561983471},{"relayer":"no_mev_boost","percentage":0.17331759149940967}],"nodeOperatorCount":1576},{"id":"Stakefish","idType":"entity","timeWindow":"1d","validatorCount":8059,"avgCorrectness":0.9870325088911919,"avgInclusionDelay":1.0526100788874608,"avgUptime":0.9970741328338424,"avgValidatorEffectiveness":93.74807922038835,"clientPercentages":[{"client":"Teku","percentage":0.30479016532428993},{"client":"Nimbus","percentage":0.006570580754557015},{"client":"Prysm","percentage":0.000847816871555744},{"client":"Lighthouse","percentage":0.6877914370495973}],"networkPenetration":0.017843541873317274,"relayerPercentages":[{"relayer":"bloxroute_ethical","percentage":0.00022301516503122213},{"relayer":"bloxroute_maxprofit","percentage":0.002007136485280999},{"relayer":"bloxroute_regulated","percentage":0.00022301516503122213},{"relayer":"edennetwork","percentage":0.00022301516503122213},{"relayer":"flashbots","percentage":0.894513826940232},{"relayer":"manifold","percentage":0.08407671721677074},{"relayer":"no_mev_boost","percentage":0.01873327386262266}],"nodeOperatorCount":null},{"id":"Celsius Network","idType":"entity","timeWindow":"1d","validatorCount":4943,"avgCorrectness":0.9910290100629293,"avgInclusionDelay":1.0236173664671349,"avgUptime":0.9998439933495822,"avgValidatorEffectiveness":96.8798450483093,"clientPercentages":[{"client":"Teku","percentage":0.00603090840557859},{"client":"Prysm","percentage":0.9890689785148888},{"client":"Lighthouse","percentage":0.004900113079532605}],"networkPenetration":0.010944363752302679,"relayerPercentages":[{"relayer":"flashbots","percentage":0.9489081170168933},{"relayer":"no_mev_boost","percentage":0.05109188298310672}],"nodeOperatorCount":null},{"id":"Bitfinex","idType":"entity","timeWindow":"1d","validatorCount":3214,"avgCorrectness":0.991224254628698,"avgInclusionDelay":1.0230023601916645,"avgUptime":0.9998990373218362,"avgValidatorEffectiveness":96.96011471159875,"clientPercentages":[{"client":"Nimbus","percentage":0.0005767012687427913},{"client":"Prysm","percentage":0.9792387543252595},{"client":"Teku","percentage":0.016724336793540944},{"client":"Lighthouse","percentage":0.0034602076124567475}],"networkPenetration":0.007116161258325067,"relayerPercentages":[{"relayer":"blocknative","percentage":0.000630119722747322},{"relayer":"bloxroute_maxprofit","percentage":0.001260239445494644},{"relayer":"edennetwork","percentage":0.00315059861373661},{"relayer":"flashbots","percentage":0.6521739130434783},{"relayer":"no_mev_boost","percentage":0.3427851291745432}],"nodeOperatorCount":null},{"id":"Huobi","idType":"entity","timeWindow":"1d","validatorCount":2855,"avgCorrectness":0.9905821326785204,"avgInclusionDelay":1.0231649951184876,"avgUptime":0.9998240520668278,"avgValidatorEffectiveness":96.8745969900065,"clientPercentages":[{"client":"Prysm","percentage":0.981445937300064},{"client":"Teku","percentage":0.010876519513755598},{"client":"Lighthouse","percentage":0.007677543186180422}],"networkPenetration":0.006321294459402012,"relayerPercentages":[{"relayer":"blocknative","percentage":0.05659025787965616},{"relayer":"bloxroute_ethical","percentage":0.044412607449856735},{"relayer":"bloxroute_maxprofit","percentage":0.09742120343839542},{"relayer":"bloxroute_regulated","percentage":0.058022922636103154},{"relayer":"edennetwork","percentage":0.09813753581661891},{"relayer":"flashbots","percentage":0.576647564469914},{"relayer":"manifold","percentage":0.05730659025787966},{"relayer":"no_mev_boost","percentage":0.011461318051575931}],"nodeOperatorCount":null},{"id":"Abyss","idType":"entity","timeWindow":"1d","validatorCount":2837,"avgCorrectness":0.9905738594605339,"avgInclusionDelay":1.025691463902642,"avgUptime":0.998772523373114,"avgValidatorEffectiveness":96.55624801444604,"clientPercentages":[{"client":"Teku","percentage":0.8407687028140014},{"client":"Lighthouse","percentage":0.08098833218943034},{"client":"Prysm","percentage":0.033630748112560054},{"client":"Nimbus","percentage":0.04461221688400824}],"networkPenetration":0.006281440413773558,"relayerPercentages":[{"relayer":"blocknative","percentage":0.007122507122507123},{"relayer":"bloxroute_ethical","percentage":0.00641025641025641},{"relayer":"bloxroute_maxprofit","percentage":0.02207977207977208},{"relayer":"bloxroute_regulated","percentage":0.014245014245014245},{"relayer":"edennetwork","percentage":0.014245014245014245},{"relayer":"flashbots","percentage":0.353988603988604},{"relayer":"manifold","percentage":0.004273504273504274},{"relayer":"no_mev_boost","percentage":0.5776353276353277}],"nodeOperatorCount":null},{"id":"Bloxstaking","idType":"entity","timeWindow":"1d","validatorCount":2587,"avgCorrectness":0.9898543826397851,"avgInclusionDelay":1.023932098309331,"avgUptime":0.9998591055092313,"avgValidatorEffectiveness":96.74032563277859,"clientPercentages":[{"client":"Lighthouse","percentage":0.30839002267573695},{"client":"Teku","percentage":0.006046863189720333},{"client":"Prysm","percentage":0.6855631141345427}],"networkPenetration":0.005727912002267252,"relayerPercentages":[{"relayer":"blocknative","percentage":0.044534412955465584},{"relayer":"bloxroute_ethical","percentage":0.0032388663967611335},{"relayer":"flashbots","percentage":0.9368421052631579},{"relayer":"no_mev_boost","percentage":0.015384615384615385}],"nodeOperatorCount":null},{"id":"wedex.eth","idType":"entity","timeWindow":"1d","validatorCount":2399,"avgCorrectness":0.9898229783343987,"avgInclusionDelay":1.0239550291180708,"avgUptime":0.9985009668380344,"avgValidatorEffectiveness":96.59711534505033,"clientPercentages":[{"client":"Lighthouse","percentage":0.993841416474211},{"client":"Nimbus","percentage":0.006158583525789068}],"networkPenetration":0.00531165863681451,"relayerPercentages":[{"relayer":"blocknative","percentage":0.04695652173913043},{"relayer":"bloxroute_ethical","percentage":0.009565217391304347},{"relayer":"bloxroute_maxprofit","percentage":0.11652173913043479},{"relayer":"edennetwork","percentage":0.11565217391304349},{"relayer":"flashbots","percentage":0.45217391304347826},{"relayer":"manifold","percentage":0.04434782608695652},{"relayer":"no_mev_boost","percentage":0.21478260869565216}],"nodeOperatorCount":null},{"id":"Ankr","idType":"entity","timeWindow":"1d","validatorCount":2300,"avgCorrectness":0.9906071163383281,"avgInclusionDelay":1.0241293832839657,"avgUptime":0.9998386300897171,"avgValidatorEffectiveness":96.7966211351563,"clientPercentages":[{"client":"Prysm","percentage":0.162291169451074},{"client":"Lighthouse","percentage":0.8369132856006364},{"client":"Teku","percentage":0.0007955449482895784}],"networkPenetration":0.0050924613858580135,"relayerPercentages":[{"relayer":"flashbots","percentage":0.14156898106402163},{"relayer":"no_mev_boost","percentage":0.8584310189359784}],"nodeOperatorCount":null}]}