{"page":{"from":0,"size":15},"total":30,"next":"/v0/eth/operators?window=1d&from=15&size=15&idType=entity","data":[{"id":"Lido","idType":"entity","timeWindow":"1d","validatorCount":130680,"avgCorrectness":0.9829364090206055,"avgInclusionDelay":1.0540592615361517,"avgUptime":0.9964309041977576,"avgValidatorEffectiveness":94.40375812376183,"clientPercentages":[{"client":"Nimbus","percentage":0.02478589693288055},{"client":"Teku","percentage":0.22193660113917715},{"client":"Prysm","percentage":0.40259494270290747},{"client":"Lodestar","percentage":0.00037882375224926605},{"client":"Lighthouse","percentage":0.3503037354727856}],"networkPenetration":0.30301291714768197},{"id":"Coinbase","idType":"entity","timeWindow":"1d","validatorCount":54661,"avgCorrectness":0.984073164312302,"avgInclusionDelay":1.044157191529318,"avgUptime":0.9988405107977191,"avgValidatorEffectiveness":95.37738773936942,"clientPercentages":[{"client":"Teku","percentage":0.13399778516057587},{"client":"Prysm","percentage":0.38444243095405883},{"client":"Lighthouse","percentage":0.42602100741635623},{"client":"Nimbus","percentage":0.055538776469009024}],"networkPenetration":0.1269671299124533},{"id":"Kraken","idType":"entity","timeWindow":"1d","validatorCount":37169,"avgCorrectness":0.9855703267659246,"avgInclusionDelay":1.0418427088100668,"avgUptime":0.9992381724442948,"avgValidatorEffectiveness":95.66286191215124,"clientPercentages":[{"client":"Prysm","percentage":0.6236543567463191},{"client":"Nimbus","percentage":0.01955104996379435},{"client":"Lighthouse","percentage":0.26280473087134926},{"client":"Teku","percentage":0.0939898624185373}],"networkPenetration":0.08628543156652645},{"id":"Binance","idType":"entity","timeWindow":"1d","validatorCount":22496,"avgCorrectness":0.986302176715809,"avgInclusionDelay":1.0421468439758999,"avgUptime":0.9979590913164089,"avgValidatorEffectiveness":95.5864092604149,"clientPercentages":[{"client":"Teku","percentage":0.0005820237798287187},{"client":"Lighthouse","percentage":0.35769518583187826},{"client":"Nimbus","percentage":0.030764114076660846},{"client":"Prysm","percentage":0.6109586763116321}],"networkPenetration":0.052253938905445364},{"id":"Bitcoin Suisse","idType":"entity","timeWindow":"1d","validatorCount":9062,"avgCorrectness":0.9878382822489404,"avgInclusionDelay":1.042131923634784,"avgUptime":0.9992654942319752,"avgValidatorEffectiveness":95.77338089209599,"clientPercentages":[{"client":"Teku","percentage":0.9935897435897436},{"client":"Nimbus","percentage":0.00641025641025641}],"networkPenetration":0.02104930629272519},{"id":"Rocketpool","idType":"entity","timeWindow":"1d","validatorCount":7766,"avgCorrectness":0.9798297438690662,"avgInclusionDelay":1.054275803804261,"avgUptime":0.9865352109965905,"avgValidatorEffectiveness":93.51576317845051,"clientPercentages":[{"client":"Teku","percentage":0.3027893814849751},{"client":"Lighthouse","percentage":0.4175987063738041},{"client":"Prysm","percentage":0.053901091497102815},{"client":"Nimbus","percentage":0.22571082064411804}],"networkPenetration":0.01787634752028394},{"id":"Staked.us","idType":"entity","timeWindow":"1d","validatorCount":5263,"avgCorrectness":0.9842974134031592,"avgInclusionDelay":1.042771048174975,"avgUptime":0.9988653455238592,"avgValidatorEffectiveness":95.48988378655972,"clientPercentages":[{"client":"Prysm","percentage":0.47178789938817134},{"client":"Lighthouse","percentage":0.005778382053025153},{"client":"Teku","percentage":0.49422161794697483},{"client":"Nimbus","percentage":0.02821210061182869}],"networkPenetration":0.01222495023379085},{"id":"f2pool.eth","idType":"entity","timeWindow":"1d","validatorCount":3501,"avgCorrectness":0.9838567883774503,"avgInclusionDelay":1.0611279724665823,"avgUptime":0.9928552046354098,"avgValidatorEffectiveness":93.61438417589454,"clientPercentages":[{"client":"Prysm","percentage":0.013612056392805057},{"client":"Lighthouse","percentage":0.986387943607195}],"networkPenetration":0.008132158610773658},{"id":"Bitfinex","idType":"entity","timeWindow":"1d","validatorCount":3214,"avgCorrectness":0.9876980076132302,"avgInclusionDelay":1.037985232767874,"avgUptime":0.9998049919252074,"avgValidatorEffectiveness":96.12858782434321,"clientPercentages":[{"client":"Lighthouse","percentage":0.004501969611705121},{"client":"Teku","percentage":0.012380416432189083},{"client":"Nimbus","percentage":0.03939223410241981},{"client":"Prysm","percentage":0.943725379853686}],"networkPenetration":0.007465512075128974},{"id":"Huobi","idType":"entity","timeWindow":"1d","validatorCount":2855,"avgCorrectness":0.9868965409857763,"avgInclusionDelay":1.0384072808239975,"avgUptime":0.9998583347232648,"avgValidatorEffectiveness":96.05492748065954,"clientPercentages":[{"client":"Teku","percentage":0.002430133657351154},{"client":"Nimbus","percentage":0.04495747266099635},{"client":"Prysm","percentage":0.9520048602673147},{"client":"Lighthouse","percentage":0.0006075334143377885}],"networkPenetration":0.006631623203015937},{"id":"Bloxstaking","idType":"entity","timeWindow":"1d","validatorCount":2497,"avgCorrectness":0.9849816588274145,"avgInclusionDelay":1.0416063475629893,"avgUptime":0.9996133796065972,"avgValidatorEffectiveness":95.68614286204803,"clientPercentages":[{"client":"Teku","percentage":0.0022404779686333084},{"client":"Prysm","percentage":0.48618371919342795},{"client":"Lighthouse","percentage":0.4876773711725168},{"client":"Nimbus","percentage":0.02389843166542196}],"networkPenetration":0.005786120279759264},{"id":"wedex.eth","idType":"entity","timeWindow":"1d","validatorCount":2399,"avgCorrectness":0.9752229529374317,"avgInclusionDelay":1.0816191101985961,"avgUptime":0.9953412301421893,"avgValidatorEffectiveness":91.81253499561672,"clientPercentages":[{"client":"Lighthouse","percentage":1.0}],"networkPenetration":0.005572421738716369},{"id":"Ankr","idType":"entity","timeWindow":"1d","validatorCount":2298,"avgCorrectness":0.9866935987067977,"avgInclusionDelay":1.0385842105110412,"avgUptime":0.9996914760247012,"avgValidatorEffectiveness":96.017510841801,"clientPercentages":[{"client":"Lighthouse","percentage":0.011122345803842264},{"client":"Teku","percentage":0.006066734074823054},{"client":"Prysm","percentage":0.9464105156723963},{"client":"Nimbus","percentage":0.03640040444893832}],"networkPenetration":0.005337817905614929},{"id":"StakeWise","idType":"entity","timeWindow":"1d","validatorCount":1987,"avgCorrectness":0.9859712628942451,"avgInclusionDelay":1.0416635409587172,"avgUptime":0.999383509699606,"avgValidatorEffectiveness":95.7140075007284,"clientPercentages":[{"client":"Lighthouse","percentage":0.5298245614035088},{"client":"Teku","percentage":0.060526315789473685},{"client":"Prysm","percentage":0.3850877192982456},{"client":"Nimbus","percentage":0.02456140350877193}],"networkPenetration":0.004613101114252067},{"id":"OKex","idType":"entity","timeWindow":"1d","validatorCount":1765,"avgCorrectness":0.9856843460389303,"avgInclusionDelay":1.0380749766220734,"avgUptime":0.9998673968591845,"avgValidatorEffectiveness":96.01773180580142,"clientPercentages":[{"client":"Prysm","percentage":0.9401888772298006},{"client":"Teku","percentage":0.002098635886673662},{"client":"Nimbus","percentage":0.04512067156348373},{"client":"Lighthouse","percentage":0.012591815320041973}],"networkPenetration":0.004083500382102282}]}