{"page":{"from":0,"size":15},"total":36,"next":"/v0/eth/operators?window=1d&from=15&size=15&idType=entity","data":[{"id":"Lido","idType":"entity","timeWindow":"1d","validatorCount":133828,"avgCorrectness":0.9892870250477266,"avgInclusionDelay":1.0301145107676777,"avgUptime":0.997721548509054,"avgValidatorEffectiveness":95.97256114304088,"clientPercentages":[{"client":"Teku","percentage":0.19303246714277142},{"client":"Nimbus","percentage":0.02589569705335174},{"client":"Lighthouse","percentage":0.3920362479745544},{"client":"Lodestar","percentage":0.001155254155914301},{"client":"Prysm","percentage":0.38788033367340813}],"networkPenetration":0.30003006493127693,"relayerPercentages":[{"relayer":"no_mev_boost","percentage":0.4213474428997021},{"relayer":"bloxroute_maxprofit","percentage":0.032103401191658394},{"relayer":"blocknative","percentage":0.033841236345580936},{"relayer":"bloxroute_ethical","percentage":0.04010985600794439},{"relayer":"flashbots","percentage":0.4207267874875869},{"relayer":"bloxroute_regulated","percentage":0.010923535253227408},{"relayer":"edennetwork","percentage":0.022234980139026812},{"relayer":"manifold","percentage":0.01871276067527309}],"nodeOperatorCount":29},{"id":"Coinbase","idType":"entity","timeWindow":"1d","validatorCount":54230,"avgCorrectness":0.9882905071548173,"avgInclusionDelay":1.0273563643461021,"avgUptime":0.9973357473605949,"avgValidatorEffectiveness":96.05877841979131,"clientPercentages":[{"client":"Prysm","percentage":0.3810078101531992},{"client":"Lighthouse","percentage":0.4350405527185341},{"client":"Nimbus","percentage":0.02177831180534695},{"client":"Teku","percentage":0.1621733253229198}],"networkPenetration":0.12167322560814177,"relayerPercentages":[{"relayer":"bloxroute_regulated","percentage":3.865182436611008e-05},{"relayer":"no_mev_boost","percentage":0.9994588744588745},{"relayer":"flashbots","percentage":0.00042517006802721087},{"relayer":"manifold","percentage":7.730364873222017e-05}],"nodeOperatorCount":null},{"id":"Kraken","idType":"entity","timeWindow":"1d","validatorCount":37801,"avgCorrectness":0.9897617124041078,"avgInclusionDelay":1.0243239612803163,"avgUptime":0.9981945732487785,"avgValidatorEffectiveness":96.5499307673746,"clientPercentages":[{"client":"Prysm","percentage":0.6222139077449356},{"client":"Nimbus","percentage":0.00010690042225666791},{"client":"Lighthouse","percentage":0.2660751509968464},{"client":"Teku","percentage":0.1116040408359613}],"networkPenetration":0.08473823316924761,"relayerPercentages":[{"relayer":"edennetwork","percentage":0.0022055580061755625},{"relayer":"blocknative","percentage":0.008601676224084693},{"relayer":"no_mev_boost","percentage":0.5508381120423467},{"relayer":"bloxroute_ethical","percentage":0.0011579179532421704},{"relayer":"flashbots","percentage":0.4305249228054698},{"relayer":"manifold","percentage":0.002481252756947508},{"relayer":"bloxroute_maxprofit","percentage":0.0041905602117335685}],"nodeOperatorCount":null},{"id":"Binance","idType":"entity","timeWindow":"1d","validatorCount":23826,"avgCorrectness":0.9910474292573492,"avgInclusionDelay":1.0213054813678326,"avgUptime":0.9997671864572295,"avgValidatorEffectiveness":97.09718058079517,"clientPercentages":[{"client":"Nimbus","percentage":0.00026497085320614734},{"client":"Teku","percentage":0.013248542660307366},{"client":"Lighthouse","percentage":0.42483660130718953},{"client":"Prysm","percentage":0.5616498851792969}],"networkPenetration":0.052927740956962274,"relayerPercentages":[{"relayer":"bloxroute_maxprofit","percentage":0.00706555764242912},{"relayer":"no_mev_boost","percentage":0.5071997138001968},{"relayer":"flashbots","percentage":0.4555048743403989},{"relayer":"bloxroute_regulated","percentage":0.023969233521151954},{"relayer":"edennetwork","percentage":0.003935247294517485},{"relayer":"blocknative","percentage":0.0022359359627940256},{"relayer":"bloxroute_ethical","percentage":8.943743851176102e-05}],"nodeOperatorCount":null},{"id":"Staked.us","idType":"entity","timeWindow":"1d","validatorCount":12668,"avgCorrectness":0.9889365350269029,"avgInclusionDelay":1.0264136723128192,"avgUptime":0.9988376869022887,"avgValidatorEffectiveness":96.35072251024553,"clientPercentages":[{"client":"Nimbus","percentage":0.0004874878128046799},{"client":"Lighthouse","percentage":0.055573610659733506},{"client":"Teku","percentage":0.39681507962300944},{"client":"Prysm","percentage":0.5471238219044524}],"networkPenetration":0.028276740961449578,"relayerPercentages":[{"relayer":"manifold","percentage":0.0058021013015524545},{"relayer":"no_mev_boost","percentage":0.4039517014270033},{"relayer":"bloxroute_maxprofit","percentage":0.004077152265955779},{"relayer":"flashbots","percentage":0.5861690450054885}],"nodeOperatorCount":null},{"id":"Bitcoin Suisse","idType":"entity","timeWindow":"1d","validatorCount":9184,"avgCorrectness":0.9906829860949635,"avgInclusionDelay":1.0266966140383513,"avgUptime":0.9990516687493091,"avgValidatorEffectiveness":96.50222690323898,"clientPercentages":[{"client":"Nimbus","percentage":0.0330117899249732},{"client":"Teku","percentage":0.9669882100750268}],"networkPenetration":0.02060569618265119,"relayerPercentages":[{"relayer":"no_mev_boost","percentage":1.0}],"nodeOperatorCount":null},{"id":"Rocketpool","idType":"entity","timeWindow":"1d","validatorCount":8912,"avgCorrectness":0.986432439110418,"avgInclusionDelay":1.036314465096305,"avgUptime":0.9849406587705212,"avgValidatorEffectiveness":94.18471231957635,"clientPercentages":[{"client":"Nimbus","percentage":0.222397250465416},{"client":"Lighthouse","percentage":0.43190605756838035},{"client":"Prysm","percentage":0.045825576399828157},{"client":"Teku","percentage":0.29987111556637547}],"networkPenetration":0.019979717389645997,"relayerPercentages":[{"relayer":"no_mev_boost","percentage":0.22115384615384615},{"relayer":"bloxroute_maxprofit","percentage":0.09158653846153846},{"relayer":"bloxroute_ethical","percentage":0.03365384615384615},{"relayer":"blocknative","percentage":0.053125},{"relayer":"bloxroute_regulated","percentage":0.06634615384615385},{"relayer":"edennetwork","percentage":0.030528846153846153},{"relayer":"manifold","percentage":0.0019230769230769232},{"relayer":"flashbots","percentage":0.5016826923076924}],"nodeOperatorCount":1553},{"id":"Stakefish","idType":"entity","timeWindow":"1d","validatorCount":8059,"avgCorrectness":0.9875708662432627,"avgInclusionDelay":1.0484801766762084,"avgUptime":0.9802074088517807,"avgValidatorEffectiveness":92.53632666127069,"clientPercentages":[{"client":"Nimbus","percentage":0.0009136592051164915},{"client":"Lighthouse","percentage":0.9885792599360439},{"client":"Prysm","percentage":0.0011420740063956144},{"client":"Teku","percentage":0.009365006852444038}],"networkPenetration":0.018081588146339932,"relayerPercentages":[{"relayer":"flashbots","percentage":0.8441323062981423},{"relayer":"no_mev_boost","percentage":0.04802899864068872},{"relayer":"bloxroute_maxprofit","percentage":0.0009062075215224287},{"relayer":"manifold","percentage":0.10670593565926598},{"relayer":"bloxroute_regulated","percentage":0.00022655188038060717}],"nodeOperatorCount":null},{"id":"Celsius Network","idType":"entity","timeWindow":"1d","validatorCount":4943,"avgCorrectness":0.9911756245290296,"avgInclusionDelay":1.0223952180363352,"avgUptime":0.9997639519089048,"avgValidatorEffectiveness":97.01523355578286,"clientPercentages":[{"client":"Teku","percentage":0.012316249503377036},{"client":"Lighthouse","percentage":0.021056813667063964},{"client":"Prysm","percentage":0.966626936829559}],"networkPenetration":0.011090369798654706,"relayerPercentages":[{"relayer":"flashbots","percentage":0.9586092715231788},{"relayer":"no_mev_boost","percentage":0.041390728476821195}],"nodeOperatorCount":null},{"id":"Bitfinex","idType":"entity","timeWindow":"1d","validatorCount":3214,"avgCorrectness":0.9916379887464521,"avgInclusionDelay":1.0215029074431652,"avgUptime":0.9998202155006377,"avgValidatorEffectiveness":97.14462342701032,"clientPercentages":[{"client":"Teku","percentage":0.03431372549019608},{"client":"Prysm","percentage":0.9564950980392157},{"client":"Lighthouse","percentage":0.009191176470588236}],"networkPenetration":0.007211096203292783,"relayerPercentages":[{"relayer":"flashbots","percentage":0.4323116219667944},{"relayer":"no_mev_boost","percentage":0.5676883780332056}],"nodeOperatorCount":null},{"id":"Huobi","idType":"entity","timeWindow":"1d","validatorCount":2855,"avgCorrectness":0.9909252101948254,"avgInclusionDelay":1.021742278668664,"avgUptime":0.9997672559975535,"avgValidatorEffectiveness":97.04790642178602,"clientPercentages":[{"client":"Lighthouse","percentage":0.007670850767085077},{"client":"Prysm","percentage":0.9693165969316597},{"client":"Teku","percentage":0.02301255230125523}],"networkPenetration":0.006405625283261013,"relayerPercentages":[{"relayer":"bloxroute_maxprofit","percentage":0.08673469387755102},{"relayer":"flashbots","percentage":0.5357142857142857},{"relayer":"blocknative","percentage":0.04591836734693878},{"relayer":"edennetwork","percentage":0.07653061224489796},{"relayer":"no_mev_boost","percentage":0.08965014577259475},{"relayer":"manifold","percentage":0.04227405247813411},{"relayer":"bloxroute_ethical","percentage":0.07507288629737609},{"relayer":"bloxroute_regulated","percentage":0.048104956268221574}],"nodeOperatorCount":null},{"id":"Abyss","idType":"entity","timeWindow":"1d","validatorCount":2814,"avgCorrectness":0.9907290805688561,"avgInclusionDelay":1.0239919048501689,"avgUptime":0.998508893297545,"avgValidatorEffectiveness":96.71586967765668,"clientPercentages":[{"client":"Nimbus","percentage":0.026604068857589983},{"client":"Lighthouse","percentage":0.08607198748043818},{"client":"Teku","percentage":0.8615023474178404},{"client":"Prysm","percentage":0.025821596244131457}],"networkPenetration":0.006313635568159891,"relayerPercentages":[{"relayer":"flashbots","percentage":0.3379061371841155},{"relayer":"no_mev_boost","percentage":0.6021660649819495},{"relayer":"edennetwork","percentage":0.011552346570397111},{"relayer":"bloxroute_maxprofit","percentage":0.020938628158844765},{"relayer":"bloxroute_ethical","percentage":0.005776173285198556},{"relayer":"manifold","percentage":0.002888086642599278},{"relayer":"bloxroute_regulated","percentage":0.01444043321299639},{"relayer":"blocknative","percentage":0.004332129963898917}],"nodeOperatorCount":null},{"id":"Bloxstaking","idType":"entity","timeWindow":"1d","validatorCount":2564,"avgCorrectness":0.9901328312919754,"avgInclusionDelay":1.0210602981059322,"avgUptime":0.9962108005887527,"avgValidatorEffectiveness":96.68608384106636,"clientPercentages":[{"client":"Prysm","percentage":0.49072512647554806},{"client":"Teku","percentage":0.007588532883642495},{"client":"Lighthouse","percentage":0.5016863406408094}],"networkPenetration":0.005743748064850505,"relayerPercentages":[{"relayer":"no_mev_boost","percentage":0.02073365231259968},{"relayer":"blocknative","percentage":0.07575757575757576},{"relayer":"bloxroute_ethical","percentage":0.003189792663476874},{"relayer":"flashbots","percentage":0.9003189792663477}],"nodeOperatorCount":null},{"id":"wedex.eth","idType":"entity","timeWindow":"1d","validatorCount":2399,"avgCorrectness":0.9895807539485647,"avgInclusionDelay":1.0222265295693713,"avgUptime":0.9988717479836177,"avgValidatorEffectiveness":96.79002958270328,"clientPercentages":[{"client":"Prysm","percentage":0.001606425702811245},{"client":"Lighthouse","percentage":0.9983935742971888}],"networkPenetration":0.005382520159209516,"relayerPercentages":[{"relayer":"flashbots","percentage":0.4592720970537262},{"relayer":"manifold","percentage":0.04246100519930676},{"relayer":"blocknative","percentage":0.060658578856152515},{"relayer":"no_mev_boost","percentage":0.15684575389948008},{"relayer":"bloxroute_ethical","percentage":0.009532062391681109},{"relayer":"bloxroute_maxprofit","percentage":0.18110918544194107},{"relayer":"edennetwork","percentage":0.09012131715771231}],"nodeOperatorCount":null},{"id":"Ankr","idType":"entity","timeWindow":"1d","validatorCount":2300,"avgCorrectness":0.9904479489251365,"avgInclusionDelay":1.0219502576811403,"avgUptime":0.9997304089026915,"avgValidatorEffectiveness":96.97881622636987,"clientPercentages":[{"client":"Prysm","percentage":0.526829268292683},{"client":"Lighthouse","percentage":0.46731707317073173},{"client":"Teku","percentage":0.005853658536585366}],"networkPenetration":0.005160398652014126,"relayerPercentages":[{"relayer":"no_mev_boost","percentage":0.8544027898866609},{"relayer":"flashbots","percentage":0.14559721011333915}],"nodeOperatorCount":null}]}