{"page":{"from":0,"size":15},"total":30,"next":"/v0/eth/operators?window=1d&from=15&size=15&idType=entity","data":[{"id":"Lido","idType":"entity","timeWindow":"1d","validatorCount":130828,"avgCorrectness":0.9845948912552674,"avgInclusionDelay":1.048551440085015,"avgUptime":0.9973888824388502,"avgValidatorEffectiveness":94.9531000716514,"clientPercentages":[{"client":"Prysm","percentage":0.40259494270290747},{"client":"Nimbus","percentage":0.02478589693288055},{"client":"Teku","percentage":0.22193660113917715},{"client":"Lighthouse","percentage":0.3503037354727856},{"client":"Lodestar","percentage":0.00037882375224926605}],"networkPenetration":0.3030991821795865},{"id":"Coinbase","idType":"entity","timeWindow":"1d","validatorCount":54661,"avgCorrectness":0.9839220138862319,"avgInclusionDelay":1.0437049570542758,"avgUptime":0.9988792782454536,"avgValidatorEffectiveness":95.38498760977095,"clientPercentages":[{"client":"Lighthouse","percentage":0.42602100741635623},{"client":"Prysm","percentage":0.38444243095405883},{"client":"Teku","percentage":0.13399778516057587},{"client":"Nimbus","percentage":0.055538776469009024}],"networkPenetration":0.1267807192923047},{"id":"Kraken","idType":"entity","timeWindow":"1d","validatorCount":37192,"avgCorrectness":0.9855963398405522,"avgInclusionDelay":1.0406763121602431,"avgUptime":0.9990065306476785,"avgValidatorEffectiveness":95.71848817557401,"clientPercentages":[{"client":"Teku","percentage":0.0939898624185373},{"client":"Prysm","percentage":0.6236543567463191},{"client":"Lighthouse","percentage":0.26280473087134926},{"client":"Nimbus","percentage":0.01955104996379435}],"networkPenetration":0.08620977580680327},{"id":"Binance","idType":"entity","timeWindow":"1d","validatorCount":22496,"avgCorrectness":0.9863899375053201,"avgInclusionDelay":1.0415524296118284,"avgUptime":0.9980979153789598,"avgValidatorEffectiveness":95.63036943590939,"clientPercentages":[{"client":"Teku","percentage":0.0005820237798287187},{"client":"Prysm","percentage":0.6109586763116321},{"client":"Nimbus","percentage":0.030764114076660846},{"client":"Lighthouse","percentage":0.35769518583187826}],"networkPenetration":0.05217722070945805},{"id":"Bitcoin Suisse","idType":"entity","timeWindow":"1d","validatorCount":9123,"avgCorrectness":0.9879201464245487,"avgInclusionDelay":1.0425905685479597,"avgUptime":0.9993637102837889,"avgValidatorEffectiveness":95.72914374967809,"clientPercentages":[{"client":"Nimbus","percentage":0.00641025641025641},{"client":"Teku","percentage":0.9935897435897436}],"networkPenetration":0.02101840211900377},{"id":"Rocketpool","idType":"entity","timeWindow":"1d","validatorCount":7832,"avgCorrectness":0.9793105160617164,"avgInclusionDelay":1.0547291016479743,"avgUptime":0.9844290395625501,"avgValidatorEffectiveness":93.24989416893578,"clientPercentages":[{"client":"Prysm","percentage":0.053901091497102815},{"client":"Teku","percentage":0.3027893814849751},{"client":"Lighthouse","percentage":0.4175987063738041},{"client":"Nimbus","percentage":0.22571082064411804}],"networkPenetration":0.018012459816396303},{"id":"Staked.us","idType":"entity","timeWindow":"1d","validatorCount":5263,"avgCorrectness":0.9841673143347868,"avgInclusionDelay":1.0421738658200703,"avgUptime":0.9991512513232541,"avgValidatorEffectiveness":95.54154595519131,"clientPercentages":[{"client":"Nimbus","percentage":0.02821210061182869},{"client":"Prysm","percentage":0.47178789938817134},{"client":"Teku","percentage":0.49422161794697483},{"client":"Lighthouse","percentage":0.005778382053025153}],"networkPenetration":0.01220700180449314},{"id":"f2pool.eth","idType":"entity","timeWindow":"1d","validatorCount":3501,"avgCorrectness":0.9843406238694428,"avgInclusionDelay":1.0571564991620295,"avgUptime":0.993107218799164,"avgValidatorEffectiveness":93.94477615512938,"clientPercentages":[{"client":"Lighthouse","percentage":0.986387943607195},{"client":"Prysm","percentage":0.013612056392805057}],"networkPenetration":0.0081202191369049},{"id":"Bitfinex","idType":"entity","timeWindow":"1d","validatorCount":3214,"avgCorrectness":0.9878593402884405,"avgInclusionDelay":1.0369652604292026,"avgUptime":0.9997490085538467,"avgValidatorEffectiveness":96.19380754041441,"clientPercentages":[{"client":"Lighthouse","percentage":0.004501969611705121},{"client":"Teku","percentage":0.012380416432189083},{"client":"Prysm","percentage":0.943725379853686},{"client":"Nimbus","percentage":0.03939223410241981}],"networkPenetration":0.007454551358472536},{"id":"Huobi","idType":"entity","timeWindow":"1d","validatorCount":2855,"avgCorrectness":0.9871402512937213,"avgInclusionDelay":1.0370081737802197,"avgUptime":0.9998528827175934,"avgValidatorEffectiveness":96.1735159063661,"clientPercentages":[{"client":"Lighthouse","percentage":0.0006075334143377885},{"client":"Nimbus","percentage":0.04495747266099635},{"client":"Prysm","percentage":0.9520048602673147},{"client":"Teku","percentage":0.002430133657351154}],"networkPenetration":0.006621886785450868},{"id":"Bloxstaking","idType":"entity","timeWindow":"1d","validatorCount":2498,"avgCorrectness":0.9853590214808622,"avgInclusionDelay":1.040025061897182,"avgUptime":0.9994990261904588,"avgValidatorEffectiveness":95.7956737451463,"clientPercentages":[{"client":"Nimbus","percentage":0.02389843166542196},{"client":"Lighthouse","percentage":0.4876773711725168},{"client":"Prysm","percentage":0.48618371919342795},{"client":"Teku","percentage":0.0022404779686333084}],"networkPenetration":0.005791541612354052},{"id":"wedex.eth","idType":"entity","timeWindow":"1d","validatorCount":2399,"avgCorrectness":0.9761189012096305,"avgInclusionDelay":1.0720777352186024,"avgUptime":0.9947327962378503,"avgValidatorEffectiveness":92.50430790565949,"clientPercentages":[{"client":"Lighthouse","percentage":1.0}],"networkPenetration":0.00556424041971861},{"id":"Ankr","idType":"entity","timeWindow":"1d","validatorCount":2298,"avgCorrectness":0.9866377659389255,"avgInclusionDelay":1.0375622410251053,"avgUptime":0.999859777135397,"avgValidatorEffectiveness":96.08936803727276,"clientPercentages":[{"client":"Teku","percentage":0.006066734074823054},{"client":"Prysm","percentage":0.9464105156723963},{"client":"Nimbus","percentage":0.03640040444893832},{"client":"Lighthouse","percentage":0.011122345803842264}],"networkPenetration":0.005329981027308615},{"id":"StakeWise","idType":"entity","timeWindow":"1d","validatorCount":1987,"avgCorrectness":0.9856925890442849,"avgInclusionDelay":1.0423352076356929,"avgUptime":0.9995179430185092,"avgValidatorEffectiveness":95.64968453301401,"clientPercentages":[{"client":"Teku","percentage":0.060526315789473685},{"client":"Prysm","percentage":0.3850877192982456},{"client":"Lighthouse","percentage":0.5298245614035088},{"client":"Nimbus","percentage":0.02456140350877193}],"networkPenetration":0.004608647650679816},{"id":"OKex","idType":"entity","timeWindow":"1d","validatorCount":1770,"avgCorrectness":0.9861968193985199,"avgInclusionDelay":1.0369012753897024,"avgUptime":0.9998969500061351,"avgValidatorEffectiveness":96.13061324094132,"clientPercentages":[{"client":"Lighthouse","percentage":0.012591815320041973},{"client":"Prysm","percentage":0.9401888772298006},{"client":"Nimbus","percentage":0.04512067156348373},{"client":"Teku","percentage":0.002098635886673662}],"networkPenetration":0.0040937408673627955}]}