{"page":{"from":0,"size":15},"total":30,"next":"/v0/eth/operators?window=1d&from=15&size=15&idType=entity","data":[{"id":"Lido","idType":"entity","timeWindow":"1d","validatorCount":129405,"avgCorrectness":0.99193023778596,"avgInclusionDelay":1.0176192500639454,"avgUptime":0.9998889367176427,"avgValidatorEffectiveness":98.02802162515304,"clientPercentages":[{"client":"Teku","percentage":0.2215128884606119},{"client":"Prysm","percentage":0.36031478358628444},{"client":"Nimbus","percentage":0.06436200112422709},{"client":"Lighthouse","percentage":0.3538103268288766}],"networkPenetration":0.31441755806437505},{"id":"Coinbase","idType":"entity","timeWindow":"1d","validatorCount":56396,"avgCorrectness":0.9923934235756903,"avgInclusionDelay":1.0172469209275543,"avgUptime":0.9996781883663958,"avgValidatorEffectiveness":98.06234992043306,"clientPercentages":[{"client":"Lighthouse","percentage":0.39151326053042124},{"client":"Nimbus","percentage":0.09198127925117004},{"client":"Teku","percentage":0.1432449297971919},{"client":"Prysm","percentage":0.3732605304212169}],"networkPenetration":0.13704115900331934},{"id":"Kraken","idType":"entity","timeWindow":"1d","validatorCount":36028,"avgCorrectness":0.9855560572046239,"avgInclusionDelay":1.02895555881847,"avgUptime":0.9991633258254549,"avgValidatorEffectiveness":96.887766681508,"clientPercentages":[{"client":"Nimbus","percentage":0.04528793286389505},{"client":"Prysm","percentage":0.5996913282531108},{"client":"Teku","percentage":0.09004533616282434},{"client":"Lighthouse","percentage":0.2649754027201698}],"networkPenetration":0.08752302406166318},{"id":"Binance","idType":"entity","timeWindow":"1d","validatorCount":21153,"avgCorrectness":0.9923523414260298,"avgInclusionDelay":1.0167293417721919,"avgUptime":0.9999805648791599,"avgValidatorEffectiveness":98.12809954630224,"clientPercentages":[{"client":"Teku","percentage":0.003264417845484222},{"client":"Lighthouse","percentage":0.34309868586255965},{"client":"Nimbus","percentage":0.06721352640830335},{"client":"Prysm","percentage":0.5864233698836528}],"networkPenetration":0.05140136953679719},{"id":"Bitcoin Suisse","idType":"entity","timeWindow":"1d","validatorCount":9000,"avgCorrectness":0.9909320474667522,"avgInclusionDelay":1.0322717113468258,"avgUptime":0.9997901234567913,"avgValidatorEffectiveness":96.77061873784112,"clientPercentages":[{"client":"Nimbus","percentage":0.0063522617901828685},{"client":"Teku","percentage":0.9934552454282964},{"client":"Prysm","percentage":0.00019249278152069297}],"networkPenetration":0.021869821104863362},{"id":"Rocketpool","idType":"entity","timeWindow":"1d","validatorCount":6528,"avgCorrectness":0.9902971532170036,"avgInclusionDelay":1.022416809608428,"avgUptime":0.9939247392835209,"avgValidatorEffectiveness":97.09773925676747,"clientPercentages":[{"client":"Teku","percentage":0.291220556745182},{"client":"Lighthouse","percentage":0.4055674518201285},{"client":"Nimbus","percentage":0.2328336902212705},{"client":"Prysm","percentage":0.07037830121341898}],"networkPenetration":0.015850760340780413},{"id":"Staked.us","idType":"entity","timeWindow":"1d","validatorCount":5263,"avgCorrectness":0.9919933830379745,"avgInclusionDelay":1.0171999624976877,"avgUptime":0.9997905714949207,"avgValidatorEffectiveness":98.05449923977687,"clientPercentages":[{"client":"Lighthouse","percentage":0.0019887305270135896},{"client":"Teku","percentage":0.5081206496519721},{"client":"Nimbus","percentage":0.043752071594298975},{"client":"Prysm","percentage":0.4461385482267153}],"networkPenetration":0.012788985386099542},{"id":"f2pool.eth","idType":"entity","timeWindow":"1d","validatorCount":3501,"avgCorrectness":0.9926357548636897,"avgInclusionDelay":1.016210606493383,"avgUptime":1.0,"avgValidatorEffectiveness":98.18839257819577,"clientPercentages":[{"client":"Lighthouse","percentage":1.0}],"networkPenetration":0.008507360409791848},{"id":"Bitfinex","idType":"entity","timeWindow":"1d","validatorCount":3214,"avgCorrectness":0.9904374712107842,"avgInclusionDelay":1.019725815671323,"avgUptime":0.9966894835096451,"avgValidatorEffectiveness":97.58035979152301,"clientPercentages":[{"client":"Prysm","percentage":0.8850762527233116},{"client":"Teku","percentage":0.01579520697167756},{"client":"Nimbus","percentage":0.09640522875816994},{"client":"Lighthouse","percentage":0.0027233115468409588}],"networkPenetration":0.007809956114558983},{"id":"Huobi","idType":"entity","timeWindow":"1d","validatorCount":2855,"avgCorrectness":0.9913645740084848,"avgInclusionDelay":1.0181489121550618,"avgUptime":0.9999221638451057,"avgValidatorEffectiveness":97.95072683740794,"clientPercentages":[{"client":"Lighthouse","percentage":0.0012004801920768306},{"client":"Nimbus","percentage":0.07923169267707082},{"client":"Teku","percentage":0.007202881152460984},{"client":"Prysm","percentage":0.9123649459783914}],"networkPenetration":0.006937593250487211},{"id":"wedex.eth","idType":"entity","timeWindow":"1d","validatorCount":2399,"avgCorrectness":0.9918191664713224,"avgInclusionDelay":1.0190680733926254,"avgUptime":0.999760085220694,"avgValidatorEffectiveness":97.88863915993113,"clientPercentages":[{"client":"Lighthouse","percentage":1.0}],"networkPenetration":0.005829522314507467},{"id":"Bloxstaking","idType":"entity","timeWindow":"1d","validatorCount":2346,"avgCorrectness":0.9912991764048033,"avgInclusionDelay":1.0180518040431037,"avgUptime":0.9999601164910938,"avgValidatorEffectiveness":97.95899752269986,"clientPercentages":[{"client":"Prysm","percentage":0.44550810014727543},{"client":"Teku","percentage":0.0014727540500736377},{"client":"Nimbus","percentage":0.054491899852724596},{"client":"Lighthouse","percentage":0.49852724594992637}],"networkPenetration":0.005698303387878287},{"id":"Ankr","idType":"entity","timeWindow":"1d","validatorCount":2289,"avgCorrectness":0.865635347994565,"avgInclusionDelay":1.5373750691963162,"avgUptime":0.9645648269501481,"avgValidatorEffectiveness":66.6983227070823,"clientPercentages":[{"client":"Nimbus","percentage":0.07235421166306695},{"client":"Prysm","percentage":0.9071274298056156},{"client":"Teku","percentage":0.004319654427645789},{"client":"Lighthouse","percentage":0.016198704103671708}],"networkPenetration":0.005562224501003582},{"id":"StakeWise","idType":"entity","timeWindow":"1d","validatorCount":1979,"avgCorrectness":0.991497531850453,"avgInclusionDelay":1.022995874962113,"avgUptime":0.9968532355569698,"avgValidatorEffectiveness":97.36391337163673,"clientPercentages":[{"client":"Lighthouse","percentage":0.5388646288209606},{"client":"Prysm","percentage":0.36069868995633186},{"client":"Nimbus","percentage":0.04017467248908297},{"client":"Teku","percentage":0.06026200873362445}],"networkPenetration":0.004806500682824414},{"id":"OKex","idType":"entity","timeWindow":"1d","validatorCount":1702,"avgCorrectness":0.9916038830081819,"avgInclusionDelay":1.0178149719432805,"avgUptime":0.9998785742264011,"avgValidatorEffectiveness":97.98883700211081,"clientPercentages":[{"client":"Nimbus","percentage":0.1019036954087346},{"client":"Prysm","percentage":0.8891377379619261},{"client":"Lighthouse","percentage":0.0022396416573348264},{"client":"Teku","percentage":0.006718924972004479}],"networkPenetration":0.004135826168941938}]}