{"page":{"from":0,"size":15},"total":30,"next":"/v0/eth/operators?window=1d&from=15&size=15&idType=entity","data":[{"id":"Lido","idType":"entity","timeWindow":"1d","validatorCount":129443,"avgCorrectness":0.9910187220908037,"avgInclusionDelay":1.0188555161262658,"avgUptime":0.9995653288601661,"avgValidatorEffectiveness":97.84745374153496,"clientPercentages":[{"client":"Prysm","percentage":0.36031478358628444},{"client":"Nimbus","percentage":0.06436200112422709},{"client":"Teku","percentage":0.2215128884606119},{"client":"Lighthouse","percentage":0.3538103268288766}],"networkPenetration":0.31429736994830226},{"id":"Coinbase","idType":"entity","timeWindow":"1d","validatorCount":55847,"avgCorrectness":0.9918001544700364,"avgInclusionDelay":1.0179861885426966,"avgUptime":0.9988891392806047,"avgValidatorEffectiveness":97.89917846034018,"clientPercentages":[{"client":"Prysm","percentage":0.3732605304212169},{"client":"Nimbus","percentage":0.09198127925117004},{"client":"Lighthouse","percentage":0.39151326053042124},{"client":"Teku","percentage":0.1432449297971919}],"networkPenetration":0.13556021242445065},{"id":"Kraken","idType":"entity","timeWindow":"1d","validatorCount":36083,"avgCorrectness":0.9868549736810085,"avgInclusionDelay":1.0260155956715766,"avgUptime":0.9989057650441813,"avgValidatorEffectiveness":97.08614611616655,"clientPercentages":[{"client":"Nimbus","percentage":0.04528793286389505},{"client":"Teku","percentage":0.09004533616282434},{"client":"Lighthouse","percentage":0.2649754027201698},{"client":"Prysm","percentage":0.5996913282531108}],"networkPenetration":0.08750731514240549},{"id":"Binance","idType":"entity","timeWindow":"1d","validatorCount":21153,"avgCorrectness":0.9917145210552479,"avgInclusionDelay":1.0171733605018698,"avgUptime":0.9997941978285176,"avgValidatorEffectiveness":98.0377148320695,"clientPercentages":[{"client":"Prysm","percentage":0.5864233698836528},{"client":"Lighthouse","percentage":0.34309868586255965},{"client":"Teku","percentage":0.003264417845484222},{"client":"Nimbus","percentage":0.06721352640830335}],"networkPenetration":0.05136504806746686},{"id":"Bitcoin Suisse","idType":"entity","timeWindow":"1d","validatorCount":9000,"avgCorrectness":0.9907638880139178,"avgInclusionDelay":1.0310646425313006,"avgUptime":0.999445185185184,"avgValidatorEffectiveness":96.83014893797622,"clientPercentages":[{"client":"Nimbus","percentage":0.0063522617901828685},{"client":"Teku","percentage":0.9934552454282964},{"client":"Prysm","percentage":0.00019249278152069297}],"networkPenetration":0.02185436735248909},{"id":"Rocketpool","idType":"entity","timeWindow":"1d","validatorCount":6544,"avgCorrectness":0.9895395926469721,"avgInclusionDelay":1.024394365000048,"avgUptime":0.9918375667739987,"avgValidatorEffectiveness":96.75192347808553,"clientPercentages":[{"client":"Lighthouse","percentage":0.4055674518201285},{"client":"Nimbus","percentage":0.2328336902212705},{"client":"Teku","percentage":0.291220556745182},{"client":"Prysm","percentage":0.07037830121341898}],"networkPenetration":0.015873555487024578},{"id":"Staked.us","idType":"entity","timeWindow":"1d","validatorCount":5263,"avgCorrectness":0.9913765748240266,"avgInclusionDelay":1.0173854403591847,"avgUptime":0.9993003567884821,"avgValidatorEffectiveness":97.96158977928118,"clientPercentages":[{"client":"Prysm","percentage":0.4461385482267153},{"client":"Nimbus","percentage":0.043752071594298975},{"client":"Lighthouse","percentage":0.0019887305270135896},{"client":"Teku","percentage":0.5081206496519721}],"networkPenetration":0.012779948375127788},{"id":"f2pool.eth","idType":"entity","timeWindow":"1d","validatorCount":3501,"avgCorrectness":0.9920892292790554,"avgInclusionDelay":1.0168606116232408,"avgUptime":0.999998095782157,"avgValidatorEffectiveness":98.104163131387,"clientPercentages":[{"client":"Lighthouse","percentage":1.0}],"networkPenetration":0.008501348900118257},{"id":"Bitfinex","idType":"entity","timeWindow":"1d","validatorCount":3214,"avgCorrectness":0.9904401486741651,"avgInclusionDelay":1.0197264794340075,"avgUptime":0.9981981608241715,"avgValidatorEffectiveness":97.6767689281121,"clientPercentages":[{"client":"Teku","percentage":0.01579520697167756},{"client":"Prysm","percentage":0.8850762527233116},{"client":"Lighthouse","percentage":0.0027233115468409588},{"client":"Nimbus","percentage":0.09640522875816994}],"networkPenetration":0.007804437407877771},{"id":"Huobi","idType":"entity","timeWindow":"1d","validatorCount":2855,"avgCorrectness":0.9912156298040437,"avgInclusionDelay":1.0181937768783202,"avgUptime":0.9999805409612764,"avgValidatorEffectiveness":97.93958741591167,"clientPercentages":[{"client":"Teku","percentage":0.007202881152460984},{"client":"Lighthouse","percentage":0.0012004801920768306},{"client":"Nimbus","percentage":0.07923169267707082},{"client":"Prysm","percentage":0.9123649459783914}],"networkPenetration":0.006932690976817373},{"id":"wedex.eth","idType":"entity","timeWindow":"1d","validatorCount":2399,"avgCorrectness":0.9916252771269406,"avgInclusionDelay":1.0174322457635363,"avgUptime":0.9998416006669442,"avgValidatorEffectiveness":98.01613886340398,"clientPercentages":[{"client":"Lighthouse","percentage":1.0}],"networkPenetration":0.005825403030957925},{"id":"Bloxstaking","idType":"entity","timeWindow":"1d","validatorCount":2349,"avgCorrectness":0.9904332895399423,"avgInclusionDelay":1.019020782298888,"avgUptime":0.9994683316777822,"avgValidatorEffectiveness":97.78460365116752,"clientPercentages":[{"client":"Nimbus","percentage":0.054491899852724596},{"client":"Teku","percentage":0.0014727540500736377},{"client":"Prysm","percentage":0.44550810014727543},{"client":"Lighthouse","percentage":0.49852724594992637}],"networkPenetration":0.005703989878999653},{"id":"Ankr","idType":"entity","timeWindow":"1d","validatorCount":2289,"avgCorrectness":0.8550719509556729,"avgInclusionDelay":1.5410010251267254,"avgUptime":0.9602893063443533,"avgValidatorEffectiveness":66.5311497931363,"clientPercentages":[{"client":"Lighthouse","percentage":0.016198704103671708},{"client":"Teku","percentage":0.004319654427645789},{"client":"Nimbus","percentage":0.07235421166306695},{"client":"Prysm","percentage":0.9071274298056156}],"networkPenetration":0.005558294096649726},{"id":"StakeWise","idType":"entity","timeWindow":"1d","validatorCount":1979,"avgCorrectness":0.991315292991299,"avgInclusionDelay":1.022144003604314,"avgUptime":0.996940093200831,"avgValidatorEffectiveness":97.41599873304497,"clientPercentages":[{"client":"Teku","percentage":0.06026200873362445},{"client":"Nimbus","percentage":0.04017467248908297},{"client":"Lighthouse","percentage":0.5388646288209606},{"client":"Prysm","percentage":0.36069868995633186}],"networkPenetration":0.004805532554508434},{"id":"OKex","idType":"entity","timeWindow":"1d","validatorCount":1720,"avgCorrectness":0.9911774279650535,"avgInclusionDelay":1.017373019283101,"avgUptime":0.9999021169804794,"avgValidatorEffectiveness":97.99685051791514,"clientPercentages":[{"client":"Nimbus","percentage":0.1019036954087346},{"client":"Teku","percentage":0.006718924972004479},{"client":"Prysm","percentage":0.8891377379619261},{"client":"Lighthouse","percentage":0.0022396416573348264}],"networkPenetration":0.0041329036926596036}]}