{"page":{"from":0,"size":15},"total":31,"next":"/v0/eth/operators?window=1d&from=15&size=15&idType=entity","data":[{"id":"Lido","idType":"entity","timeWindow":"1d","validatorCount":128546,"avgCorrectness":0.9888205554474145,"avgInclusionDelay":1.017340512590339,"avgUptime":0.9991849639213415,"avgValidatorEffectiveness":97.8422161385647,"clientPercentages":[{"client":"Teku","percentage":0.15570828226230082},{"client":"Prysm","percentage":0.36285239012432147},{"client":"Nimbus","percentage":0.0738924881807039},{"client":"Lighthouse","percentage":0.4075468394326738}],"networkPenetration":0.3238968827961596},{"id":"Coinbase","idType":"entity","timeWindow":"1d","validatorCount":55741,"avgCorrectness":0.988816778364262,"avgInclusionDelay":1.0136314232768517,"avgUptime":0.9998960196570035,"avgValidatorEffectiveness":98.18107013996722,"clientPercentages":[{"client":"Lighthouse","percentage":0.2746597615319764},{"client":"Nimbus","percentage":0.09887992291942671},{"client":"Teku","percentage":0.1581356136336264},{"client":"Prysm","percentage":0.4683247019149705}],"networkPenetration":0.14038757150417056},{"id":"Kraken","idType":"entity","timeWindow":"1d","validatorCount":35137,"avgCorrectness":0.9856345614337464,"avgInclusionDelay":1.0187859605703933,"avgUptime":0.9990769868513245,"avgValidatorEffectiveness":97.57972383302192,"clientPercentages":[{"client":"Nimbus","percentage":0.036122047244094485},{"client":"Prysm","percentage":0.6687007874015748},{"client":"Teku","percentage":0.07898622047244094},{"client":"Lighthouse","percentage":0.21619094488188975}],"networkPenetration":0.08814857747650127},{"id":"Binance","idType":"entity","timeWindow":"1d","validatorCount":19738,"avgCorrectness":0.9891338324387724,"avgInclusionDelay":1.0139052135532884,"avgUptime":0.9987733756656636,"avgValidatorEffectiveness":98.08282672714077,"clientPercentages":[{"client":"Teku","percentage":0.0105619275517782},{"client":"Nimbus","percentage":0.06956019473553923},{"client":"Lighthouse","percentage":0.3042330225266111},{"client":"Prysm","percentage":0.6156448551860715}],"networkPenetration":0.049739183025476905},{"id":"Bitcoin Suisse","idType":"entity","timeWindow":"1d","validatorCount":8611,"avgCorrectness":0.9849748541042044,"avgInclusionDelay":1.054387446500524,"avgUptime":0.9972099944359878,"avgValidatorEffectiveness":94.51413693248253,"clientPercentages":[{"client":"Prysm","percentage":0.00040048057669203043},{"client":"Nimbus","percentage":0.017020424509411294},{"client":"Teku","percentage":0.9825790949138967}],"networkPenetration":0.021545750069299197},{"id":"Rocketpool","idType":"entity","timeWindow":"1d","validatorCount":5725,"avgCorrectness":0.9874630942082139,"avgInclusionDelay":1.0203018569698148,"avgUptime":0.993314438680748,"avgValidatorEffectiveness":97.04704024203735,"clientPercentages":[{"client":"Nimbus","percentage":0.259506441098867},{"client":"Prysm","percentage":0.05618500698432407},{"client":"Lighthouse","percentage":0.4504112990842775},{"client":"Teku","percentage":0.23389725283253143}],"networkPenetration":0.014399112970289545},{"id":"Staked.us","idType":"entity","timeWindow":"1d","validatorCount":5263,"avgCorrectness":0.9884269890313806,"avgInclusionDelay":1.0182977916152445,"avgUptime":0.9993636920218711,"avgValidatorEffectiveness":97.73113700488204,"clientPercentages":[{"client":"Lighthouse","percentage":0.004984423676012461},{"client":"Prysm","percentage":0.45981308411214955},{"client":"Nimbus","percentage":0.04672897196261682},{"client":"Teku","percentage":0.4884735202492212}],"networkPenetration":0.013262606153768616},{"id":"f2pool.eth","idType":"entity","timeWindow":"1d","validatorCount":3501,"avgCorrectness":0.9863855156758021,"avgInclusionDelay":1.0450890621464906,"avgUptime":0.9987673363166072,"avgValidatorEffectiveness":95.45083788495545,"clientPercentages":[{"client":"Nimbus","percentage":0.0004409171075837742},{"client":"Lighthouse","percentage":0.9995590828924162}],"networkPenetration":0.008822417659955145},{"id":"Bitfinex","idType":"entity","timeWindow":"1d","validatorCount":3214,"avgCorrectness":0.9857666533020218,"avgInclusionDelay":1.020901233412357,"avgUptime":0.9898624075226438,"avgValidatorEffectiveness":96.58891416118712,"clientPercentages":[{"client":"Prysm","percentage":0.8813471502590674},{"client":"Teku","percentage":0.014507772020725389},{"client":"Lighthouse","percentage":0.0031088082901554403},{"client":"Nimbus","percentage":0.10103626943005181}],"networkPenetration":0.008099186049441827},{"id":"Huobi","idType":"entity","timeWindow":"1d","validatorCount":2855,"avgCorrectness":0.9837842196791203,"avgInclusionDelay":1.0308958824189387,"avgUptime":0.9990052539404544,"avgValidatorEffectiveness":96.43544629241737,"clientPercentages":[{"client":"Nimbus","percentage":0.0867579908675799},{"client":"Prysm","percentage":0.8921232876712328},{"client":"Lighthouse","percentage":0.0028538812785388126},{"client":"Teku","percentage":0.0182648401826484}],"networkPenetration":0.007194516543608094},{"id":"wedex.eth","idType":"entity","timeWindow":"1d","validatorCount":2399,"avgCorrectness":0.9890114522523257,"avgInclusionDelay":1.0122360566673863,"avgUptime":0.9998156639340464,"avgValidatorEffectiveness":98.29852514319899,"clientPercentages":[{"client":"Nimbus","percentage":0.0006793478260869565},{"client":"Lighthouse","percentage":0.9993206521739131}],"networkPenetration":0.006045409873245471},{"id":"Bloxstaking","idType":"entity","timeWindow":"1d","validatorCount":2281,"avgCorrectness":0.988141303817836,"avgInclusionDelay":1.0134594568238335,"avgUptime":0.9999512182526247,"avgValidatorEffectiveness":98.15904486835406,"clientPercentages":[{"client":"Nimbus","percentage":0.03666427030913012},{"client":"Lighthouse","percentage":0.43134435657800146},{"client":"Teku","percentage":0.012221423436376708},{"client":"Prysm","percentage":0.5197699496764917}],"networkPenetration":0.005737973439508101},{"id":"Ankr","idType":"entity","timeWindow":"1d","validatorCount":2280,"avgCorrectness":0.8388994641995372,"avgInclusionDelay":1.5567880432765084,"avgUptime":0.9453189435780806,"avgValidatorEffectiveness":63.28747003698797,"clientPercentages":[{"client":"Teku","percentage":0.004608294930875576},{"client":"Lighthouse","percentage":0.010138248847926268},{"client":"Prysm","percentage":0.9069124423963134},{"client":"Nimbus","percentage":0.07834101382488479}],"networkPenetration":0.005745533351813119},{"id":"StakeWise","idType":"entity","timeWindow":"1d","validatorCount":1988,"avgCorrectness":0.9872369067978367,"avgInclusionDelay":1.021310647371952,"avgUptime":0.9987834843315901,"avgValidatorEffectiveness":97.38731092024318,"clientPercentages":[{"client":"Prysm","percentage":0.4673321234119782},{"client":"Nimbus","percentage":0.04900181488203267},{"client":"Teku","percentage":0.04446460980036298},{"client":"Lighthouse","percentage":0.43920145190562615}],"networkPenetration":0.005007181916689766},{"id":"Stakefish","idType":"entity","timeWindow":"1d","validatorCount":1518,"avgCorrectness":0.9850817501616529,"avgInclusionDelay":1.0559076973154629,"avgUptime":0.9984145805884934,"avgValidatorEffectiveness":94.50883216541703,"clientPercentages":[{"client":"Teku","percentage":0.03898840885142255},{"client":"Lighthouse","percentage":0.9599578503688093},{"client":"Prysm","percentage":0.001053740779768177}],"networkPenetration":0.0038253156263387345}]}