{"page":{"from":0,"size":15},"total":31,"next":"/v0/eth/operators?window=1d&from=15&size=15&idType=entity","data":[{"id":"Lido","idType":"entity","timeWindow":"1d","validatorCount":129003,"avgCorrectness":0.9868019469921379,"avgInclusionDelay":1.0210252179904125,"avgUptime":0.9998107522220651,"avgValidatorEffectiveness":97.44490026151627,"clientPercentages":[{"client":"Prysm","percentage":0.35219787605861},{"client":"Nimbus","percentage":0.07909665277591074},{"client":"Teku","percentage":0.19212259712326926},{"client":"Lighthouse","percentage":0.37658287404220997}],"networkPenetration":0.3180322129714777},{"id":"Coinbase","idType":"entity","timeWindow":"1d","validatorCount":57289,"avgCorrectness":0.9862905535212804,"avgInclusionDelay":1.0224072677857057,"avgUptime":0.9997989918561033,"avgValidatorEffectiveness":97.30873413924083,"clientPercentages":[{"client":"Nimbus","percentage":0.09274935590725064},{"client":"Lighthouse","percentage":0.37403386087596613},{"client":"Teku","percentage":0.16970310391363022},{"client":"Prysm","percentage":0.363513679303153}],"networkPenetration":0.14124054209307887},{"id":"Kraken","idType":"entity","timeWindow":"1d","validatorCount":35804,"avgCorrectness":0.9795508296416318,"avgInclusionDelay":1.0337394515856149,"avgUptime":0.9988088586167365,"avgValidatorEffectiveness":96.17340381157393,"clientPercentages":[{"client":"Nimbus","percentage":0.04148429141134131},{"client":"Teku","percentage":0.08695652173913043},{"client":"Prysm","percentage":0.6030055442077619},{"client":"Lighthouse","percentage":0.26855364264176634}],"networkPenetration":0.08826147090946296},{"id":"Binance","idType":"entity","timeWindow":"1d","validatorCount":20810,"avgCorrectness":0.9870489790840243,"avgInclusionDelay":1.0202119951152806,"avgUptime":0.9999353943082914,"avgValidatorEffectiveness":97.52698339832764,"clientPercentages":[{"client":"Prysm","percentage":0.5931080741175484},{"client":"Lighthouse","percentage":0.3254800033537352},{"client":"Nimbus","percentage":0.0726083675693804},{"client":"Teku","percentage":0.008803554959335961}],"networkPenetration":0.05130506172139453},{"id":"Bitcoin Suisse","idType":"entity","timeWindow":"1d","validatorCount":9000,"avgCorrectness":0.9832942816503822,"avgInclusionDelay":1.0509369669544708,"avgUptime":0.9933022222222239,"avgValidatorEffectiveness":94.35204383058066,"clientPercentages":[{"client":"Teku","percentage":0.9928966061562746},{"client":"Nimbus","percentage":0.006906077348066298},{"client":"Prysm","percentage":0.0001973164956590371}],"networkPenetration":0.022188637938133148},{"id":"Rocketpool","idType":"entity","timeWindow":"1d","validatorCount":6203,"avgCorrectness":0.9856940314779038,"avgInclusionDelay":1.0246651761904193,"avgUptime":0.9911111983481496,"avgValidatorEffectiveness":96.37722925498178,"clientPercentages":[{"client":"Nimbus","percentage":0.2553382111393161},{"client":"Lighthouse","percentage":0.41735105271016876},{"client":"Teku","percentage":0.267433179035389},{"client":"Prysm","percentage":0.05987755711512618}],"networkPenetration":0.015287971539373738},{"id":"Staked.us","idType":"entity","timeWindow":"1d","validatorCount":5263,"avgCorrectness":0.9857166344604659,"avgInclusionDelay":1.021595906008612,"avgUptime":0.9990094369497748,"avgValidatorEffectiveness":97.26848006165827,"clientPercentages":[{"client":"Prysm","percentage":0.4309677419354839},{"client":"Lighthouse","percentage":0.000967741935483871},{"client":"Teku","percentage":0.5096774193548387},{"client":"Nimbus","percentage":0.05838709677419355}],"networkPenetration":0.012975422385377194},{"id":"f2pool.eth","idType":"entity","timeWindow":"1d","validatorCount":3501,"avgCorrectness":0.9877098528736887,"avgInclusionDelay":1.0191945280361345,"avgUptime":0.9999993652607191,"avgValidatorEffectiveness":97.65922815531,"clientPercentages":[{"client":"Lighthouse","percentage":1.0}],"networkPenetration":0.008631380157933794},{"id":"Bitfinex","idType":"entity","timeWindow":"1d","validatorCount":3214,"avgCorrectness":0.9860970705649575,"avgInclusionDelay":1.0209190581299525,"avgUptime":0.9917292401299879,"avgValidatorEffectiveness":96.74268866929134,"clientPercentages":[{"client":"Lighthouse","percentage":0.0021493820526598604},{"client":"Nimbus","percentage":0.10370768404083826},{"client":"Teku","percentage":0.018807092960773777},{"client":"Prysm","percentage":0.8753358409457281}],"networkPenetration":0.007923809148128881},{"id":"Huobi","idType":"entity","timeWindow":"1d","validatorCount":2855,"avgCorrectness":0.9841883632270064,"avgInclusionDelay":1.0259883830012837,"avgUptime":0.9998030745281176,"avgValidatorEffectiveness":96.89180073224303,"clientPercentages":[{"client":"Teku","percentage":0.014084507042253521},{"client":"Nimbus","percentage":0.09800469483568075},{"client":"Lighthouse","percentage":0.0017605633802816902},{"client":"Prysm","percentage":0.886150234741784}],"networkPenetration":0.0070387290348189035},{"id":"wedex.eth","idType":"entity","timeWindow":"1d","validatorCount":2399,"avgCorrectness":0.9854042599324141,"avgInclusionDelay":1.0271298040527455,"avgUptime":0.9996933907646701,"avgValidatorEffectiveness":96.86055850852534,"clientPercentages":[{"client":"Lighthouse","percentage":1.0}],"networkPenetration":0.0059145047126201574},{"id":"Bloxstaking","idType":"entity","timeWindow":"1d","validatorCount":2318,"avgCorrectness":0.9842739495911121,"avgInclusionDelay":1.023973321853088,"avgUptime":0.999857156552582,"avgValidatorEffectiveness":97.06271576408238,"clientPercentages":[{"client":"Nimbus","percentage":0.05139833711262283},{"client":"Lighthouse","percentage":0.5064247921390779},{"client":"Prysm","percentage":0.43386243386243384},{"client":"Teku","percentage":0.008314436885865457}],"networkPenetration":0.005714806971176959},{"id":"Ankr","idType":"entity","timeWindow":"1d","validatorCount":2287,"avgCorrectness":0.8406479017008144,"avgInclusionDelay":1.5557964240348092,"avgUptime":0.9385891269494251,"avgValidatorEffectiveness":66.60415363954209,"clientPercentages":[{"client":"Prysm","percentage":0.8990731204943357},{"client":"Teku","percentage":0.009268795056642637},{"client":"Lighthouse","percentage":0.008238928939237899},{"client":"Nimbus","percentage":0.08341915550978372}],"networkPenetration":0.0056383794405011674},{"id":"StakeWise","idType":"entity","timeWindow":"1d","validatorCount":1976,"avgCorrectness":0.9872649087987903,"avgInclusionDelay":1.0223952637476879,"avgUptime":0.9998515075419807,"avgValidatorEffectiveness":97.3770780112063,"clientPercentages":[{"client":"Teku","percentage":0.049239033124440466},{"client":"Prysm","percentage":0.36436884512085943},{"client":"Nimbus","percentage":0.04028648164726947},{"client":"Lighthouse","percentage":0.5461056401074306}],"networkPenetration":0.004869173325312551},{"id":"OKex","idType":"entity","timeWindow":"1d","validatorCount":1548,"avgCorrectness":0.9817195279974946,"avgInclusionDelay":1.0330528172757285,"avgUptime":0.9992793568762559,"avgValidatorEffectiveness":96.15154555576598,"clientPercentages":[{"client":"Nimbus","percentage":0.1087912087912088},{"client":"Prysm","percentage":0.8736263736263736},{"client":"Teku","percentage":0.017582417582417582}],"networkPenetration":0.0038164457253589013}]}