{"page":{"from":0,"size":15},"total":30,"next":"/v0/eth/operators?window=1d&from=15&size=15&idType=entity","data":[{"id":"Lido","idType":"entity","timeWindow":"1d","validatorCount":132246,"avgCorrectness":0.9900412247156948,"avgInclusionDelay":1.0276122899640383,"avgUptime":0.9986622784293901,"avgValidatorEffectiveness":96.79733425212311,"clientPercentages":[{"client":"Prysm","percentage":0.40259494270290747},{"client":"Lodestar","percentage":0.00037882375224926605},{"client":"Teku","percentage":0.22193660113917715},{"client":"Lighthouse","percentage":0.3503037354727856},{"client":"Nimbus","percentage":0.02478589693288055}],"networkPenetration":0.30242933690862417,"relayerPercentages":[{"relayer":"bloxroute_regulated","percentage":0.004740890929691693},{"relayer":"bloxroute_maxprofit","percentage":0.012552925040252847},{"relayer":"manifold","percentage":0.001818832369252788},{"relayer":"blocknative","percentage":0.012731826584769516},{"relayer":"flashbots","percentage":0.2094638917049317},{"relayer":"no_mev_boost","percentage":0.7399367881209374},{"relayer":"bloxroute_ethical","percentage":0.01848649293338899},{"relayer":"edennetwork","percentage":0.0002683523167750015}]},{"id":"Coinbase","idType":"entity","timeWindow":"1d","validatorCount":54602,"avgCorrectness":0.9893627848143508,"avgInclusionDelay":1.0250154615465263,"avgUptime":0.99840982625789,"avgValidatorEffectiveness":96.90506256637536,"clientPercentages":[{"client":"Lighthouse","percentage":0.4296776823013959},{"client":"Nimbus","percentage":0.05447814421084808},{"client":"Teku","percentage":0.1314743742145841},{"client":"Prysm","percentage":0.3843697992731719}],"networkPenetration":0.12492621386767458,"relayerPercentages":[{"relayer":"bloxroute_regulated","percentage":7.26427429899753e-05},{"relayer":"flashbots","percentage":0.0002179282289699259},{"relayer":"no_mev_boost","percentage":0.99970942902804}]},{"id":"Kraken","idType":"entity","timeWindow":"1d","validatorCount":37454,"avgCorrectness":0.9901568147675663,"avgInclusionDelay":1.0225116044955953,"avgUptime":0.9992570506838004,"avgValidatorEffectiveness":97.23673593412457,"clientPercentages":[{"client":"Nimbus","percentage":0.01955104996379435},{"client":"Lighthouse","percentage":0.26280473087134926},{"client":"Teku","percentage":0.0939898624185373},{"client":"Prysm","percentage":0.6236543567463191}],"networkPenetration":0.08566055176011385,"relayerPercentages":[{"relayer":"no_mev_boost","percentage":0.6101931330472103},{"relayer":"manifold","percentage":0.00010729613733905579},{"relayer":"bloxroute_maxprofit","percentage":0.003218884120171674},{"relayer":"blocknative","percentage":0.005472103004291845},{"relayer":"edennetwork","percentage":0.00042918454935622315},{"relayer":"flashbots","percentage":0.3805793991416309}]},{"id":"Binance","idType":"entity","timeWindow":"1d","validatorCount":23046,"avgCorrectness":0.9918139946324692,"avgInclusionDelay":1.0198782773992585,"avgUptime":0.9995020586845631,"avgValidatorEffectiveness":97.60657161798068,"clientPercentages":[{"client":"Nimbus","percentage":0.030764114076660846},{"client":"Teku","percentage":0.0005820237798287187},{"client":"Lighthouse","percentage":0.35769518583187826},{"client":"Prysm","percentage":0.6109586763116321}],"networkPenetration":0.05272791335105726,"relayerPercentages":[{"relayer":"bloxroute_ethical","percentage":0.00017412502176562773},{"relayer":"no_mev_boost","percentage":0.8272679784084973},{"relayer":"edennetwork","percentage":0.001218875152359394},{"relayer":"flashbots","percentage":0.1626327703290963},{"relayer":"blocknative","percentage":0.00034825004353125546},{"relayer":"bloxroute_maxprofit","percentage":0.006268500783562598},{"relayer":"bloxroute_regulated","percentage":0.0020895002611875328}]},{"id":"Bitcoin Suisse","idType":"entity","timeWindow":"1d","validatorCount":9184,"avgCorrectness":0.9917952758353362,"avgInclusionDelay":1.0272510409522162,"avgUptime":0.9978498838559817,"avgValidatorEffectiveness":96.88224547208802,"clientPercentages":[{"client":"Teku","percentage":0.9935897435897436},{"client":"Nimbus","percentage":0.00641025641025641}],"networkPenetration":0.021012460132609122,"relayerPercentages":[{"relayer":"no_mev_boost","percentage":1.0}]},{"id":"Rocketpool","idType":"entity","timeWindow":"1d","validatorCount":8395,"avgCorrectness":0.9871822176526028,"avgInclusionDelay":1.0325832901531502,"avgUptime":0.9851472909752379,"avgValidatorEffectiveness":95.14479128357036,"clientPercentages":[{"client":"Lighthouse","percentage":0.4175987063738041},{"client":"Nimbus","percentage":0.22571082064411804},{"client":"Prysm","percentage":0.053901091497102815},{"client":"Teku","percentage":0.3027893814849751}],"networkPenetration":0.018900689585745204,"relayerPercentages":[{"relayer":"flashbots","percentage":0.40714285714285714},{"relayer":"bloxroute_regulated","percentage":0.07295918367346939},{"relayer":"bloxroute_ethical","percentage":0.030612244897959183},{"relayer":"manifold","percentage":0.0010204081632653062},{"relayer":"bloxroute_maxprofit","percentage":0.09183673469387756},{"relayer":"blocknative","percentage":0.018367346938775512},{"relayer":"no_mev_boost","percentage":0.376530612244898},{"relayer":"edennetwork","percentage":0.001530612244897959}]},{"id":"Staked.us","idType":"entity","timeWindow":"1d","validatorCount":5263,"avgCorrectness":0.9895536128673925,"avgInclusionDelay":1.0242751482166241,"avgUptime":0.9989207676230287,"avgValidatorEffectiveness":97.0194746439092,"clientPercentages":[{"client":"Prysm","percentage":0.47178789938817134},{"client":"Teku","percentage":0.49422161794697483},{"client":"Lighthouse","percentage":0.005778382053025153},{"client":"Nimbus","percentage":0.02821210061182869}],"networkPenetration":0.01204143920709079,"relayerPercentages":[{"relayer":"bloxroute_maxprofit","percentage":0.02024584237165582},{"relayer":"flashbots","percentage":0.4020245842371656},{"relayer":"no_mev_boost","percentage":0.5777295733911786}]},{"id":"f2pool.eth","idType":"entity","timeWindow":"1d","validatorCount":3501,"avgCorrectness":0.989219752891217,"avgInclusionDelay":1.0369400810718106,"avgUptime":0.9955796756482278,"avgValidatorEffectiveness":95.72958025929896,"clientPercentages":[{"client":"Lighthouse","percentage":0.986387943607195},{"client":"Prysm","percentage":0.013612056392805057}],"networkPenetration":0.008010085248722184,"relayerPercentages":[{"relayer":"flashbots","percentage":0.5526011560693641},{"relayer":"no_mev_boost","percentage":0.3930635838150289},{"relayer":"manifold","percentage":0.05433526011560694}]},{"id":"Bitfinex","idType":"entity","timeWindow":"1d","validatorCount":3214,"avgCorrectness":0.992197048560075,"avgInclusionDelay":1.019354169332554,"avgUptime":0.9996093479914265,"avgValidatorEffectiveness":97.68732237930536,"clientPercentages":[{"client":"Prysm","percentage":0.943725379853686},{"client":"Lighthouse","percentage":0.004501969611705121},{"client":"Nimbus","percentage":0.03939223410241981},{"client":"Teku","percentage":0.012380416432189083}],"networkPenetration":0.007353445869578149,"relayerPercentages":[{"relayer":"flashbots","percentage":0.11949685534591195},{"relayer":"no_mev_boost","percentage":0.8805031446540881}]},{"id":"Huobi","idType":"entity","timeWindow":"1d","validatorCount":2855,"avgCorrectness":0.9914027606157414,"avgInclusionDelay":1.0191142909866413,"avgUptime":0.999670753064799,"avgValidatorEffectiveness":97.64869320167294,"clientPercentages":[{"client":"Lighthouse","percentage":0.0006075334143377885},{"client":"Teku","percentage":0.002430133657351154},{"client":"Prysm","percentage":0.9520048602673147},{"client":"Nimbus","percentage":0.04495747266099635}],"networkPenetration":0.0065320746601262025,"relayerPercentages":[{"relayer":"bloxroute_ethical","percentage":0.09759759759759759},{"relayer":"flashbots","percentage":0.3813813813813814},{"relayer":"blocknative","percentage":0.003003003003003003},{"relayer":"edennetwork","percentage":0.0015015015015015015},{"relayer":"no_mev_boost","percentage":0.5165165165165165}]},{"id":"Bloxstaking","idType":"entity","timeWindow":"1d","validatorCount":2523,"avgCorrectness":0.9906710097566475,"avgInclusionDelay":1.0190856376934059,"avgUptime":0.999642813362402,"avgValidatorEffectiveness":97.58293078017564,"clientPercentages":[{"client":"Lighthouse","percentage":0.4876773711725168},{"client":"Nimbus","percentage":0.02389843166542196},{"client":"Teku","percentage":0.0022404779686333084},{"client":"Prysm","percentage":0.48618371919342795}],"networkPenetration":0.005756462292426454,"relayerPercentages":[{"relayer":"blocknative","percentage":0.12903225806451613},{"relayer":"flashbots","percentage":0.5725806451612904},{"relayer":"bloxroute_ethical","percentage":0.02903225806451613},{"relayer":"no_mev_boost","percentage":0.2693548387096774}]},{"id":"wedex.eth","idType":"entity","timeWindow":"1d","validatorCount":2399,"avgCorrectness":0.9813316754755917,"avgInclusionDelay":1.0694872029438176,"avgUptime":0.9923227270622024,"avgValidatorEffectiveness":92.3580806560814,"clientPercentages":[{"client":"Lighthouse","percentage":1.0}],"networkPenetration":0.005488773068176098,"relayerPercentages":[{"relayer":"edennetwork","percentage":0.016260162601626018},{"relayer":"bloxroute_maxprofit","percentage":0.2991869918699187},{"relayer":"flashbots","percentage":0.4016260162601626},{"relayer":"no_mev_boost","percentage":0.2048780487804878},{"relayer":"bloxroute_ethical","percentage":0.01788617886178862},{"relayer":"manifold","percentage":0.0065040650406504065},{"relayer":"blocknative","percentage":0.05365853658536585}]},{"id":"Ankr","idType":"entity","timeWindow":"1d","validatorCount":2299,"avgCorrectness":0.9911347346224161,"avgInclusionDelay":1.0191447171143633,"avgUptime":0.9992847131603111,"avgValidatorEffectiveness":97.5894755815784,"clientPercentages":[{"client":"Prysm","percentage":0.9464105156723963},{"client":"Lighthouse","percentage":0.011122345803842264},{"client":"Nimbus","percentage":0.03640040444893832},{"client":"Teku","percentage":0.006066734074823054}],"networkPenetration":0.0052599788594151105,"relayerPercentages":[{"relayer":"no_mev_boost","percentage":0.8905472636815921},{"relayer":"flashbots","percentage":0.10945273631840796}]},{"id":"StakeWise","idType":"entity","timeWindow":"1d","validatorCount":1989,"avgCorrectness":0.9908300863234901,"avgInclusionDelay":1.0254642366656377,"avgUptime":0.99900117311882,"avgValidatorEffectiveness":97.04029733536592,"clientPercentages":[{"client":"Teku","percentage":0.060526315789473685},{"client":"Prysm","percentage":0.3850877192982456},{"client":"Lighthouse","percentage":0.5298245614035088},{"client":"Nimbus","percentage":0.02456140350877193}],"networkPenetration":0.004550716812256048,"relayerPercentages":[{"relayer":"no_mev_boost","percentage":0.11560693641618497},{"relayer":"flashbots","percentage":0.4682080924855491},{"relayer":"manifold","percentage":0.0019267822736030828},{"relayer":"bloxroute_maxprofit","percentage":0.3468208092485549},{"relayer":"blocknative","percentage":0.05009633911368015},{"relayer":"bloxroute_regulated","percentage":0.017341040462427744}]},{"id":"OKex","idType":"entity","timeWindow":"1d","validatorCount":1808,"avgCorrectness":0.9909278404665588,"avgInclusionDelay":1.0199790225802718,"avgUptime":0.9996816406643236,"avgValidatorEffectiveness":97.53597108695007,"clientPercentages":[{"client":"Lighthouse","percentage":0.012591815320041973},{"client":"Prysm","percentage":0.9401888772298006},{"client":"Teku","percentage":0.002098635886673662},{"client":"Nimbus","percentage":0.04512067156348373}],"networkPenetration":0.00413431135231105,"relayerPercentages":[{"relayer":"no_mev_boost","percentage":1.0}]}]}