{"page":{"from":0,"size":15},"total":36,"next":"/v0/eth/operators?window=1d&from=15&size=15&idType=entity","data":[{"id":"Lido","idType":"entity","timeWindow":"1d","validatorCount":134601,"avgCorrectness":0.9897947306826094,"avgInclusionDelay":1.0278998935062638,"avgUptime":0.9991587652288862,"avgValidatorEffectiveness":96.34174098750142,"clientPercentages":[{"client":"Prysm","percentage":0.3560207248143633},{"client":"Lodestar","percentage":0.003989803834644797},{"client":"Teku","percentage":0.1635681037348997},{"client":"Lighthouse","percentage":0.45778842956887955},{"client":"Nimbus","percentage":0.01863293804721268}],"networkPenetration":0.29959314922983393,"relayerPercentages":[{"relayer":"no_mev_boost","percentage":0.3350896336710834},{"relayer":"bloxroute_ethical","percentage":0.04670303975058457},{"relayer":"blocknative","percentage":0.03558846453624318},{"relayer":"bloxroute_maxprofit","percentage":0.036196414653156664},{"relayer":"flashbots","percentage":0.4847856586126267},{"relayer":"manifold","percentage":0.01881527669524552},{"relayer":"bloxroute_regulated","percentage":0.011893998441153547},{"relayer":"edennetwork","percentage":0.03092751363990647}],"nodeOperatorCount":29},{"id":"Coinbase","idType":"entity","timeWindow":"1d","validatorCount":54468,"avgCorrectness":0.9886619367487535,"avgInclusionDelay":1.0263367217477506,"avgUptime":0.9990831385459753,"avgValidatorEffectiveness":96.34719543416332,"clientPercentages":[{"client":"Prysm","percentage":0.3576388888888889},{"client":"Teku","percentage":0.20678630363036304},{"client":"Nimbus","percentage":0.006841309130913091},{"client":"Lighthouse","percentage":0.428733498349835}],"networkPenetration":0.12129363847512242,"relayerPercentages":[{"relayer":"flashbots","percentage":0.00038714672861014324},{"relayer":"manifold","percentage":7.742934572202865e-05},{"relayer":"bloxroute_regulated","percentage":3.8714672861014324e-05},{"relayer":"no_mev_boost","percentage":0.9994967092528068}],"nodeOperatorCount":null},{"id":"Kraken","idType":"entity","timeWindow":"1d","validatorCount":37883,"avgCorrectness":0.9899057237455213,"avgInclusionDelay":1.0232565912462506,"avgUptime":0.9994657920566947,"avgValidatorEffectiveness":96.77347343560315,"clientPercentages":[{"client":"Teku","percentage":0.052123837180686125},{"client":"Prysm","percentage":0.6941969779002806},{"client":"Lighthouse","percentage":0.25358074518875817},{"client":"Nimbus","percentage":9.843973027513905e-05}],"networkPenetration":0.08430295350944976,"relayerPercentages":[{"relayer":"bloxroute_ethical","percentage":0.0017094017094017094},{"relayer":"manifold","percentage":0.003143093465674111},{"relayer":"blocknative","percentage":0.007719878687620623},{"relayer":"edennetwork","percentage":0.0020953956437827406},{"relayer":"no_mev_boost","percentage":0.5422111938240971},{"relayer":"bloxroute_maxprofit","percentage":0.005789909015715467},{"relayer":"flashbots","percentage":0.4373311276537083}],"nodeOperatorCount":null},{"id":"Binance","idType":"entity","timeWindow":"1d","validatorCount":23826,"avgCorrectness":0.9911456774402546,"avgInclusionDelay":1.0200080874685664,"avgUptime":0.9997055304396021,"avgValidatorEffectiveness":97.21065893389701,"clientPercentages":[{"client":"Nimbus","percentage":0.0011181215557862791},{"client":"Prysm","percentage":0.5314272023001357},{"client":"Teku","percentage":0.006069802731411229},{"client":"Lighthouse","percentage":0.4613848734126667}],"networkPenetration":0.053057616037090895,"relayerPercentages":[{"relayer":"flashbots","percentage":0.5474134093135072},{"relayer":"bloxroute_ethical","percentage":8.903926631644555e-05},{"relayer":"bloxroute_maxprofit","percentage":0.006945062772682753},{"relayer":"bloxroute_regulated","percentage":0.03160893954233817},{"relayer":"no_mev_boost","percentage":0.4073546433977384},{"relayer":"blocknative","percentage":0.002225981657911139},{"relayer":"edennetwork","percentage":0.004362924049505832}],"nodeOperatorCount":null},{"id":"Staked.us","idType":"entity","timeWindow":"1d","validatorCount":12734,"avgCorrectness":0.9894982180634079,"avgInclusionDelay":1.0241148011927752,"avgUptime":0.9988517786130215,"avgValidatorEffectiveness":96.60637770866869,"clientPercentages":[{"client":"Prysm","percentage":0.6296512476287757},{"client":"Teku","percentage":0.25857288778637094},{"client":"Nimbus","percentage":0.00029184298847220193},{"client":"Lighthouse","percentage":0.11148402159638114}],"networkPenetration":0.028305857359500645,"relayerPercentages":[{"relayer":"manifold","percentage":0.005469604625722769},{"relayer":"flashbots","percentage":0.5813408345053914},{"relayer":"bloxroute_maxprofit","percentage":0.004063134864822629},{"relayer":"bloxroute_ethical","percentage":0.0001562744178777934},{"relayer":"no_mev_boost","percentage":0.4089701515861853}],"nodeOperatorCount":null},{"id":"Bitcoin Suisse","idType":"entity","timeWindow":"1d","validatorCount":9214,"avgCorrectness":0.9907813078174712,"avgInclusionDelay":1.02964430359795,"avgUptime":0.9992407161203958,"avgValidatorEffectiveness":96.27205636478752,"clientPercentages":[{"client":"Nimbus","percentage":0.024842271293375396},{"client":"Lighthouse","percentage":0.0001971608832807571},{"client":"Prysm","percentage":0.0005914826498422713},{"client":"Teku","percentage":0.9743690851735016}],"networkPenetration":0.020518461939299737,"relayerPercentages":[{"relayer":"no_mev_boost","percentage":1.0}],"nodeOperatorCount":null},{"id":"Rocketpool","idType":"entity","timeWindow":"1d","validatorCount":9010,"avgCorrectness":0.9883030890317583,"avgInclusionDelay":1.0285553936873133,"avgUptime":0.9442811269893168,"avgValidatorEffectiveness":90.92839883877684,"clientPercentages":[{"client":"Teku","percentage":0.3408782254413762},{"client":"Nimbus","percentage":0.1949977365323676},{"client":"Lighthouse","percentage":0.4125169760072431},{"client":"Prysm","percentage":0.05160706201901313}],"networkPenetration":0.019979557251942396,"relayerPercentages":[{"relayer":"flashbots","percentage":0.526621490803485},{"relayer":"blocknative","percentage":0.054937076476282674},{"relayer":"bloxroute_regulated","percentage":0.06606969990319458},{"relayer":"no_mev_boost","percentage":0.18659244917715392},{"relayer":"bloxroute_ethical","percentage":0.03630203291384317},{"relayer":"bloxroute_maxprofit","percentage":0.09002904162633107},{"relayer":"manifold","percentage":0.001936108422071636},{"relayer":"edennetwork","percentage":0.037512100677637945}],"nodeOperatorCount":1562},{"id":"Stakefish","idType":"entity","timeWindow":"1d","validatorCount":8059,"avgCorrectness":0.9883139389570811,"avgInclusionDelay":1.0416131923184737,"avgUptime":0.9985106159041348,"avgValidatorEffectiveness":94.93453922084235,"clientPercentages":[{"client":"Lighthouse","percentage":0.6877914370495973},{"client":"Teku","percentage":0.30479016532428993},{"client":"Prysm","percentage":0.000847816871555744},{"client":"Nimbus","percentage":0.006570580754557015}],"networkPenetration":0.017946416840548794,"relayerPercentages":[{"relayer":"flashbots","percentage":0.8853603603603604},{"relayer":"bloxroute_ethical","percentage":0.00022522522522522523},{"relayer":"bloxroute_regulated","percentage":0.00022522522522522523},{"relayer":"no_mev_boost","percentage":0.02072072072072072},{"relayer":"manifold","percentage":0.09234234234234234},{"relayer":"bloxroute_maxprofit","percentage":0.0011261261261261261}],"nodeOperatorCount":null},{"id":"Celsius Network","idType":"entity","timeWindow":"1d","validatorCount":4943,"avgCorrectness":0.9912490184491091,"avgInclusionDelay":1.0197038752033936,"avgUptime":0.9997014597362324,"avgValidatorEffectiveness":97.24689090124755,"clientPercentages":[{"client":"Teku","percentage":0.00603090840557859},{"client":"Lighthouse","percentage":0.004900113079532605},{"client":"Prysm","percentage":0.9890689785148888}],"networkPenetration":0.011007462271104688,"relayerPercentages":[{"relayer":"flashbots","percentage":0.956432387998356},{"relayer":"no_mev_boost","percentage":0.04356761200164406}],"nodeOperatorCount":null},{"id":"Bitfinex","idType":"entity","timeWindow":"1d","validatorCount":3214,"avgCorrectness":0.9917438390618087,"avgInclusionDelay":1.0202242512565802,"avgUptime":0.9997282536225437,"avgValidatorEffectiveness":97.25193750846014,"clientPercentages":[{"client":"Nimbus","percentage":0.0005767012687427913},{"client":"Lighthouse","percentage":0.0034602076124567475},{"client":"Prysm","percentage":0.9792387543252595},{"client":"Teku","percentage":0.016724336793540944}],"networkPenetration":0.007157188699035094,"relayerPercentages":[{"relayer":"no_mev_boost","percentage":0.45772409408773046},{"relayer":"flashbots","percentage":0.5422759059122696}],"nodeOperatorCount":null},{"id":"Huobi","idType":"entity","timeWindow":"1d","validatorCount":2855,"avgCorrectness":0.9906807680268115,"avgInclusionDelay":1.020779052908133,"avgUptime":0.999662173713618,"avgValidatorEffectiveness":97.08865171353395,"clientPercentages":[{"client":"Lighthouse","percentage":0.007677543186180422},{"client":"Prysm","percentage":0.981445937300064},{"client":"Teku","percentage":0.010876519513755598}],"networkPenetration":0.006357739183492592,"relayerPercentages":[{"relayer":"manifold","percentage":0.05060584461867427},{"relayer":"no_mev_boost","percentage":0.020669992872416252},{"relayer":"edennetwork","percentage":0.08980755523877405},{"relayer":"bloxroute_maxprofit","percentage":0.09194583036350677},{"relayer":"flashbots","percentage":0.5851746258018532},{"relayer":"bloxroute_ethical","percentage":0.05844618674269423},{"relayer":"blocknative","percentage":0.04989308624376337},{"relayer":"bloxroute_regulated","percentage":0.05345687811831789}],"nodeOperatorCount":null},{"id":"Abyss","idType":"entity","timeWindow":"1d","validatorCount":2820,"avgCorrectness":0.9911109459768552,"avgInclusionDelay":1.0226006431803594,"avgUptime":0.9988187967454139,"avgValidatorEffectiveness":96.89446879606919,"clientPercentages":[{"client":"Nimbus","percentage":0.04461221688400824},{"client":"Prysm","percentage":0.033630748112560054},{"client":"Teku","percentage":0.8407687028140014},{"client":"Lighthouse","percentage":0.08098833218943034}],"networkPenetration":0.006264210270810739,"relayerPercentages":[{"relayer":"bloxroute_maxprofit","percentage":0.022222222222222223},{"relayer":"blocknative","percentage":0.005734767025089606},{"relayer":"flashbots","percentage":0.3426523297491039},{"relayer":"bloxroute_ethical","percentage":0.005734767025089606},{"relayer":"manifold","percentage":0.002867383512544803},{"relayer":"bloxroute_regulated","percentage":0.015053763440860216},{"relayer":"edennetwork","percentage":0.012186379928315413},{"relayer":"no_mev_boost","percentage":0.5935483870967742}],"nodeOperatorCount":null},{"id":"Bloxstaking","idType":"entity","timeWindow":"1d","validatorCount":2583,"avgCorrectness":0.9907217929678812,"avgInclusionDelay":1.0207743796138864,"avgUptime":0.9995835676185563,"avgValidatorEffectiveness":97.08969869578351,"clientPercentages":[{"client":"Lighthouse","percentage":0.30839002267573695},{"client":"Teku","percentage":0.006046863189720333},{"client":"Prysm","percentage":0.6855631141345427}],"networkPenetration":0.005752028129933928,"relayerPercentages":[{"relayer":"no_mev_boost","percentage":0.017377567140600316},{"relayer":"flashbots","percentage":0.9249605055292259},{"relayer":"bloxroute_ethical","percentage":0.00315955766192733},{"relayer":"blocknative","percentage":0.054502369668246446}],"nodeOperatorCount":null},{"id":"wedex.eth","idType":"entity","timeWindow":"1d","validatorCount":2399,"avgCorrectness":0.9907677617917532,"avgInclusionDelay":1.0201905962622366,"avgUptime":0.999299625505336,"avgValidatorEffectiveness":97.11896156110748,"clientPercentages":[{"client":"Nimbus","percentage":0.006158583525789068},{"client":"Lighthouse","percentage":0.993841416474211}],"networkPenetration":0.00534228241723248,"relayerPercentages":[{"relayer":"flashbots","percentage":0.4473916887709991},{"relayer":"edennetwork","percentage":0.09549071618037135},{"relayer":"bloxroute_ethical","percentage":0.009725906277630416},{"relayer":"bloxroute_maxprofit","percentage":0.14588859416445624},{"relayer":"manifold","percentage":0.04420866489832007},{"relayer":"blocknative","percentage":0.05305039787798409},{"relayer":"no_mev_boost","percentage":0.20424403183023873}],"nodeOperatorCount":null},{"id":"Ankr","idType":"entity","timeWindow":"1d","validatorCount":2300,"avgCorrectness":0.9908262496516552,"avgInclusionDelay":1.0201052524754628,"avgUptime":0.9997284722222219,"avgValidatorEffectiveness":97.17424257388875,"clientPercentages":[{"client":"Prysm","percentage":0.162291169451074},{"client":"Lighthouse","percentage":0.8369132856006364},{"client":"Teku","percentage":0.0007955449482895784}],"networkPenetration":0.005121821408768113,"relayerPercentages":[{"relayer":"flashbots","percentage":0.1480820695807315},{"relayer":"no_mev_boost","percentage":0.8519179304192686}],"nodeOperatorCount":null}]}