{"page":{"from":0,"size":15},"total":30,"next":"/v0/eth/operators?window=1d&from=15&size=15&idType=entity","data":[{"id":"Lido","idType":"entity","timeWindow":"1d","validatorCount":129606,"avgCorrectness":0.989925976780805,"avgInclusionDelay":1.0252838949578065,"avgUptime":0.9996555794453967,"avgValidatorEffectiveness":97.28063571208747,"clientPercentages":[{"client":"Teku","percentage":0.2215128884606119},{"client":"Nimbus","percentage":0.06436200112422709},{"client":"Prysm","percentage":0.36031478358628444},{"client":"Lighthouse","percentage":0.3538103268288766}],"networkPenetration":0.31208578969675954},{"id":"Coinbase","idType":"entity","timeWindow":"1d","validatorCount":55805,"avgCorrectness":0.9905007900676437,"avgInclusionDelay":1.0237495381034258,"avgUptime":0.9999558382860941,"avgValidatorEffectiveness":97.4398748254624,"clientPercentages":[{"client":"Teku","percentage":0.1384345608161964},{"client":"Prysm","percentage":0.3732185557149689},{"client":"Nimbus","percentage":0.08952654232424677},{"client":"Lighthouse","percentage":0.3988203411445879}],"networkPenetration":0.13438956960659654},{"id":"Kraken","idType":"entity","timeWindow":"1d","validatorCount":36231,"avgCorrectness":0.9825860583208483,"avgInclusionDelay":1.0362197247747034,"avgUptime":0.9980398757807483,"avgValidatorEffectiveness":96.1354883541969,"clientPercentages":[{"client":"Lighthouse","percentage":0.2649754027201698},{"client":"Teku","percentage":0.09004533616282434},{"client":"Prysm","percentage":0.5996913282531108},{"client":"Nimbus","percentage":0.04528793286389505}],"networkPenetration":0.08722257542480638},{"id":"Binance","idType":"entity","timeWindow":"1d","validatorCount":21584,"avgCorrectness":0.9900729769009555,"avgInclusionDelay":1.02389694589608,"avgUptime":0.9988571781566582,"avgValidatorEffectiveness":97.31121050406381,"clientPercentages":[{"client":"Prysm","percentage":0.5864233698836528},{"client":"Nimbus","percentage":0.06721352640830335},{"client":"Teku","percentage":0.003264417845484222},{"client":"Lighthouse","percentage":0.34309868586255965}],"networkPenetration":0.05197857665780449},{"id":"Bitcoin Suisse","idType":"entity","timeWindow":"1d","validatorCount":9000,"avgCorrectness":0.9883030180261413,"avgInclusionDelay":1.041908493309058,"avgUptime":0.9995086419753062,"avgValidatorEffectiveness":95.81522645793996,"clientPercentages":[{"client":"Teku","percentage":0.9934552454282964},{"client":"Nimbus","percentage":0.0063522617901828685},{"client":"Prysm","percentage":0.00019249278152069297}],"networkPenetration":0.021673794937001504},{"id":"Rocketpool","idType":"entity","timeWindow":"1d","validatorCount":6650,"avgCorrectness":0.9885691737975018,"avgInclusionDelay":1.028262308517206,"avgUptime":0.9908218279796832,"avgValidatorEffectiveness":96.24459919388214,"clientPercentages":[{"client":"Teku","percentage":0.291220556745182},{"client":"Prysm","percentage":0.07037830121341898},{"client":"Nimbus","percentage":0.2328336902212705},{"client":"Lighthouse","percentage":0.4055674518201285}],"networkPenetration":0.016000077062381997},{"id":"Staked.us","idType":"entity","timeWindow":"1d","validatorCount":5263,"avgCorrectness":0.9896744725603819,"avgInclusionDelay":1.0237357861354384,"avgUptime":0.9994903624886506,"avgValidatorEffectiveness":97.35821753083614,"clientPercentages":[{"client":"Lighthouse","percentage":0.0019887305270135896},{"client":"Prysm","percentage":0.4461385482267153},{"client":"Nimbus","percentage":0.043752071594298975},{"client":"Teku","percentage":0.5081206496519721}],"networkPenetration":0.01267435363927099},{"id":"f2pool.eth","idType":"entity","timeWindow":"1d","validatorCount":3501,"avgCorrectness":0.9907159741229161,"avgInclusionDelay":1.0232194271089874,"avgUptime":0.9999987305214381,"avgValidatorEffectiveness":97.50030517249232,"clientPercentages":[{"client":"Lighthouse","percentage":1.0}],"networkPenetration":0.008431106230493585},{"id":"Bitfinex","idType":"entity","timeWindow":"1d","validatorCount":3214,"avgCorrectness":0.9887571386819254,"avgInclusionDelay":1.0253682056993103,"avgUptime":0.9983364447210141,"avgValidatorEffectiveness":97.12724087339674,"clientPercentages":[{"client":"Prysm","percentage":0.8850762527233116},{"client":"Lighthouse","percentage":0.0027233115468409588},{"client":"Teku","percentage":0.01579520697167756},{"client":"Nimbus","percentage":0.09640522875816994}],"networkPenetration":0.007739952991946981},{"id":"Huobi","idType":"entity","timeWindow":"1d","validatorCount":2855,"avgCorrectness":0.9893647741955571,"avgInclusionDelay":1.0250447561374285,"avgUptime":0.9999922163845107,"avgValidatorEffectiveness":97.27439888669706,"clientPercentages":[{"client":"Lighthouse","percentage":0.0012004801920768306},{"client":"Prysm","percentage":0.9123649459783914},{"client":"Teku","percentage":0.007202881152460984},{"client":"Nimbus","percentage":0.07923169267707082}],"networkPenetration":0.006875409393904366},{"id":"wedex.eth","idType":"entity","timeWindow":"1d","validatorCount":2399,"avgCorrectness":0.989674157782279,"avgInclusionDelay":1.0262593654388206,"avgUptime":0.9997072854430091,"avgValidatorEffectiveness":97.17001397464034,"clientPercentages":[{"client":"Lighthouse","percentage":1.0}],"networkPenetration":0.005777270450429623},{"id":"Bloxstaking","idType":"entity","timeWindow":"1d","validatorCount":2359,"avgCorrectness":0.988357836207709,"avgInclusionDelay":1.0255932522853644,"avgUptime":0.9997221044698797,"avgValidatorEffectiveness":97.14874058331105,"clientPercentages":[{"client":"Teku","percentage":0.0014738393515106854},{"client":"Lighthouse","percentage":0.49815770081061167},{"client":"Prysm","percentage":0.4458364038319823},{"client":"Nimbus","percentage":0.054532056005895356}],"networkPenetration":0.005680942472931838},{"id":"Ankr","idType":"entity","timeWindow":"1d","validatorCount":2293,"avgCorrectness":0.9003511536116869,"avgInclusionDelay":1.316729947056686,"avgUptime":0.9686078731360352,"avgValidatorEffectiveness":76.01427244432048,"clientPercentages":[{"client":"Nimbus","percentage":0.07235421166306695},{"client":"Lighthouse","percentage":0.016198704103671708},{"client":"Prysm","percentage":0.9071274298056156},{"client":"Teku","percentage":0.004319654427645789}],"networkPenetration":0.0055195931106230495},{"id":"StakeWise","idType":"entity","timeWindow":"1d","validatorCount":1980,"avgCorrectness":0.9905433521588591,"avgInclusionDelay":1.023790153338577,"avgUptime":0.9974040404040407,"avgValidatorEffectiveness":97.22345541961953,"clientPercentages":[{"client":"Nimbus","percentage":0.04017467248908297},{"client":"Prysm","percentage":0.36069868995633186},{"client":"Lighthouse","percentage":0.5388646288209606},{"client":"Teku","percentage":0.06026200873362445}],"networkPenetration":0.004768234886140331},{"id":"OKex","idType":"entity","timeWindow":"1d","validatorCount":1730,"avgCorrectness":0.989660517430405,"avgInclusionDelay":1.0239153150814164,"avgUptime":0.9999961464354532,"avgValidatorEffectiveness":97.38375700140813,"clientPercentages":[{"client":"Teku","percentage":0.006718924972004479},{"client":"Prysm","percentage":0.8891377379619261},{"client":"Lighthouse","percentage":0.0022396416573348264},{"client":"Nimbus","percentage":0.1019036954087346}],"networkPenetration":0.004166185026779178}]}