{"page":{"from":0,"size":15},"total":31,"next":"/v0/eth/operators?window=1d&from=15&size=15&idType=entity","data":[{"id":"Lido","idType":"entity","timeWindow":"1d","validatorCount":128917,"avgCorrectness":0.9896064184576172,"avgInclusionDelay":1.016007697570045,"avgUptime":0.9999527336516263,"avgValidatorEffectiveness":97.96949067119863,"clientPercentages":[{"client":"Nimbus","percentage":0.07888294744327895},{"client":"Prysm","percentage":0.3543988731007508},{"client":"Lighthouse","percentage":0.3901341611848853},{"client":"Teku","percentage":0.1765840182710849}],"networkPenetration":0.3188593280037993},{"id":"Coinbase","idType":"entity","timeWindow":"1d","validatorCount":57073,"avgCorrectness":0.9892011053682944,"avgInclusionDelay":1.0173207305769685,"avgUptime":0.9989590438620086,"avgValidatorEffectiveness":97.75656566602194,"clientPercentages":[{"client":"Prysm","percentage":0.37500766260038004},{"client":"Lighthouse","percentage":0.36296205480291793},{"client":"Teku","percentage":0.16496046098203887},{"client":"Nimbus","percentage":0.09706982161466315}],"networkPenetration":0.141060333227798},{"id":"Kraken","idType":"entity","timeWindow":"1d","validatorCount":35736,"avgCorrectness":0.9837953907435592,"avgInclusionDelay":1.0286939221163098,"avgUptime":0.9968759311966611,"avgValidatorEffectiveness":96.56327349336127,"clientPercentages":[{"client":"Teku","percentage":0.08519279702485809},{"client":"Nimbus","percentage":0.038755137991779216},{"client":"Prysm","percentage":0.6030045018594636},{"client":"Lighthouse","percentage":0.273047563123899}],"networkPenetration":0.08836027782175084},{"id":"Binance","idType":"entity","timeWindow":"1d","validatorCount":20810,"avgCorrectness":0.989455083760634,"avgInclusionDelay":1.0162209529019393,"avgUptime":0.9963455603609346,"avgValidatorEffectiveness":97.62858236999145,"clientPercentages":[{"client":"Prysm","percentage":0.5929669228199131},{"client":"Nimbus","percentage":0.07626127631139325},{"client":"Teku","percentage":0.01110925492816572},{"client":"Lighthouse","percentage":0.3196625459405279}],"networkPenetration":0.05147320721861643},{"id":"Bitcoin Suisse","idType":"entity","timeWindow":"1d","validatorCount":9000,"avgCorrectness":0.985930611576203,"avgInclusionDelay":1.0506413473520653,"avgUptime":0.9992274074074079,"avgValidatorEffectiveness":94.95167080562989,"clientPercentages":[{"client":"Teku","percentage":0.9930375969763279},{"client":"Nimbus","percentage":0.00696240302367217}],"networkPenetration":0.02226135823967073},{"id":"Rocketpool","idType":"entity","timeWindow":"1d","validatorCount":5922,"avgCorrectness":0.9887965270574797,"avgInclusionDelay":1.0187271618825446,"avgUptime":0.9941091351998739,"avgValidatorEffectiveness":97.19837758884395,"clientPercentages":[{"client":"Nimbus","percentage":0.25508037609948436},{"client":"Lighthouse","percentage":0.42796481649984836},{"client":"Prysm","percentage":0.056414922656960874},{"client":"Teku","percentage":0.2605398847437064}],"networkPenetration":0.014635606300459078},{"id":"Staked.us","idType":"entity","timeWindow":"1d","validatorCount":5263,"avgCorrectness":0.9888804521384981,"avgInclusionDelay":1.0159032275637927,"avgUptime":0.9998298393396257,"avgValidatorEffectiveness":97.93533679248154,"clientPercentages":[{"client":"Prysm","percentage":0.43316195372750643},{"client":"Lighthouse","percentage":0.0016066838046272494},{"client":"Nimbus","percentage":0.05559125964010283},{"client":"Teku","percentage":0.5096401028277635}],"networkPenetration":0.013017947601709672},{"id":"f2pool.eth","idType":"entity","timeWindow":"1d","validatorCount":3501,"avgCorrectness":0.9902551280781798,"avgInclusionDelay":1.0147501275830813,"avgUptime":0.9999961915643147,"avgValidatorEffectiveness":98.11281135896249,"clientPercentages":[{"client":"Nimbus","percentage":0.00045024763619990995},{"client":"Lighthouse","percentage":0.9995497523638001}],"networkPenetration":0.008659668355231914},{"id":"Bitfinex","idType":"entity","timeWindow":"1d","validatorCount":3214,"avgCorrectness":0.9879239587596609,"avgInclusionDelay":1.0207423931521258,"avgUptime":0.9899758003180521,"avgValidatorEffectiveness":96.67583215834303,"clientPercentages":[{"client":"Prysm","percentage":0.865656037637219},{"client":"Teku","percentage":0.021432305279665446},{"client":"Nimbus","percentage":0.1097752221641401},{"client":"Lighthouse","percentage":0.0031364349189754314}],"networkPenetration":0.007949778375811303},{"id":"Huobi","idType":"entity","timeWindow":"1d","validatorCount":2855,"avgCorrectness":0.9859480510784606,"avgInclusionDelay":1.0262586452420124,"avgUptime":0.9997096711422444,"avgValidatorEffectiveness":96.89419632478536,"clientPercentages":[{"client":"Lighthouse","percentage":0.0034924330616996507},{"client":"Teku","percentage":0.018044237485448197},{"client":"Prysm","percentage":0.8795110593713621},{"client":"Nimbus","percentage":0.0989522700814901}],"networkPenetration":0.007061797530473326},{"id":"wedex.eth","idType":"entity","timeWindow":"1d","validatorCount":2399,"avgCorrectness":0.9884472332847181,"avgInclusionDelay":1.0225588433149064,"avgUptime":0.9996961697003385,"avgValidatorEffectiveness":97.34552340217655,"clientPercentages":[{"client":"Lighthouse","percentage":1.0}],"networkPenetration":0.005933888712996676},{"id":"Bloxstaking","idType":"entity","timeWindow":"1d","validatorCount":2307,"avgCorrectness":0.9878191758387322,"avgInclusionDelay":1.0188550372100864,"avgUptime":0.999879593507681,"avgValidatorEffectiveness":97.64640787097191,"clientPercentages":[{"client":"Prysm","percentage":0.45302257829570286},{"client":"Nimbus","percentage":0.04442825928623452},{"client":"Lighthouse","percentage":0.493809176984705},{"client":"Teku","percentage":0.00873998543335761}],"networkPenetration":0.005706328162102264},{"id":"Ankr","idType":"entity","timeWindow":"1d","validatorCount":2284,"avgCorrectness":0.9056015801399991,"avgInclusionDelay":1.3435552342137471,"avgUptime":0.9635065187779718,"avgValidatorEffectiveness":75.30310398632231,"clientPercentages":[{"client":"Nimbus","percentage":0.0920920920920921},{"client":"Prysm","percentage":0.8898898898898899},{"client":"Teku","percentage":0.008008008008008008},{"client":"Lighthouse","percentage":0.01001001001001001}],"networkPenetration":0.005649438024378661},{"id":"StakeWise","idType":"entity","timeWindow":"1d","validatorCount":1968,"avgCorrectness":0.9896332801069647,"avgInclusionDelay":1.0176426214475915,"avgUptime":0.9999164408310748,"avgValidatorEffectiveness":97.83291612778532,"clientPercentages":[{"client":"Nimbus","percentage":0.0466786355475763},{"client":"Teku","percentage":0.04039497307001795},{"client":"Lighthouse","percentage":0.5359066427289049},{"client":"Prysm","percentage":0.3770197486535009}],"networkPenetration":0.004867817001741333},{"id":"OKex","idType":"entity","timeWindow":"1d","validatorCount":1539,"avgCorrectness":0.987031214016833,"avgInclusionDelay":1.0266096198439516,"avgUptime":0.9996123795466322,"avgValidatorEffectiveness":96.96061494836528,"clientPercentages":[{"client":"Teku","percentage":0.021134593993325918},{"client":"Prysm","percentage":0.8765294771968855},{"client":"Nimbus","percentage":0.10233592880978866}],"networkPenetration":0.0037943248377394333}]}