{"page":{"from":0,"size":15},"total":30,"next":"/v0/eth/operators?window=1d&from=15&size=15&idType=entity","data":[{"id":"Lido","idType":"entity","timeWindow":"1d","validatorCount":129553,"avgCorrectness":0.9908637963958583,"avgInclusionDelay":1.019382660431977,"avgUptime":0.9998979695723982,"avgValidatorEffectiveness":97.83713382471731,"clientPercentages":[{"client":"Prysm","percentage":0.36031478358628444},{"client":"Teku","percentage":0.2215128884606119},{"client":"Lighthouse","percentage":0.3538103268288766},{"client":"Nimbus","percentage":0.06436200112422709}],"networkPenetration":0.3130797302849409},{"id":"Coinbase","idType":"entity","timeWindow":"1d","validatorCount":55750,"avgCorrectness":0.9913332720888364,"avgInclusionDelay":1.0185069009158312,"avgUptime":0.9999656914013584,"avgValidatorEffectiveness":97.91925356645646,"clientPercentages":[{"client":"Teku","percentage":0.1384345608161964},{"client":"Prysm","percentage":0.3732185557149689},{"client":"Lighthouse","percentage":0.3988203411445879},{"client":"Nimbus","percentage":0.08952654232424677}],"networkPenetration":0.1345771805592479},{"id":"Kraken","idType":"entity","timeWindow":"1d","validatorCount":36181,"avgCorrectness":0.9851364711039687,"avgInclusionDelay":1.0288106210909296,"avgUptime":0.9989320891287382,"avgValidatorEffectiveness":96.83359338675649,"clientPercentages":[{"client":"Lighthouse","percentage":0.2649754027201698},{"client":"Prysm","percentage":0.5996913282531108},{"client":"Teku","percentage":0.09004533616282434},{"client":"Nimbus","percentage":0.04528793286389505}],"networkPenetration":0.08739879643280084},{"id":"Binance","idType":"entity","timeWindow":"1d","validatorCount":21584,"avgCorrectness":0.9911943623892254,"avgInclusionDelay":1.0175325532444006,"avgUptime":0.9996160736347901,"avgValidatorEffectiveness":97.96248535892424,"clientPercentages":[{"client":"Teku","percentage":0.003264417845484222},{"client":"Prysm","percentage":0.5864233698836528},{"client":"Lighthouse","percentage":0.34309868586255965},{"client":"Nimbus","percentage":0.06721352640830335}],"networkPenetration":0.05216424583705923},{"id":"Bitcoin Suisse","idType":"entity","timeWindow":"1d","validatorCount":9000,"avgCorrectness":0.9895832509334261,"avgInclusionDelay":1.0368231177224403,"avgUptime":0.9988424691358035,"avgValidatorEffectiveness":96.24899268238303,"clientPercentages":[{"client":"Nimbus","percentage":0.0063522617901828685},{"client":"Teku","percentage":0.9934552454282964},{"client":"Prysm","percentage":0.00019249278152069297}],"networkPenetration":0.02175121444280639},{"id":"Rocketpool","idType":"entity","timeWindow":"1d","validatorCount":6634,"avgCorrectness":0.9892417198486291,"avgInclusionDelay":1.0235937294208743,"avgUptime":0.9901924801219724,"avgValidatorEffectiveness":96.60730117663033,"clientPercentages":[{"client":"Lighthouse","percentage":0.4055674518201285},{"client":"Nimbus","percentage":0.2328336902212705},{"client":"Prysm","percentage":0.07037830121341898},{"client":"Teku","percentage":0.291220556745182}],"networkPenetration":0.016020977837929284},{"id":"Staked.us","idType":"entity","timeWindow":"1d","validatorCount":5263,"avgCorrectness":0.9908240906501405,"avgInclusionDelay":1.017788467227567,"avgUptime":0.9990905060485145,"avgValidatorEffectiveness":97.87553676047602,"clientPercentages":[{"client":"Lighthouse","percentage":0.0019887305270135896},{"client":"Prysm","percentage":0.4461385482267153},{"client":"Nimbus","percentage":0.043752071594298975},{"client":"Teku","percentage":0.5081206496519721}],"networkPenetration":0.012719626845832225},{"id":"f2pool.eth","idType":"entity","timeWindow":"1d","validatorCount":3501,"avgCorrectness":0.9917395029991432,"avgInclusionDelay":1.017168428068171,"avgUptime":1.0,"avgValidatorEffectiveness":98.05554307780545,"clientPercentages":[{"client":"Lighthouse","percentage":1.0}],"networkPenetration":0.008461222418251686},{"id":"Bitfinex","idType":"entity","timeWindow":"1d","validatorCount":3214,"avgCorrectness":0.9901409785750758,"avgInclusionDelay":1.0193596461974668,"avgUptime":0.9993265574223869,"avgValidatorEffectiveness":97.77805975574775,"clientPercentages":[{"client":"Nimbus","percentage":0.09640522875816994},{"client":"Teku","percentage":0.01579520697167756},{"client":"Prysm","percentage":0.8850762527233116},{"client":"Lighthouse","percentage":0.0027233115468409588}],"networkPenetration":0.007767600357686638},{"id":"Huobi","idType":"entity","timeWindow":"1d","validatorCount":2855,"avgCorrectness":0.9903849671559352,"avgInclusionDelay":1.0202365208565065,"avgUptime":0.9999665304533949,"avgValidatorEffectiveness":97.72707399964801,"clientPercentages":[{"client":"Teku","percentage":0.007202881152460984},{"client":"Prysm","percentage":0.9123649459783914},{"client":"Nimbus","percentage":0.07923169267707082},{"client":"Lighthouse","percentage":0.0012004801920768306}],"networkPenetration":0.006899968581579138},{"id":"wedex.eth","idType":"entity","timeWindow":"1d","validatorCount":2399,"avgCorrectness":0.9896065299404777,"avgInclusionDelay":1.0300790202123824,"avgUptime":0.999574822842852,"avgValidatorEffectiveness":96.86215384165294,"clientPercentages":[{"client":"Lighthouse","percentage":1.0}],"networkPenetration":0.0057979070498102815},{"id":"Bloxstaking","idType":"entity","timeWindow":"1d","validatorCount":2355,"avgCorrectness":0.9902719492449525,"avgInclusionDelay":1.0218173063760083,"avgUptime":0.9996178343949035,"avgValidatorEffectiveness":97.55939654665173,"clientPercentages":[{"client":"Prysm","percentage":0.4458364038319823},{"client":"Lighthouse","percentage":0.49815770081061167},{"client":"Teku","percentage":0.0014738393515106854},{"client":"Nimbus","percentage":0.054532056005895356}],"networkPenetration":0.005691567779201006},{"id":"Ankr","idType":"entity","timeWindow":"1d","validatorCount":2290,"avgCorrectness":0.8672534805435331,"avgInclusionDelay":1.4749615480917122,"avgUptime":0.9766637554585159,"avgValidatorEffectiveness":70.75459345580094,"clientPercentages":[{"client":"Lighthouse","percentage":0.016198704103671708},{"client":"Nimbus","percentage":0.07235421166306695},{"client":"Prysm","percentage":0.9071274298056156},{"client":"Teku","percentage":0.004319654427645789}],"networkPenetration":0.005534475674891848},{"id":"StakeWise","idType":"entity","timeWindow":"1d","validatorCount":1980,"avgCorrectness":0.991501637474304,"avgInclusionDelay":1.0182732477004068,"avgUptime":0.9998799102132435,"avgValidatorEffectiveness":97.94573642982053,"clientPercentages":[{"client":"Prysm","percentage":0.36069868995633186},{"client":"Nimbus","percentage":0.04017467248908297},{"client":"Lighthouse","percentage":0.5388646288209606},{"client":"Teku","percentage":0.06026200873362445}],"networkPenetration":0.004785267177417406},{"id":"OKex","idType":"entity","timeWindow":"1d","validatorCount":1722,"avgCorrectness":0.991026144273483,"avgInclusionDelay":1.0175266773674099,"avgUptime":0.9961401471157579,"avgValidatorEffectiveness":97.6542221496968,"clientPercentages":[{"client":"Lighthouse","percentage":0.0022396416573348264},{"client":"Teku","percentage":0.006718924972004479},{"client":"Prysm","percentage":0.8891377379619261},{"client":"Nimbus","percentage":0.1019036954087346}],"networkPenetration":0.00416173236339029}]}