{"page":{"from":0,"size":15},"total":31,"next":"/v0/eth/operators?window=1d&from=15&size=15&idType=entity","data":[{"id":"Lido","idType":"entity","timeWindow":"1d","validatorCount":129338,"avgCorrectness":0.9904055779427218,"avgInclusionDelay":1.0204147574722455,"avgUptime":0.9999480421720786,"avgValidatorEffectiveness":97.7121206426313,"clientPercentages":[{"client":"Nimbus","percentage":0.06436200112422709},{"client":"Prysm","percentage":0.36031478358628444},{"client":"Lighthouse","percentage":0.3538103268288766},{"client":"Teku","percentage":0.2215128884606119}],"networkPenetration":0.31511264987293847},{"id":"Coinbase","idType":"entity","timeWindow":"1d","validatorCount":56137,"avgCorrectness":0.9910121177281068,"avgInclusionDelay":1.0197404656975224,"avgUptime":0.9996576233143968,"avgValidatorEffectiveness":97.77537757949995,"clientPercentages":[{"client":"Teku","percentage":0.14360857792025897},{"client":"Nimbus","percentage":0.09231535373027483},{"client":"Lighthouse","percentage":0.39064396651000655},{"client":"Prysm","percentage":0.3734321018394597}],"networkPenetration":0.13677573087802822},{"id":"Kraken","idType":"entity","timeWindow":"1d","validatorCount":35961,"avgCorrectness":0.983302864462004,"avgInclusionDelay":1.0321083420588526,"avgUptime":0.997932611419925,"avgValidatorEffectiveness":96.42802229166512,"clientPercentages":[{"client":"Nimbus","percentage":0.04528793286389505},{"client":"Prysm","percentage":0.5996913282531108},{"client":"Lighthouse","percentage":0.2649754027201698},{"client":"Teku","percentage":0.09004533616282434}],"networkPenetration":0.08761034132412025},{"id":"Binance","idType":"entity","timeWindow":"1d","validatorCount":21153,"avgCorrectness":0.9909012719779131,"avgInclusionDelay":1.019144272125413,"avgUptime":0.9992676636358371,"avgValidatorEffectiveness":97.77814636162812,"clientPercentages":[{"client":"Prysm","percentage":0.5864233698836528},{"client":"Teku","percentage":0.003264417845484222},{"client":"Nimbus","percentage":0.06721352640830335},{"client":"Lighthouse","percentage":0.34309868586255965}],"networkPenetration":0.051538504645116966},{"id":"Bitcoin Suisse","idType":"entity","timeWindow":"1d","validatorCount":9000,"avgCorrectness":0.9876590482860743,"avgInclusionDelay":1.0420414487452219,"avgUptime":0.9998128395061732,"avgValidatorEffectiveness":95.80077797819781,"clientPercentages":[{"client":"Nimbus","percentage":0.0063522617901828685},{"client":"Teku","percentage":0.9934552454282964},{"client":"Prysm","percentage":0.00019249278152069297}],"networkPenetration":0.021928168193922973},{"id":"Rocketpool","idType":"entity","timeWindow":"1d","validatorCount":6348,"avgCorrectness":0.989845758038438,"avgInclusionDelay":1.0229153358479581,"avgUptime":0.9972366012564816,"avgValidatorEffectiveness":97.27534445638821,"clientPercentages":[{"client":"Nimbus","percentage":0.2328336902212705},{"client":"Teku","percentage":0.291220556745182},{"client":"Lighthouse","percentage":0.4055674518201285},{"client":"Prysm","percentage":0.07037830121341898}],"networkPenetration":0.015439866871654431},{"id":"Staked.us","idType":"entity","timeWindow":"1d","validatorCount":5263,"avgCorrectness":0.9902891728710472,"avgInclusionDelay":1.0201846735119748,"avgUptime":0.9977330208795148,"avgValidatorEffectiveness":97.53533100991815,"clientPercentages":[{"client":"Prysm","percentage":0.4461385482267153},{"client":"Lighthouse","percentage":0.0019887305270135896},{"client":"Nimbus","percentage":0.043752071594298975},{"client":"Teku","percentage":0.5081206496519721}],"networkPenetration":0.012823105467179623},{"id":"f2pool.eth","idType":"entity","timeWindow":"1d","validatorCount":3501,"avgCorrectness":0.9913300356281646,"avgInclusionDelay":1.0186494050229808,"avgUptime":0.9999930178679106,"avgValidatorEffectiveness":97.91119391211029,"clientPercentages":[{"client":"Lighthouse","percentage":1.0}],"networkPenetration":0.008530057427436037},{"id":"Bitfinex","idType":"entity","timeWindow":"1d","validatorCount":3214,"avgCorrectness":0.9893211418357938,"avgInclusionDelay":1.021230442959742,"avgUptime":0.9995899882458688,"avgValidatorEffectiveness":97.61041344691387,"clientPercentages":[{"client":"Nimbus","percentage":0.09640522875816994},{"client":"Prysm","percentage":0.8850762527233116},{"client":"Lighthouse","percentage":0.0027233115468409588},{"client":"Teku","percentage":0.01579520697167756}],"networkPenetration":0.00783079250836316},{"id":"Huobi","idType":"entity","timeWindow":"1d","validatorCount":2855,"avgCorrectness":0.9902821409334749,"avgInclusionDelay":1.019604622852108,"avgUptime":0.9999984432769027,"avgValidatorEffectiveness":97.7727399537533,"clientPercentages":[{"client":"Nimbus","percentage":0.07923169267707082},{"client":"Prysm","percentage":0.9123649459783914},{"client":"Lighthouse","percentage":0.0012004801920768306},{"client":"Teku","percentage":0.007202881152460984}],"networkPenetration":0.0069561022437388985},{"id":"wedex.eth","idType":"entity","timeWindow":"1d","validatorCount":2399,"avgCorrectness":0.9906281987744496,"avgInclusionDelay":1.020021954303553,"avgUptime":0.9999675790838791,"avgValidatorEffectiveness":97.75798123678828,"clientPercentages":[{"client":"Lighthouse","percentage":1.0}],"networkPenetration":0.005845075055246802},{"id":"Bloxstaking","idType":"entity","timeWindow":"1d","validatorCount":2332,"avgCorrectness":0.9901165544258949,"avgInclusionDelay":1.019828832425973,"avgUptime":0.9999818944158576,"avgValidatorEffectiveness":97.74417204060396,"clientPercentages":[{"client":"Lighthouse","percentage":0.4985228951255539},{"client":"Nimbus","percentage":0.05465288035450517},{"client":"Teku","percentage":0.0014771048744460858},{"client":"Prysm","percentage":0.44534711964549484}],"networkPenetration":0.0056818320253587086},{"id":"Ankr","idType":"entity","timeWindow":"1d","validatorCount":2289,"avgCorrectness":0.9112326118924292,"avgInclusionDelay":1.3083882362533141,"avgUptime":0.9883102762001837,"avgValidatorEffectiveness":81.4123268775915,"clientPercentages":[{"client":"Prysm","percentage":0.9071274298056156},{"client":"Lighthouse","percentage":0.016198704103671708},{"client":"Teku","percentage":0.004319654427645789},{"client":"Nimbus","percentage":0.07235421166306695}],"networkPenetration":0.00557706411065441},{"id":"StakeWise","idType":"entity","timeWindow":"1d","validatorCount":1978,"avgCorrectness":0.9908298680125707,"avgInclusionDelay":1.0215256250217695,"avgUptime":0.9998977642961465,"avgValidatorEffectiveness":97.64866530163637,"clientPercentages":[{"client":"Nimbus","percentage":0.04017467248908297},{"client":"Prysm","percentage":0.36069868995633186},{"client":"Lighthouse","percentage":0.5388646288209606},{"client":"Teku","percentage":0.06026200873362445}],"networkPenetration":0.004819324076397738},{"id":"OKex","idType":"entity","timeWindow":"1d","validatorCount":1615,"avgCorrectness":0.9903425307264339,"avgInclusionDelay":1.0195269636762403,"avgUptime":1.0,"avgValidatorEffectiveness":97.78123904975011,"clientPercentages":[{"client":"Nimbus","percentage":0.1019036954087346},{"client":"Lighthouse","percentage":0.0022396416573348264},{"client":"Prysm","percentage":0.8891377379619261},{"client":"Teku","percentage":0.006718924972004479}],"networkPenetration":0.003932451496110187}]}