{"page":{"from":0,"size":15},"total":30,"next":"/v0/eth/operators?window=1d&from=15&size=15&idType=entity","data":[{"id":"Lido","idType":"entity","timeWindow":"1d","validatorCount":129377,"avgCorrectness":0.9889452940729586,"avgInclusionDelay":1.0253496536722921,"avgUptime":0.9987567350596265,"avgValidatorEffectiveness":97.11585318535566,"clientPercentages":[{"client":"Lighthouse","percentage":0.3538103268288766},{"client":"Prysm","percentage":0.36031478358628444},{"client":"Teku","percentage":0.2215128884606119},{"client":"Nimbus","percentage":0.06436200112422709}],"networkPenetration":0.3146897548301716},{"id":"Coinbase","idType":"entity","timeWindow":"1d","validatorCount":56315,"avgCorrectness":0.9892054872674979,"avgInclusionDelay":1.0255466436367273,"avgUptime":0.9984074717250876,"avgValidatorEffectiveness":97.08597486734543,"clientPercentages":[{"client":"Prysm","percentage":0.3734321018394597},{"client":"Lighthouse","percentage":0.39064396651000655},{"client":"Nimbus","percentage":0.09231535373027483},{"client":"Teku","percentage":0.14360857792025897}],"networkPenetration":0.1368333730678097},{"id":"Kraken","idType":"entity","timeWindow":"1d","validatorCount":36007,"avgCorrectness":0.9841080088155358,"avgInclusionDelay":1.0324176947855865,"avgUptime":0.9911637422761566,"avgValidatorEffectiveness":95.73224707004837,"clientPercentages":[{"client":"Teku","percentage":0.09004533616282434},{"client":"Prysm","percentage":0.5996913282531108},{"client":"Lighthouse","percentage":0.2649754027201698},{"client":"Nimbus","percentage":0.04528793286389505}],"networkPenetration":0.08758046231468732},{"id":"Binance","idType":"entity","timeWindow":"1d","validatorCount":21153,"avgCorrectness":0.989266128164203,"avgInclusionDelay":1.0247299148475986,"avgUptime":0.9994165261559955,"avgValidatorEffectiveness":97.23405714696652,"clientPercentages":[{"client":"Prysm","percentage":0.5864233698836528},{"client":"Teku","percentage":0.003264417845484222},{"client":"Nimbus","percentage":0.06721352640830335},{"client":"Lighthouse","percentage":0.34309868586255965}],"networkPenetration":0.05145939055422297},{"id":"Bitcoin Suisse","idType":"entity","timeWindow":"1d","validatorCount":9000,"avgCorrectness":0.9872594151409785,"avgInclusionDelay":1.042622813895486,"avgUptime":0.99919827160494,"avgValidatorEffectiveness":95.67538969348351,"clientPercentages":[{"client":"Nimbus","percentage":0.0063522617901828685},{"client":"Teku","percentage":0.9934552454282964},{"client":"Prysm","percentage":0.00019249278152069297}],"networkPenetration":0.021894507397910778},{"id":"Rocketpool","idType":"entity","timeWindow":"1d","validatorCount":6498,"avgCorrectness":0.9881252570898073,"avgInclusionDelay":1.0287868055035092,"avgUptime":0.9955028225240601,"avgValidatorEffectiveness":96.55974771614513,"clientPercentages":[{"client":"Nimbus","percentage":0.2328336902212705},{"client":"Lighthouse","percentage":0.4055674518201285},{"client":"Prysm","percentage":0.07037830121341898},{"client":"Teku","percentage":0.291220556745182}],"networkPenetration":0.015747016265186275},{"id":"Staked.us","idType":"entity","timeWindow":"1d","validatorCount":5263,"avgCorrectness":0.9895798423143698,"avgInclusionDelay":1.022984321245153,"avgUptime":0.9638115143454306,"avgValidatorEffectiveness":94.36720302566799,"clientPercentages":[{"client":"Nimbus","percentage":0.043752071594298975},{"client":"Teku","percentage":0.5081206496519721},{"client":"Prysm","percentage":0.4461385482267153},{"client":"Lighthouse","percentage":0.0019887305270135896}],"networkPenetration":0.01280342138168938},{"id":"f2pool.eth","idType":"entity","timeWindow":"1d","validatorCount":3501,"avgCorrectness":0.9895283887143356,"avgInclusionDelay":1.0239207845377511,"avgUptime":1.0,"avgValidatorEffectiveness":97.36808028340005,"clientPercentages":[{"client":"Lighthouse","percentage":1.0}],"networkPenetration":0.008516963377787292},{"id":"Bitfinex","idType":"entity","timeWindow":"1d","validatorCount":3214,"avgCorrectness":0.9877467745853238,"avgInclusionDelay":1.026515965837547,"avgUptime":0.9905856323031192,"avgValidatorEffectiveness":96.29201085683259,"clientPercentages":[{"client":"Lighthouse","percentage":0.0027233115468409588},{"client":"Prysm","percentage":0.8850762527233116},{"client":"Nimbus","percentage":0.09640522875816994},{"client":"Teku","percentage":0.01579520697167756}],"networkPenetration":0.00781877186409836},{"id":"Huobi","idType":"entity","timeWindow":"1d","validatorCount":2855,"avgCorrectness":0.9883646352161165,"avgInclusionDelay":1.025843220493996,"avgUptime":0.9999976649153519,"avgValidatorEffectiveness":97.14770108897075,"clientPercentages":[{"client":"Lighthouse","percentage":0.0012004801920768306},{"client":"Teku","percentage":0.007202881152460984},{"client":"Nimbus","percentage":0.07923169267707082},{"client":"Prysm","percentage":0.9123649459783914}],"networkPenetration":0.006945424291226141},{"id":"wedex.eth","idType":"entity","timeWindow":"1d","validatorCount":2399,"avgCorrectness":0.988492656049681,"avgInclusionDelay":1.0282271511253067,"avgUptime":0.9999796211384375,"avgValidatorEffectiveness":96.95951341057497,"clientPercentages":[{"client":"Lighthouse","percentage":1.0}],"networkPenetration":0.005836102583065328},{"id":"Bloxstaking","idType":"entity","timeWindow":"1d","validatorCount":2344,"avgCorrectness":0.9884966031223776,"avgInclusionDelay":1.0256313735901654,"avgUptime":0.9999914675767916,"avgValidatorEffectiveness":97.17129796105064,"clientPercentages":[{"client":"Nimbus","percentage":0.054491899852724596},{"client":"Prysm","percentage":0.44550810014727543},{"client":"Teku","percentage":0.0014727540500736377},{"client":"Lighthouse","percentage":0.49852724594992637}],"networkPenetration":0.005702302815633651},{"id":"Ankr","idType":"entity","timeWindow":"1d","validatorCount":2289,"avgCorrectness":0.9358273841361042,"avgInclusionDelay":1.2286457146712533,"avgUptime":0.9928518033105191,"avgValidatorEffectiveness":85.47292947792505,"clientPercentages":[{"client":"Prysm","percentage":0.9071274298056156},{"client":"Nimbus","percentage":0.07235421166306695},{"client":"Lighthouse","percentage":0.016198704103671708},{"client":"Teku","percentage":0.004319654427645789}],"networkPenetration":0.005568503048201974},{"id":"StakeWise","idType":"entity","timeWindow":"1d","validatorCount":1978,"avgCorrectness":0.9890075316891636,"avgInclusionDelay":1.0273704932621552,"avgUptime":0.9998573194023156,"avgValidatorEffectiveness":97.06178441547763,"clientPercentages":[{"client":"Prysm","percentage":0.36069868995633186},{"client":"Lighthouse","percentage":0.5388646288209606},{"client":"Teku","percentage":0.06026200873362445},{"client":"Nimbus","percentage":0.04017467248908297}],"networkPenetration":0.004811926181451947},{"id":"OKex","idType":"entity","timeWindow":"1d","validatorCount":1667,"avgCorrectness":0.9883536280323016,"avgInclusionDelay":1.0246929641616047,"avgUptime":0.9999986669332799,"avgValidatorEffectiveness":97.2282218598813,"clientPercentages":[{"client":"Nimbus","percentage":0.1019036954087346},{"client":"Teku","percentage":0.006718924972004479},{"client":"Lighthouse","percentage":0.0022396416573348264},{"client":"Prysm","percentage":0.8891377379619261}],"networkPenetration":0.004055349314701919}]}