{"page":{"from":0,"to":null,"size":15},"total":36,"next":"/v0/eth/operators?window=1d&from=15&size=15&idType=entity","data":[{"id":"Lido","idType":"entity","timeWindow":"1d","validatorCount":141993,"avgCorrectness":0.9901052264601307,"avgInclusionDelay":1.0214055215383502,"avgUptime":0.9985811227200958,"avgValidatorEffectiveness":96.91011276779312,"clientPercentages":[{"client":"Nimbus","percentage":0.01863293804721268},{"client":"Lodestar","percentage":0.003989803834644797},{"client":"Teku","percentage":0.1635681037348997},{"client":"Prysm","percentage":0.3560207248143633},{"client":"Lighthouse","percentage":0.45778842956887955}],"networkPenetration":0.30493487409851705,"relayerPercentages":[{"relayer":"manifold","percentage":0.0027609055770292656},{"relayer":"flashbots","percentage":0.7084483710657096},{"relayer":"blocknative","percentage":0.025952512424075095},{"relayer":"bloxroute_maxprofit","percentage":0.0894533406957482},{"relayer":"edennetwork","percentage":0.09607951408061845},{"relayer":"no_mev_boost","percentage":0.013252346769740474},{"relayer":"bloxroute_regulated","percentage":0.02153506350082827},{"relayer":"bloxroute_ethical","percentage":0.04251794588625069}],"nodeOperatorCount":29},{"id":"Coinbase","idType":"entity","timeWindow":"1d","validatorCount":54760,"avgCorrectness":0.988542430973833,"avgInclusionDelay":1.0207431711686576,"avgUptime":0.9984129534940277,"avgValidatorEffectiveness":96.77144009311955,"clientPercentages":[{"client":"Teku","percentage":0.20679341286485373},{"client":"Nimbus","percentage":0.0068415443325196825},{"client":"Prysm","percentage":0.3576168047581394},{"client":"Lighthouse","percentage":0.42874823804448725}],"networkPenetration":0.1176412457597807,"relayerPercentages":[{"relayer":"bloxroute_ethical","percentage":0.011560693641618497},{"relayer":"no_mev_boost","percentage":0.011560693641618497},{"relayer":"bloxroute_maxprofit","percentage":0.19508670520231214},{"relayer":"edennetwork","percentage":0.002890173410404624},{"relayer":"flashbots","percentage":0.7789017341040463}],"nodeOperatorCount":null},{"id":"Kraken","idType":"entity","timeWindow":"1d","validatorCount":38271,"avgCorrectness":0.9898762375700491,"avgInclusionDelay":1.0172145734190554,"avgUptime":0.999082333882057,"avgValidatorEffectiveness":97.27440668345882,"clientPercentages":[{"client":"Teku","percentage":0.052123837180686125},{"client":"Lighthouse","percentage":0.25358074518875817},{"client":"Prysm","percentage":0.6941969779002806},{"client":"Nimbus","percentage":9.843973027513905e-05}],"networkPenetration":0.08220493551859037,"relayerPercentages":[{"relayer":"manifold","percentage":0.01598173515981735},{"relayer":"blocknative","percentage":0.00684931506849315},{"relayer":"flashbots","percentage":0.7990867579908676},{"relayer":"bloxroute_maxprofit","percentage":0.1324200913242009},{"relayer":"no_mev_boost","percentage":0.0228310502283105},{"relayer":"edennetwork","percentage":0.0228310502283105}],"nodeOperatorCount":null},{"id":"Binance","idType":"entity","timeWindow":"1d","validatorCount":24402,"avgCorrectness":0.9922951177977025,"avgInclusionDelay":1.0125342171579965,"avgUptime":0.9999244142101318,"avgValidatorEffectiveness":98.01833693322722,"clientPercentages":[{"client":"Nimbus","percentage":0.0011182108626198084},{"client":"Lighthouse","percentage":0.4614217252396166},{"client":"Prysm","percentage":0.5313897763578275},{"client":"Teku","percentage":0.0060702875399361025}],"networkPenetration":0.05118554275881181,"relayerPercentages":[{"relayer":"no_mev_boost","percentage":0.01567398119122257},{"relayer":"blocknative","percentage":0.009404388714733543},{"relayer":"edennetwork","percentage":0.03761755485893417},{"relayer":"bloxroute_regulated","percentage":0.08150470219435736},{"relayer":"flashbots","percentage":0.8557993730407524}],"nodeOperatorCount":null},{"id":"Staked.us","idType":"entity","timeWindow":"1d","validatorCount":12917,"avgCorrectness":0.9891682371745686,"avgInclusionDelay":1.0181919129044883,"avgUptime":0.9977566170335351,"avgValidatorEffectiveness":96.99022578016617,"clientPercentages":[{"client":"Teku","percentage":0.25857288778637094},{"client":"Prysm","percentage":0.6296512476287757},{"client":"Lighthouse","percentage":0.11148402159638114},{"client":"Nimbus","percentage":0.00029184298847220193}],"networkPenetration":0.027749670772079755,"relayerPercentages":[{"relayer":"blocknative","percentage":0.02197802197802198},{"relayer":"manifold","percentage":0.016483516483516484},{"relayer":"no_mev_boost","percentage":0.1043956043956044},{"relayer":"bloxroute_ethical","percentage":0.06043956043956044},{"relayer":"bloxroute_maxprofit","percentage":0.23076923076923078},{"relayer":"edennetwork","percentage":0.08241758241758242},{"relayer":"flashbots","percentage":0.4835164835164835}],"nodeOperatorCount":null},{"id":"Rocketpool","idType":"entity","timeWindow":"1d","validatorCount":9254,"avgCorrectness":0.9890767855447561,"avgInclusionDelay":1.0197558801544,"avgUptime":0.9890697040919246,"avgValidatorEffectiveness":96.07080806968594,"clientPercentages":[{"client":"Lighthouse","percentage":0.4125169760072431},{"client":"Nimbus","percentage":0.1949977365323676},{"client":"Prysm","percentage":0.05160706201901313},{"client":"Teku","percentage":0.3408782254413762}],"networkPenetration":0.019858942217009,"relayerPercentages":[{"relayer":"blocknative","percentage":0.024390243902439025},{"relayer":"bloxroute_ethical","percentage":0.024390243902439025},{"relayer":"bloxroute_regulated","percentage":0.016260162601626018},{"relayer":"no_mev_boost","percentage":0.08943089430894309},{"relayer":"bloxroute_maxprofit","percentage":0.21138211382113822},{"relayer":"flashbots","percentage":0.5365853658536586},{"relayer":"edennetwork","percentage":0.0975609756097561}],"nodeOperatorCount":1619},{"id":"Bitcoin Suisse","idType":"entity","timeWindow":"1d","validatorCount":9214,"avgCorrectness":0.9923612957092451,"avgInclusionDelay":1.0139023099437916,"avgUptime":0.9998413042953979,"avgValidatorEffectiveness":97.89232791971325,"clientPercentages":[{"client":"Nimbus","percentage":0.02484717018339578},{"client":"Prysm","percentage":0.0005915992900808519},{"client":"Teku","percentage":0.9743640307631631},{"client":"Lighthouse","percentage":0.00019719976336028398}],"networkPenetration":0.019794493031968945,"relayerPercentages":[{"relayer":"no_mev_boost","percentage":1.0}],"nodeOperatorCount":null},{"id":"Stakefish","idType":"entity","timeWindow":"1d","validatorCount":8078,"avgCorrectness":0.9891416304099346,"avgInclusionDelay":1.0321241847082454,"avgUptime":0.993195235344284,"avgValidatorEffectiveness":95.32057566455426,"clientPercentages":[{"client":"Nimbus","percentage":0.006570580754557015},{"client":"Teku","percentage":0.30479016532428993},{"client":"Lighthouse","percentage":0.6877914370495973},{"client":"Prysm","percentage":0.000847816871555744}],"networkPenetration":0.017354017225118853,"relayerPercentages":[{"relayer":"blocknative","percentage":0.014598540145985401},{"relayer":"relayooor","percentage":0.014598540145985401},{"relayer":"flashbots","percentage":0.8467153284671532},{"relayer":"bloxroute_maxprofit","percentage":0.021897810218978103},{"relayer":"no_mev_boost","percentage":0.058394160583941604},{"relayer":"edennetwork","percentage":0.043795620437956206}],"nodeOperatorCount":null},{"id":"Celsius Network","idType":"entity","timeWindow":"1d","validatorCount":4943,"avgCorrectness":0.9921607171386633,"avgInclusionDelay":1.0128609440771046,"avgUptime":0.999886708476636,"avgValidatorEffectiveness":97.97744462338514,"clientPercentages":[{"client":"Teku","percentage":0.00603090840557859},{"client":"Prysm","percentage":0.9890689785148888},{"client":"Lighthouse","percentage":0.004900113079532605}],"networkPenetration":0.01061907738843309,"relayerPercentages":[{"relayer":"flashbots","percentage":0.9491525423728814},{"relayer":"no_mev_boost","percentage":0.05084745762711865}],"nodeOperatorCount":null},{"id":"Bitfinex","idType":"entity","timeWindow":"1d","validatorCount":3214,"avgCorrectness":0.9925781894654545,"avgInclusionDelay":1.012425770370104,"avgUptime":0.9999225610177686,"avgValidatorEffectiveness":98.06057017492843,"clientPercentages":[{"client":"Nimbus","percentage":0.0005770340450086555},{"client":"Teku","percentage":0.01673398730525101},{"client":"Prysm","percentage":0.9792267743796884},{"client":"Lighthouse","percentage":0.003462204270051933}],"networkPenetration":0.006904656023957911,"relayerPercentages":[{"relayer":"flashbots","percentage":0.9636363636363636},{"relayer":"bloxroute_maxprofit","percentage":0.03636363636363636}],"nodeOperatorCount":null},{"id":"Abyss","idType":"entity","timeWindow":"1d","validatorCount":3074,"avgCorrectness":0.9916162507139343,"avgInclusionDelay":1.0147807938032192,"avgUptime":0.9982259813489488,"avgValidatorEffectiveness":97.59928514747347,"clientPercentages":[{"client":"Nimbus","percentage":0.04461221688400824},{"client":"Prysm","percentage":0.033630748112560054},{"client":"Lighthouse","percentage":0.08098833218943034},{"client":"Teku","percentage":0.8407687028140014}],"networkPenetration":0.006603893160437653,"relayerPercentages":[{"relayer":"edennetwork","percentage":0.027777777777777776},{"relayer":"relayooor","percentage":0.027777777777777776},{"relayer":"bloxroute_ethical","percentage":0.08333333333333333},{"relayer":"flashbots","percentage":0.3888888888888889},{"relayer":"bloxroute_maxprofit","percentage":0.027777777777777776},{"relayer":"no_mev_boost","percentage":0.4444444444444444}],"nodeOperatorCount":null},{"id":"Huobi","idType":"entity","timeWindow":"1d","validatorCount":2855,"avgCorrectness":0.9918159847259392,"avgInclusionDelay":1.0129159018478644,"avgUptime":0.9998972562755383,"avgValidatorEffectiveness":97.93715613317792,"clientPercentages":[{"client":"Lighthouse","percentage":0.007677543186180422},{"client":"Teku","percentage":0.010876519513755598},{"client":"Prysm","percentage":0.981445937300064}],"networkPenetration":0.006133414109645251,"relayerPercentages":[{"relayer":"flashbots","percentage":0.6857142857142857},{"relayer":"blocknative","percentage":0.02857142857142857},{"relayer":"bloxroute_maxprofit","percentage":0.08571428571428572},{"relayer":"bloxroute_regulated","percentage":0.05714285714285714},{"relayer":"edennetwork","percentage":0.14285714285714285}],"nodeOperatorCount":null},{"id":"Bloxstaking","idType":"entity","timeWindow":"1d","validatorCount":2687,"avgCorrectness":0.9916842140667016,"avgInclusionDelay":1.012660593860257,"avgUptime":0.9999636108009752,"avgValidatorEffectiveness":97.95613438542519,"clientPercentages":[{"client":"Lighthouse","percentage":0.30851063829787234},{"client":"Prysm","percentage":0.6838905775075987},{"client":"Teku","percentage":0.007598784194528876}],"networkPenetration":0.0057724986734209414,"relayerPercentages":[{"relayer":"flashbots","percentage":0.972972972972973},{"relayer":"blocknative","percentage":0.02702702702702703}],"nodeOperatorCount":null},{"id":"wedex.eth","idType":"entity","timeWindow":"1d","validatorCount":2399,"avgCorrectness":0.9905147670568354,"avgInclusionDelay":1.0147123949147738,"avgUptime":0.9998258533648279,"avgValidatorEffectiveness":97.63038636386226,"clientPercentages":[{"client":"Lighthouse","percentage":0.993841416474211},{"client":"Nimbus","percentage":0.006158583525789068}],"networkPenetration":0.005153786497036412,"relayerPercentages":[{"relayer":"bloxroute_maxprofit","percentage":0.10344827586206896},{"relayer":"edennetwork","percentage":0.3103448275862069},{"relayer":"flashbots","percentage":0.5517241379310345},{"relayer":"no_mev_boost","percentage":0.034482758620689655}],"nodeOperatorCount":null},{"id":"Ankr","idType":"entity","timeWindow":"1d","validatorCount":2306,"avgCorrectness":0.9922872437836264,"avgInclusionDelay":1.012782625961203,"avgUptime":0.9999633805531463,"avgValidatorEffectiveness":98.00392403011081,"clientPercentages":[{"client":"Prysm","percentage":0.162291169451074},{"client":"Lighthouse","percentage":0.8369132856006364},{"client":"Teku","percentage":0.0007955449482895784}],"networkPenetration":0.004949697411076237,"relayerPercentages":[{"relayer":"blocknative","percentage":0.02702702702702703},{"relayer":"flashbots","percentage":0.10810810810810811},{"relayer":"no_mev_boost","percentage":0.8648648648648649}],"nodeOperatorCount":null}]}