{"page":{"from":0,"size":15},"total":30,"next":"/v0/eth/operators?window=1d&from=15&size=15&idType=entity","data":[{"id":"Lido","idType":"entity","timeWindow":"1d","validatorCount":129642,"avgCorrectness":0.9871423814216801,"avgInclusionDelay":1.0283066968937864,"avgUptime":0.9990679535679359,"avgValidatorEffectiveness":96.80052093330704,"clientPercentages":[{"client":"Lighthouse","percentage":0.3538103268288766},{"client":"Prysm","percentage":0.36031478358628444},{"client":"Nimbus","percentage":0.06436200112422709},{"client":"Teku","percentage":0.2215128884606119}],"networkPenetration":0.3117232888307491},{"id":"Coinbase","idType":"entity","timeWindow":"1d","validatorCount":55805,"avgCorrectness":0.9873174804859273,"avgInclusionDelay":1.0287482309395144,"avgUptime":0.9999698553494749,"avgValidatorEffectiveness":96.84601733898235,"clientPercentages":[{"client":"Lighthouse","percentage":0.3988203411445879},{"client":"Teku","percentage":0.1384345608161964},{"client":"Nimbus","percentage":0.08952654232424677},{"client":"Prysm","percentage":0.3732185557149689}],"networkPenetration":0.1341930860682544},{"id":"Kraken","idType":"entity","timeWindow":"1d","validatorCount":36249,"avgCorrectness":0.987057058203719,"avgInclusionDelay":1.0283303862608881,"avgUptime":0.9987048502596195,"avgValidatorEffectiveness":96.75910762320083,"clientPercentages":[{"client":"Lighthouse","percentage":0.2649754027201698},{"client":"Teku","percentage":0.09004533616282434},{"client":"Prysm","percentage":0.5996913282531108},{"client":"Nimbus","percentage":0.04528793286389505}],"networkPenetration":0.08715997845408026},{"id":"Binance","idType":"entity","timeWindow":"1d","validatorCount":21584,"avgCorrectness":0.9868151075622652,"avgInclusionDelay":1.0286177526129678,"avgUptime":0.9999514043324262,"avgValidatorEffectiveness":96.83168767789647,"clientPercentages":[{"client":"Nimbus","percentage":0.06721352640830335},{"client":"Teku","percentage":0.003264417845484222},{"client":"Prysm","percentage":0.5864233698836528},{"client":"Lighthouse","percentage":0.34309868586255965}],"networkPenetration":0.05190258166288331},{"id":"Bitcoin Suisse","idType":"entity","timeWindow":"1d","validatorCount":9000,"avgCorrectness":0.9849775329672039,"avgInclusionDelay":1.0434602144133707,"avgUptime":0.9999837037037049,"avgValidatorEffectiveness":95.548499476637,"clientPercentages":[{"client":"Nimbus","percentage":0.0063522617901828685},{"client":"Teku","percentage":0.9934552454282964},{"client":"Prysm","percentage":0.00019249278152069297}],"networkPenetration":0.021642106883151862},{"id":"Rocketpool","idType":"entity","timeWindow":"1d","validatorCount":6746,"avgCorrectness":0.9857704366230063,"avgInclusionDelay":1.031323100222014,"avgUptime":0.9940991276861739,"avgValidatorEffectiveness":96.08897212801095,"clientPercentages":[{"client":"Nimbus","percentage":0.2328336902212705},{"client":"Teku","percentage":0.291220556745182},{"client":"Lighthouse","percentage":0.4055674518201285},{"client":"Prysm","percentage":0.07037830121341898}],"networkPenetration":0.01601996845061752},{"id":"Staked.us","idType":"entity","timeWindow":"1d","validatorCount":5263,"avgCorrectness":0.9857093968705969,"avgInclusionDelay":1.030087392607646,"avgUptime":0.9993898705850071,"avgValidatorEffectiveness":96.60888032881742,"clientPercentages":[{"client":"Lighthouse","percentage":0.0019887305270135896},{"client":"Nimbus","percentage":0.043752071594298975},{"client":"Prysm","percentage":0.4461385482267153},{"client":"Teku","percentage":0.5081206496519721}],"networkPenetration":0.012655823169558694},{"id":"f2pool.eth","idType":"entity","timeWindow":"1d","validatorCount":3501,"avgCorrectness":0.9875626011615729,"avgInclusionDelay":1.0277977720651243,"avgUptime":1.0,"avgValidatorEffectiveness":96.94389303187728,"clientPercentages":[{"client":"Lighthouse","percentage":1.0}],"networkPenetration":0.008418779577546073},{"id":"Bitfinex","idType":"entity","timeWindow":"1d","validatorCount":3214,"avgCorrectness":0.9868922113912522,"avgInclusionDelay":1.0295703017937083,"avgUptime":0.9989822305192573,"avgValidatorEffectiveness":96.68155667148628,"clientPercentages":[{"client":"Nimbus","percentage":0.09640522875816994},{"client":"Teku","percentage":0.01579520697167756},{"client":"Lighthouse","percentage":0.0027233115468409588},{"client":"Prysm","percentage":0.8850762527233116}],"networkPenetration":0.007728636835827787},{"id":"Huobi","idType":"entity","timeWindow":"1d","validatorCount":2855,"avgCorrectness":0.9862450843330728,"avgInclusionDelay":1.0293484386627518,"avgUptime":0.9999361743529859,"avgValidatorEffectiveness":96.73986888947783,"clientPercentages":[{"client":"Teku","percentage":0.007202881152460984},{"client":"Nimbus","percentage":0.07923169267707082},{"client":"Prysm","percentage":0.9123649459783914},{"client":"Lighthouse","percentage":0.0012004801920768306}],"networkPenetration":0.006865357239044284},{"id":"wedex.eth","idType":"entity","timeWindow":"1d","validatorCount":2399,"avgCorrectness":0.9866689824463897,"avgInclusionDelay":1.0291473299059792,"avgUptime":1.0,"avgValidatorEffectiveness":96.78379310619827,"clientPercentages":[{"client":"Lighthouse","percentage":1.0}],"networkPenetration":0.005768823823631257},{"id":"Bloxstaking","idType":"entity","timeWindow":"1d","validatorCount":2367,"avgCorrectness":0.9850418557456524,"avgInclusionDelay":1.0314458318066086,"avgUptime":0.9994413932310016,"avgValidatorEffectiveness":96.46090236507403,"clientPercentages":[{"client":"Nimbus","percentage":0.054411764705882354},{"client":"Lighthouse","percentage":0.4970588235294118},{"client":"Teku","percentage":0.003676470588235294},{"client":"Prysm","percentage":0.44485294117647056}],"networkPenetration":0.005691874110268939},{"id":"Ankr","idType":"entity","timeWindow":"1d","validatorCount":2294,"avgCorrectness":0.8482096502604737,"avgInclusionDelay":1.414854010347884,"avgUptime":0.9814530659691953,"avgValidatorEffectiveness":70.08365283795473,"clientPercentages":[{"client":"Nimbus","percentage":0.07235421166306695},{"client":"Prysm","percentage":0.9071274298056156},{"client":"Teku","percentage":0.004319654427645789},{"client":"Lighthouse","percentage":0.016198704103671708}],"networkPenetration":0.005516332576661152},{"id":"StakeWise","idType":"entity","timeWindow":"1d","validatorCount":1980,"avgCorrectness":0.9870970059127498,"avgInclusionDelay":1.0296153794351237,"avgUptime":0.9999506172839516,"avgValidatorEffectiveness":96.77085181234997,"clientPercentages":[{"client":"Lighthouse","percentage":0.5388646288209606},{"client":"Prysm","percentage":0.36069868995633186},{"client":"Teku","percentage":0.06026200873362445},{"client":"Nimbus","percentage":0.04017467248908297}],"networkPenetration":0.004761263514293409},{"id":"OKex","idType":"entity","timeWindow":"1d","validatorCount":1730,"avgCorrectness":0.986421965317919,"avgInclusionDelay":1.0298754014129736,"avgUptime":1.0,"avgValidatorEffectiveness":96.70856063585376,"clientPercentages":[{"client":"Nimbus","percentage":0.1019036954087346},{"client":"Prysm","percentage":0.8891377379619261},{"client":"Teku","percentage":0.006718924972004479},{"client":"Lighthouse","percentage":0.0022396416573348264}],"networkPenetration":0.004160093878650302}]}