{"page":{"from":0,"size":15},"total":29,"next":"/v0/eth/operators?window=1d&from=15&size=15&idType=entity","data":[{"id":"Lido","idType":"entity","timeWindow":"1d","validatorCount":126141,"avgCorrectness":0.9882276365134297,"avgInclusionDelay":1.023690894045372,"avgUptime":0.999680263864474,"avgValidatorEffectiveness":97.34077127157855,"clientPercentages":[{"client":"Nimbus","percentage":0.08723331875394859},{"client":"Prysm","percentage":0.3591064457079911},{"client":"Lighthouse","percentage":0.40130566490094116},{"client":"Teku","percentage":0.1523545706371191}],"networkPenetration":0.32193964596623326},{"id":"Coinbase","idType":"entity","timeWindow":"1d","validatorCount":55262,"avgCorrectness":0.9879050122639773,"avgInclusionDelay":1.0211744182815612,"avgUptime":0.9997326050236091,"avgValidatorEffectiveness":97.51480254942192,"clientPercentages":[{"client":"Lighthouse","percentage":0.1399023184653407},{"client":"Nimbus","percentage":0.12089561021537013},{"client":"Prysm","percentage":0.5763798987878075},{"client":"Teku","percentage":0.1628221725314817}],"networkPenetration":0.1421127257100361},{"id":"Kraken","idType":"entity","timeWindow":"1d","validatorCount":33421,"avgCorrectness":0.9840916425018258,"avgInclusionDelay":1.0265034010055378,"avgUptime":0.9992339244334396,"avgValidatorEffectiveness":96.88677356730702,"clientPercentages":[{"client":"Nimbus","percentage":0.06411867027444917},{"client":"Prysm","percentage":0.750966370313104},{"client":"Lighthouse","percentage":0.11321028218013143},{"client":"Teku","percentage":0.07170467723231543}],"networkPenetration":0.08598918701927655},{"id":"Binance","idType":"entity","timeWindow":"1d","validatorCount":19738,"avgCorrectness":0.9885053284166947,"avgInclusionDelay":1.020540970631128,"avgUptime":0.9998303329167642,"avgValidatorEffectiveness":97.60807602391941,"clientPercentages":[{"client":"Lighthouse","percentage":0.29638377585926046},{"client":"Teku","percentage":0.01628929793125916},{"client":"Nimbus","percentage":0.08063202475973286},{"client":"Prysm","percentage":0.6066949014497475}],"networkPenetration":0.05079167385044531},{"id":"Bitcoin Suisse","idType":"entity","timeWindow":"1d","validatorCount":8102,"avgCorrectness":0.9804707388928539,"avgInclusionDelay":1.097273098168246,"avgUptime":0.997665322691244,"avgValidatorEffectiveness":91.24980156721246,"clientPercentages":[{"client":"Prysm","percentage":0.0009778994719342852},{"client":"Nimbus","percentage":0.12438881283004107},{"client":"Teku","percentage":0.8746332876980246}],"networkPenetration":0.020848826706672808},{"id":"Rocketpool","idType":"entity","timeWindow":"1d","validatorCount":5428,"avgCorrectness":0.9860468156584475,"avgInclusionDelay":1.0287365446944412,"avgUptime":0.9941557808775443,"avgValidatorEffectiveness":96.40514142405925,"clientPercentages":[{"client":"Lighthouse","percentage":0.4493120354262217},{"client":"Prysm","percentage":0.05962359639411672},{"client":"Nimbus","percentage":0.26174284358690497},{"client":"Teku","percentage":0.2293215245927566}],"networkPenetration":0.013962692385880852},{"id":"Staked.us","idType":"entity","timeWindow":"1d","validatorCount":5263,"avgCorrectness":0.9863937225011762,"avgInclusionDelay":1.0365790099937315,"avgUptime":0.9989161230392458,"avgValidatorEffectiveness":96.18188182413508,"clientPercentages":[{"client":"Prysm","percentage":0.430622009569378},{"client":"Teku","percentage":0.4967105263157895},{"client":"Lighthouse","percentage":0.00687799043062201},{"client":"Nimbus","percentage":0.06578947368421052}],"networkPenetration":0.013543245489659218},{"id":"f2pool.eth","idType":"entity","timeWindow":"1d","validatorCount":3501,"avgCorrectness":0.9838597342978899,"avgInclusionDelay":1.0573059183727938,"avgUptime":0.998852391380241,"avgValidatorEffectiveness":94.40543990228821,"clientPercentages":[{"client":"Lighthouse","percentage":1.0}],"networkPenetration":0.009009101740318626},{"id":"Bitfinex","idType":"entity","timeWindow":"1d","validatorCount":3214,"avgCorrectness":0.9841091968140204,"avgInclusionDelay":1.0298607742697068,"avgUptime":0.9992442785037683,"avgValidatorEffectiveness":96.58839568918532,"clientPercentages":[{"client":"Nimbus","percentage":0.11834319526627218},{"client":"Prysm","percentage":0.841715976331361},{"client":"Teku","percentage":0.03796844181459566},{"client":"Lighthouse","percentage":0.0019723865877712033}],"networkPenetration":0.00827056640770753},{"id":"Huobi","idType":"entity","timeWindow":"1d","validatorCount":2855,"avgCorrectness":0.9873392442553033,"avgInclusionDelay":1.0221309216273409,"avgUptime":0.9997291301809688,"avgValidatorEffectiveness":97.40353857358156,"clientPercentages":[{"client":"Prysm","percentage":0.8620689655172413},{"client":"Lighthouse","percentage":0.0005473453749315818},{"client":"Nimbus","percentage":0.11056376573617953},{"client":"Teku","percentage":0.02681992337164751}],"networkPenetration":0.007346753918483198},{"id":"wedex.eth","idType":"entity","timeWindow":"1d","validatorCount":2399,"avgCorrectness":0.9876942038856995,"avgInclusionDelay":1.0224041664929084,"avgUptime":0.9995692649715164,"avgValidatorEffectiveness":97.38536824062436,"clientPercentages":[{"client":"Lighthouse","percentage":1.0}],"networkPenetration":0.0061733319265993665},{"id":"Ankr","idType":"entity","timeWindow":"1d","validatorCount":2267,"avgCorrectness":0.8991638777427221,"avgInclusionDelay":1.331177865915734,"avgUptime":0.9717367894077201,"avgValidatorEffectiveness":76.57863269595205,"clientPercentages":[{"client":"Teku","percentage":0.01},{"client":"Nimbus","percentage":0.10916666666666666},{"client":"Lighthouse","percentage":0.004166666666666667},{"client":"Prysm","percentage":0.8766666666666667}],"networkPenetration":0.0058336571394751},{"id":"Bloxstaking","idType":"entity","timeWindow":"1d","validatorCount":2265,"avgCorrectness":0.9854971331884715,"avgInclusionDelay":1.0220345038090022,"avgUptime":0.9998400784890844,"avgValidatorEffectiveness":97.30791741990514,"clientPercentages":[{"client":"Teku","percentage":0.01977401129943503},{"client":"Lighthouse","percentage":0.3870056497175141},{"client":"Prysm","percentage":0.528954802259887},{"client":"Nimbus","percentage":0.06426553672316385}],"networkPenetration":0.0058285105517913985},{"id":"Stakewise","idType":"entity","timeWindow":"1d","validatorCount":2239,"avgCorrectness":0.9852758396092811,"avgInclusionDelay":1.0316941175064585,"avgUptime":0.9974435394303058,"avgValidatorEffectiveness":96.34879169263232,"clientPercentages":[{"client":"Teku","percentage":0.03550784475639967},{"client":"Prysm","percentage":0.4310487200660611},{"client":"Nimbus","percentage":0.053674649050371594},{"client":"Lighthouse","percentage":0.4797687861271676}],"networkPenetration":0.005759031618061435},{"id":"Stakefish","idType":"entity","timeWindow":"1d","validatorCount":1518,"avgCorrectness":0.9834247892323621,"avgInclusionDelay":1.0583197751811861,"avgUptime":0.9897525984482503,"avgValidatorEffectiveness":93.55136228480036,"clientPercentages":[{"client":"Teku","percentage":0.045317220543806644},{"client":"Lighthouse","percentage":0.9546827794561934}],"networkPenetration":0.0039062600519290695}]}