{"page":{"from":0,"size":15},"total":30,"next":"/v0/eth/operators?window=1d&from=15&size=15&idType=entity","data":[{"id":"Lido","idType":"entity","timeWindow":"1d","validatorCount":130451,"avgCorrectness":0.9845780971590192,"avgInclusionDelay":1.047175956339959,"avgUptime":0.997419609352376,"avgValidatorEffectiveness":95.14320446977288,"clientPercentages":[{"client":"Lighthouse","percentage":0.3503037354727856},{"client":"Teku","percentage":0.22193660113917715},{"client":"Prysm","percentage":0.40259494270290747},{"client":"Lodestar","percentage":0.00037882375224926605},{"client":"Nimbus","percentage":0.02478589693288055}],"networkPenetration":0.30315440393300497},{"id":"Coinbase","idType":"entity","timeWindow":"1d","validatorCount":54661,"avgCorrectness":0.9870261158412077,"avgInclusionDelay":1.0344185605863294,"avgUptime":0.9990618095066739,"avgValidatorEffectiveness":96.32113580077657,"clientPercentages":[{"client":"Lighthouse","percentage":0.42602100741635623},{"client":"Nimbus","percentage":0.055538776469009024},{"client":"Prysm","percentage":0.38444243095405883},{"client":"Teku","percentage":0.13399778516057587}],"networkPenetration":0.1271180134045888},{"id":"Kraken","idType":"entity","timeWindow":"1d","validatorCount":37147,"avgCorrectness":0.9885614473558094,"avgInclusionDelay":1.0317456327822174,"avgUptime":0.9993649684124628,"avgValidatorEffectiveness":96.62917553796524,"clientPercentages":[{"client":"Prysm","percentage":0.6236543567463191},{"client":"Lighthouse","percentage":0.26280473087134926},{"client":"Teku","percentage":0.0939898624185373},{"client":"Nimbus","percentage":0.01955104996379435}],"networkPenetration":0.08602053013706913},{"id":"Binance","idType":"entity","timeWindow":"1d","validatorCount":22496,"avgCorrectness":0.989177940818745,"avgInclusionDelay":1.0317870250541143,"avgUptime":0.9994592305827908,"avgValidatorEffectiveness":96.67924722367297,"clientPercentages":[{"client":"Nimbus","percentage":0.030764114076660846},{"client":"Prysm","percentage":0.6109586763116321},{"client":"Lighthouse","percentage":0.35769518583187826},{"client":"Teku","percentage":0.0005820237798287187}],"networkPenetration":0.05231603573936865},{"id":"Bitcoin Suisse","idType":"entity","timeWindow":"1d","validatorCount":9062,"avgCorrectness":0.9907090389553665,"avgInclusionDelay":1.0309189128175682,"avgUptime":0.9994288497143128,"avgValidatorEffectiveness":96.82279345410863,"clientPercentages":[{"client":"Teku","percentage":0.9935897435897436},{"client":"Nimbus","percentage":0.00641025641025641}],"networkPenetration":0.021074320584555422},{"id":"Rocketpool","idType":"entity","timeWindow":"1d","validatorCount":7696,"avgCorrectness":0.982692488359833,"avgInclusionDelay":1.0434945214471685,"avgUptime":0.9843894102892258,"avgValidatorEffectiveness":94.31411821597074,"clientPercentages":[{"client":"Lighthouse","percentage":0.4175987063738041},{"client":"Nimbus","percentage":0.22571082064411804},{"client":"Prysm","percentage":0.053901091497102815},{"client":"Teku","percentage":0.3027893814849751}],"networkPenetration":0.017688289821907805},{"id":"Staked.us","idType":"entity","timeWindow":"1d","validatorCount":5263,"avgCorrectness":0.9870756027664725,"avgInclusionDelay":1.0337703969849203,"avgUptime":0.9987197329213524,"avgValidatorEffectiveness":96.33291523294707,"clientPercentages":[{"client":"Nimbus","percentage":0.02821210061182869},{"client":"Teku","percentage":0.49422161794697483},{"client":"Lighthouse","percentage":0.005778382053025153},{"client":"Prysm","percentage":0.47178789938817134}],"networkPenetration":0.012239477955916483},{"id":"f2pool.eth","idType":"entity","timeWindow":"1d","validatorCount":3501,"avgCorrectness":0.9871409123539694,"avgInclusionDelay":1.0470712487624794,"avgUptime":0.9983248550300818,"avgValidatorEffectiveness":95.28461579572608,"clientPercentages":[{"client":"Prysm","percentage":0.013612056392805057},{"client":"Lighthouse","percentage":0.986387943607195}],"networkPenetration":0.008141822596173971},{"id":"Bitfinex","idType":"entity","timeWindow":"1d","validatorCount":3214,"avgCorrectness":0.99078700498824,"avgInclusionDelay":1.0279778506377244,"avgUptime":0.9998672474590335,"avgValidatorEffectiveness":97.0980697375986,"clientPercentages":[{"client":"Lighthouse","percentage":0.004501969611705121},{"client":"Nimbus","percentage":0.03939223410241981},{"client":"Prysm","percentage":0.943725379853686},{"client":"Teku","percentage":0.012380416432189083}],"networkPenetration":0.0074743838400751625},{"id":"Huobi","idType":"entity","timeWindow":"1d","validatorCount":2855,"avgCorrectness":0.9897332897379607,"avgInclusionDelay":1.028568203403553,"avgUptime":0.999907374975676,"avgValidatorEffectiveness":96.99282826029713,"clientPercentages":[{"client":"Nimbus","percentage":0.04495747266099635},{"client":"Teku","percentage":0.002430133657351154},{"client":"Lighthouse","percentage":0.0006075334143377885},{"client":"Prysm","percentage":0.9520048602673147}],"networkPenetration":0.006639504002306966},{"id":"Bloxstaking","idType":"entity","timeWindow":"1d","validatorCount":2491,"avgCorrectness":0.9877834312786717,"avgInclusionDelay":1.0310188550364288,"avgUptime":0.999775927164805,"avgValidatorEffectiveness":96.68043221082627,"clientPercentages":[{"client":"Teku","percentage":0.0022404779686333084},{"client":"Prysm","percentage":0.48618371919342795},{"client":"Lighthouse","percentage":0.4876773711725168},{"client":"Nimbus","percentage":0.02389843166542196}],"networkPenetration":0.005783694029330096},{"id":"wedex.eth","idType":"entity","timeWindow":"1d","validatorCount":2399,"avgCorrectness":0.9789951531574316,"avgInclusionDelay":1.0665288505859511,"avgUptime":0.9948510581459206,"avgValidatorEffectiveness":93.04247391496413,"clientPercentages":[{"client":"Lighthouse","percentage":1.0}],"networkPenetration":0.005579043818400845},{"id":"Ankr","idType":"entity","timeWindow":"1d","validatorCount":2298,"avgCorrectness":0.9897053318100604,"avgInclusionDelay":1.0283030823060753,"avgUptime":0.9997214969538732,"avgValidatorEffectiveness":96.99923919904755,"clientPercentages":[{"client":"Lighthouse","percentage":0.011122345803842264},{"client":"Teku","percentage":0.006066734074823054},{"client":"Nimbus","percentage":0.03640040444893832},{"client":"Prysm","percentage":0.9464105156723963}],"networkPenetration":0.005344161189947954},{"id":"StakeWise","idType":"entity","timeWindow":"1d","validatorCount":1986,"avgCorrectness":0.9889762368698067,"avgInclusionDelay":1.0310107729176465,"avgUptime":0.9992692847951541,"avgValidatorEffectiveness":96.70126720198303,"clientPercentages":[{"client":"Lighthouse","percentage":0.5298245614035088},{"client":"Teku","percentage":0.060526315789473685},{"client":"Prysm","percentage":0.3850877192982456},{"client":"Nimbus","percentage":0.02456140350877193}],"networkPenetration":0.0046185831693806075},{"id":"OKex","idType":"entity","timeWindow":"1d","validatorCount":1758,"avgCorrectness":0.9886438169127312,"avgInclusionDelay":1.0284124695343704,"avgUptime":0.9999026671722918,"avgValidatorEffectiveness":96.94324985003074,"clientPercentages":[{"client":"Nimbus","percentage":0.04512067156348373},{"client":"Lighthouse","percentage":0.012591815320041973},{"client":"Teku","percentage":0.002098635886673662},{"client":"Prysm","percentage":0.9401888772298006}],"networkPenetration":0.004039516095273975}]}