{"page":{"from":0,"size":15},"total":30,"next":"/v0/eth/operators?window=1d&from=15&size=15&idType=entity","data":[{"id":"Lido","idType":"entity","timeWindow":"1d","validatorCount":129695,"avgCorrectness":0.9876314094709612,"avgInclusionDelay":1.0299423175578297,"avgUptime":0.9980155085697353,"avgValidatorEffectiveness":96.61443025193442,"clientPercentages":[{"client":"Prysm","percentage":0.36031478358628444},{"client":"Nimbus","percentage":0.06436200112422709},{"client":"Lighthouse","percentage":0.3538103268288766},{"client":"Teku","percentage":0.2215128884606119}],"networkPenetration":0.31131772003610453},{"id":"Coinbase","idType":"entity","timeWindow":"1d","validatorCount":55062,"avgCorrectness":0.9879372760391902,"avgInclusionDelay":1.029824940243482,"avgUptime":0.9999047538330497,"avgValidatorEffectiveness":96.8065249535954,"clientPercentages":[{"client":"Prysm","percentage":0.37354566135846606},{"client":"Teku","percentage":0.13366915827104323},{"client":"Lighthouse","percentage":0.405622359441014},{"client":"Nimbus","percentage":0.08716282092947676}],"networkPenetration":0.13218010024773866},{"id":"Kraken","idType":"entity","timeWindow":"1d","validatorCount":36292,"avgCorrectness":0.9874284303351835,"avgInclusionDelay":1.0297652606897278,"avgUptime":0.9995888079159175,"avgValidatorEffectiveness":96.74464961298732,"clientPercentages":[{"client":"Lighthouse","percentage":0.2649754027201698},{"client":"Prysm","percentage":0.5996913282531108},{"client":"Nimbus","percentage":0.04528793286389505},{"client":"Teku","percentage":0.09004533616282434}],"networkPenetration":0.08711182808088956},{"id":"Binance","idType":"entity","timeWindow":"1d","validatorCount":21584,"avgCorrectness":0.9872675315903758,"avgInclusionDelay":1.0295914280507505,"avgUptime":0.9999804381846615,"avgValidatorEffectiveness":96.7840293004214,"clientPercentages":[{"client":"Teku","percentage":0.003264417845484222},{"client":"Prysm","percentage":0.5864233698836528},{"client":"Lighthouse","percentage":0.34309868586255965},{"client":"Nimbus","percentage":0.06721352640830335}],"networkPenetration":0.051813869524303356},{"id":"Bitcoin Suisse","idType":"entity","timeWindow":"1d","validatorCount":9000,"avgCorrectness":0.9856193848874137,"avgInclusionDelay":1.049615245941314,"avgUptime":0.9998370370370352,"avgValidatorEffectiveness":95.09234262610896,"clientPercentages":[{"client":"Teku","percentage":0.9934552454282964},{"client":"Nimbus","percentage":0.0063522617901828685},{"client":"Prysm","percentage":0.00019249278152069297}],"networkPenetration":0.021605116091490465},{"id":"Rocketpool","idType":"entity","timeWindow":"1d","validatorCount":6816,"avgCorrectness":0.9863805430438783,"avgInclusionDelay":1.0330864595073257,"avgUptime":0.9970688246729783,"avgValidatorEffectiveness":96.27941303043609,"clientPercentages":[{"client":"Prysm","percentage":0.07037830121341898},{"client":"Nimbus","percentage":0.2328336902212705},{"client":"Lighthouse","percentage":0.4055674518201285},{"client":"Teku","percentage":0.291220556745182}],"networkPenetration":0.016357473449712893},{"id":"Staked.us","idType":"entity","timeWindow":"1d","validatorCount":5263,"avgCorrectness":0.9860319116137833,"avgInclusionDelay":1.0324306631922595,"avgUptime":0.9997635484620098,"avgValidatorEffectiveness":96.47962079899413,"clientPercentages":[{"client":"Lighthouse","percentage":0.0019887305270135896},{"client":"Nimbus","percentage":0.043752071594298975},{"client":"Prysm","percentage":0.4461385482267153},{"client":"Teku","percentage":0.5081206496519721}],"networkPenetration":0.012634191776612702},{"id":"f2pool.eth","idType":"entity","timeWindow":"1d","validatorCount":3501,"avgCorrectness":0.9870291027960265,"avgInclusionDelay":1.0313053413310482,"avgUptime":1.0,"avgValidatorEffectiveness":96.63250743145441,"clientPercentages":[{"client":"Lighthouse","percentage":1.0}],"networkPenetration":0.00840439015958979},{"id":"Bitfinex","idType":"entity","timeWindow":"1d","validatorCount":3214,"avgCorrectness":0.9872362427759659,"avgInclusionDelay":1.0301785646350026,"avgUptime":0.999581691212059,"avgValidatorEffectiveness":96.70382176183935,"clientPercentages":[{"client":"Nimbus","percentage":0.09640522875816994},{"client":"Prysm","percentage":0.8850762527233116},{"client":"Teku","percentage":0.01579520697167756},{"client":"Lighthouse","percentage":0.0027233115468409588}],"networkPenetration":0.007715427013116706},{"id":"Huobi","idType":"entity","timeWindow":"1d","validatorCount":2855,"avgCorrectness":0.9861757088846145,"avgInclusionDelay":1.0315725807393246,"avgUptime":0.9999291690990466,"avgValidatorEffectiveness":96.55594128249061,"clientPercentages":[{"client":"Nimbus","percentage":0.07923169267707082},{"client":"Prysm","percentage":0.9123649459783914},{"client":"Lighthouse","percentage":0.0012004801920768306},{"client":"Teku","percentage":0.007202881152460984}],"networkPenetration":0.006853622937911697},{"id":"wedex.eth","idType":"entity","timeWindow":"1d","validatorCount":2399,"avgCorrectness":0.9846101710001604,"avgInclusionDelay":1.0449831577405317,"avgUptime":0.9990616460562277,"avgValidatorEffectiveness":95.36787634025735,"clientPercentages":[{"client":"Lighthouse","percentage":1.0}],"networkPenetration":0.005758963722609514},{"id":"Bloxstaking","idType":"entity","timeWindow":"1d","validatorCount":2375,"avgCorrectness":0.9856349529655799,"avgInclusionDelay":1.0322858868645437,"avgUptime":0.9998230173327944,"avgValidatorEffectiveness":96.46125663830801,"clientPercentages":[{"client":"Lighthouse","percentage":0.49742836149889785},{"client":"Prysm","percentage":0.44452608376193975},{"client":"Nimbus","percentage":0.05437178545187362},{"client":"Teku","percentage":0.0036737692872887582}],"networkPenetration":0.005696548942789653},{"id":"Ankr","idType":"entity","timeWindow":"1d","validatorCount":2296,"avgCorrectness":0.8504188158358306,"avgInclusionDelay":1.4626816485034657,"avgUptime":0.9783546653078578,"avgValidatorEffectiveness":69.90470326642588,"clientPercentages":[{"client":"Nimbus","percentage":0.07235421166306695},{"client":"Lighthouse","percentage":0.016198704103671708},{"client":"Teku","percentage":0.004319654427645789},{"client":"Prysm","percentage":0.9071274298056156}],"networkPenetration":0.005509304603330069},{"id":"StakeWise","idType":"entity","timeWindow":"1d","validatorCount":1980,"avgCorrectness":0.9867660629247691,"avgInclusionDelay":1.031958580027796,"avgUptime":0.9997508417508418,"avgValidatorEffectiveness":96.48178818940397,"clientPercentages":[{"client":"Prysm","percentage":0.36069868995633186},{"client":"Nimbus","percentage":0.04017467248908297},{"client":"Lighthouse","percentage":0.5388646288209606},{"client":"Teku","percentage":0.06026200873362445}],"networkPenetration":0.004753125540127902},{"id":"OKex","idType":"entity","timeWindow":"1d","validatorCount":1731,"avgCorrectness":0.9863078503113165,"avgInclusionDelay":1.0318236087040247,"avgUptime":1.0,"avgValidatorEffectiveness":96.5499953185143,"clientPercentages":[{"client":"Teku","percentage":0.006718924972004479},{"client":"Lighthouse","percentage":0.0022396416573348264},{"client":"Nimbus","percentage":0.1019036954087346},{"client":"Prysm","percentage":0.8891377379619261}],"networkPenetration":0.00415538399493}]}