{"page":{"from":0,"size":15},"total":31,"next":"/v0/eth/operators?window=1d&from=15&size=15&idType=entity","data":[{"id":"Lido","idType":"entity","timeWindow":"1d","validatorCount":129096,"avgCorrectness":0.9879183241006045,"avgInclusionDelay":1.016480859935277,"avgUptime":0.9988217622687225,"avgValidatorEffectiveness":97.79438397496065,"clientPercentages":[{"client":"Teku","percentage":0.19212259712326926},{"client":"Nimbus","percentage":0.07909665277591074},{"client":"Lighthouse","percentage":0.37658287404220997},{"client":"Prysm","percentage":0.35219787605861}],"networkPenetration":0.31523666254768173},{"id":"Coinbase","idType":"entity","timeWindow":"1d","validatorCount":56699,"avgCorrectness":0.9872142290735411,"avgInclusionDelay":1.0195183160408388,"avgUptime":0.999738854888685,"avgValidatorEffectiveness":97.62912938644814,"clientPercentages":[{"client":"Teku","percentage":0.16434505590605283},{"client":"Prysm","percentage":0.3645761759010557},{"client":"Lighthouse","percentage":0.37969267287150976},{"client":"Nimbus","percentage":0.09138609532138173}],"networkPenetration":0.13846383026525938},{"id":"Kraken","idType":"entity","timeWindow":"1d","validatorCount":35942,"avgCorrectness":0.9798231997308476,"avgInclusionDelay":1.029458167398758,"avgUptime":0.9989899082720862,"avgValidatorEffectiveness":96.51531613115236,"clientPercentages":[{"client":"Teku","percentage":0.08695652173913043},{"client":"Prysm","percentage":0.6030055442077619},{"client":"Nimbus","percentage":0.04148429141134131},{"client":"Lighthouse","percentage":0.26855364264176634}],"networkPenetration":0.08774414754106367},{"id":"Binance","idType":"entity","timeWindow":"1d","validatorCount":20810,"avgCorrectness":0.9877726402161893,"avgInclusionDelay":1.0162908965665771,"avgUptime":0.9995929307491043,"avgValidatorEffectiveness":97.86107214139548,"clientPercentages":[{"client":"Prysm","percentage":0.5931080741175484},{"client":"Nimbus","percentage":0.0726083675693804},{"client":"Teku","percentage":0.008803554959335961},{"client":"Lighthouse","percentage":0.3254800033537352}],"networkPenetration":0.05081980824741261},{"id":"Bitcoin Suisse","idType":"entity","timeWindow":"1d","validatorCount":9000,"avgCorrectness":0.9854442701727717,"avgInclusionDelay":1.0363516179898888,"avgUptime":0.9969770370370368,"avgValidatorEffectiveness":95.90111087360208,"clientPercentages":[{"client":"Teku","percentage":0.9928966061562746},{"client":"Nimbus","percentage":0.006906077348066298},{"client":"Prysm","percentage":0.0001973164956590371}],"networkPenetration":0.021978773389078016},{"id":"Rocketpool","idType":"entity","timeWindow":"1d","validatorCount":6290,"avgCorrectness":0.9870345898291302,"avgInclusionDelay":1.0192579596983955,"avgUptime":0.9950664224260592,"avgValidatorEffectiveness":97.24170723637556,"clientPercentages":[{"client":"Nimbus","percentage":0.2553382111393161},{"client":"Prysm","percentage":0.05987755711512618},{"client":"Lighthouse","percentage":0.41735105271016876},{"client":"Teku","percentage":0.267433179035389}],"networkPenetration":0.015343625911508575},{"id":"Staked.us","idType":"entity","timeWindow":"1d","validatorCount":5263,"avgCorrectness":0.9863048331353095,"avgInclusionDelay":1.0184157924845727,"avgUptime":0.9978896700234344,"avgValidatorEffectiveness":97.46681820658665,"clientPercentages":[{"client":"Teku","percentage":0.5096774193548387},{"client":"Prysm","percentage":0.4309677419354839},{"client":"Lighthouse","percentage":0.000967741935483871},{"client":"Nimbus","percentage":0.05838709677419355}],"networkPenetration":0.0128526982607464},{"id":"f2pool.eth","idType":"entity","timeWindow":"1d","validatorCount":3501,"avgCorrectness":0.9888930923641756,"avgInclusionDelay":1.0158643812174055,"avgUptime":0.9999784188644504,"avgValidatorEffectiveness":97.99925576482349,"clientPercentages":[{"client":"Lighthouse","percentage":1.0}],"networkPenetration":0.008549742848351348},{"id":"Bitfinex","idType":"entity","timeWindow":"1d","validatorCount":3214,"avgCorrectness":0.9863289550271044,"avgInclusionDelay":1.0202879443466553,"avgUptime":0.985943441886193,"avgValidatorEffectiveness":96.38531863157033,"clientPercentages":[{"client":"Prysm","percentage":0.8753358409457281},{"client":"Teku","percentage":0.018807092960773777},{"client":"Lighthouse","percentage":0.0021493820526598604},{"client":"Nimbus","percentage":0.10370768404083826}],"networkPenetration":0.007848864185832971},{"id":"Huobi","idType":"entity","timeWindow":"1d","validatorCount":2855,"avgCorrectness":0.986009200027407,"avgInclusionDelay":1.018632079878911,"avgUptime":0.9996839852111312,"avgValidatorEffectiveness":97.58059355381403,"clientPercentages":[{"client":"Nimbus","percentage":0.09800469483568075},{"client":"Prysm","percentage":0.886150234741784},{"client":"Teku","percentage":0.014084507042253521},{"client":"Lighthouse","percentage":0.0017605633802816902}],"networkPenetration":0.006972155336201971},{"id":"wedex.eth","idType":"entity","timeWindow":"1d","validatorCount":2399,"avgCorrectness":0.9870251862940909,"avgInclusionDelay":1.0225044373381158,"avgUptime":0.9999314529201979,"avgValidatorEffectiveness":97.34817752327855,"clientPercentages":[{"client":"Lighthouse","percentage":1.0}],"networkPenetration":0.0058585641511553505},{"id":"Bloxstaking","idType":"entity","timeWindow":"1d","validatorCount":2341,"avgCorrectness":0.9854485401504937,"avgInclusionDelay":1.0200360508284374,"avgUptime":0.99989840339256,"avgValidatorEffectiveness":97.45388406155979,"clientPercentages":[{"client":"Lighthouse","percentage":0.5026256564141035},{"client":"Prysm","percentage":0.43810952738184544},{"client":"Nimbus","percentage":0.05101275318829707},{"client":"Teku","percentage":0.008252063015753939}],"networkPenetration":0.005709596909296045},{"id":"Ankr","idType":"entity","timeWindow":"1d","validatorCount":2288,"avgCorrectness":0.9240621453329653,"avgInclusionDelay":1.2263335480506732,"avgUptime":0.9499125874125872,"avgValidatorEffectiveness":80.39726744292756,"clientPercentages":[{"client":"Lighthouse","percentage":0.008238928939237899},{"client":"Prysm","percentage":0.8990731204943357},{"client":"Nimbus","percentage":0.08341915550978372},{"client":"Teku","percentage":0.009268795056642637}],"networkPenetration":0.005587492612690055},{"id":"StakeWise","idType":"entity","timeWindow":"1d","validatorCount":1978,"avgCorrectness":0.9880932518657137,"avgInclusionDelay":1.0204011002637927,"avgUptime":0.9969316758496221,"avgValidatorEffectiveness":97.339718515864,"clientPercentages":[{"client":"Lighthouse","percentage":0.5461056401074306},{"client":"Nimbus","percentage":0.04028648164726947},{"client":"Prysm","percentage":0.36436884512085943},{"client":"Teku","percentage":0.049239033124440466}],"networkPenetration":0.004828003887800804},{"id":"OKex","idType":"entity","timeWindow":"1d","validatorCount":1596,"avgCorrectness":0.9815278634240292,"avgInclusionDelay":1.0300456435858232,"avgUptime":0.9899985957130584,"avgValidatorEffectiveness":95.59191473840119,"clientPercentages":[{"client":"Nimbus","percentage":0.1087912087912088},{"client":"Prysm","percentage":0.8736263736263736},{"client":"Teku","percentage":0.017582417582417582}],"networkPenetration":0.0038926849757989286}]}