{"page":{"from":0,"size":15},"total":31,"next":"/v0/eth/operators?window=1d&from=15&size=15&idType=entity","data":[{"id":"Lido","idType":"entity","timeWindow":"1d","validatorCount":128717,"avgCorrectness":0.9889478714236457,"avgInclusionDelay":1.0147140122635303,"avgUptime":0.9999187904158218,"avgValidatorEffectiveness":98.10163001422688,"clientPercentages":[{"client":"Prysm","percentage":0.35912369517494735},{"client":"Teku","percentage":0.1616713707569852},{"client":"Nimbus","percentage":0.07577318817854636},{"client":"Lighthouse","percentage":0.4034317458895211}],"networkPenetration":0.3220711365126393},{"id":"Coinbase","idType":"entity","timeWindow":"1d","validatorCount":55741,"avgCorrectness":0.9887370135740833,"avgInclusionDelay":1.0148486185391328,"avgUptime":0.9998829905774511,"avgValidatorEffectiveness":98.07607968457404,"clientPercentages":[{"client":"Prysm","percentage":0.42568234657154685},{"client":"Teku","percentage":0.1585719290423262},{"client":"Nimbus","percentage":0.10153189592025223},{"client":"Lighthouse","percentage":0.3142138284658747}],"networkPenetration":0.1394829165269527},{"id":"Kraken","idType":"entity","timeWindow":"1d","validatorCount":35446,"avgCorrectness":0.9853997138940815,"avgInclusionDelay":1.0201887007262727,"avgUptime":0.9993342807423609,"avgValidatorEffectiveness":97.47161841912728,"clientPercentages":[{"client":"Nimbus","percentage":0.03791444680080691},{"client":"Lighthouse","percentage":0.2455387161847618},{"client":"Prysm","percentage":0.6349247400817255},{"client":"Teku","percentage":0.08162209693270574}],"networkPenetration":0.08855529920475645},{"id":"Binance","idType":"entity","timeWindow":"1d","validatorCount":20422,"avgCorrectness":0.9884909775542555,"avgInclusionDelay":1.0160174404577182,"avgUptime":0.9989763762391308,"avgValidatorEffectiveness":97.88763049896328,"clientPercentages":[{"client":"Teku","percentage":0.010543888937703189},{"client":"Prysm","percentage":0.6037255074246551},{"client":"Lighthouse","percentage":0.3111325894033916},{"client":"Nimbus","percentage":0.07459801423425007}],"networkPenetration":0.05110278110032881},{"id":"Bitcoin Suisse","idType":"entity","timeWindow":"1d","validatorCount":8784,"avgCorrectness":0.9863271287973322,"avgInclusionDelay":1.0366640981927169,"avgUptime":0.9995193621764125,"avgValidatorEffectiveness":96.14461100953784,"clientPercentages":[{"client":"Nimbus","percentage":0.007993268826251577},{"client":"Teku","percentage":0.9917963819941102},{"client":"Prysm","percentage":0.00021034917963819942}],"networkPenetration":0.021902979285632066},{"id":"Rocketpool","idType":"entity","timeWindow":"1d","validatorCount":5811,"avgCorrectness":0.9883624149332857,"avgInclusionDelay":1.0173275805930173,"avgUptime":0.9928602888761522,"avgValidatorEffectiveness":97.26738349198494,"clientPercentages":[{"client":"Teku","percentage":0.24210014584346135},{"client":"Prysm","percentage":0.060119915734889},{"client":"Nimbus","percentage":0.2550640090747043},{"client":"Lighthouse","percentage":0.44271592934694537}],"networkPenetration":0.014533588905626761},{"id":"Staked.us","idType":"entity","timeWindow":"1d","validatorCount":5263,"avgCorrectness":0.9884009499140091,"avgInclusionDelay":1.0165740556849057,"avgUptime":0.9992315325015306,"avgValidatorEffectiveness":97.85785816272337,"clientPercentages":[{"client":"Teku","percentage":0.49503639973527463},{"client":"Lighthouse","percentage":0.0013236267372600927},{"client":"Nimbus","percentage":0.053606882859033755},{"client":"Prysm","percentage":0.4500330906684315}],"networkPenetration":0.013169813775880447},{"id":"f2pool.eth","idType":"entity","timeWindow":"1d","validatorCount":3501,"avgCorrectness":0.9818764248218674,"avgInclusionDelay":1.0815616524595169,"avgUptime":0.9981687771747751,"avgValidatorEffectiveness":92.38764700070544,"clientPercentages":[{"client":"Lighthouse","percentage":0.9995276334435522},{"client":"Nimbus","percentage":0.0004723665564478035}],"networkPenetration":0.008760691246315304},{"id":"Bitfinex","idType":"entity","timeWindow":"1d","validatorCount":3214,"avgCorrectness":0.9831677060818215,"avgInclusionDelay":1.026454848631886,"avgUptime":0.9874901472723496,"avgValidatorEffectiveness":95.83765053505837,"clientPercentages":[{"client":"Prysm","percentage":0.8776741634668129},{"client":"Teku","percentage":0.015907844212835986},{"client":"Lighthouse","percentage":0.0027427317608337905},{"client":"Nimbus","percentage":0.10367526055951728}],"networkPenetration":0.008042519755971833},{"id":"Huobi","idType":"entity","timeWindow":"1d","validatorCount":2855,"avgCorrectness":0.9861202707427049,"avgInclusionDelay":1.0218216813735528,"avgUptime":0.9996645261724073,"avgValidatorEffectiveness":97.32967565185189,"clientPercentages":[{"client":"Lighthouse","percentage":0.0024110910186859553},{"client":"Teku","percentage":0.016877637130801686},{"client":"Prysm","percentage":0.8842676311030742},{"client":"Nimbus","percentage":0.09644364074743822}],"networkPenetration":0.007144179808120593},{"id":"wedex.eth","idType":"entity","timeWindow":"1d","validatorCount":2399,"avgCorrectness":0.9888141207945262,"avgInclusionDelay":1.0134906798235457,"avgUptime":0.9999407160390903,"avgValidatorEffectiveness":98.19505237933092,"clientPercentages":[{"client":"Lighthouse","percentage":1.0}],"networkPenetration":0.0060031129105713845},{"id":"Bloxstaking","idType":"entity","timeWindow":"1d","validatorCount":2292,"avgCorrectness":0.9873012114601569,"avgInclusionDelay":1.0160971652375759,"avgUptime":0.9999272693385788,"avgValidatorEffectiveness":97.88849038204754,"clientPercentages":[{"client":"Prysm","percentage":0.5015060240963856},{"client":"Nimbus","percentage":0.03614457831325301},{"client":"Lighthouse","percentage":0.45180722891566266},{"client":"Teku","percentage":0.010542168674698794}],"networkPenetration":0.00573286022430973},{"id":"Ankr","idType":"entity","timeWindow":"1d","validatorCount":2282,"avgCorrectness":0.8486937221283268,"avgInclusionDelay":1.511140524140178,"avgUptime":0.9564564449193408,"avgValidatorEffectiveness":66.69305473233567,"clientPercentages":[{"client":"Teku","percentage":0.006362672322375398},{"client":"Prysm","percentage":0.887592788971368},{"client":"Lighthouse","percentage":0.009544008483563097},{"client":"Nimbus","percentage":0.09650053022269353}],"networkPenetration":0.005710339167121259},{"id":"StakeWise","idType":"entity","timeWindow":"1d","validatorCount":1933,"avgCorrectness":0.9867983092622026,"avgInclusionDelay":1.020718448391035,"avgUptime":0.9987764513074354,"avgValidatorEffectiveness":97.40175276546697,"clientPercentages":[{"client":"Lighthouse","percentage":0.5277246653919694},{"client":"Nimbus","percentage":0.04875717017208413},{"client":"Teku","percentage":0.04397705544933078},{"client":"Prysm","percentage":0.3795411089866157}],"networkPenetration":0.004834520276458489},{"id":"Stakefish","idType":"entity","timeWindow":"1d","validatorCount":1518,"avgCorrectness":0.9828624006569108,"avgInclusionDelay":1.0749332825009532,"avgUptime":0.9983604157517194,"avgValidatorEffectiveness":92.97811523977825,"clientPercentages":[{"client":"Prysm","percentage":0.0011261261261261261},{"client":"Teku","percentage":0.04054054054054054},{"client":"Lighthouse","percentage":0.9583333333333334}],"networkPenetration":0.0037985516457888125}]}