{"page":{"from":0,"size":15},"total":31,"next":"/v0/eth/operators?window=1d&from=15&size=15&idType=entity","data":[{"id":"Lido","idType":"entity","timeWindow":"1d","validatorCount":129026,"avgCorrectness":0.9880901704261364,"avgInclusionDelay":1.0193738595514303,"avgUptime":0.9998457297373291,"avgValidatorEffectiveness":97.65515369179778,"clientPercentages":[{"client":"Teku","percentage":0.19212259712326926},{"client":"Nimbus","percentage":0.07909665277591074},{"client":"Prysm","percentage":0.35219787605861},{"client":"Lighthouse","percentage":0.37658287404220997}],"networkPenetration":0.31780159906991867},{"id":"Coinbase","idType":"entity","timeWindow":"1d","validatorCount":57005,"avgCorrectness":0.9874621172278526,"avgInclusionDelay":1.0211644705998253,"avgUptime":0.9999360753634956,"avgValidatorEffectiveness":97.4880864250683,"clientPercentages":[{"client":"Prysm","percentage":0.36379950495049507},{"client":"Lighthouse","percentage":0.37688737623762375},{"client":"Nimbus","percentage":0.09226485148514851},{"client":"Teku","percentage":0.16704826732673267}],"networkPenetration":0.14032257269955123},{"id":"Kraken","idType":"entity","timeWindow":"1d","validatorCount":35843,"avgCorrectness":0.9807789983923325,"avgInclusionDelay":1.0312159101538527,"avgUptime":0.9991179299511648,"avgValidatorEffectiveness":96.43339537095207,"clientPercentages":[{"client":"Nimbus","percentage":0.04148429141134131},{"client":"Lighthouse","percentage":0.26855364264176634},{"client":"Teku","percentage":0.08695652173913043},{"client":"Prysm","percentage":0.6030055442077619}],"networkPenetration":0.08827890616917825},{"id":"Binance","idType":"entity","timeWindow":"1d","validatorCount":20810,"avgCorrectness":0.9881063850736508,"avgInclusionDelay":1.0193532547534414,"avgUptime":0.9999528004698623,"avgValidatorEffectiveness":97.66018186637369,"clientPercentages":[{"client":"Teku","percentage":0.008803554959335961},{"client":"Nimbus","percentage":0.0726083675693804},{"client":"Lighthouse","percentage":0.3254800033537352},{"client":"Prysm","percentage":0.5931080741175484}],"networkPenetration":0.05125792515012833},{"id":"Bitcoin Suisse","idType":"entity","timeWindow":"1d","validatorCount":9000,"avgCorrectness":0.9840363210310487,"avgInclusionDelay":1.0530654366853784,"avgUptime":0.9989111111111086,"avgValidatorEffectiveness":94.68752923000338,"clientPercentages":[{"client":"Nimbus","percentage":0.006906077348066298},{"client":"Teku","percentage":0.9928966061562746},{"client":"Prysm","percentage":0.0001973164956590371}],"networkPenetration":0.02216825210721552},{"id":"Rocketpool","idType":"entity","timeWindow":"1d","validatorCount":6227,"avgCorrectness":0.9860414849973789,"avgInclusionDelay":1.027870128211465,"avgUptime":0.9901055673047301,"avgValidatorEffectiveness":96.18215026215657,"clientPercentages":[{"client":"Nimbus","percentage":0.2553382111393161},{"client":"Lighthouse","percentage":0.41735105271016876},{"client":"Teku","percentage":0.267433179035389},{"client":"Prysm","percentage":0.05987755711512618}],"networkPenetration":0.015320725345208949},{"id":"Staked.us","idType":"entity","timeWindow":"1d","validatorCount":5263,"avgCorrectness":0.9862581122225212,"avgInclusionDelay":1.0220656690107273,"avgUptime":0.996417336964553,"avgValidatorEffectiveness":97.04511098316038,"clientPercentages":[{"client":"Lighthouse","percentage":0.000967741935483871},{"client":"Prysm","percentage":0.4309677419354839},{"client":"Nimbus","percentage":0.05838709677419355},{"client":"Teku","percentage":0.5096774193548387}],"networkPenetration":0.012963501204475031},{"id":"f2pool.eth","idType":"entity","timeWindow":"1d","validatorCount":3501,"avgCorrectness":0.9892043543114666,"avgInclusionDelay":1.0179764511726808,"avgUptime":1.0,"avgValidatorEffectiveness":97.84636756435023,"clientPercentages":[{"client":"Lighthouse","percentage":1.0}],"networkPenetration":0.008623450069706837},{"id":"Bitfinex","idType":"entity","timeWindow":"1d","validatorCount":3214,"avgCorrectness":0.9874271931404239,"avgInclusionDelay":1.0212547011138051,"avgUptime":0.9944154048261094,"avgValidatorEffectiveness":97.0151050136958,"clientPercentages":[{"client":"Prysm","percentage":0.8753358409457281},{"client":"Nimbus","percentage":0.10370768404083826},{"client":"Teku","percentage":0.018807092960773777},{"client":"Lighthouse","percentage":0.0021493820526598604}],"networkPenetration":0.007916529141398964},{"id":"Huobi","idType":"entity","timeWindow":"1d","validatorCount":2855,"avgCorrectness":0.9864709920883268,"avgInclusionDelay":1.0214955584408305,"avgUptime":0.999948628137771,"avgValidatorEffectiveness":97.40163149701415,"clientPercentages":[{"client":"Lighthouse","percentage":0.0017605633802816902},{"client":"Teku","percentage":0.014084507042253521},{"client":"Nimbus","percentage":0.09800469483568075},{"client":"Prysm","percentage":0.886150234741784}],"networkPenetration":0.007032262196233367},{"id":"wedex.eth","idType":"entity","timeWindow":"1d","validatorCount":2399,"avgCorrectness":0.9861803957619572,"avgInclusionDelay":1.0316537282118243,"avgUptime":0.9995674123477368,"avgValidatorEffectiveness":96.54820219470145,"clientPercentages":[{"client":"Lighthouse","percentage":1.0}],"networkPenetration":0.005909070756134448},{"id":"Bloxstaking","idType":"entity","timeWindow":"1d","validatorCount":2322,"avgCorrectness":0.985633185264609,"avgInclusionDelay":1.0210366087156315,"avgUptime":0.9999502344721982,"avgValidatorEffectiveness":97.38615562917221,"clientPercentages":[{"client":"Teku","percentage":0.008314436885865457},{"client":"Prysm","percentage":0.43386243386243384},{"client":"Nimbus","percentage":0.05139833711262283},{"client":"Lighthouse","percentage":0.5064247921390779}],"networkPenetration":0.005719409043661604},{"id":"Ankr","idType":"entity","timeWindow":"1d","validatorCount":2287,"avgCorrectness":0.8964671959600063,"avgInclusionDelay":1.3532027424484099,"avgUptime":0.9759102171695087,"avgValidatorEffectiveness":77.90862622176057,"clientPercentages":[{"client":"Lighthouse","percentage":0.008238928939237899},{"client":"Prysm","percentage":0.8990731204943357},{"client":"Nimbus","percentage":0.08341915550978372},{"client":"Teku","percentage":0.009268795056642637}],"networkPenetration":0.005633199174355766},{"id":"StakeWise","idType":"entity","timeWindow":"1d","validatorCount":1976,"avgCorrectness":0.9885186105809192,"avgInclusionDelay":1.0215163577181638,"avgUptime":0.9998774179037333,"avgValidatorEffectiveness":97.52742016485234,"clientPercentages":[{"client":"Lighthouse","percentage":0.5461056401074306},{"client":"Prysm","percentage":0.36436884512085943},{"client":"Teku","percentage":0.049239033124440466},{"client":"Nimbus","percentage":0.04028648164726947}],"networkPenetration":0.0048671629070953185},{"id":"OKex","idType":"entity","timeWindow":"1d","validatorCount":1549,"avgCorrectness":0.9798073442984598,"avgInclusionDelay":1.040728570033378,"avgUptime":0.9993842544633005,"avgValidatorEffectiveness":95.45176937371053,"clientPercentages":[{"client":"Nimbus","percentage":0.1087912087912088},{"client":"Teku","percentage":0.017582417582417582},{"client":"Prysm","percentage":0.8736263736263736}],"networkPenetration":0.0038129393624410693}]}