{"page":{"from":0,"size":15},"total":31,"next":"/v0/eth/operators?window=1d&from=15&size=15&idType=entity","data":[{"id":"Lido","idType":"entity","timeWindow":"1d","validatorCount":128930,"avgCorrectness":0.9869195212221421,"avgInclusionDelay":1.018859954477322,"avgUptime":0.9993945968356549,"avgValidatorEffectiveness":97.59116808211385,"clientPercentages":[{"client":"Teku","percentage":0.1765840182710849},{"client":"Nimbus","percentage":0.07888294744327895},{"client":"Lighthouse","percentage":0.3901341611848853},{"client":"Prysm","percentage":0.3543988731007508}],"networkPenetration":0.3186959875017304},{"id":"Coinbase","idType":"entity","timeWindow":"1d","validatorCount":57073,"avgCorrectness":0.9864681475490796,"avgInclusionDelay":1.019655736156185,"avgUptime":0.9998646567651168,"avgValidatorEffectiveness":97.5445323368444,"clientPercentages":[{"client":"Lighthouse","percentage":0.36296205480291793},{"client":"Prysm","percentage":0.37500766260038004},{"client":"Nimbus","percentage":0.09706982161466315},{"client":"Teku","percentage":0.16496046098203887}],"networkPenetration":0.14108262305456126},{"id":"Kraken","idType":"entity","timeWindow":"1d","validatorCount":35750,"avgCorrectness":0.980391085371166,"avgInclusionDelay":1.0300154434276554,"avgUptime":0.9989037726636657,"avgValidatorEffectiveness":96.47397632089832,"clientPercentages":[{"client":"Teku","percentage":0.08519279702485809},{"client":"Lighthouse","percentage":0.273047563123899},{"client":"Prysm","percentage":0.6030045018594636},{"client":"Nimbus","percentage":0.038755137991779216}],"networkPenetration":0.08836049202048767},{"id":"Binance","idType":"entity","timeWindow":"1d","validatorCount":20810,"avgCorrectness":0.9868680039603203,"avgInclusionDelay":1.0186976306989568,"avgUptime":0.9995033370708539,"avgValidatorEffectiveness":97.61250913659394,"clientPercentages":[{"client":"Lighthouse","percentage":0.3196625459405279},{"client":"Prysm","percentage":0.5929669228199131},{"client":"Nimbus","percentage":0.07626127631139325},{"client":"Teku","percentage":0.01110925492816572}],"networkPenetration":0.051441651670061504},{"id":"Bitcoin Suisse","idType":"entity","timeWindow":"1d","validatorCount":9000,"avgCorrectness":0.9836871741438522,"avgInclusionDelay":1.0541726886826959,"avgUptime":0.9990775308641966,"avgValidatorEffectiveness":94.59214933706278,"clientPercentages":[{"client":"Teku","percentage":0.9930375969763279},{"client":"Nimbus","percentage":0.00696240302367217}],"networkPenetration":0.022247710957739236},{"id":"Rocketpool","idType":"entity","timeWindow":"1d","validatorCount":5924,"avgCorrectness":0.9859320953683164,"avgInclusionDelay":1.022018605407634,"avgUptime":0.9919947997956668,"avgValidatorEffectiveness":96.66521937289204,"clientPercentages":[{"client":"Lighthouse","percentage":0.42796481649984836},{"client":"Teku","percentage":0.2605398847437064},{"client":"Prysm","percentage":0.056414922656960874},{"client":"Nimbus","percentage":0.25508037609948436}],"networkPenetration":0.014641465778076611},{"id":"Staked.us","idType":"entity","timeWindow":"1d","validatorCount":5263,"avgCorrectness":0.9861477658975184,"avgInclusionDelay":1.0194316267146517,"avgUptime":0.9991331517723298,"avgValidatorEffectiveness":97.47902111708453,"clientPercentages":[{"client":"Lighthouse","percentage":0.0016066838046272494},{"client":"Prysm","percentage":0.43316195372750643},{"client":"Nimbus","percentage":0.05559125964010283},{"client":"Teku","percentage":0.5096401028277635}],"networkPenetration":0.013009966974509067},{"id":"f2pool.eth","idType":"entity","timeWindow":"1d","validatorCount":3501,"avgCorrectness":0.9875688459773384,"avgInclusionDelay":1.0177766549852516,"avgUptime":0.999991748389349,"avgValidatorEffectiveness":97.76915826990626,"clientPercentages":[{"client":"Nimbus","percentage":0.00045024763619990995},{"client":"Lighthouse","percentage":0.9995497523638001}],"networkPenetration":0.008654359562560563},{"id":"Bitfinex","idType":"entity","timeWindow":"1d","validatorCount":3214,"avgCorrectness":0.9850441574579506,"avgInclusionDelay":1.022325589135934,"avgUptime":0.997104335200165,"avgValidatorEffectiveness":97.02697228365238,"clientPercentages":[{"client":"Teku","percentage":0.021432305279665446},{"client":"Nimbus","percentage":0.1097752221641401},{"client":"Prysm","percentage":0.865656037637219},{"client":"Lighthouse","percentage":0.0031364349189754314}],"networkPenetration":0.007944904779797101},{"id":"Huobi","idType":"entity","timeWindow":"1d","validatorCount":2855,"avgCorrectness":0.9822172457988068,"avgInclusionDelay":1.028122415863232,"avgUptime":0.9996326133489013,"avgValidatorEffectiveness":96.59563034233886,"clientPercentages":[{"client":"Teku","percentage":0.018044237485448197},{"client":"Nimbus","percentage":0.0989522700814901},{"client":"Lighthouse","percentage":0.0034924330616996507},{"client":"Prysm","percentage":0.8795110593713621}],"networkPenetration":0.007057468309371724},{"id":"wedex.eth","idType":"entity","timeWindow":"1d","validatorCount":2399,"avgCorrectness":0.98573429451498,"avgInclusionDelay":1.0254224326596595,"avgUptime":0.9993154555138724,"avgValidatorEffectiveness":96.98851041289528,"clientPercentages":[{"client":"Lighthouse","percentage":1.0}],"networkPenetration":0.005930250954179603},{"id":"Bloxstaking","idType":"entity","timeWindow":"1d","validatorCount":2307,"avgCorrectness":0.9837316642228597,"avgInclusionDelay":1.0234817408126027,"avgUptime":0.9998535857053403,"avgValidatorEffectiveness":97.07443673478909,"clientPercentages":[{"client":"Prysm","percentage":0.45302257829570286},{"client":"Lighthouse","percentage":0.493809176984705},{"client":"Teku","percentage":0.00873998543335761},{"client":"Nimbus","percentage":0.04442825928623452}],"networkPenetration":0.005702829908833825},{"id":"Ankr","idType":"entity","timeWindow":"1d","validatorCount":2284,"avgCorrectness":0.849881770046766,"avgInclusionDelay":1.529190401209026,"avgUptime":0.9064594279042608,"avgValidatorEffectiveness":62.72945208521445,"clientPercentages":[{"client":"Prysm","percentage":0.8898898898898899},{"client":"Nimbus","percentage":0.0920920920920921},{"client":"Teku","percentage":0.008008008008008008},{"client":"Lighthouse","percentage":0.01001001001001001}],"networkPenetration":0.005645974647497379},{"id":"StakeWise","idType":"entity","timeWindow":"1d","validatorCount":1968,"avgCorrectness":0.9874924199050752,"avgInclusionDelay":1.0187466898840598,"avgUptime":0.9999356368563687,"avgValidatorEffectiveness":97.6823611435564,"clientPercentages":[{"client":"Lighthouse","percentage":0.5359066427289049},{"client":"Teku","percentage":0.04039497307001795},{"client":"Nimbus","percentage":0.0466786355475763},{"client":"Prysm","percentage":0.3770197486535009}],"networkPenetration":0.004864832796092313},{"id":"OKex","idType":"entity","timeWindow":"1d","validatorCount":1543,"avgCorrectness":0.9836832407743811,"avgInclusionDelay":1.02561951061977,"avgUptime":0.9995881039821422,"avgValidatorEffectiveness":96.87970257687917,"clientPercentages":[{"client":"Nimbus","percentage":0.10233592880978866},{"client":"Prysm","percentage":0.8765294771968855},{"client":"Teku","percentage":0.021134593993325918}],"networkPenetration":0.0038142464453101827}]}