{"page":{"from":0,"size":15},"total":30,"next":"/v0/eth/operators?window=1d&from=15&size=15&idType=entity","data":[{"id":"Lido","idType":"entity","timeWindow":"1d","validatorCount":129949,"avgCorrectness":0.9885929455571647,"avgInclusionDelay":1.0290740984514988,"avgUptime":0.9992024909881749,"avgValidatorEffectiveness":96.8457191585057,"clientPercentages":[{"client":"Lighthouse","percentage":0.3503037354727856},{"client":"Lodestar","percentage":0.00037882375224926605},{"client":"Teku","percentage":0.22193660113917715},{"client":"Nimbus","percentage":0.02478589693288055},{"client":"Prysm","percentage":0.40259494270290747}],"networkPenetration":0.3066943937609317},{"id":"Coinbase","idType":"entity","timeWindow":"1d","validatorCount":54279,"avgCorrectness":0.9894234300192826,"avgInclusionDelay":1.0257404748859182,"avgUptime":0.9985026778803059,"avgValidatorEffectiveness":97.09384695703088,"clientPercentages":[{"client":"Teku","percentage":0.1365323435843054},{"client":"Lighthouse","percentage":0.4231508483563097},{"client":"Prysm","percentage":0.38421261930010603},{"client":"Nimbus","percentage":0.056104188759278896}],"networkPenetration":0.12780978772722015},{"id":"Kraken","idType":"entity","timeWindow":"1d","validatorCount":36678,"avgCorrectness":0.9892870305685731,"avgInclusionDelay":1.0261835982965588,"avgUptime":0.9988887651751807,"avgValidatorEffectiveness":97.08126809219436,"clientPercentages":[{"client":"Nimbus","percentage":0.01955104996379435},{"client":"Teku","percentage":0.0939898624185373},{"client":"Lighthouse","percentage":0.26280473087134926},{"client":"Prysm","percentage":0.6236543567463191}],"networkPenetration":0.08654960545540809},{"id":"Binance","idType":"entity","timeWindow":"1d","validatorCount":22284,"avgCorrectness":0.9880901931108216,"avgInclusionDelay":1.0303011297319737,"avgUptime":0.9996665017296511,"avgValidatorEffectiveness":96.74527064588928,"clientPercentages":[{"client":"Prysm","percentage":0.6109586763116321},{"client":"Nimbus","percentage":0.030764114076660846},{"client":"Lighthouse","percentage":0.35769518583187826},{"client":"Teku","percentage":0.0005820237798287187}],"networkPenetration":0.05207091652838526},{"id":"Bitcoin Suisse","idType":"entity","timeWindow":"1d","validatorCount":9062,"avgCorrectness":0.9915879302016486,"avgInclusionDelay":1.021827233634801,"avgUptime":0.9999641888407746,"avgValidatorEffectiveness":97.66040733507191,"clientPercentages":[{"client":"Teku","percentage":0.9935897435897436},{"client":"Nimbus","percentage":0.00641025641025641}],"networkPenetration":0.021316974032993985},{"id":"Rocketpool","idType":"entity","timeWindow":"1d","validatorCount":6975,"avgCorrectness":0.9891955415799074,"avgInclusionDelay":1.0263572371045049,"avgUptime":0.9854228170457466,"avgValidatorEffectiveness":95.93576312193079,"clientPercentages":[{"client":"Prysm","percentage":0.05238870792616721},{"client":"Nimbus","percentage":0.2270629750271444},{"client":"Teku","percentage":0.30442453854505974},{"client":"Lighthouse","percentage":0.4161237785016287}],"networkPenetration":0.01645214361753605},{"id":"Staked.us","idType":"entity","timeWindow":"1d","validatorCount":5263,"avgCorrectness":0.9857703363478789,"avgInclusionDelay":1.0308968022881073,"avgUptime":0.9989963476682084,"avgValidatorEffectiveness":96.50860232422556,"clientPercentages":[{"client":"Lighthouse","percentage":0.005778382053025153},{"client":"Prysm","percentage":0.47178789938817134},{"client":"Teku","percentage":0.49422161794697483},{"client":"Nimbus","percentage":0.02821210061182869}],"networkPenetration":0.012422902705752113},{"id":"f2pool.eth","idType":"entity","timeWindow":"1d","validatorCount":3501,"avgCorrectness":0.9895652885962446,"avgInclusionDelay":1.0290967120677277,"avgUptime":0.9999473166396897,"avgValidatorEffectiveness":96.94765759786675,"clientPercentages":[{"client":"Lighthouse","percentage":0.986387943607195},{"client":"Prysm","percentage":0.013612056392805057}],"networkPenetration":0.008263838565996228},{"id":"Bitfinex","idType":"entity","timeWindow":"1d","validatorCount":3214,"avgCorrectness":0.9885358448453134,"avgInclusionDelay":1.027282338355758,"avgUptime":0.9999633547673372,"avgValidatorEffectiveness":97.03835137481539,"clientPercentages":[{"client":"Teku","percentage":0.012380416432189083},{"client":"Lighthouse","percentage":0.004501969611705121},{"client":"Prysm","percentage":0.943725379853686},{"client":"Nimbus","percentage":0.03939223410241981}],"networkPenetration":0.0075863973582153315},{"id":"Huobi","idType":"entity","timeWindow":"1d","validatorCount":2855,"avgCorrectness":0.9881195532709175,"avgInclusionDelay":1.0290165297233007,"avgUptime":0.9999735357073366,"avgValidatorEffectiveness":96.87238754271124,"clientPercentages":[{"client":"Nimbus","percentage":0.04495747266099635},{"client":"Lighthouse","percentage":0.0006075334143377885},{"client":"Teku","percentage":0.002430133657351154},{"client":"Prysm","percentage":0.9520048602673147}],"networkPenetration":0.006739005742907521},{"id":"Bloxstaking","idType":"entity","timeWindow":"1d","validatorCount":2424,"avgCorrectness":0.9866749129044738,"avgInclusionDelay":1.031979290057739,"avgUptime":0.9988584065051271,"avgValidatorEffectiveness":96.45643618071145,"clientPercentages":[{"client":"Nimbus","percentage":0.02393418100224383},{"client":"Lighthouse","percentage":0.487658937920718},{"client":"Teku","percentage":0.0014958863126402393},{"client":"Prysm","percentage":0.4869109947643979}],"networkPenetration":0.005712222030765744},{"id":"wedex.eth","idType":"entity","timeWindow":"1d","validatorCount":2399,"avgCorrectness":0.9891527977802368,"avgInclusionDelay":1.0263698826913703,"avgUptime":0.9995220230651666,"avgValidatorEffectiveness":97.10981120287323,"clientPercentages":[{"client":"Lighthouse","percentage":1.0}],"networkPenetration":0.0056626531619037275},{"id":"Ankr","idType":"entity","timeWindow":"1d","validatorCount":2297,"avgCorrectness":0.9890850695906043,"avgInclusionDelay":1.0271501575864548,"avgUptime":0.9997591060803954,"avgValidatorEffectiveness":97.0657258306824,"clientPercentages":[{"client":"Teku","percentage":0.006066734074823054},{"client":"Prysm","percentage":0.9464105156723963},{"client":"Nimbus","percentage":0.03640040444893832},{"client":"Lighthouse","percentage":0.011122345803842264}],"networkPenetration":0.005421890084573932},{"id":"StakeWise","idType":"entity","timeWindow":"1d","validatorCount":1981,"avgCorrectness":0.9886336610560419,"avgInclusionDelay":1.0281746548142032,"avgUptime":0.999948398676314,"avgValidatorEffectiveness":96.96921370276485,"clientPercentages":[{"client":"Lighthouse","percentage":0.5298245614035088},{"client":"Prysm","percentage":0.3850877192982456},{"client":"Nimbus","percentage":0.02456140350877193},{"client":"Teku","percentage":0.060526315789473685}],"networkPenetration":0.004675996629316917},{"id":"OKex","idType":"entity","timeWindow":"1d","validatorCount":1737,"avgCorrectness":0.9886272041269086,"avgInclusionDelay":1.0275664596559375,"avgUptime":0.9999385914411827,"avgValidatorEffectiveness":97.01672927598317,"clientPercentages":[{"client":"Lighthouse","percentage":0.012591815320041973},{"client":"Teku","percentage":0.002098635886673662},{"client":"Nimbus","percentage":0.04512067156348373},{"client":"Prysm","percentage":0.9401888772298006}],"networkPenetration":0.004100053581586817}]}