{"page":{"from":0,"size":15},"total":36,"next":"/v0/eth/operators?window=1d&from=15&size=15&idType=entity","data":[{"id":"Lido","idType":"entity","timeWindow":"1d","validatorCount":133724,"avgCorrectness":0.9901243916233641,"avgInclusionDelay":1.0324298362335336,"avgUptime":0.9982984537061538,"avgValidatorEffectiveness":95.91229279413524,"clientPercentages":[{"client":"Teku","percentage":0.19303246714277142},{"client":"Prysm","percentage":0.38788033367340813},{"client":"Lighthouse","percentage":0.3920362479745544},{"client":"Nimbus","percentage":0.02589569705335174},{"client":"Lodestar","percentage":0.001155254155914301}],"networkPenetration":0.3004972304869081,"relayerPercentages":[{"relayer":"flashbots","percentage":0.40834859821788944},{"relayer":"edennetwork","percentage":0.020382501785215314},{"relayer":"no_mev_boost","percentage":0.4408550405166258},{"relayer":"bloxroute_regulated","percentage":0.010416343258095564},{"relayer":"manifold","percentage":0.018442050358595422},{"relayer":"bloxroute_maxprofit","percentage":0.030364183923748022},{"relayer":"bloxroute_ethical","percentage":0.038638268806855225},{"relayer":"blocknative","percentage":0.032553013132975255}],"nodeOperatorCount":29},{"id":"Coinbase","idType":"entity","timeWindow":"1d","validatorCount":54230,"avgCorrectness":0.9893488648739283,"avgInclusionDelay":1.0300748335129737,"avgUptime":0.9987407543999817,"avgValidatorEffectiveness":96.06834029701166,"clientPercentages":[{"client":"Lighthouse","percentage":0.4350405527185341},{"client":"Nimbus","percentage":0.02177831180534695},{"client":"Prysm","percentage":0.3810078101531992},{"client":"Teku","percentage":0.1621733253229198}],"networkPenetration":0.12195752738590798,"relayerPercentages":[{"relayer":"no_mev_boost","percentage":0.9994586233565352},{"relayer":"bloxroute_regulated","percentage":3.8669760247486464e-05},{"relayer":"manifold","percentage":7.733952049497293e-05},{"relayer":"flashbots","percentage":0.00042536736272235113}],"nodeOperatorCount":null},{"id":"Kraken","idType":"entity","timeWindow":"1d","validatorCount":37768,"avgCorrectness":0.9904632123692974,"avgInclusionDelay":1.0274434358216622,"avgUptime":0.9990576313117714,"avgValidatorEffectiveness":96.43642440992271,"clientPercentages":[{"client":"Lighthouse","percentage":0.2660751509968464},{"client":"Nimbus","percentage":0.00010690042225666791},{"client":"Prysm","percentage":0.6222139077449356},{"client":"Teku","percentage":0.1116040408359613}],"networkPenetration":0.08489575251370139,"relayerPercentages":[{"relayer":"bloxroute_ethical","percentage":0.00104562214517638},{"relayer":"no_mev_boost","percentage":0.5536844422431346},{"relayer":"bloxroute_maxprofit","percentage":0.004017390347256618},{"relayer":"manifold","percentage":0.0021462770348357274},{"relayer":"flashbots","percentage":0.4280997193330031},{"relayer":"blocknative","percentage":0.008805239117274778},{"relayer":"edennetwork","percentage":0.0022013097793186945}],"nodeOperatorCount":null},{"id":"Binance","idType":"entity","timeWindow":"1d","validatorCount":23590,"avgCorrectness":0.9916273835528712,"avgInclusionDelay":1.0244905572385525,"avgUptime":0.9997774022478048,"avgValidatorEffectiveness":96.8871417284307,"clientPercentages":[{"client":"Prysm","percentage":0.5616498851792969},{"client":"Lighthouse","percentage":0.42483660130718953},{"client":"Teku","percentage":0.013248542660307366},{"client":"Nimbus","percentage":0.00026497085320614734}],"networkPenetration":0.051839258044856444,"relayerPercentages":[{"relayer":"edennetwork","percentage":0.00385097617768225},{"relayer":"bloxroute_regulated","percentage":0.02203116603976357},{"relayer":"no_mev_boost","percentage":0.5340318825004478},{"relayer":"bloxroute_maxprofit","percentage":0.006985491671144546},{"relayer":"flashbots","percentage":0.430771986387247},{"relayer":"blocknative","percentage":0.0022389396381873546},{"relayer":"bloxroute_ethical","percentage":8.955758552749418e-05}],"nodeOperatorCount":null},{"id":"Staked.us","idType":"entity","timeWindow":"1d","validatorCount":12603,"avgCorrectness":0.9899055915457681,"avgInclusionDelay":1.0288415370121344,"avgUptime":0.9987338589149426,"avgValidatorEffectiveness":96.22976604764384,"clientPercentages":[{"client":"Teku","percentage":0.39681507962300944},{"client":"Lighthouse","percentage":0.055573610659733506},{"client":"Prysm","percentage":0.5471238219044524},{"client":"Nimbus","percentage":0.0004874878128046799}],"networkPenetration":0.02833156795145987,"relayerPercentages":[{"relayer":"no_mev_boost","percentage":0.40576773187841},{"relayer":"manifold","percentage":0.005455962587685113},{"relayer":"bloxroute_maxprofit","percentage":0.004053000779423227},{"relayer":"flashbots","percentage":0.5847233047544816}],"nodeOperatorCount":null},{"id":"Bitcoin Suisse","idType":"entity","timeWindow":"1d","validatorCount":9184,"avgCorrectness":0.991379567082503,"avgInclusionDelay":1.0308512856074388,"avgUptime":0.9993396728610133,"avgValidatorEffectiveness":96.24910886811139,"clientPercentages":[{"client":"Teku","percentage":0.9669882100750268},{"client":"Nimbus","percentage":0.0330117899249732}],"networkPenetration":0.02065384347247241,"relayerPercentages":[{"relayer":"no_mev_boost","percentage":1.0}],"nodeOperatorCount":null},{"id":"Rocketpool","idType":"entity","timeWindow":"1d","validatorCount":8905,"avgCorrectness":0.9873782311115894,"avgInclusionDelay":1.0386408648082373,"avgUptime":0.9864950958217971,"avgValidatorEffectiveness":94.22223665427134,"clientPercentages":[{"client":"Teku","percentage":0.29987111556637547},{"client":"Prysm","percentage":0.045825576399828157},{"client":"Lighthouse","percentage":0.43190605756838035},{"client":"Nimbus","percentage":0.222397250465416}],"networkPenetration":0.019961184087724862,"relayerPercentages":[{"relayer":"no_mev_boost","percentage":0.22617901828681425},{"relayer":"flashbots","percentage":0.4983156881616939},{"relayer":"bloxroute_regulated","percentage":0.0661693936477382},{"relayer":"edennetwork","percentage":0.028873917228103944},{"relayer":"manifold","percentage":0.0019249278152069298},{"relayer":"bloxroute_maxprofit","percentage":0.0940808469682387},{"relayer":"blocknative","percentage":0.0519730510105871},{"relayer":"bloxroute_ethical","percentage":0.03248315688161694}],"nodeOperatorCount":1552},{"id":"Celsius Network","idType":"entity","timeWindow":"1d","validatorCount":4943,"avgCorrectness":0.9917148031268989,"avgInclusionDelay":1.025102006128012,"avgUptime":0.9997913997347536,"avgValidatorEffectiveness":96.84025472942824,"clientPercentages":[{"client":"Lighthouse","percentage":0.021056813667063964},{"client":"Teku","percentage":0.012316249503377036},{"client":"Prysm","percentage":0.966626936829559}],"networkPenetration":0.011116283567555655,"relayerPercentages":[{"relayer":"flashbots","percentage":0.9599164926931106},{"relayer":"no_mev_boost","percentage":0.04008350730688935}],"nodeOperatorCount":null},{"id":"Stakefish","idType":"entity","timeWindow":"1d","validatorCount":4558,"avgCorrectness":0.9885953020564933,"avgInclusionDelay":1.0495273161111538,"avgUptime":0.9774920774218718,"avgValidatorEffectiveness":92.29129766092376,"clientPercentages":[{"client":"Lighthouse","percentage":0.9885792599360439},{"client":"Teku","percentage":0.009365006852444038},{"client":"Nimbus","percentage":0.0009136592051164915},{"client":"Prysm","percentage":0.0011420740063956144}],"networkPenetration":0.010250459336621217,"relayerPercentages":[{"relayer":"no_mev_boost","percentage":0.07459312839059674},{"relayer":"bloxroute_regulated","percentage":0.0002260397830018083},{"relayer":"bloxroute_maxprofit","percentage":0.0009041591320072332},{"relayer":"manifold","percentage":0.1033001808318264},{"relayer":"flashbots","percentage":0.8209764918625678}],"nodeOperatorCount":null},{"id":"Bitfinex","idType":"entity","timeWindow":"1d","validatorCount":3214,"avgCorrectness":0.9920571801883169,"avgInclusionDelay":1.0243782512057382,"avgUptime":0.9997939569937084,"avgValidatorEffectiveness":96.93539669287847,"clientPercentages":[{"client":"Teku","percentage":0.03431372549019608},{"client":"Prysm","percentage":0.9564950980392157},{"client":"Lighthouse","percentage":0.009191176470588236}],"networkPenetration":0.007227945657722815,"relayerPercentages":[{"relayer":"flashbots","percentage":0.39935691318327976},{"relayer":"no_mev_boost","percentage":0.6006430868167203}],"nodeOperatorCount":null},{"id":"Huobi","idType":"entity","timeWindow":"1d","validatorCount":2855,"avgCorrectness":0.9916540998066896,"avgInclusionDelay":1.0245705793004547,"avgUptime":0.9997766102354539,"avgValidatorEffectiveness":96.87964594214998,"clientPercentages":[{"client":"Prysm","percentage":0.9693165969316597},{"client":"Teku","percentage":0.02301255230125523},{"client":"Lighthouse","percentage":0.007670850767085077}],"networkPenetration":0.0064205926735527805,"relayerPercentages":[{"relayer":"edennetwork","percentage":0.07215743440233237},{"relayer":"bloxroute_ethical","percentage":0.07580174927113703},{"relayer":"flashbots","percentage":0.5211370262390671},{"relayer":"bloxroute_regulated","percentage":0.04664723032069971},{"relayer":"no_mev_boost","percentage":0.11588921282798834},{"relayer":"manifold","percentage":0.04008746355685131},{"relayer":"bloxroute_maxprofit","percentage":0.08309037900874636},{"relayer":"blocknative","percentage":0.04518950437317784}],"nodeOperatorCount":null},{"id":"Abyss","idType":"entity","timeWindow":"1d","validatorCount":2814,"avgCorrectness":0.9913389004690787,"avgInclusionDelay":1.0258082450231298,"avgUptime":0.998641818815514,"avgValidatorEffectiveness":96.63647583690366,"clientPercentages":[{"client":"Teku","percentage":0.8615023474178404},{"client":"Lighthouse","percentage":0.08607198748043818},{"client":"Nimbus","percentage":0.026604068857589983},{"client":"Prysm","percentage":0.025821596244131457}],"networkPenetration":0.006103498604561207,"relayerPercentages":[{"relayer":"flashbots","percentage":0.3335755813953488},{"relayer":"bloxroute_regulated","percentage":0.014534883720930232},{"relayer":"no_mev_boost","percentage":0.6090116279069767},{"relayer":"bloxroute_maxprofit","percentage":0.020348837209302327},{"relayer":"manifold","percentage":0.0029069767441860465},{"relayer":"bloxroute_ethical","percentage":0.005087209302325582},{"relayer":"blocknative","percentage":0.003633720930232558},{"relayer":"edennetwork","percentage":0.010901162790697675}],"nodeOperatorCount":null},{"id":"Bloxstaking","idType":"entity","timeWindow":"1d","validatorCount":2559,"avgCorrectness":0.9908237829196027,"avgInclusionDelay":1.0241104864846078,"avgUptime":0.9997542079548822,"avgValidatorEffectiveness":96.83317042304998,"clientPercentages":[{"client":"Prysm","percentage":0.49072512647554806},{"client":"Lighthouse","percentage":0.5016863406408094},{"client":"Teku","percentage":0.007588532883642495}],"networkPenetration":0.005752671123974785,"relayerPercentages":[{"relayer":"flashbots","percentage":0.8935148118494796},{"relayer":"blocknative","percentage":0.07526020816653323},{"relayer":"bloxroute_ethical","percentage":0.009607686148919135},{"relayer":"no_mev_boost","percentage":0.021617293835068056}],"nodeOperatorCount":null},{"id":"wedex.eth","idType":"entity","timeWindow":"1d","validatorCount":2399,"avgCorrectness":0.990902793155985,"avgInclusionDelay":1.024448955728368,"avgUptime":0.9997397063591309,"avgValidatorEffectiveness":96.81282398973256,"clientPercentages":[{"client":"Prysm","percentage":0.001606425702811245},{"client":"Lighthouse","percentage":0.9983935742971888}],"networkPenetration":0.0053950969610693945,"relayerPercentages":[{"relayer":"edennetwork","percentage":0.08613264427217916},{"relayer":"no_mev_boost","percentage":0.15503875968992248},{"relayer":"flashbots","percentage":0.4478897502153316},{"relayer":"manifold","percentage":0.037037037037037035},{"relayer":"bloxroute_maxprofit","percentage":0.2049956933677864},{"relayer":"blocknative","percentage":0.059431524547803614},{"relayer":"bloxroute_ethical","percentage":0.009474590869939707}],"nodeOperatorCount":null},{"id":"Ankr","idType":"entity","timeWindow":"1d","validatorCount":2300,"avgCorrectness":0.9910883365378202,"avgInclusionDelay":1.0244604330455578,"avgUptime":0.9997487376364016,"avgValidatorEffectiveness":96.82628945295654,"clientPercentages":[{"client":"Teku","percentage":0.005853658536585366},{"client":"Lighthouse","percentage":0.46731707317073173},{"client":"Prysm","percentage":0.526829268292683}],"networkPenetration":0.005170207550437072,"relayerPercentages":[{"relayer":"flashbots","percentage":0.1416159860990443},{"relayer":"no_mev_boost","percentage":0.8583840139009556}],"nodeOperatorCount":null}]}