{"page":{"from":0,"size":15},"total":31,"next":"/v0/eth/operators?window=1d&from=15&size=15&idType=entity","data":[{"id":"Lido","idType":"entity","timeWindow":"1d","validatorCount":128759,"avgCorrectness":0.988909026461243,"avgInclusionDelay":1.0155159888538303,"avgUptime":0.9998751278947531,"avgValidatorEffectiveness":98.02660538407784,"clientPercentages":[{"client":"Teku","percentage":0.1616713707569852},{"client":"Prysm","percentage":0.35912369517494735},{"client":"Lighthouse","percentage":0.4034317458895211},{"client":"Nimbus","percentage":0.07577318817854636}],"networkPenetration":0.3214671843593553},{"id":"Coinbase","idType":"entity","timeWindow":"1d","validatorCount":55741,"avgCorrectness":0.9885640127544079,"avgInclusionDelay":1.0153533726517825,"avgUptime":0.9999232561709017,"avgValidatorEffectiveness":98.02290823575902,"clientPercentages":[{"client":"Prysm","percentage":0.42568234657154685},{"client":"Teku","percentage":0.1585719290423262},{"client":"Nimbus","percentage":0.10153189592025223},{"client":"Lighthouse","percentage":0.3142138284658747}],"networkPenetration":0.1391802644227768},{"id":"Kraken","idType":"entity","timeWindow":"1d","validatorCount":35509,"avgCorrectness":0.9845769977507156,"avgInclusionDelay":1.0208983140360448,"avgUptime":0.9992739097578456,"avgValidatorEffectiveness":97.37663763794065,"clientPercentages":[{"client":"Nimbus","percentage":0.03791444680080691},{"client":"Prysm","percentage":0.6349247400817255},{"client":"Lighthouse","percentage":0.2455387161847618},{"client":"Teku","percentage":0.08162209693270574}],"networkPenetration":0.08862532615887839},{"id":"Binance","idType":"entity","timeWindow":"1d","validatorCount":20422,"avgCorrectness":0.9885020407765858,"avgInclusionDelay":1.0163127566560035,"avgUptime":0.9946662096431951,"avgValidatorEffectiveness":97.49504329136998,"clientPercentages":[{"client":"Prysm","percentage":0.6037255074246551},{"client":"Teku","percentage":0.010543888937703189},{"client":"Lighthouse","percentage":0.3111325894033916},{"client":"Nimbus","percentage":0.07459801423425007}],"networkPenetration":0.05099189752681057},{"id":"Bitcoin Suisse","idType":"entity","timeWindow":"1d","validatorCount":8815,"avgCorrectness":0.9857321607862726,"avgInclusionDelay":1.0416211320830873,"avgUptime":0.9993117791643016,"avgValidatorEffectiveness":95.70044675043857,"clientPercentages":[{"client":"Teku","percentage":0.9917963819941102},{"client":"Nimbus","percentage":0.007993268826251577},{"client":"Prysm","percentage":0.00021034917963819942}],"networkPenetration":0.02201026230040325},{"id":"Rocketpool","idType":"entity","timeWindow":"1d","validatorCount":5833,"avgCorrectness":0.9879405868612756,"avgInclusionDelay":1.0186577710484748,"avgUptime":0.990178493302426,"avgValidatorEffectiveness":96.90977781859331,"clientPercentages":[{"client":"Lighthouse","percentage":0.44271592934694537},{"client":"Nimbus","percentage":0.2550640090747043},{"client":"Prysm","percentage":0.060119915734889},{"client":"Teku","percentage":0.24210014584346135}],"networkPenetration":0.014549494999937577},{"id":"Staked.us","idType":"entity","timeWindow":"1d","validatorCount":5263,"avgCorrectness":0.9871743832521483,"avgInclusionDelay":1.0236771839428755,"avgUptime":0.9990930394578494,"avgValidatorEffectiveness":97.1985091526031,"clientPercentages":[{"client":"Prysm","percentage":0.4500330906684315},{"client":"Teku","percentage":0.49503639973527463},{"client":"Lighthouse","percentage":0.0013236267372600927},{"client":"Nimbus","percentage":0.053606882859033755}],"networkPenetration":0.013141237718323574},{"id":"f2pool.eth","idType":"entity","timeWindow":"1d","validatorCount":3501,"avgCorrectness":0.985192317833836,"avgInclusionDelay":1.0588996994051003,"avgUptime":0.9990028245897995,"avgValidatorEffectiveness":94.34099558030431,"clientPercentages":[{"client":"Lighthouse","percentage":0.9995276334435522},{"client":"Nimbus","percentage":0.0004723665564478035}],"networkPenetration":0.008741682168316708},{"id":"Bitfinex","idType":"entity","timeWindow":"1d","validatorCount":3214,"avgCorrectness":0.9836281023254063,"avgInclusionDelay":1.028743898536346,"avgUptime":0.9916939777362923,"avgValidatorEffectiveness":96.03801628224062,"clientPercentages":[{"client":"Lighthouse","percentage":0.0027427317608337905},{"client":"Prysm","percentage":0.8776741634668129},{"client":"Teku","percentage":0.015907844212835986},{"client":"Nimbus","percentage":0.10367526055951728}],"networkPenetration":0.008025068977140788},{"id":"Huobi","idType":"entity","timeWindow":"1d","validatorCount":2855,"avgCorrectness":0.9855855406901686,"avgInclusionDelay":1.0240705585914445,"avgUptime":0.9996232730103132,"avgValidatorEffectiveness":97.11408941907227,"clientPercentages":[{"client":"Teku","percentage":0.016877637130801686},{"client":"Nimbus","percentage":0.09644364074743822},{"client":"Prysm","percentage":0.8842676311030742},{"client":"Lighthouse","percentage":0.0024110910186859553}],"networkPenetration":0.007128678260652443},{"id":"wedex.eth","idType":"entity","timeWindow":"1d","validatorCount":2399,"avgCorrectness":0.9881398529853319,"avgInclusionDelay":1.0167522954824313,"avgUptime":0.9995609281645125,"avgValidatorEffectiveness":97.85286397728898,"clientPercentages":[{"client":"Lighthouse","percentage":1.0}],"networkPenetration":0.005990087267007079},{"id":"Bloxstaking","idType":"entity","timeWindow":"1d","validatorCount":2292,"avgCorrectness":0.9865401274058352,"avgInclusionDelay":1.017895407705463,"avgUptime":0.9998846012594331,"avgValidatorEffectiveness":97.68817723380447,"clientPercentages":[{"client":"Teku","percentage":0.010542168674698794},{"client":"Lighthouse","percentage":0.45180722891566266},{"client":"Prysm","percentage":0.5015060240963856},{"client":"Nimbus","percentage":0.03614457831325301}],"networkPenetration":0.00572042097903844},{"id":"Ankr","idType":"entity","timeWindow":"1d","validatorCount":2283,"avgCorrectness":0.8997255148086946,"avgInclusionDelay":1.3178506737002669,"avgUptime":0.9804409725456451,"avgValidatorEffectiveness":77.08763018487576,"clientPercentages":[{"client":"Prysm","percentage":0.887592788971368},{"client":"Teku","percentage":0.006362672322375398},{"client":"Nimbus","percentage":0.09650053022269353},{"client":"Lighthouse","percentage":0.009544008483563097}],"networkPenetration":0.005697948788374387},{"id":"StakeWise","idType":"entity","timeWindow":"1d","validatorCount":1935,"avgCorrectness":0.9860388351525207,"avgInclusionDelay":1.0248780145450613,"avgUptime":0.9985400715723391,"avgValidatorEffectiveness":97.0090935987557,"clientPercentages":[{"client":"Lighthouse","percentage":0.5277246653919694},{"client":"Teku","percentage":0.04397705544933078},{"client":"Prysm","percentage":0.3795411089866157},{"client":"Nimbus","percentage":0.04875717017208413}],"networkPenetration":0.0048290240826976616},{"id":"OKex","idType":"entity","timeWindow":"1d","validatorCount":1528,"avgCorrectness":0.9864589684718458,"avgInclusionDelay":1.0195814722863237,"avgUptime":0.9997902018355904,"avgValidatorEffectiveness":97.54613464790344,"clientPercentages":[{"client":"Nimbus","percentage":0.09518213866039953},{"client":"Teku","percentage":0.012925969447708578},{"client":"Prysm","percentage":0.8918918918918919}],"networkPenetration":0.0038052909524463477}]}