{"page":{"from":0,"size":15},"total":31,"next":"/v0/eth/operators?window=1d&from=15&size=15&idType=entity","data":[{"id":"Lido","idType":"entity","timeWindow":"1d","validatorCount":128973,"avgCorrectness":0.9861596207933763,"avgInclusionDelay":1.0246713823027498,"avgUptime":0.9997970457781693,"avgValidatorEffectiveness":97.10435619982637,"clientPercentages":[{"client":"Teku","percentage":0.19212259712326926},{"client":"Prysm","percentage":0.35219787605861},{"client":"Lighthouse","percentage":0.37658287404220997},{"client":"Nimbus","percentage":0.07909665277591074}],"networkPenetration":0.31820526171621477},{"id":"Coinbase","idType":"entity","timeWindow":"1d","validatorCount":57246,"avgCorrectness":0.9858084524956142,"avgInclusionDelay":1.0252478165774332,"avgUptime":0.9998589836469877,"avgValidatorEffectiveness":97.04337910099352,"clientPercentages":[{"client":"Prysm","percentage":0.3634551698761192},{"client":"Lighthouse","percentage":0.37394210719980375},{"client":"Nimbus","percentage":0.0928185943824359},{"client":"Teku","percentage":0.16978412854164113}],"networkPenetration":0.14115475447216266},{"id":"Kraken","idType":"entity","timeWindow":"1d","validatorCount":35778,"avgCorrectness":0.9793115833932803,"avgInclusionDelay":1.036367043053067,"avgUptime":0.9986731779447171,"avgValidatorEffectiveness":95.90578039559537,"clientPercentages":[{"client":"Lighthouse","percentage":0.26855364264176634},{"client":"Teku","percentage":0.08695652173913043},{"client":"Nimbus","percentage":0.04148429141134131},{"client":"Prysm","percentage":0.6030055442077619}],"networkPenetration":0.08827107635435766},{"id":"Binance","idType":"entity","timeWindow":"1d","validatorCount":20810,"avgCorrectness":0.9863567079194544,"avgInclusionDelay":1.0233925286166785,"avgUptime":0.9998660900208229,"avgValidatorEffectiveness":97.21704565219834,"clientPercentages":[{"client":"Nimbus","percentage":0.0726083675693804},{"client":"Prysm","percentage":0.5931080741175484},{"client":"Lighthouse","percentage":0.3254800033537352},{"client":"Teku","percentage":0.008803554959335961}],"networkPenetration":0.051353679030868966},{"id":"Bitcoin Suisse","idType":"entity","timeWindow":"1d","validatorCount":9000,"avgCorrectness":0.9827771443714791,"avgInclusionDelay":1.0551131874532156,"avgUptime":0.9988019753086419,"avgValidatorEffectiveness":94.43161738833123,"clientPercentages":[{"client":"Teku","percentage":0.9928966061562746},{"client":"Nimbus","percentage":0.006906077348066298},{"client":"Prysm","percentage":0.0001973164956590371}],"networkPenetration":0.022209664165200416},{"id":"Rocketpool","idType":"entity","timeWindow":"1d","validatorCount":6181,"avgCorrectness":0.9852733860342556,"avgInclusionDelay":1.0267870736348996,"avgUptime":0.989764377896268,"avgValidatorEffectiveness":96.04957885479847,"clientPercentages":[{"client":"Teku","percentage":0.267433179035389},{"client":"Lighthouse","percentage":0.41735105271016876},{"client":"Nimbus","percentage":0.2553382111393161},{"client":"Prysm","percentage":0.05987755711512618}],"networkPenetration":0.015225958655476286},{"id":"Staked.us","idType":"entity","timeWindow":"1d","validatorCount":5263,"avgCorrectness":0.985451586160995,"avgInclusionDelay":1.0237709823146122,"avgUptime":0.9998045052462669,"avgValidatorEffectiveness":97.13597870656326,"clientPercentages":[{"client":"Nimbus","percentage":0.05838709677419355},{"client":"Prysm","percentage":0.4309677419354839},{"client":"Lighthouse","percentage":0.000967741935483871},{"client":"Teku","percentage":0.5096774193548387}],"networkPenetration":0.012987718055716644},{"id":"f2pool.eth","idType":"entity","timeWindow":"1d","validatorCount":3501,"avgCorrectness":0.9871178927043285,"avgInclusionDelay":1.022729508753422,"avgUptime":0.999994287346472,"avgValidatorEffectiveness":97.3307054818265,"clientPercentages":[{"client":"Lighthouse","percentage":1.0}],"networkPenetration":0.008639559360262962},{"id":"Bitfinex","idType":"entity","timeWindow":"1d","validatorCount":3214,"avgCorrectness":0.9851749942762599,"avgInclusionDelay":1.0251920652015276,"avgUptime":0.9996079651524569,"avgValidatorEffectiveness":97.01500747079741,"clientPercentages":[{"client":"Teku","percentage":0.018807092960773777},{"client":"Nimbus","percentage":0.10370768404083826},{"client":"Prysm","percentage":0.8753358409457281},{"client":"Lighthouse","percentage":0.0021493820526598604}],"networkPenetration":0.00793131784743935},{"id":"Huobi","idType":"entity","timeWindow":"1d","validatorCount":2855,"avgCorrectness":0.981461972458277,"avgInclusionDelay":1.0335574232309122,"avgUptime":0.9996544074722702,"avgValidatorEffectiveness":96.11402955307072,"clientPercentages":[{"client":"Lighthouse","percentage":0.0017605633802816902},{"client":"Teku","percentage":0.014084507042253521},{"client":"Prysm","percentage":0.886150234741784},{"client":"Nimbus","percentage":0.09800469483568075}],"networkPenetration":0.007045399021294132},{"id":"wedex.eth","idType":"entity","timeWindow":"1d","validatorCount":2399,"avgCorrectness":0.9837044731545803,"avgInclusionDelay":1.0412266627094908,"avgUptime":0.9987587420684545,"avgValidatorEffectiveness":95.58477274281998,"clientPercentages":[{"client":"Lighthouse","percentage":1.0}],"networkPenetration":0.005920109370257312},{"id":"Bloxstaking","idType":"entity","timeWindow":"1d","validatorCount":2317,"avgCorrectness":0.9836880146956551,"avgInclusionDelay":1.0266114140731042,"avgUptime":0.9998417493885761,"avgValidatorEffectiveness":96.80671769612341,"clientPercentages":[{"client":"Teku","percentage":0.008314436885865457},{"client":"Lighthouse","percentage":0.5064247921390779},{"client":"Prysm","percentage":0.43386243386243384},{"client":"Nimbus","percentage":0.05139833711262283}],"networkPenetration":0.005717754652307707},{"id":"Ankr","idType":"entity","timeWindow":"1d","validatorCount":2287,"avgCorrectness":0.811219021468188,"avgInclusionDelay":1.642909163098673,"avgUptime":0.871232570567944,"avgValidatorEffectiveness":56.90686234922994,"clientPercentages":[{"client":"Lighthouse","percentage":0.008238928939237899},{"client":"Teku","percentage":0.009268795056642637},{"client":"Nimbus","percentage":0.08341915550978372},{"client":"Prysm","percentage":0.8990731204943357}],"networkPenetration":0.0056437224384237065},{"id":"StakeWise","idType":"entity","timeWindow":"1d","validatorCount":1975,"avgCorrectness":0.9866301357506878,"avgInclusionDelay":1.0250755423262528,"avgUptime":0.9979938115330524,"avgValidatorEffectiveness":96.94889701625053,"clientPercentages":[{"client":"Teku","percentage":0.049239033124440466},{"client":"Prysm","percentage":0.36436884512085943},{"client":"Nimbus","percentage":0.04028648164726947},{"client":"Lighthouse","percentage":0.5461056401074306}],"networkPenetration":0.0048737874140300915},{"id":"OKex","idType":"entity","timeWindow":"1d","validatorCount":1543,"avgCorrectness":0.9833471650702537,"avgInclusionDelay":1.0287887432714362,"avgUptime":0.9995765824152087,"avgValidatorEffectiveness":96.59287200205755,"clientPercentages":[{"client":"Nimbus","percentage":0.1087912087912088},{"client":"Teku","percentage":0.017582417582417582},{"client":"Prysm","percentage":0.8736263736263736}],"networkPenetration":0.0038077235341004716}]}