{"page":{"from":0,"size":15},"total":31,"next":"/v0/eth/operators?window=1d&from=15&size=15&idType=entity","data":[{"id":"Lido","idType":"entity","timeWindow":"1d","validatorCount":128746,"avgCorrectness":0.9894258107317776,"avgInclusionDelay":1.013429019949876,"avgUptime":0.9999238392899223,"avgValidatorEffectiveness":98.23596031786478,"clientPercentages":[{"client":"Teku","percentage":0.1616713707569852},{"client":"Prysm","percentage":0.35912369517494735},{"client":"Lighthouse","percentage":0.4034317458895211},{"client":"Nimbus","percentage":0.07577318817854636}],"networkPenetration":0.32187063273607286},{"id":"Coinbase","idType":"entity","timeWindow":"1d","validatorCount":55741,"avgCorrectness":0.9891463551794079,"avgInclusionDelay":1.0132233930889611,"avgUptime":0.9999417544237335,"avgValidatorEffectiveness":98.23822471260898,"clientPercentages":[{"client":"Prysm","percentage":0.42568234657154685},{"client":"Teku","percentage":0.1585719290423262},{"client":"Nimbus","percentage":0.10153189592025223},{"client":"Lighthouse","percentage":0.3142138284658747}],"networkPenetration":0.13935493871142746},{"id":"Kraken","idType":"entity","timeWindow":"1d","validatorCount":35494,"avgCorrectness":0.9851440467968042,"avgInclusionDelay":1.018959066586209,"avgUptime":0.9994928270557825,"avgValidatorEffectiveness":97.58851285671676,"clientPercentages":[{"client":"Nimbus","percentage":0.03791444680080691},{"client":"Prysm","percentage":0.6349247400817255},{"client":"Lighthouse","percentage":0.2455387161847618},{"client":"Teku","percentage":0.08162209693270574}],"networkPenetration":0.08867155175215566},{"id":"Binance","idType":"entity","timeWindow":"1d","validatorCount":20422,"avgCorrectness":0.989022377984754,"avgInclusionDelay":1.0140596473524157,"avgUptime":0.9974401244844879,"avgValidatorEffectiveness":97.95218038505178,"clientPercentages":[{"client":"Prysm","percentage":0.6037255074246551},{"client":"Teku","percentage":0.010543888937703189},{"client":"Lighthouse","percentage":0.3111325894033916},{"client":"Nimbus","percentage":0.07459801423425007}],"networkPenetration":0.05105589347813587},{"id":"Bitcoin Suisse","idType":"entity","timeWindow":"1d","validatorCount":8815,"avgCorrectness":0.9861981072657218,"avgInclusionDelay":1.039974089160472,"avgUptime":0.9993379971009008,"avgValidatorEffectiveness":95.85775195097273,"clientPercentages":[{"client":"Teku","percentage":0.9917963819941102},{"client":"Nimbus","percentage":0.007993268826251577},{"client":"Prysm","percentage":0.00021034917963819942}],"networkPenetration":0.022037885662999104},{"id":"Rocketpool","idType":"entity","timeWindow":"1d","validatorCount":5827,"avgCorrectness":0.9888315609550999,"avgInclusionDelay":1.0153234356584733,"avgUptime":0.986796677573748,"avgValidatorEffectiveness":96.93726559668045,"clientPercentages":[{"client":"Lighthouse","percentage":0.44271592934694537},{"client":"Nimbus","percentage":0.2550640090747043},{"client":"Prysm","percentage":0.060119915734889},{"client":"Teku","percentage":0.24210014584346135}],"networkPenetration":0.014562754848209843},{"id":"Staked.us","idType":"entity","timeWindow":"1d","validatorCount":5263,"avgCorrectness":0.9879090171924868,"avgInclusionDelay":1.0199762777739982,"avgUptime":0.9992429328435408,"avgValidatorEffectiveness":97.55728601285963,"clientPercentages":[{"client":"Prysm","percentage":0.4500330906684315},{"client":"Teku","percentage":0.49503639973527463},{"client":"Lighthouse","percentage":0.0013236267372600927},{"client":"Nimbus","percentage":0.053606882859033755}],"networkPenetration":0.013157730260279554},{"id":"f2pool.eth","idType":"entity","timeWindow":"1d","validatorCount":3501,"avgCorrectness":0.9856200754825336,"avgInclusionDelay":1.0536058124473124,"avgUptime":0.9991678568028186,"avgValidatorEffectiveness":94.8052287243832,"clientPercentages":[{"client":"Lighthouse","percentage":0.9995276334435522},{"client":"Nimbus","percentage":0.0004723665564478035}],"networkPenetration":0.0087526531714305},{"id":"Bitfinex","idType":"entity","timeWindow":"1d","validatorCount":3214,"avgCorrectness":0.9842981098853263,"avgInclusionDelay":1.0265909430203048,"avgUptime":0.9911207909838897,"avgValidatorEffectiveness":96.19894826164688,"clientPercentages":[{"client":"Lighthouse","percentage":0.0027427317608337905},{"client":"Prysm","percentage":0.8776741634668129},{"client":"Teku","percentage":0.015907844212835986},{"client":"Nimbus","percentage":0.10367526055951728}],"networkPenetration":0.008035140614960763},{"id":"Huobi","idType":"entity","timeWindow":"1d","validatorCount":2855,"avgCorrectness":0.986336051694272,"avgInclusionDelay":1.0206154265361334,"avgUptime":0.9997859505740405,"avgValidatorEffectiveness":97.44906716619231,"clientPercentages":[{"client":"Teku","percentage":0.016877637130801686},{"client":"Nimbus","percentage":0.09644364074743822},{"client":"Prysm","percentage":0.8842676311030742},{"client":"Lighthouse","percentage":0.0024110910186859553}],"networkPenetration":0.007137624908435897},{"id":"wedex.eth","idType":"entity","timeWindow":"1d","validatorCount":2399,"avgCorrectness":0.989152909316876,"avgInclusionDelay":1.0145041839705133,"avgUptime":0.9994896021490434,"avgValidatorEffectiveness":98.09421471580961,"clientPercentages":[{"client":"Lighthouse","percentage":1.0}],"networkPenetration":0.005997604958086766},{"id":"Bloxstaking","idType":"entity","timeWindow":"1d","validatorCount":2292,"avgCorrectness":0.9874912733196292,"avgInclusionDelay":1.01476069503161,"avgUptime":0.9999224355245296,"avgValidatorEffectiveness":98.00887616021731,"clientPercentages":[{"client":"Teku","percentage":0.010542168674698794},{"client":"Lighthouse","percentage":0.45180722891566266},{"client":"Prysm","percentage":0.5015060240963856},{"client":"Nimbus","percentage":0.03614457831325301}],"networkPenetration":0.005730100276754843},{"id":"Ankr","idType":"entity","timeWindow":"1d","validatorCount":2282,"avgCorrectness":0.9125146551732638,"avgInclusionDelay":1.2698346492175197,"avgUptime":0.9875810692375102,"avgValidatorEffectiveness":81.67532686618063,"clientPercentages":[{"client":"Prysm","percentage":0.887592788971368},{"client":"Teku","percentage":0.006362672322375398},{"client":"Nimbus","percentage":0.09650053022269353},{"client":"Lighthouse","percentage":0.009544008483563097}],"networkPenetration":0.0057050998392471864},{"id":"StakeWise","idType":"entity","timeWindow":"1d","validatorCount":1934,"avgCorrectness":0.9868482518029649,"avgInclusionDelay":1.0218484358963738,"avgUptime":0.9989449131210975,"avgValidatorEffectiveness":97.33944723876643,"clientPercentages":[{"client":"Lighthouse","percentage":0.5277246653919694},{"client":"Teku","percentage":0.04397705544933078},{"client":"Prysm","percentage":0.3795411089866157},{"client":"Nimbus","percentage":0.04875717017208413}],"networkPenetration":0.004832584570229979},{"id":"OKex","idType":"entity","timeWindow":"1d","validatorCount":1524,"avgCorrectness":0.9870473517243396,"avgInclusionDelay":1.0180620733008787,"avgUptime":0.9997562903256416,"avgValidatorEffectiveness":97.70850433540717,"clientPercentages":[{"client":"Nimbus","percentage":0.09518213866039953},{"client":"Teku","percentage":0.012925969447708578},{"client":"Prysm","percentage":0.8918918918918919}],"networkPenetration":0.003802566544914536}]}