{"page":{"from":0,"size":15},"total":30,"next":"/v0/eth/operators?window=1d&from=15&size=15&idType=entity","data":[{"id":"Lido","idType":"entity","timeWindow":"1d","validatorCount":129475,"avgCorrectness":0.9903076925506802,"avgInclusionDelay":1.0218984870242989,"avgUptime":0.9998809599225496,"avgValidatorEffectiveness":97.59745156226253,"clientPercentages":[{"client":"Nimbus","percentage":0.06436200112422709},{"client":"Teku","percentage":0.2215128884606119},{"client":"Prysm","percentage":0.36031478358628444},{"client":"Lighthouse","percentage":0.3538103268288766}],"networkPenetration":0.31415584510135586},{"id":"Coinbase","idType":"entity","timeWindow":"1d","validatorCount":55902,"avgCorrectness":0.9915536515333655,"avgInclusionDelay":1.0194899273099263,"avgUptime":0.9996924912644358,"avgValidatorEffectiveness":97.82726671885325,"clientPercentages":[{"client":"Nimbus","percentage":0.0904176282760583},{"client":"Lighthouse","percentage":0.3959406910941798},{"client":"Prysm","percentage":0.3733046694698239},{"client":"Teku","percentage":0.14033701115993805}],"networkPenetration":0.13560305098977585},{"id":"Kraken","idType":"entity","timeWindow":"1d","validatorCount":36095,"avgCorrectness":0.9859735243396338,"avgInclusionDelay":1.029510064204672,"avgUptime":0.9991012077910792,"avgValidatorEffectiveness":96.80890806969916,"clientPercentages":[{"client":"Teku","percentage":0.09004533616282434},{"client":"Prysm","percentage":0.5996913282531108},{"client":"Lighthouse","percentage":0.2649754027201698},{"client":"Nimbus","percentage":0.04528793286389505}],"networkPenetration":0.0875885483530431},{"id":"Binance","idType":"entity","timeWindow":"1d","validatorCount":21153,"avgCorrectness":0.9915357593402485,"avgInclusionDelay":1.018450173257688,"avgUptime":0.999809640870484,"avgValidatorEffectiveness":97.91976352374233,"clientPercentages":[{"client":"Lighthouse","percentage":0.34309868586255965},{"client":"Prysm","percentage":0.5864233698836528},{"client":"Nimbus","percentage":0.06721352640830335},{"client":"Teku","percentage":0.003264417845484222}],"networkPenetration":0.05133438333458719},{"id":"Bitcoin Suisse","idType":"entity","timeWindow":"1d","validatorCount":9000,"avgCorrectness":0.9899050082279743,"avgInclusionDelay":1.0380960524257512,"avgUptime":0.9991508641975307,"avgValidatorEffectiveness":96.19491526245764,"clientPercentages":[{"client":"Teku","percentage":0.9934552454282964},{"client":"Nimbus","percentage":0.0063522617901828685},{"client":"Prysm","percentage":0.00019249278152069297}],"networkPenetration":0.02184132038062141},{"id":"Rocketpool","idType":"entity","timeWindow":"1d","validatorCount":6567,"avgCorrectness":0.990219611473202,"avgInclusionDelay":1.0234881891999417,"avgUptime":0.9911529241679523,"avgValidatorEffectiveness":96.76452654944168,"clientPercentages":[{"client":"Teku","percentage":0.291220556745182},{"client":"Prysm","percentage":0.07037830121341898},{"client":"Nimbus","percentage":0.2328336902212705},{"client":"Lighthouse","percentage":0.4055674518201285}],"networkPenetration":0.015902908050468012},{"id":"Staked.us","idType":"entity","timeWindow":"1d","validatorCount":5263,"avgCorrectness":0.9911050273452601,"avgInclusionDelay":1.0185913969636093,"avgUptime":0.9994109823294699,"avgValidatorEffectiveness":97.85088240151782,"clientPercentages":[{"client":"Lighthouse","percentage":0.0019887305270135896},{"client":"Teku","percentage":0.5081206496519721},{"client":"Prysm","percentage":0.4461385482267153},{"client":"Nimbus","percentage":0.043752071594298975}],"networkPenetration":0.012772318795912275},{"id":"f2pool.eth","idType":"entity","timeWindow":"1d","validatorCount":3501,"avgCorrectness":0.9919337332190803,"avgInclusionDelay":1.018218286838681,"avgUptime":1.0,"avgValidatorEffectiveness":97.97753946488561,"clientPercentages":[{"client":"Lighthouse","percentage":1.0}],"networkPenetration":0.008496273628061728},{"id":"Bitfinex","idType":"entity","timeWindow":"1d","validatorCount":3214,"avgCorrectness":0.9896365382187126,"avgInclusionDelay":1.0214290372578159,"avgUptime":0.9965857705870154,"avgValidatorEffectiveness":97.38171924408314,"clientPercentages":[{"client":"Teku","percentage":0.01579520697167756},{"client":"Nimbus","percentage":0.09640522875816994},{"client":"Prysm","percentage":0.8850762527233116},{"client":"Lighthouse","percentage":0.0027233115468409588}],"networkPenetration":0.007799778189257468},{"id":"Huobi","idType":"entity","timeWindow":"1d","validatorCount":2855,"avgCorrectness":0.9909525121704785,"avgInclusionDelay":1.0194424075985509,"avgUptime":0.999934617629889,"avgValidatorEffectiveness":97.81658628567172,"clientPercentages":[{"client":"Lighthouse","percentage":0.0012004801920768306},{"client":"Nimbus","percentage":0.07923169267707082},{"client":"Teku","percentage":0.007202881152460984},{"client":"Prysm","percentage":0.9123649459783914}],"networkPenetration":0.006928552187408236},{"id":"wedex.eth","idType":"entity","timeWindow":"1d","validatorCount":2399,"avgCorrectness":0.9911367595818815,"avgInclusionDelay":1.0195770627919045,"avgUptime":0.999601685887639,"avgValidatorEffectiveness":97.78955052370225,"clientPercentages":[{"client":"Lighthouse","percentage":1.0}],"networkPenetration":0.005821925288123418},{"id":"Bloxstaking","idType":"entity","timeWindow":"1d","validatorCount":2351,"avgCorrectness":0.9899553571428571,"avgInclusionDelay":1.0214701876513317,"avgUptime":0.9996767333049763,"avgValidatorEffectiveness":97.57020309536536,"clientPercentages":[{"client":"Lighthouse","percentage":0.49852724594992637},{"client":"Nimbus","percentage":0.054491899852724596},{"client":"Teku","percentage":0.0014727540500736377},{"client":"Prysm","percentage":0.44550810014727543}],"networkPenetration":0.0057054382460934375},{"id":"Ankr","idType":"entity","timeWindow":"1d","validatorCount":2290,"avgCorrectness":0.8464207340876498,"avgInclusionDelay":1.598464594657678,"avgUptime":0.9520754929204704,"avgValidatorEffectiveness":63.72180991703615,"clientPercentages":[{"client":"Nimbus","percentage":0.07235421166306695},{"client":"Teku","percentage":0.004319654427645789},{"client":"Lighthouse","percentage":0.016198704103671708},{"client":"Prysm","percentage":0.9071274298056156}],"networkPenetration":0.005557402630180336},{"id":"StakeWise","idType":"entity","timeWindow":"1d","validatorCount":1979,"avgCorrectness":0.9906002368055072,"avgInclusionDelay":1.0260800600326674,"avgUptime":0.9995867722194149,"avgValidatorEffectiveness":97.33837130846359,"clientPercentages":[{"client":"Nimbus","percentage":0.04017467248908297},{"client":"Prysm","percentage":0.36069868995633186},{"client":"Lighthouse","percentage":0.5388646288209606},{"client":"Teku","percentage":0.06026200873362445}],"networkPenetration":0.004802663670361086},{"id":"OKex","idType":"entity","timeWindow":"1d","validatorCount":1721,"avgCorrectness":0.9909419985608481,"avgInclusionDelay":1.019438885781205,"avgUptime":0.9999251036369404,"avgValidatorEffectiveness":97.81590306330338,"clientPercentages":[{"client":"Lighthouse","percentage":0.0022396416573348264},{"client":"Teku","percentage":0.006718924972004479},{"client":"Nimbus","percentage":0.1019036954087346},{"client":"Prysm","percentage":0.8891377379619261}],"networkPenetration":0.004174119006074314}]}