{"page":{"from":0,"size":15},"total":36,"next":"/v0/eth/operators?window=1d&from=15&size=15&idType=entity","data":[{"id":"Lido","idType":"entity","timeWindow":"1d","validatorCount":139800,"avgCorrectness":0.9892935031181637,"avgInclusionDelay":1.0258366695991636,"avgUptime":0.9991561279535144,"avgValidatorEffectiveness":96.45488749138399,"clientPercentages":[{"client":"Nimbus","percentage":0.01863293804721268},{"client":"Lodestar","percentage":0.003989803834644797},{"client":"Prysm","percentage":0.3560207248143633},{"client":"Teku","percentage":0.1635681037348997},{"client":"Lighthouse","percentage":0.45778842956887955}],"networkPenetration":0.3047874585336946,"relayerPercentages":[{"relayer":"blocknative","percentage":0.0388798889146031},{"relayer":"bloxroute_ethical","percentage":0.052179279487772894},{"relayer":"bloxroute_maxprofit","percentage":0.039003317133379616},{"relayer":"bloxroute_regulated","percentage":0.012527964205816556},{"relayer":"edennetwork","percentage":0.052811849109002544},{"relayer":"flashbots","percentage":0.6015119956800123},{"relayer":"manifold","percentage":0.014873100362570392},{"relayer":"no_mev_boost","percentage":0.18796574866928953},{"relayer":"relayooor","percentage":0.0002468564375530356}],"nodeOperatorCount":29},{"id":"Coinbase","idType":"entity","timeWindow":"1d","validatorCount":54645,"avgCorrectness":0.988309507219851,"avgInclusionDelay":1.023575833445359,"avgUptime":0.9979772877461641,"avgValidatorEffectiveness":96.42074922956122,"clientPercentages":[{"client":"Prysm","percentage":0.3576168047581394},{"client":"Teku","percentage":0.20679341286485373},{"client":"Nimbus","percentage":0.0068415443325196825},{"client":"Lighthouse","percentage":0.42874823804448725}],"networkPenetration":0.11949512244723912,"relayerPercentages":[{"relayer":"bloxroute_ethical","percentage":0.0008440113557891506},{"relayer":"bloxroute_maxprofit","percentage":0.016304764827744955},{"relayer":"bloxroute_regulated","percentage":3.8364152535870484e-05},{"relayer":"flashbots","percentage":0.07177932939461368},{"relayer":"manifold","percentage":7.672830507174097e-05},{"relayer":"no_mev_boost","percentage":0.9109568019642446}],"nodeOperatorCount":null},{"id":"Kraken","idType":"entity","timeWindow":"1d","validatorCount":38066,"avgCorrectness":0.9893620272151761,"avgInclusionDelay":1.0214640007005937,"avgUptime":0.9976067759974212,"avgValidatorEffectiveness":96.67418692669396,"clientPercentages":[{"client":"Teku","percentage":0.052123837180686125},{"client":"Lighthouse","percentage":0.25358074518875817},{"client":"Prysm","percentage":0.6941969779002806},{"client":"Nimbus","percentage":9.843973027513905e-05}],"networkPenetration":0.08313160536104387,"relayerPercentages":[{"relayer":"blocknative","percentage":0.007914847161572052},{"relayer":"bloxroute_ethical","percentage":0.003111353711790393},{"relayer":"bloxroute_maxprofit","percentage":0.013100436681222707},{"relayer":"edennetwork","percentage":0.00796943231441048},{"relayer":"flashbots","percentage":0.4469978165938865},{"relayer":"manifold","percentage":0.00556768558951965},{"relayer":"no_mev_boost","percentage":0.5153384279475982}],"nodeOperatorCount":null},{"id":"Binance","idType":"entity","timeWindow":"1d","validatorCount":23826,"avgCorrectness":0.9905440404036635,"avgInclusionDelay":1.0186329065752335,"avgUptime":0.9999477694768564,"avgValidatorEffectiveness":97.27465045464795,"clientPercentages":[{"client":"Nimbus","percentage":0.0011181215557862791},{"client":"Teku","percentage":0.006069802731411229},{"client":"Prysm","percentage":0.5314272023001357},{"client":"Lighthouse","percentage":0.4613848734126667}],"networkPenetration":0.05210157905440423,"relayerPercentages":[{"relayer":"blocknative","percentage":0.0014841976602060416},{"relayer":"bloxroute_ethical","percentage":8.730574471800244e-05},{"relayer":"bloxroute_maxprofit","percentage":0.002968395320412083},{"relayer":"bloxroute_regulated","percentage":0.044525929806181246},{"relayer":"edennetwork","percentage":0.004103370001746115},{"relayer":"flashbots","percentage":0.7533612711716431},{"relayer":"no_mev_boost","percentage":0.19346953029509342}],"nodeOperatorCount":null},{"id":"Staked.us","idType":"entity","timeWindow":"1d","validatorCount":12841,"avgCorrectness":0.9891145329147868,"avgInclusionDelay":1.02121378486169,"avgUptime":0.9990601285811956,"avgValidatorEffectiveness":96.81525108623694,"clientPercentages":[{"client":"Teku","percentage":0.25857288778637094},{"client":"Nimbus","percentage":0.00029184298847220193},{"client":"Lighthouse","percentage":0.11148402159638114},{"client":"Prysm","percentage":0.6296512476287757}],"networkPenetration":0.028080096392076082,"relayerPercentages":[{"relayer":"blocknative","percentage":0.011730652041438147},{"relayer":"bloxroute_ethical","percentage":0.006855575868372943},{"relayer":"bloxroute_maxprofit","percentage":0.03351614868982328},{"relayer":"edennetwork","percentage":0.02254722730042657},{"relayer":"flashbots","percentage":0.5329067641681902},{"relayer":"manifold","percentage":0.003960999390615478},{"relayer":"no_mev_boost","percentage":0.38848263254113347}],"nodeOperatorCount":null},{"id":"Bitcoin Suisse","idType":"entity","timeWindow":"1d","validatorCount":9214,"avgCorrectness":0.9909164537754491,"avgInclusionDelay":1.0210198468244573,"avgUptime":0.9998555338494559,"avgValidatorEffectiveness":97.08605030999703,"clientPercentages":[{"client":"Prysm","percentage":0.0005914826498422713},{"client":"Teku","percentage":0.9743690851735016},{"client":"Lighthouse","percentage":0.0001971608832807571},{"client":"Nimbus","percentage":0.024842271293375396}],"networkPenetration":0.020148742944987853,"relayerPercentages":[{"relayer":"no_mev_boost","percentage":1.0}],"nodeOperatorCount":null},{"id":"Rocketpool","idType":"entity","timeWindow":"1d","validatorCount":9144,"avgCorrectness":0.9878823115798077,"avgInclusionDelay":1.026222335281137,"avgUptime":0.9884670562920802,"avgValidatorEffectiveness":95.31725092202176,"clientPercentages":[{"client":"Prysm","percentage":0.05160706201901313},{"client":"Lighthouse","percentage":0.4125169760072431},{"client":"Nimbus","percentage":0.1949977365323676},{"client":"Teku","percentage":0.3408782254413762}],"networkPenetration":0.01996724243875451,"relayerPercentages":[{"relayer":"blocknative","percentage":0.04996577686516085},{"relayer":"bloxroute_ethical","percentage":0.03810175678758841},{"relayer":"bloxroute_maxprofit","percentage":0.08213552361396304},{"relayer":"bloxroute_regulated","percentage":0.05156285649098791},{"relayer":"edennetwork","percentage":0.05224731918777093},{"relayer":"flashbots","percentage":0.5635409536846908},{"relayer":"manifold","percentage":0.0015970796258270592},{"relayer":"no_mev_boost","percentage":0.1601642710472279},{"relayer":"relayooor","percentage":0.0006844626967830253}],"nodeOperatorCount":1590},{"id":"Stakefish","idType":"entity","timeWindow":"1d","validatorCount":8077,"avgCorrectness":0.9876335877581691,"avgInclusionDelay":1.0414322602154478,"avgUptime":0.998246984164071,"avgValidatorEffectiveness":94.84181753716247,"clientPercentages":[{"client":"Prysm","percentage":0.000847816871555744},{"client":"Lighthouse","percentage":0.6877914370495973},{"client":"Nimbus","percentage":0.006570580754557015},{"client":"Teku","percentage":0.30479016532428993}],"networkPenetration":0.01763616364785403,"relayerPercentages":[{"relayer":"bloxroute_ethical","percentage":0.00044812906116961686},{"relayer":"bloxroute_maxprofit","percentage":0.003809097019941743},{"relayer":"bloxroute_regulated","percentage":0.00022406453058480843},{"relayer":"edennetwork","percentage":0.0008962581223392337},{"relayer":"flashbots","percentage":0.8953618642168945},{"relayer":"manifold","percentage":0.07528568227649562},{"relayer":"no_mev_boost","percentage":0.023974904772574503}],"nodeOperatorCount":null},{"id":"Celsius Network","idType":"entity","timeWindow":"1d","validatorCount":4943,"avgCorrectness":0.9907373563122788,"avgInclusionDelay":1.018286254309901,"avgUptime":0.9999500977813736,"avgValidatorEffectiveness":97.32537980566059,"clientPercentages":[{"client":"Teku","percentage":0.00603090840557859},{"client":"Lighthouse","percentage":0.004900113079532605},{"client":"Prysm","percentage":0.9890689785148888}],"networkPenetration":0.01080912050977588,"relayerPercentages":[{"relayer":"flashbots","percentage":0.9387587340731607},{"relayer":"no_mev_boost","percentage":0.061241265926839296}],"nodeOperatorCount":null},{"id":"Bitfinex","idType":"entity","timeWindow":"1d","validatorCount":3214,"avgCorrectness":0.9909052039575662,"avgInclusionDelay":1.0186727055854237,"avgUptime":0.9999135725644747,"avgValidatorEffectiveness":97.30201114678599,"clientPercentages":[{"client":"Lighthouse","percentage":0.0034602076124567475},{"client":"Prysm","percentage":0.9792387543252595},{"client":"Nimbus","percentage":0.0005767012687427913},{"client":"Teku","percentage":0.016724336793540944}],"networkPenetration":0.0070282244220958275,"relayerPercentages":[{"relayer":"blocknative","percentage":0.0012911555842479018},{"relayer":"bloxroute_maxprofit","percentage":0.0012911555842479018},{"relayer":"edennetwork","percentage":0.004519044544867657},{"relayer":"flashbots","percentage":0.8308586184635248},{"relayer":"no_mev_boost","percentage":0.1620400258231117}],"nodeOperatorCount":null},{"id":"Abyss","idType":"entity","timeWindow":"1d","validatorCount":2989,"avgCorrectness":0.9901487158551715,"avgInclusionDelay":1.021404694255437,"avgUptime":0.9966017997964931,"avgValidatorEffectiveness":96.67255622096744,"clientPercentages":[{"client":"Prysm","percentage":0.033630748112560054},{"client":"Lighthouse","percentage":0.08098833218943034},{"client":"Teku","percentage":0.8407687028140014},{"client":"Nimbus","percentage":0.04461221688400824}],"networkPenetration":0.006534018224400228,"relayerPercentages":[{"relayer":"blocknative","percentage":0.007168458781362007},{"relayer":"bloxroute_ethical","percentage":0.0064516129032258064},{"relayer":"bloxroute_maxprofit","percentage":0.02078853046594982},{"relayer":"bloxroute_regulated","percentage":0.014336917562724014},{"relayer":"edennetwork","percentage":0.014336917562724014},{"relayer":"flashbots","percentage":0.37921146953405016},{"relayer":"manifold","percentage":0.004301075268817204},{"relayer":"no_mev_boost","percentage":0.5512544802867384},{"relayer":"relayooor","percentage":0.002150537634408602}],"nodeOperatorCount":null},{"id":"Huobi","idType":"entity","timeWindow":"1d","validatorCount":2855,"avgCorrectness":0.9903032029710793,"avgInclusionDelay":1.0186058314670676,"avgUptime":0.9999229422066552,"avgValidatorEffectiveness":97.24875404251264,"clientPercentages":[{"client":"Prysm","percentage":0.981445937300064},{"client":"Teku","percentage":0.010876519513755598},{"client":"Lighthouse","percentage":0.007677543186180422}],"networkPenetration":0.006243180063809455,"relayerPercentages":[{"relayer":"blocknative","percentage":0.06031976744186047},{"relayer":"bloxroute_ethical","percentage":0.01744186046511628},{"relayer":"bloxroute_maxprofit","percentage":0.10973837209302326},{"relayer":"bloxroute_regulated","percentage":0.06031976744186047},{"relayer":"edennetwork","percentage":0.09520348837209303},{"relayer":"flashbots","percentage":0.596656976744186},{"relayer":"manifold","percentage":0.056686046511627904},{"relayer":"no_mev_boost","percentage":0.003633720930232558}],"nodeOperatorCount":null},{"id":"Bloxstaking","idType":"entity","timeWindow":"1d","validatorCount":2621,"avgCorrectness":0.9894931634355506,"avgInclusionDelay":1.0189220081005566,"avgUptime":0.9965590955028529,"avgValidatorEffectiveness":96.81243087285887,"clientPercentages":[{"client":"Lighthouse","percentage":0.3099236641221374},{"client":"Prysm","percentage":0.683969465648855},{"client":"Teku","percentage":0.0061068702290076335}],"networkPenetration":0.005729293088329517,"relayerPercentages":[{"relayer":"blocknative","percentage":0.051070840197693576},{"relayer":"bloxroute_ethical","percentage":0.0032948929159802307},{"relayer":"flashbots","percentage":0.929159802306425},{"relayer":"no_mev_boost","percentage":0.016474464579901153}],"nodeOperatorCount":null},{"id":"wedex.eth","idType":"entity","timeWindow":"1d","validatorCount":2399,"avgCorrectness":0.990331554408513,"avgInclusionDelay":1.0184892694797827,"avgUptime":0.999945347598536,"avgValidatorEffectiveness":97.26203014299655,"clientPercentages":[{"client":"Nimbus","percentage":0.006158583525789068},{"client":"Lighthouse","percentage":0.993841416474211}],"networkPenetration":0.005246020656069661,"relayerPercentages":[{"relayer":"blocknative","percentage":0.046153846153846156},{"relayer":"bloxroute_ethical","percentage":0.009401709401709401},{"relayer":"bloxroute_maxprofit","percentage":0.10427350427350428},{"relayer":"edennetwork","percentage":0.11965811965811966},{"relayer":"flashbots","percentage":0.5034188034188034},{"relayer":"manifold","percentage":0.04700854700854701},{"relayer":"no_mev_boost","percentage":0.1700854700854701}],"nodeOperatorCount":null},{"id":"Ankr","idType":"entity","timeWindow":"1d","validatorCount":2304,"avgCorrectness":0.9904149366647171,"avgInclusionDelay":1.0183597361710834,"avgUptime":0.9999720293209875,"avgValidatorEffectiveness":97.2907251890589,"clientPercentages":[{"client":"Prysm","percentage":0.162291169451074},{"client":"Lighthouse","percentage":0.8369132856006364},{"client":"Teku","percentage":0.0007955449482895784}],"networkPenetration":0.005038279112790538,"relayerPercentages":[{"relayer":"flashbots","percentage":0.15237226277372262},{"relayer":"no_mev_boost","percentage":0.8476277372262774}],"nodeOperatorCount":null}]}