{"page":{"from":0,"size":15},"total":31,"next":"/v0/eth/operators?window=1d&from=15&size=15&idType=entity","data":[{"id":"Lido","idType":"entity","timeWindow":"1d","validatorCount":128998,"avgCorrectness":0.9872971311377607,"avgInclusionDelay":1.0197058369513996,"avgUptime":0.9998539601959118,"avgValidatorEffectiveness":97.58094441356937,"clientPercentages":[{"client":"Prysm","percentage":0.35219787605861},{"client":"Nimbus","percentage":0.07909665277591074},{"client":"Teku","percentage":0.19212259712326926},{"client":"Lighthouse","percentage":0.37658287404220997}],"networkPenetration":0.31805382267219656},{"id":"Coinbase","idType":"entity","timeWindow":"1d","validatorCount":57289,"avgCorrectness":0.9867862126738156,"avgInclusionDelay":1.0219038529112263,"avgUptime":0.9998295953075307,"avgValidatorEffectiveness":97.3830993119753,"clientPercentages":[{"client":"Lighthouse","percentage":0.37403386087596613},{"client":"Prysm","percentage":0.363513679303153},{"client":"Nimbus","percentage":0.09274935590725064},{"client":"Teku","percentage":0.16970310391363022}],"networkPenetration":0.14125862400568112},{"id":"Kraken","idType":"entity","timeWindow":"1d","validatorCount":35800,"avgCorrectness":0.979620519547618,"avgInclusionDelay":1.03392691047412,"avgUptime":0.9987596549102604,"avgValidatorEffectiveness":96.1863768887311,"clientPercentages":[{"client":"Prysm","percentage":0.6030055442077619},{"client":"Teku","percentage":0.08695652173913043},{"client":"Lighthouse","percentage":0.26855364264176634},{"client":"Nimbus","percentage":0.04148429141134131}],"networkPenetration":0.0882644481376093},{"id":"Binance","idType":"entity","timeWindow":"1d","validatorCount":20810,"avgCorrectness":0.987491313894469,"avgInclusionDelay":1.0192533329175608,"avgUptime":0.999956537989212,"avgValidatorEffectiveness":97.63031640990098,"clientPercentages":[{"client":"Teku","percentage":0.008803554959335961},{"client":"Prysm","percentage":0.5931080741175484},{"client":"Lighthouse","percentage":0.3254800033537352},{"client":"Nimbus","percentage":0.0726083675693804}],"networkPenetration":0.0513125255822899},{"id":"Bitcoin Suisse","idType":"entity","timeWindow":"1d","validatorCount":9000,"avgCorrectness":0.9835506917781178,"avgInclusionDelay":1.0527987354775323,"avgUptime":0.9931822222222212,"avgValidatorEffectiveness":94.20698035370529,"clientPercentages":[{"client":"Nimbus","percentage":0.006906077348066298},{"client":"Teku","percentage":0.9928966061562746},{"client":"Prysm","percentage":0.0001973164956590371}],"networkPenetration":0.02219186594140361},{"id":"Rocketpool","idType":"entity","timeWindow":"1d","validatorCount":6201,"avgCorrectness":0.9862322530780594,"avgInclusionDelay":1.0229717674507637,"avgUptime":0.9927233951043963,"avgValidatorEffectiveness":96.66880629014567,"clientPercentages":[{"client":"Teku","percentage":0.267433179035389},{"client":"Prysm","percentage":0.05987755711512618},{"client":"Lighthouse","percentage":0.41735105271016876},{"client":"Nimbus","percentage":0.2553382111393161}],"networkPenetration":0.015285264107862332},{"id":"Staked.us","idType":"entity","timeWindow":"1d","validatorCount":5263,"avgCorrectness":0.9862031110370885,"avgInclusionDelay":1.021042068072853,"avgUptime":0.9988565879198591,"avgValidatorEffectiveness":97.32432076184047,"clientPercentages":[{"client":"Lighthouse","percentage":0.000967741935483871},{"client":"Nimbus","percentage":0.05838709677419355},{"client":"Teku","percentage":0.5096774193548387},{"client":"Prysm","percentage":0.4309677419354839}],"networkPenetration":0.012977310049956356},{"id":"f2pool.eth","idType":"entity","timeWindow":"1d","validatorCount":3501,"avgCorrectness":0.9882297046746673,"avgInclusionDelay":1.0183769833234844,"avgUptime":0.9999993652607188,"avgValidatorEffectiveness":97.75302601983708,"clientPercentages":[{"client":"Lighthouse","percentage":1.0}],"networkPenetration":0.008632635851206005},{"id":"Bitfinex","idType":"entity","timeWindow":"1d","validatorCount":3214,"avgCorrectness":0.9865332034319118,"avgInclusionDelay":1.0206012480313997,"avgUptime":0.9900124455507169,"avgValidatorEffectiveness":96.65369131035857,"clientPercentages":[{"client":"Lighthouse","percentage":0.0021493820526598604},{"client":"Prysm","percentage":0.8753358409457281},{"client":"Nimbus","percentage":0.10370768404083826},{"client":"Teku","percentage":0.018807092960773777}],"networkPenetration":0.007924961903963468},{"id":"Huobi","idType":"entity","timeWindow":"1d","validatorCount":2855,"avgCorrectness":0.9839169893052416,"avgInclusionDelay":1.0271841651867981,"avgUptime":0.9997750535123571,"avgValidatorEffectiveness":96.77376186444425,"clientPercentages":[{"client":"Prysm","percentage":0.886150234741784},{"client":"Nimbus","percentage":0.09800469483568075},{"client":"Teku","percentage":0.014084507042253521},{"client":"Lighthouse","percentage":0.0017605633802816902}],"networkPenetration":0.007039753029189701},{"id":"wedex.eth","idType":"entity","timeWindow":"1d","validatorCount":2399,"avgCorrectness":0.985822835247622,"avgInclusionDelay":1.0270839028322825,"avgUptime":0.9996433699226535,"avgValidatorEffectiveness":96.88109959110545,"clientPercentages":[{"client":"Lighthouse","percentage":1.0}],"networkPenetration":0.005915365154825251},{"id":"Bloxstaking","idType":"entity","timeWindow":"1d","validatorCount":2318,"avgCorrectness":0.9847731334468529,"avgInclusionDelay":1.0239416984981669,"avgUptime":0.9998964624676453,"avgValidatorEffectiveness":97.09395589809142,"clientPercentages":[{"client":"Nimbus","percentage":0.05139833711262283},{"client":"Prysm","percentage":0.43386243386243384},{"client":"Lighthouse","percentage":0.5064247921390779},{"client":"Teku","percentage":0.008314436885865457}],"networkPenetration":0.005715638361352619},{"id":"Ankr","idType":"entity","timeWindow":"1d","validatorCount":2287,"avgCorrectness":0.8340100175735907,"avgInclusionDelay":1.5900056210415017,"avgUptime":0.9300082592430645,"avgValidatorEffectiveness":63.92818053178463,"clientPercentages":[{"client":"Lighthouse","percentage":0.008238928939237899},{"client":"Teku","percentage":0.009268795056642637},{"client":"Nimbus","percentage":0.08341915550978372},{"client":"Prysm","percentage":0.8990731204943357}],"networkPenetration":0.005639199711998896},{"id":"StakeWise","idType":"entity","timeWindow":"1d","validatorCount":1975,"avgCorrectness":0.9877385499404681,"avgInclusionDelay":1.0207382866042913,"avgUptime":0.9998289732770753,"avgValidatorEffectiveness":97.5298356421926,"clientPercentages":[{"client":"Nimbus","percentage":0.04028648164726947},{"client":"Teku","percentage":0.049239033124440466},{"client":"Prysm","percentage":0.36436884512085943},{"client":"Lighthouse","percentage":0.5461056401074306}],"networkPenetration":0.004869881692696904},{"id":"OKex","idType":"entity","timeWindow":"1d","validatorCount":1548,"avgCorrectness":0.9820540411629999,"avgInclusionDelay":1.0333303642491618,"avgUptime":0.9992276772896931,"avgValidatorEffectiveness":96.13304291749091,"clientPercentages":[{"client":"Nimbus","percentage":0.1087912087912088},{"client":"Teku","percentage":0.017582417582417582},{"client":"Prysm","percentage":0.8736263736263736}],"networkPenetration":0.003817000941921421}]}