{"page":{"from":0,"size":15},"total":36,"next":"/v0/eth/operators?window=1d&from=15&size=15&idType=entity","data":[{"id":"Lido","idType":"entity","timeWindow":"1d","validatorCount":141942,"avgCorrectness":0.9889331338774325,"avgInclusionDelay":1.0220443234312706,"avgUptime":0.9987886262603844,"avgValidatorEffectiveness":96.75100165805371,"clientPercentages":[{"client":"Teku","percentage":0.1635681037348997},{"client":"Prysm","percentage":0.3560207248143633},{"client":"Nimbus","percentage":0.01863293804721268},{"client":"Lighthouse","percentage":0.45778842956887955},{"client":"Lodestar","percentage":0.003989803834644797}],"networkPenetration":0.3053789051816406,"relayerPercentages":[{"relayer":"no_mev_boost","percentage":0.008200455580865604},{"relayer":"manifold","percentage":0.004100227790432802},{"relayer":"bloxroute_ethical","percentage":0.04100227790432802},{"relayer":"flashbots","percentage":0.7439635535307517},{"relayer":"bloxroute_regulated","percentage":0.01275626423690205},{"relayer":"edennetwork","percentage":0.05649202733485194},{"relayer":"bloxroute_maxprofit","percentage":0.089749430523918},{"relayer":"blocknative","percentage":0.04373576309794989}],"nodeOperatorCount":29},{"id":"Coinbase","idType":"entity","timeWindow":"1d","validatorCount":54760,"avgCorrectness":0.9878893150910081,"avgInclusionDelay":1.019679734232884,"avgUptime":0.9988956741109166,"avgValidatorEffectiveness":96.8388336234029,"clientPercentages":[{"client":"Lighthouse","percentage":0.42874823804448725},{"client":"Teku","percentage":0.20679341286485373},{"client":"Prysm","percentage":0.3576168047581394},{"client":"Nimbus","percentage":0.0068415443325196825}],"networkPenetration":0.11776005650897704,"relayerPercentages":[{"relayer":"edennetwork","percentage":0.0013089005235602095},{"relayer":"bloxroute_regulated","percentage":0.0013089005235602095},{"relayer":"flashbots","percentage":0.7840314136125655},{"relayer":"bloxroute_ethical","percentage":0.014397905759162303},{"relayer":"bloxroute_maxprofit","percentage":0.18193717277486912},{"relayer":"no_mev_boost","percentage":0.017015706806282723}],"nodeOperatorCount":null},{"id":"Kraken","idType":"entity","timeWindow":"1d","validatorCount":38265,"avgCorrectness":0.9890538810802332,"avgInclusionDelay":1.0168798550943312,"avgUptime":0.999309616523408,"avgValidatorEffectiveness":97.24020729351626,"clientPercentages":[{"client":"Prysm","percentage":0.6941969779002806},{"client":"Nimbus","percentage":9.843973027513905e-05},{"client":"Lighthouse","percentage":0.25358074518875817},{"client":"Teku","percentage":0.052123837180686125}],"networkPenetration":0.08238810727230048,"relayerPercentages":[{"relayer":"flashbots","percentage":0.8695652173913043},{"relayer":"blocknative","percentage":0.010033444816053512},{"relayer":"bloxroute_maxprofit","percentage":0.09364548494983277},{"relayer":"edennetwork","percentage":0.010033444816053512},{"relayer":"manifold","percentage":0.008361204013377926},{"relayer":"no_mev_boost","percentage":0.008361204013377926}],"nodeOperatorCount":null},{"id":"Binance","idType":"entity","timeWindow":"1d","validatorCount":23826,"avgCorrectness":0.9909203235288448,"avgInclusionDelay":1.0128835717763554,"avgUptime":0.9999291157185908,"avgValidatorEffectiveness":97.84718403816039,"clientPercentages":[{"client":"Nimbus","percentage":0.0011182108626198084},{"client":"Prysm","percentage":0.5313897763578275},{"client":"Lighthouse","percentage":0.4614217252396166},{"client":"Teku","percentage":0.0060702875399361025}],"networkPenetration":0.051310323440673114,"relayerPercentages":[{"relayer":"no_mev_boost","percentage":0.05157593123209169},{"relayer":"bloxroute_regulated","percentage":0.06876790830945559},{"relayer":"edennetwork","percentage":0.025787965616045846},{"relayer":"blocknative","percentage":0.025787965616045846},{"relayer":"flashbots","percentage":0.8252148997134671},{"relayer":"bloxroute_maxprofit","percentage":0.0028653295128939827}],"nodeOperatorCount":null},{"id":"Staked.us","idType":"entity","timeWindow":"1d","validatorCount":12917,"avgCorrectness":0.9883768759931086,"avgInclusionDelay":1.0177503339875897,"avgUptime":0.9990455300078273,"avgValidatorEffectiveness":97.07240552288046,"clientPercentages":[{"client":"Lighthouse","percentage":0.11148402159638114},{"client":"Teku","percentage":0.25857288778637094},{"client":"Nimbus","percentage":0.00029184298847220193},{"client":"Prysm","percentage":0.6296512476287757}],"networkPenetration":0.02781731922618881,"relayerPercentages":[{"relayer":"blocknative","percentage":0.008658008658008658},{"relayer":"bloxroute_ethical","percentage":0.017316017316017316},{"relayer":"edennetwork","percentage":0.05194805194805195},{"relayer":"flashbots","percentage":0.4588744588744589},{"relayer":"bloxroute_maxprofit","percentage":0.3333333333333333},{"relayer":"manifold","percentage":0.03896103896103896},{"relayer":"no_mev_boost","percentage":0.09090909090909091}],"nodeOperatorCount":null},{"id":"Rocketpool","idType":"entity","timeWindow":"1d","validatorCount":9244,"avgCorrectness":0.988217515157151,"avgInclusionDelay":1.0208546232900888,"avgUptime":0.9884167508053265,"avgValidatorEffectiveness":95.81966601153908,"clientPercentages":[{"client":"Teku","percentage":0.3408782254413762},{"client":"Lighthouse","percentage":0.4125169760072431},{"client":"Nimbus","percentage":0.1949977365323676},{"client":"Prysm","percentage":0.05160706201901313}],"networkPenetration":0.01988151204584463,"relayerPercentages":[{"relayer":"relayooor","percentage":0.006578947368421052},{"relayer":"edennetwork","percentage":0.039473684210526314},{"relayer":"bloxroute_ethical","percentage":0.046052631578947366},{"relayer":"flashbots","percentage":0.625},{"relayer":"bloxroute_regulated","percentage":0.039473684210526314},{"relayer":"blocknative","percentage":0.02631578947368421},{"relayer":"no_mev_boost","percentage":0.08552631578947369},{"relayer":"bloxroute_maxprofit","percentage":0.13157894736842105}],"nodeOperatorCount":1618},{"id":"Bitcoin Suisse","idType":"entity","timeWindow":"1d","validatorCount":9214,"avgCorrectness":0.991203305407089,"avgInclusionDelay":1.0143653771828285,"avgUptime":0.9996782673709093,"avgValidatorEffectiveness":97.71442964296327,"clientPercentages":[{"client":"Nimbus","percentage":0.02484717018339578},{"client":"Prysm","percentage":0.0005915992900808519},{"client":"Teku","percentage":0.9743640307631631},{"client":"Lighthouse","percentage":0.00019719976336028398}],"networkPenetration":0.01984274826585923,"relayerPercentages":[{"relayer":"no_mev_boost","percentage":1.0}],"nodeOperatorCount":null},{"id":"Stakefish","idType":"entity","timeWindow":"1d","validatorCount":8078,"avgCorrectness":0.9871587924263319,"avgInclusionDelay":1.0416438026447554,"avgUptime":0.9966350306731597,"avgValidatorEffectiveness":94.66052997030172,"clientPercentages":[{"client":"Nimbus","percentage":0.006570580754557015},{"client":"Lighthouse","percentage":0.6877914370495973},{"client":"Teku","percentage":0.30479016532428993},{"client":"Prysm","percentage":0.000847816871555744}],"networkPenetration":0.017396323040114053,"relayerPercentages":[{"relayer":"no_mev_boost","percentage":0.037267080745341616},{"relayer":"bloxroute_maxprofit","percentage":0.024844720496894408},{"relayer":"relayooor","percentage":0.018633540372670808},{"relayer":"flashbots","percentage":0.906832298136646},{"relayer":"manifold","percentage":0.006211180124223602},{"relayer":"edennetwork","percentage":0.006211180124223602}],"nodeOperatorCount":null},{"id":"Celsius Network","idType":"entity","timeWindow":"1d","validatorCount":4943,"avgCorrectness":0.9907842941544441,"avgInclusionDelay":1.0128838840846084,"avgUptime":0.9999208757614586,"avgValidatorEffectiveness":97.83516259934355,"clientPercentages":[{"client":"Prysm","percentage":0.9890689785148888},{"client":"Lighthouse","percentage":0.004900113079532605},{"client":"Teku","percentage":0.00603090840557859}],"networkPenetration":0.010644964692657063,"relayerPercentages":[{"relayer":"flashbots","percentage":0.9036144578313253},{"relayer":"no_mev_boost","percentage":0.0963855421686747}],"nodeOperatorCount":null},{"id":"Bitfinex","idType":"entity","timeWindow":"1d","validatorCount":3214,"avgCorrectness":0.9914328494718829,"avgInclusionDelay":1.0134357297751815,"avgUptime":0.9998921385604653,"avgValidatorEffectiveness":97.84245993208341,"clientPercentages":[{"client":"Prysm","percentage":0.9792267743796884},{"client":"Nimbus","percentage":0.0005770340450086555},{"client":"Lighthouse","percentage":0.003462204270051933},{"client":"Teku","percentage":0.01673398730525101}],"networkPenetration":0.006921488270726239,"relayerPercentages":[{"relayer":"bloxroute_maxprofit","percentage":0.022222222222222223},{"relayer":"flashbots","percentage":0.9777777777777777}],"nodeOperatorCount":null},{"id":"Abyss","idType":"entity","timeWindow":"1d","validatorCount":3074,"avgCorrectness":0.9906086339681868,"avgInclusionDelay":1.0166783122504777,"avgUptime":0.9981363406347139,"avgValidatorEffectiveness":97.30873392262576,"clientPercentages":[{"client":"Nimbus","percentage":0.04461221688400824},{"client":"Lighthouse","percentage":0.08098833218943034},{"client":"Teku","percentage":0.8407687028140014},{"client":"Prysm","percentage":0.033630748112560054}],"networkPenetration":0.006611378030843048,"relayerPercentages":[{"relayer":"no_mev_boost","percentage":0.42592592592592593},{"relayer":"bloxroute_ethical","percentage":0.037037037037037035},{"relayer":"bloxroute_regulated","percentage":0.037037037037037035},{"relayer":"flashbots","percentage":0.4074074074074074},{"relayer":"bloxroute_maxprofit","percentage":0.018518518518518517},{"relayer":"relayooor","percentage":0.05555555555555555},{"relayer":"blocknative","percentage":0.018518518518518517}],"nodeOperatorCount":null},{"id":"Huobi","idType":"entity","timeWindow":"1d","validatorCount":2855,"avgCorrectness":0.9898638724978852,"avgInclusionDelay":1.013367793364368,"avgUptime":0.9998676785366808,"avgValidatorEffectiveness":97.69406382625723,"clientPercentages":[{"client":"Lighthouse","percentage":0.007677543186180422},{"client":"Teku","percentage":0.010876519513755598},{"client":"Prysm","percentage":0.981445937300064}],"networkPenetration":0.006148366214350782,"relayerPercentages":[{"relayer":"edennetwork","percentage":0.09523809523809523},{"relayer":"bloxroute_maxprofit","percentage":0.14285714285714285},{"relayer":"bloxroute_regulated","percentage":0.07142857142857142},{"relayer":"flashbots","percentage":0.6428571428571429},{"relayer":"blocknative","percentage":0.047619047619047616}],"nodeOperatorCount":null},{"id":"Bloxstaking","idType":"entity","timeWindow":"1d","validatorCount":2687,"avgCorrectness":0.9902692658666159,"avgInclusionDelay":1.013044521086106,"avgUptime":0.9999503783649673,"avgValidatorEffectiveness":97.7693643327865,"clientPercentages":[{"client":"Teku","percentage":0.007598784194528876},{"client":"Prysm","percentage":0.6838905775075987},{"client":"Lighthouse","percentage":0.30851063829787234}],"networkPenetration":0.0057865709344870585,"relayerPercentages":[{"relayer":"blocknative","percentage":0.06},{"relayer":"flashbots","percentage":0.94}],"nodeOperatorCount":null},{"id":"wedex.eth","idType":"entity","timeWindow":"1d","validatorCount":2399,"avgCorrectness":0.9893774763155209,"avgInclusionDelay":1.0141856343543254,"avgUptime":0.9982955861238471,"avgValidatorEffectiveness":97.41829679302552,"clientPercentages":[{"client":"Lighthouse","percentage":0.993841416474211},{"client":"Nimbus","percentage":0.006158583525789068}],"networkPenetration":0.005166350454720674,"relayerPercentages":[{"relayer":"blocknative","percentage":0.029411764705882353},{"relayer":"edennetwork","percentage":0.029411764705882353},{"relayer":"flashbots","percentage":0.6470588235294118},{"relayer":"no_mev_boost","percentage":0.11764705882352941},{"relayer":"bloxroute_maxprofit","percentage":0.17647058823529413}],"nodeOperatorCount":null},{"id":"Ankr","idType":"entity","timeWindow":"1d","validatorCount":2304,"avgCorrectness":0.9909974561383202,"avgInclusionDelay":1.0123849281982824,"avgUptime":0.9999459876543216,"avgValidatorEffectiveness":97.9039081229413,"clientPercentages":[{"client":"Prysm","percentage":0.162291169451074},{"client":"Lighthouse","percentage":0.8369132856006364},{"client":"Teku","percentage":0.0007955449482895784}],"networkPenetration":0.004961763838131069,"relayerPercentages":[{"relayer":"no_mev_boost","percentage":0.7837837837837838},{"relayer":"flashbots","percentage":0.1891891891891892},{"relayer":"bloxroute_regulated","percentage":0.02702702702702703}],"nodeOperatorCount":null}]}