{"page":{"from":0,"size":15},"total":30,"next":"/v0/eth/operators?window=1d&from=15&size=15&idType=entity","data":[{"id":"Lido","idType":"entity","timeWindow":"1d","validatorCount":131067,"avgCorrectness":0.9887517522963397,"avgInclusionDelay":1.0324703867295093,"avgUptime":0.9988344098182041,"avgValidatorEffectiveness":96.57933778194311,"clientPercentages":[{"client":"Lighthouse","percentage":0.3503037354727856},{"client":"Lodestar","percentage":0.00037882375224926605},{"client":"Prysm","percentage":0.40259494270290747},{"client":"Teku","percentage":0.22193660113917715},{"client":"Nimbus","percentage":0.02478589693288055}],"networkPenetration":0.3030575372926897},{"id":"Coinbase","idType":"entity","timeWindow":"1d","validatorCount":54662,"avgCorrectness":0.9876208588424722,"avgInclusionDelay":1.0295438785677489,"avgUptime":0.9989692310541577,"avgValidatorEffectiveness":96.74123894616955,"clientPercentages":[{"client":"Prysm","percentage":0.38444243095405883},{"client":"Lighthouse","percentage":0.42602100741635623},{"client":"Teku","percentage":0.13399778516057587},{"client":"Nimbus","percentage":0.055538776469009024}],"networkPenetration":0.12661215602705458},{"id":"Kraken","idType":"entity","timeWindow":"1d","validatorCount":37212,"avgCorrectness":0.9892605044670956,"avgInclusionDelay":1.0261900879373644,"avgUptime":0.9990025457674072,"avgValidatorEffectiveness":97.09656870599642,"clientPercentages":[{"client":"Teku","percentage":0.0939898624185373},{"client":"Prysm","percentage":0.6236543567463191},{"client":"Lighthouse","percentage":0.26280473087134926},{"client":"Nimbus","percentage":0.01955104996379435}],"networkPenetration":0.0861484295376633},{"id":"Binance","idType":"entity","timeWindow":"1d","validatorCount":22496,"avgCorrectness":0.9904297107416616,"avgInclusionDelay":1.0252333592544522,"avgUptime":0.999545171346159,"avgValidatorEffectiveness":97.29175040837649,"clientPercentages":[{"client":"Lighthouse","percentage":0.35769518583187826},{"client":"Nimbus","percentage":0.030764114076660846},{"client":"Prysm","percentage":0.6109586763116321},{"client":"Teku","percentage":0.0005820237798287187}],"networkPenetration":0.05210784767905124},{"id":"Bitcoin Suisse","idType":"entity","timeWindow":"1d","validatorCount":9153,"avgCorrectness":0.9916420887626235,"avgInclusionDelay":1.0280762939799655,"avgUptime":0.9994020560899595,"avgValidatorEffectiveness":97.10825137570419,"clientPercentages":[{"client":"Teku","percentage":0.9935897435897436},{"client":"Nimbus","percentage":0.00641025641025641}],"networkPenetration":0.021131752061521358},{"id":"Rocketpool","idType":"entity","timeWindow":"1d","validatorCount":7859,"avgCorrectness":0.9816259814810265,"avgInclusionDelay":1.0421745269452942,"avgUptime":0.9827055573137796,"avgValidatorEffectiveness":94.29211941401455,"clientPercentages":[{"client":"Prysm","percentage":0.053901091497102815},{"client":"Lighthouse","percentage":0.4175987063738041},{"client":"Teku","percentage":0.3027893814849751},{"client":"Nimbus","percentage":0.22571082064411804}],"networkPenetration":0.01814138793662559},{"id":"Staked.us","idType":"entity","timeWindow":"1d","validatorCount":5263,"avgCorrectness":0.9878071174193527,"avgInclusionDelay":1.0281298379627573,"avgUptime":0.9980225891895809,"avgValidatorEffectiveness":96.77296731059529,"clientPercentages":[{"client":"Nimbus","percentage":0.02821210061182869},{"client":"Prysm","percentage":0.47178789938817134},{"client":"Lighthouse","percentage":0.005778382053025153},{"client":"Teku","percentage":0.49422161794697483}],"networkPenetration":0.01219077179653479},{"id":"f2pool.eth","idType":"entity","timeWindow":"1d","validatorCount":3501,"avgCorrectness":0.98883744620456,"avgInclusionDelay":1.0359017794463266,"avgUptime":0.998264520794512,"avgValidatorEffectiveness":96.23792696042557,"clientPercentages":[{"client":"Lighthouse","percentage":0.986387943607195},{"client":"Prysm","percentage":0.013612056392805057}],"networkPenetration":0.008109422774020198},{"id":"Bitfinex","idType":"entity","timeWindow":"1d","validatorCount":3214,"avgCorrectness":0.9917650629669335,"avgInclusionDelay":1.023017076917853,"avgUptime":0.9978275229403111,"avgValidatorEffectiveness":97.39141246271105,"clientPercentages":[{"client":"Lighthouse","percentage":0.004501969611705121},{"client":"Teku","percentage":0.012380416432189083},{"client":"Prysm","percentage":0.943725379853686},{"client":"Nimbus","percentage":0.03939223410241981}],"networkPenetration":0.0074446400444732694},{"id":"Huobi","idType":"entity","timeWindow":"1d","validatorCount":2855,"avgCorrectness":0.9907473592248431,"avgInclusionDelay":1.0221898305823798,"avgUptime":0.9997065507463934,"avgValidatorEffectiveness":97.55594579367356,"clientPercentages":[{"client":"Lighthouse","percentage":0.0006075334143377885},{"client":"Prysm","percentage":0.9520048602673147},{"client":"Teku","percentage":0.002430133657351154},{"client":"Nimbus","percentage":0.04495747266099635}],"networkPenetration":0.006613082553506903},{"id":"Bloxstaking","idType":"entity","timeWindow":"1d","validatorCount":2505,"avgCorrectness":0.9883212977917785,"avgInclusionDelay":1.0261204622003905,"avgUptime":0.9994048581497388,"avgValidatorEffectiveness":97.07231126759717,"clientPercentages":[{"client":"Nimbus","percentage":0.02389843166542196},{"client":"Lighthouse","percentage":0.4876773711725168},{"client":"Teku","percentage":0.0022404779686333084},{"client":"Prysm","percentage":0.48618371919342795}],"networkPenetration":0.005786157694802186},{"id":"wedex.eth","idType":"entity","timeWindow":"1d","validatorCount":2399,"avgCorrectness":0.9763251835387621,"avgInclusionDelay":1.0696306025160338,"avgUptime":0.9902889638209045,"avgValidatorEffectiveness":92.32688059401221,"clientPercentages":[{"client":"Lighthouse","percentage":1.0}],"networkPenetration":0.0055568423978504585},{"id":"Ankr","idType":"entity","timeWindow":"1d","validatorCount":2298,"avgCorrectness":0.9900851845116255,"avgInclusionDelay":1.0227471472958802,"avgUptime":0.9997243937101954,"avgValidatorEffectiveness":97.47436294379892,"clientPercentages":[{"client":"Teku","percentage":0.006066734074823054},{"client":"Prysm","percentage":0.9464105156723963},{"client":"Nimbus","percentage":0.03640040444893832},{"client":"Lighthouse","percentage":0.011122345803842264}],"networkPenetration":0.0053228944686370796},{"id":"StakeWise","idType":"entity","timeWindow":"1d","validatorCount":1987,"avgCorrectness":0.9891257759509211,"avgInclusionDelay":1.0287360630989244,"avgUptime":0.9994463317116801,"avgValidatorEffectiveness":96.93820465982814,"clientPercentages":[{"client":"Prysm","percentage":0.3850877192982456},{"client":"Lighthouse","percentage":0.5298245614035088},{"client":"Nimbus","percentage":0.02456140350877193},{"client":"Teku","percentage":0.060526315789473685}],"networkPenetration":0.004602520151950338},{"id":"OKex","idType":"entity","timeWindow":"1d","validatorCount":1782,"avgCorrectness":0.9902031124763717,"avgInclusionDelay":1.0224486135343929,"avgUptime":0.999837417270484,"avgValidatorEffectiveness":97.51555171431755,"clientPercentages":[{"client":"Teku","percentage":0.002098635886673662},{"client":"Prysm","percentage":0.9401888772298006},{"client":"Lighthouse","percentage":0.012591815320041973},{"client":"Nimbus","percentage":0.04512067156348373}],"networkPenetration":0.004099879551561197}]}