{"page":{"from":0,"size":15},"total":36,"next":"/v0/eth/operators?window=1d&from=15&size=15&idType=entity","data":[{"id":"Lido","idType":"entity","timeWindow":"1d","validatorCount":135691,"avgCorrectness":0.9895837156239662,"avgInclusionDelay":1.029311652080063,"avgUptime":0.9985507485223668,"avgValidatorEffectiveness":96.13210825795457,"clientPercentages":[{"client":"Lighthouse","percentage":0.45778842956887955},{"client":"Prysm","percentage":0.3560207248143633},{"client":"Nimbus","percentage":0.01863293804721268},{"client":"Teku","percentage":0.1635681037348997},{"client":"Lodestar","percentage":0.003989803834644797}],"networkPenetration":0.29927145026238444,"relayerPercentages":[{"relayer":"manifold","percentage":0.01912375578023356},{"relayer":"bloxroute_regulated","percentage":0.011725056822635003},{"relayer":"bloxroute_ethical","percentage":0.05036444862450035},{"relayer":"no_mev_boost","percentage":0.28116623559840115},{"relayer":"blocknative","percentage":0.03569245238655067},{"relayer":"edennetwork","percentage":0.03733834940042323},{"relayer":"flashbots","percentage":0.526765420487499},{"relayer":"bloxroute_maxprofit","percentage":0.037824280899757035}],"nodeOperatorCount":29},{"id":"Coinbase","idType":"entity","timeWindow":"1d","validatorCount":54468,"avgCorrectness":0.9881700524678266,"avgInclusionDelay":1.028654665274961,"avgUptime":0.998834068583736,"avgValidatorEffectiveness":96.06548243463422,"clientPercentages":[{"client":"Teku","percentage":0.20678630363036304},{"client":"Lighthouse","percentage":0.428733498349835},{"client":"Nimbus","percentage":0.006841309130913091},{"client":"Prysm","percentage":0.3576388888888889}],"networkPenetration":0.12090995462657941,"relayerPercentages":[{"relayer":"bloxroute_regulated","percentage":3.873266713145867e-05},{"relayer":"bloxroute_maxprofit","percentage":0.0026725540320706484},{"relayer":"bloxroute_ethical","percentage":3.873266713145867e-05},{"relayer":"flashbots","percentage":0.015376868851189093},{"relayer":"manifold","percentage":7.746533426291734e-05},{"relayer":"no_mev_boost","percentage":0.9817956464482144}],"nodeOperatorCount":null},{"id":"Kraken","idType":"entity","timeWindow":"1d","validatorCount":37916,"avgCorrectness":0.9895216025242255,"avgInclusionDelay":1.0255111470886207,"avgUptime":0.999386384653774,"avgValidatorEffectiveness":96.52633845117927,"clientPercentages":[{"client":"Lighthouse","percentage":0.25358074518875817},{"client":"Nimbus","percentage":9.843973027513905e-05},{"client":"Prysm","percentage":0.6941969779002806},{"client":"Teku","percentage":0.052123837180686125}],"networkPenetration":0.08413173386846148,"relayerPercentages":[{"relayer":"edennetwork","percentage":0.003639973527465255},{"relayer":"manifold","percentage":0.003915729097727774},{"relayer":"bloxroute_ethical","percentage":0.0022060445621001545},{"relayer":"bloxroute_maxprofit","percentage":0.0071696448268255015},{"relayer":"flashbots","percentage":0.4383962056033532},{"relayer":"no_mev_boost","percentage":0.5370615486432826},{"relayer":"blocknative","percentage":0.007610853739245533}],"nodeOperatorCount":null},{"id":"Binance","idType":"entity","timeWindow":"1d","validatorCount":23826,"avgCorrectness":0.9908027375241852,"avgInclusionDelay":1.0225058120235135,"avgUptime":0.9997510510226906,"avgValidatorEffectiveness":96.95584048294975,"clientPercentages":[{"client":"Prysm","percentage":0.5314272023001357},{"client":"Nimbus","percentage":0.0011181215557862791},{"client":"Teku","percentage":0.006069802731411229},{"client":"Lighthouse","percentage":0.4613848734126667}],"networkPenetration":0.052889780769128314,"relayerPercentages":[{"relayer":"bloxroute_ethical","percentage":8.880994671403197e-05},{"relayer":"edennetwork","percentage":0.004262877442273535},{"relayer":"bloxroute_maxprofit","percentage":0.005950266429840142},{"relayer":"bloxroute_regulated","percentage":0.03534635879218472},{"relayer":"no_mev_boost","percentage":0.3465364120781528},{"relayer":"blocknative","percentage":0.002220248667850799},{"relayer":"flashbots","percentage":0.605595026642984}],"nodeOperatorCount":null},{"id":"Staked.us","idType":"entity","timeWindow":"1d","validatorCount":12762,"avgCorrectness":0.9891514268853869,"avgInclusionDelay":1.0259771337874017,"avgUptime":0.9990740620757301,"avgValidatorEffectiveness":96.42274203614753,"clientPercentages":[{"client":"Nimbus","percentage":0.00029184298847220193},{"client":"Prysm","percentage":0.6296512476287757},{"client":"Teku","percentage":0.25857288778637094},{"client":"Lighthouse","percentage":0.11148402159638114}],"networkPenetration":0.028329530016604362,"relayerPercentages":[{"relayer":"blocknative","percentage":0.002501954652071931},{"relayer":"bloxroute_ethical","percentage":0.0001563721657544957},{"relayer":"no_mev_boost","percentage":0.41266614542611413},{"relayer":"bloxroute_maxprofit","percentage":0.002501954652071931},{"relayer":"edennetwork","percentage":0.006254886630179828},{"relayer":"flashbots","percentage":0.5707584050039093},{"relayer":"manifold","percentage":0.005160281469898358}],"nodeOperatorCount":null},{"id":"Bitcoin Suisse","idType":"entity","timeWindow":"1d","validatorCount":9214,"avgCorrectness":0.9912341600308939,"avgInclusionDelay":1.0247763133859176,"avgUptime":0.9995318448720198,"avgValidatorEffectiveness":96.77056617192332,"clientPercentages":[{"client":"Prysm","percentage":0.0005914826498422713},{"client":"Nimbus","percentage":0.024842271293375396},{"client":"Teku","percentage":0.9743690851735016},{"client":"Lighthouse","percentage":0.0001971608832807571}],"networkPenetration":0.02045355661910301,"relayerPercentages":[{"relayer":"no_mev_boost","percentage":1.0}],"nodeOperatorCount":null},{"id":"Rocketpool","idType":"entity","timeWindow":"1d","validatorCount":9070,"avgCorrectness":0.9874171453401912,"avgInclusionDelay":1.031519727008406,"avgUptime":0.9890598030017868,"avgValidatorEffectiveness":94.92156571117243,"clientPercentages":[{"client":"Teku","percentage":0.3408782254413762},{"client":"Nimbus","percentage":0.1949977365323676},{"client":"Lighthouse","percentage":0.4125169760072431},{"client":"Prysm","percentage":0.05160706201901313}],"networkPenetration":0.020098383072428765,"relayerPercentages":[{"relayer":"bloxroute_maxprofit","percentage":0.08908045977011494},{"relayer":"no_mev_boost","percentage":0.17696360153256704},{"relayer":"manifold","percentage":0.0019157088122605363},{"relayer":"bloxroute_ethical","percentage":0.036877394636015325},{"relayer":"bloxroute_regulated","percentage":0.06226053639846743},{"relayer":"flashbots","percentage":0.5363984674329502},{"relayer":"blocknative","percentage":0.05387931034482758},{"relayer":"edennetwork","percentage":0.042624521072796934}],"nodeOperatorCount":1574},{"id":"Stakefish","idType":"entity","timeWindow":"1d","validatorCount":8059,"avgCorrectness":0.9869173348700305,"avgInclusionDelay":1.0543779003178286,"avgUptime":0.997269987512728,"avgValidatorEffectiveness":93.65404275885928,"clientPercentages":[{"client":"Lighthouse","percentage":0.6877914370495973},{"client":"Teku","percentage":0.30479016532428993},{"client":"Prysm","percentage":0.000847816871555744},{"client":"Nimbus","percentage":0.006570580754557015}],"networkPenetration":0.01788964757904831,"relayerPercentages":[{"relayer":"bloxroute_ethical","percentage":0.00022547914317925591},{"relayer":"manifold","percentage":0.08658399098083427},{"relayer":"bloxroute_regulated","percentage":0.00022547914317925591},{"relayer":"no_mev_boost","percentage":0.020067643742953778},{"relayer":"flashbots","percentage":0.8915445321307779},{"relayer":"bloxroute_maxprofit","percentage":0.0013528748590755355}],"nodeOperatorCount":null},{"id":"Celsius Network","idType":"entity","timeWindow":"1d","validatorCount":4943,"avgCorrectness":0.9909419369267882,"avgInclusionDelay":1.022385754135804,"avgUptime":0.9997689072088489,"avgValidatorEffectiveness":96.979745654721,"clientPercentages":[{"client":"Lighthouse","percentage":0.004900113079532605},{"client":"Prysm","percentage":0.9890689785148888},{"client":"Teku","percentage":0.00603090840557859}],"networkPenetration":0.010972642757567416,"relayerPercentages":[{"relayer":"flashbots","percentage":0.951310861423221},{"relayer":"no_mev_boost","percentage":0.04868913857677903}],"nodeOperatorCount":null},{"id":"Bitfinex","idType":"entity","timeWindow":"1d","validatorCount":3214,"avgCorrectness":0.9912045061257914,"avgInclusionDelay":1.0222408348284129,"avgUptime":0.99975935823925,"avgValidatorEffectiveness":97.01514725721236,"clientPercentages":[{"client":"Lighthouse","percentage":0.0034602076124567475},{"client":"Teku","percentage":0.016724336793540944},{"client":"Nimbus","percentage":0.0005767012687427913},{"client":"Prysm","percentage":0.9792387543252595}],"networkPenetration":0.00713454861881887,"relayerPercentages":[{"relayer":"no_mev_boost","percentage":0.3761118170266836},{"relayer":"bloxroute_maxprofit","percentage":0.0012706480304955528},{"relayer":"flashbots","percentage":0.6207115628970775},{"relayer":"edennetwork","percentage":0.0019059720457433292}],"nodeOperatorCount":null},{"id":"Huobi","idType":"entity","timeWindow":"1d","validatorCount":2855,"avgCorrectness":0.9905036868970397,"avgInclusionDelay":1.022761408150442,"avgUptime":0.9997353327495615,"avgValidatorEffectiveness":96.90235029521187,"clientPercentages":[{"client":"Prysm","percentage":0.981445937300064},{"client":"Lighthouse","percentage":0.007677543186180422},{"client":"Teku","percentage":0.010876519513755598}],"networkPenetration":0.006337627973468536,"relayerPercentages":[{"relayer":"blocknative","percentage":0.05683453237410072},{"relayer":"bloxroute_ethical","percentage":0.04964028776978417},{"relayer":"bloxroute_regulated","percentage":0.05755395683453238},{"relayer":"edennetwork","percentage":0.09784172661870504},{"relayer":"no_mev_boost","percentage":0.016546762589928057},{"relayer":"bloxroute_maxprofit","percentage":0.09640287769784173},{"relayer":"manifold","percentage":0.05683453237410072},{"relayer":"flashbots","percentage":0.5683453237410072}],"nodeOperatorCount":null},{"id":"Abyss","idType":"entity","timeWindow":"1d","validatorCount":2837,"avgCorrectness":0.9902687671346181,"avgInclusionDelay":1.0253413051023406,"avgUptime":0.9986990364767843,"avgValidatorEffectiveness":96.55195993882663,"clientPercentages":[{"client":"Prysm","percentage":0.033630748112560054},{"client":"Teku","percentage":0.8407687028140014},{"client":"Lighthouse","percentage":0.08098833218943034},{"client":"Nimbus","percentage":0.04461221688400824}],"networkPenetration":0.006291011445467541,"relayerPercentages":[{"relayer":"bloxroute_maxprofit","percentage":0.02269503546099291},{"relayer":"blocknative","percentage":0.006382978723404255},{"relayer":"flashbots","percentage":0.35390070921985817},{"relayer":"manifold","percentage":0.00425531914893617},{"relayer":"bloxroute_ethical","percentage":0.006382978723404255},{"relayer":"no_mev_boost","percentage":0.5780141843971631},{"relayer":"edennetwork","percentage":0.014184397163120567},{"relayer":"bloxroute_regulated","percentage":0.014184397163120567}],"nodeOperatorCount":null},{"id":"Bloxstaking","idType":"entity","timeWindow":"1d","validatorCount":2587,"avgCorrectness":0.9899589314969117,"avgInclusionDelay":1.022381388696449,"avgUptime":0.9997431334020523,"avgValidatorEffectiveness":96.87727243798935,"clientPercentages":[{"client":"Teku","percentage":0.006046863189720333},{"client":"Lighthouse","percentage":0.30839002267573695},{"client":"Prysm","percentage":0.6855631141345427}],"networkPenetration":0.005742712282789178,"relayerPercentages":[{"relayer":"bloxroute_ethical","percentage":0.0032414910858995136},{"relayer":"blocknative","percentage":0.04457050243111831},{"relayer":"no_mev_boost","percentage":0.01539708265802269},{"relayer":"flashbots","percentage":0.9367909238249594}],"nodeOperatorCount":null},{"id":"wedex.eth","idType":"entity","timeWindow":"1d","validatorCount":2399,"avgCorrectness":0.9892580658141961,"avgInclusionDelay":1.0235822336958036,"avgUptime":0.9975923706637024,"avgValidatorEffectiveness":96.49218335162072,"clientPercentages":[{"client":"Nimbus","percentage":0.006158583525789068},{"client":"Lighthouse","percentage":0.993841416474211}],"networkPenetration":0.005325383365446941,"relayerPercentages":[{"relayer":"blocknative","percentage":0.04645048203330412},{"relayer":"bloxroute_maxprofit","percentage":0.13058720420683612},{"relayer":"edennetwork","percentage":0.10867659947414549},{"relayer":"bloxroute_ethical","percentage":0.009640666082383873},{"relayer":"manifold","percentage":0.044697633654688866},{"relayer":"no_mev_boost","percentage":0.21647677475898336},{"relayer":"flashbots","percentage":0.44347063978965817}],"nodeOperatorCount":null},{"id":"Ankr","idType":"entity","timeWindow":"1d","validatorCount":2300,"avgCorrectness":0.9906365339807827,"avgInclusionDelay":1.0226198116417171,"avgUptime":0.9997149585921337,"avgValidatorEffectiveness":96.92853155203832,"clientPercentages":[{"client":"Lighthouse","percentage":0.8369132856006364},{"client":"Prysm","percentage":0.162291169451074},{"client":"Teku","percentage":0.0007955449482895784}],"networkPenetration":0.005105619733442254,"relayerPercentages":[{"relayer":"no_mev_boost","percentage":0.8498659517426274},{"relayer":"flashbots","percentage":0.15013404825737264}],"nodeOperatorCount":null}]}