{"page":{"from":0,"size":15},"total":30,"next":"/v0/eth/operators?window=1d&from=15&size=15&idType=entity","data":[{"id":"Lido","idType":"entity","timeWindow":"1d","validatorCount":130048,"avgCorrectness":0.9895953310904256,"avgInclusionDelay":1.03280778813899,"avgUptime":0.9983864860188956,"avgValidatorEffectiveness":96.54265852173663,"clientPercentages":[{"client":"Prysm","percentage":0.40259494270290747},{"client":"Lighthouse","percentage":0.3503037354727856},{"client":"Teku","percentage":0.22193660113917715},{"client":"Lodestar","percentage":0.00037882375224926605},{"client":"Nimbus","percentage":0.02478589693288055}],"networkPenetration":0.30445185835528243},{"id":"Coinbase","idType":"entity","timeWindow":"1d","validatorCount":54348,"avgCorrectness":0.9907335311446365,"avgInclusionDelay":1.0282107083380412,"avgUptime":0.998802777164443,"avgValidatorEffectiveness":96.9991620363684,"clientPercentages":[{"client":"Lighthouse","percentage":0.42492342522306564},{"client":"Teku","percentage":0.13553735517379145},{"client":"Nimbus","percentage":0.055733120255693165},{"client":"Prysm","percentage":0.38380609934744975}],"networkPenetration":0.1272414398595259},{"id":"Kraken","idType":"entity","timeWindow":"1d","validatorCount":36706,"avgCorrectness":0.9911877153524266,"avgInclusionDelay":1.0278792157906944,"avgUptime":0.9987726390849891,"avgValidatorEffectiveness":97.04718019107582,"clientPercentages":[{"client":"Nimbus","percentage":0.01955104996379435},{"client":"Lighthouse","percentage":0.26280473087134926},{"client":"Teku","percentage":0.0939898624185373},{"client":"Prysm","percentage":0.6236543567463191}],"networkPenetration":0.08593034825870646},{"id":"Binance","idType":"entity","timeWindow":"1d","validatorCount":22284,"avgCorrectness":0.9910404619373828,"avgInclusionDelay":1.0282924271383822,"avgUptime":0.9991935419533676,"avgValidatorEffectiveness":97.04081652851187,"clientPercentages":[{"client":"Prysm","percentage":0.6109586763116321},{"client":"Teku","percentage":0.0005820237798287187},{"client":"Lighthouse","percentage":0.35769518583187826},{"client":"Nimbus","percentage":0.030764114076660846}],"networkPenetration":0.05217208077260755},{"id":"Bitcoin Suisse","idType":"entity","timeWindow":"1d","validatorCount":9062,"avgCorrectness":0.991799433248984,"avgInclusionDelay":1.0273654027678982,"avgUptime":0.9994141592486321,"avgValidatorEffectiveness":97.17796910082203,"clientPercentages":[{"client":"Teku","percentage":0.9935897435897436},{"client":"Nimbus","percentage":0.00641025641025641}],"networkPenetration":0.02121627158326017},{"id":"Rocketpool","idType":"entity","timeWindow":"1d","validatorCount":7093,"avgCorrectness":0.9901494988121403,"avgInclusionDelay":1.0296615552704127,"avgUptime":0.9872806751814427,"avgValidatorEffectiveness":95.86570680946599,"clientPercentages":[{"client":"Prysm","percentage":0.05238870792616721},{"client":"Teku","percentage":0.30442453854505974},{"client":"Nimbus","percentage":0.2270629750271444},{"client":"Lighthouse","percentage":0.4161237785016287}],"networkPenetration":0.01659467369037167},{"id":"Staked.us","idType":"entity","timeWindow":"1d","validatorCount":5263,"avgCorrectness":0.9902072720698493,"avgInclusionDelay":1.02960087630675,"avgUptime":0.9925792218210994,"avgValidatorEffectiveness":96.33018199562093,"clientPercentages":[{"client":"Teku","percentage":0.49422161794697483},{"client":"Prysm","percentage":0.47178789938817134},{"client":"Nimbus","percentage":0.02821210061182869},{"client":"Lighthouse","percentage":0.005778382053025153}],"networkPenetration":0.0123219198127012},{"id":"f2pool.eth","idType":"entity","timeWindow":"1d","validatorCount":3501,"avgCorrectness":0.9902271168828513,"avgInclusionDelay":1.0344768527897372,"avgUptime":0.9932330445269607,"avgValidatorEffectiveness":95.99507625303366,"clientPercentages":[{"client":"Lighthouse","percentage":0.986387943607195},{"client":"Prysm","percentage":0.013612056392805057}],"networkPenetration":0.008196663740122914},{"id":"Bitfinex","idType":"entity","timeWindow":"1d","validatorCount":3214,"avgCorrectness":0.9913764805070373,"avgInclusionDelay":1.0277976901074144,"avgUptime":0.985752610108554,"avgValidatorEffectiveness":95.96050607583183,"clientPercentages":[{"client":"Prysm","percentage":0.943725379853686},{"client":"Nimbus","percentage":0.03939223410241981},{"client":"Lighthouse","percentage":0.004501969611705121},{"client":"Teku","percentage":0.012380416432189083}],"networkPenetration":0.007524729294702956},{"id":"Huobi","idType":"entity","timeWindow":"1d","validatorCount":2855,"avgCorrectness":0.9910246460262068,"avgInclusionDelay":1.0273759972723642,"avgUptime":0.9999058182525785,"avgValidatorEffectiveness":97.17520859586133,"clientPercentages":[{"client":"Lighthouse","percentage":0.0006075334143377885},{"client":"Nimbus","percentage":0.04495747266099635},{"client":"Teku","percentage":0.002430133657351154},{"client":"Prysm","percentage":0.9520048602673147}],"networkPenetration":0.006684225929177641},{"id":"Bloxstaking","idType":"entity","timeWindow":"1d","validatorCount":2429,"avgCorrectness":0.9903215878238504,"avgInclusionDelay":1.0290114206362873,"avgUptime":0.9991910786188637,"avgValidatorEffectiveness":96.94229998308006,"clientPercentages":[{"client":"Lighthouse","percentage":0.4880418535127055},{"client":"Prysm","percentage":0.4857997010463378},{"client":"Nimbus","percentage":0.02391629297458894},{"client":"Teku","percentage":0.002242152466367713}],"networkPenetration":0.0056845185835528245},{"id":"wedex.eth","idType":"entity","timeWindow":"1d","validatorCount":2399,"avgCorrectness":0.9884114446948202,"avgInclusionDelay":1.0385883504522986,"avgUptime":0.9993265712565422,"avgValidatorEffectiveness":96.08068574876874,"clientPercentages":[{"client":"Lighthouse","percentage":1.0}],"networkPenetration":0.005616622768510389},{"id":"Ankr","idType":"entity","timeWindow":"1d","validatorCount":2298,"avgCorrectness":0.9912965052478376,"avgInclusionDelay":1.0269436740476379,"avgUptime":0.9993363131379269,"avgValidatorEffectiveness":97.17581478746177,"clientPercentages":[{"client":"Nimbus","percentage":0.03640040444893832},{"client":"Lighthouse","percentage":0.011122345803842264},{"client":"Prysm","percentage":0.9464105156723963},{"client":"Teku","percentage":0.006066734074823054}],"networkPenetration":0.005380158033362599},{"id":"StakeWise","idType":"entity","timeWindow":"1d","validatorCount":1981,"avgCorrectness":0.9909587094664314,"avgInclusionDelay":1.0276612180228133,"avgUptime":0.9947445173593588,"avgValidatorEffectiveness":96.70687703018311,"clientPercentages":[{"client":"Teku","percentage":0.060526315789473685},{"client":"Prysm","percentage":0.3850877192982456},{"client":"Lighthouse","percentage":0.5298245614035088},{"client":"Nimbus","percentage":0.02456140350877193}],"networkPenetration":0.004637986537898741},{"id":"OKex","idType":"entity","timeWindow":"1d","validatorCount":1737,"avgCorrectness":0.9909983119833811,"avgInclusionDelay":1.0277139541853335,"avgUptime":0.9989099980809828,"avgValidatorEffectiveness":97.06116075837087,"clientPercentages":[{"client":"Nimbus","percentage":0.04512067156348373},{"client":"Prysm","percentage":0.9401888772298006},{"client":"Teku","percentage":0.002098635886673662},{"client":"Lighthouse","percentage":0.012591815320041973}],"networkPenetration":0.004066725197541704}]}