{"page":{"from":0,"size":15},"total":30,"next":"/v0/eth/operators?window=1d&from=15&size=15&idType=entity","data":[{"id":"Lido","idType":"entity","timeWindow":"1d","validatorCount":129657,"avgCorrectness":0.9889287275589252,"avgInclusionDelay":1.0242042865500116,"avgUptime":0.9991496290482618,"avgValidatorEffectiveness":97.24859779349852,"clientPercentages":[{"client":"Prysm","percentage":0.36031478358628444},{"client":"Nimbus","percentage":0.06436200112422709},{"client":"Lighthouse","percentage":0.3538103268288766},{"client":"Teku","percentage":0.2215128884606119}],"networkPenetration":0.31158399707744294},{"id":"Coinbase","idType":"entity","timeWindow":"1d","validatorCount":55022,"avgCorrectness":0.9891245523430087,"avgInclusionDelay":1.0244215439732764,"avgUptime":0.9999636770230035,"avgValidatorEffectiveness":97.30781856007073,"clientPercentages":[{"client":"Teku","percentage":0.1384345608161964},{"client":"Prysm","percentage":0.3732185557149689},{"client":"Nimbus","percentage":0.08952654232424677},{"client":"Lighthouse","percentage":0.3988203411445879}],"networkPenetration":0.13215197296634734},{"id":"Kraken","idType":"entity","timeWindow":"1d","validatorCount":36265,"avgCorrectness":0.9888657082885475,"avgInclusionDelay":1.0240720345382566,"avgUptime":0.9996571943477612,"avgValidatorEffectiveness":97.2956770543512,"clientPercentages":[{"client":"Nimbus","percentage":0.04528793286389505},{"client":"Prysm","percentage":0.5996913282531108},{"client":"Lighthouse","percentage":0.2649754027201698},{"client":"Teku","percentage":0.09004533616282434}],"networkPenetration":0.08712152165239836},{"id":"Binance","idType":"entity","timeWindow":"1d","validatorCount":21584,"avgCorrectness":0.9886913442407714,"avgInclusionDelay":1.0242710539678905,"avgUptime":0.9999707602339194,"avgValidatorEffectiveness":97.29948503636952,"clientPercentages":[{"client":"Prysm","percentage":0.5864233698836528},{"client":"Nimbus","percentage":0.06721352640830335},{"client":"Teku","percentage":0.003264417845484222},{"client":"Lighthouse","percentage":0.34309868586255965}],"networkPenetration":0.0518753875512529},{"id":"Bitcoin Suisse","idType":"entity","timeWindow":"1d","validatorCount":9000,"avgCorrectness":0.9869468156319192,"avgInclusionDelay":1.038588673824222,"avgUptime":0.9999735802469146,"avgValidatorEffectiveness":96.05208299396367,"clientPercentages":[{"client":"Nimbus","percentage":0.0063522617901828685},{"client":"Teku","percentage":0.9934552454282964},{"client":"Prysm","percentage":0.00019249278152069297}],"networkPenetration":0.021630767603839703},{"id":"Rocketpool","idType":"entity","timeWindow":"1d","validatorCount":6756,"avgCorrectness":0.9877654447760402,"avgInclusionDelay":1.0280539938852937,"avgUptime":0.9951620581900992,"avgValidatorEffectiveness":96.5584043527806,"clientPercentages":[{"client":"Prysm","percentage":0.07037830121341898},{"client":"Nimbus","percentage":0.2328336902212705},{"client":"Teku","percentage":0.291220556745182},{"client":"Lighthouse","percentage":0.4055674518201285}],"networkPenetration":0.016220672284257127},{"id":"Staked.us","idType":"entity","timeWindow":"1d","validatorCount":5263,"avgCorrectness":0.9873209129111674,"avgInclusionDelay":1.0263204583818417,"avgUptime":0.9995498976080394,"avgValidatorEffectiveness":97.0245291663586,"clientPercentages":[{"client":"Teku","percentage":0.5081206496519721},{"client":"Prysm","percentage":0.4461385482267153},{"client":"Lighthouse","percentage":0.0019887305270135896},{"client":"Nimbus","percentage":0.043752071594298975}],"networkPenetration":0.012649192211000927},{"id":"f2pool.eth","idType":"entity","timeWindow":"1d","validatorCount":3501,"avgCorrectness":0.9893516138246216,"avgInclusionDelay":1.0236656193468532,"avgUptime":1.0,"avgValidatorEffectiveness":97.38790194886349,"clientPercentages":[{"client":"Lighthouse","percentage":1.0}],"networkPenetration":0.008414368597893645},{"id":"Bitfinex","idType":"entity","timeWindow":"1d","validatorCount":3214,"avgCorrectness":0.9884313076200478,"avgInclusionDelay":1.0260982273738697,"avgUptime":0.9980695568001103,"avgValidatorEffectiveness":96.97948641954271,"clientPercentages":[{"client":"Nimbus","percentage":0.09640522875816994},{"client":"Lighthouse","percentage":0.0027233115468409588},{"client":"Teku","percentage":0.01579520697167756},{"client":"Prysm","percentage":0.8850762527233116}],"networkPenetration":0.007724587453193423},{"id":"Huobi","idType":"entity","timeWindow":"1d","validatorCount":2855,"avgCorrectness":0.9878381586577568,"avgInclusionDelay":1.0251908010726114,"avgUptime":0.9999727573457865,"avgValidatorEffectiveness":97.17769080608983,"clientPercentages":[{"client":"Teku","percentage":0.007202881152460984},{"client":"Lighthouse","percentage":0.0012004801920768306},{"client":"Nimbus","percentage":0.07923169267707082},{"client":"Prysm","percentage":0.9123649459783914}],"networkPenetration":0.0068617601676624835},{"id":"wedex.eth","idType":"entity","timeWindow":"1d","validatorCount":2399,"avgCorrectness":0.9881348710110694,"avgInclusionDelay":1.0262905840396461,"avgUptime":1.0,"avgValidatorEffectiveness":97.1034233848961,"clientPercentages":[{"client":"Lighthouse","percentage":1.0}],"networkPenetration":0.0057658012757346045},{"id":"Bloxstaking","idType":"entity","timeWindow":"1d","validatorCount":2367,"avgCorrectness":0.987624380679065,"avgInclusionDelay":1.025327831597294,"avgUptime":0.9997427592357873,"avgValidatorEffectiveness":97.13249368056128,"clientPercentages":[{"client":"Nimbus","percentage":0.05437178545187362},{"client":"Teku","percentage":0.0036737692872887582},{"client":"Prysm","percentage":0.44452608376193975},{"client":"Lighthouse","percentage":0.49742836149889785}],"networkPenetration":0.005688891879809842},{"id":"Ankr","idType":"entity","timeWindow":"1d","validatorCount":2295,"avgCorrectness":0.8442620755068915,"avgInclusionDelay":1.4407783250058537,"avgUptime":0.9761628872030075,"avgValidatorEffectiveness":68.71674201941141,"clientPercentages":[{"client":"Nimbus","percentage":0.07235421166306695},{"client":"Prysm","percentage":0.9071274298056156},{"client":"Lighthouse","percentage":0.016198704103671708},{"client":"Teku","percentage":0.004319654427645789}],"networkPenetration":0.005513442320356475},{"id":"StakeWise","idType":"entity","timeWindow":"1d","validatorCount":1980,"avgCorrectness":0.9889185685666025,"avgInclusionDelay":1.025112374367982,"avgUptime":0.9999943883277223,"avgValidatorEffectiveness":97.24914342152618,"clientPercentages":[{"client":"Nimbus","percentage":0.04017467248908297},{"client":"Teku","percentage":0.06026200873362445},{"client":"Prysm","percentage":0.36069868995633186},{"client":"Lighthouse","percentage":0.5388646288209606}],"networkPenetration":0.004758768872844734},{"id":"OKex","idType":"entity","timeWindow":"1d","validatorCount":1730,"avgCorrectness":0.9883281502690441,"avgInclusionDelay":1.025907614287531,"avgUptime":0.9999961464354532,"avgValidatorEffectiveness":97.14628916321053,"clientPercentages":[{"client":"Nimbus","percentage":0.1019036954087346},{"client":"Lighthouse","percentage":0.0022396416573348264},{"client":"Teku","percentage":0.006718924972004479},{"client":"Prysm","percentage":0.8891377379619261}],"networkPenetration":0.004157914217182521}]}