{"page":{"from":0,"size":15},"total":30,"next":"/v0/eth/operators?window=1d&from=15&size=15&idType=entity","data":[{"id":"Lido","idType":"entity","timeWindow":"1d","validatorCount":129754,"avgCorrectness":0.9841433374470535,"avgInclusionDelay":1.0394641904687172,"avgUptime":0.9988544927210498,"avgValidatorEffectiveness":95.72631086926523,"clientPercentages":[{"client":"Prysm","percentage":0.40259494270290747},{"client":"Teku","percentage":0.22193660113917715},{"client":"Lodestar","percentage":0.00037882375224926605},{"client":"Lighthouse","percentage":0.3503037354727856},{"client":"Nimbus","percentage":0.02478589693288055}],"networkPenetration":0.3110506442912796},{"id":"Coinbase","idType":"entity","timeWindow":"1d","validatorCount":55062,"avgCorrectness":0.9846260504642586,"avgInclusionDelay":1.037831484989793,"avgUptime":0.999969327505558,"avgValidatorEffectiveness":95.97756794346216,"clientPercentages":[{"client":"Prysm","percentage":0.38777885548011637},{"client":"Lighthouse","percentage":0.4148399612027158},{"client":"Nimbus","percentage":0.05767862916262528},{"client":"Teku","percentage":0.13970255415454252}],"networkPenetration":0.13200359604435122},{"id":"Kraken","idType":"entity","timeWindow":"1d","validatorCount":36578,"avgCorrectness":0.983666054203538,"avgInclusionDelay":1.039440363602469,"avgUptime":0.9961063488635183,"avgValidatorEffectiveness":95.47290532739879,"clientPercentages":[{"client":"Teku","percentage":0.0939898624185373},{"client":"Prysm","percentage":0.6236543567463191},{"client":"Lighthouse","percentage":0.26280473087134926},{"client":"Nimbus","percentage":0.01955104996379435}],"networkPenetration":0.08721366496853461},{"id":"Binance","idType":"entity","timeWindow":"1d","validatorCount":21584,"avgCorrectness":0.9837942109209157,"avgInclusionDelay":1.0387727328605367,"avgUptime":0.9999899102215621,"avgValidatorEffectiveness":95.84742755058176,"clientPercentages":[{"client":"Nimbus","percentage":0.030764114076660846},{"client":"Teku","percentage":0.0005820237798287187},{"client":"Lighthouse","percentage":0.35769518583187826},{"client":"Prysm","percentage":0.6109586763116321}],"networkPenetration":0.05174468085106383},{"id":"Bitcoin Suisse","idType":"entity","timeWindow":"1d","validatorCount":9000,"avgCorrectness":0.9836584377054368,"avgInclusionDelay":1.0581022620564324,"avgUptime":0.9994511111111135,"avgValidatorEffectiveness":94.30626536961523,"clientPercentages":[{"client":"Teku","percentage":0.9935897435897436},{"client":"Nimbus","percentage":0.00641025641025641}],"networkPenetration":0.02157626610728199},{"id":"Rocketpool","idType":"entity","timeWindow":"1d","validatorCount":6828,"avgCorrectness":0.9828441262204501,"avgInclusionDelay":1.043392254085048,"avgUptime":0.9935500393620913,"avgValidatorEffectiveness":95.04041889490529,"clientPercentages":[{"client":"Teku","percentage":0.30272108843537415},{"client":"Nimbus","percentage":0.2276190476190476},{"client":"Prysm","percentage":0.05251700680272109},{"client":"Lighthouse","percentage":0.41714285714285715}],"networkPenetration":0.016364399160922985},{"id":"Staked.us","idType":"entity","timeWindow":"1d","validatorCount":5263,"avgCorrectness":0.9820953544612054,"avgInclusionDelay":1.0430325373740106,"avgUptime":0.9987037388899431,"avgValidatorEffectiveness":95.3249445863722,"clientPercentages":[{"client":"Lighthouse","percentage":0.005778382053025153},{"client":"Prysm","percentage":0.47178789938817134},{"client":"Nimbus","percentage":0.02821210061182869},{"client":"Teku","percentage":0.49422161794697483}],"networkPenetration":0.012617320946958346},{"id":"f2pool.eth","idType":"entity","timeWindow":"1d","validatorCount":3501,"avgCorrectness":0.9826031512686386,"avgInclusionDelay":1.043297412958629,"avgUptime":0.9999866704751028,"avgValidatorEffectiveness":95.41956899597587,"clientPercentages":[{"client":"Lighthouse","percentage":0.986387943607195},{"client":"Prysm","percentage":0.013612056392805057}],"networkPenetration":0.008393167515732694},{"id":"Bitfinex","idType":"entity","timeWindow":"1d","validatorCount":3214,"avgCorrectness":0.9831332488671637,"avgInclusionDelay":1.0408782809043735,"avgUptime":0.9921136693632028,"avgValidatorEffectiveness":94.99093065424724,"clientPercentages":[{"client":"Teku","percentage":0.012380416432189083},{"client":"Lighthouse","percentage":0.004501969611705121},{"client":"Prysm","percentage":0.943725379853686},{"client":"Nimbus","percentage":0.03939223410241981}],"networkPenetration":0.007705124363200479},{"id":"Huobi","idType":"entity","timeWindow":"1d","validatorCount":2855,"avgCorrectness":0.9823338937667352,"avgInclusionDelay":1.042258235257488,"avgUptime":0.9999766491535318,"avgValidatorEffectiveness":95.48721905452462,"clientPercentages":[{"client":"Teku","percentage":0.002430133657351154},{"client":"Lighthouse","percentage":0.0006075334143377885},{"client":"Prysm","percentage":0.9520048602673147},{"client":"Nimbus","percentage":0.04495747266099635}],"networkPenetration":0.006844471081810009},{"id":"wedex.eth","idType":"entity","timeWindow":"1d","validatorCount":2399,"avgCorrectness":0.9715082436358612,"avgInclusionDelay":1.11340783625308,"avgUptime":0.9988856467972771,"avgValidatorEffectiveness":89.86795756173049,"clientPercentages":[{"client":"Lighthouse","percentage":1.0}],"networkPenetration":0.005751273599041055},{"id":"Bloxstaking","idType":"entity","timeWindow":"1d","validatorCount":2382,"avgCorrectness":0.9801952870695638,"avgInclusionDelay":1.0490095074951267,"avgUptime":0.9997825137331726,"avgValidatorEffectiveness":94.8230001309203,"clientPercentages":[{"client":"Nimbus","percentage":0.02416918429003021},{"client":"Prysm","percentage":0.4818731117824773},{"client":"Teku","percentage":0.0015105740181268882},{"client":"Lighthouse","percentage":0.49244712990936557}],"networkPenetration":0.005705723703925682},{"id":"Ankr","idType":"entity","timeWindow":"1d","validatorCount":2296,"avgCorrectness":0.878380734295391,"avgInclusionDelay":1.3706393498177287,"avgUptime":0.9881978319783205,"avgValidatorEffectiveness":75.45493878608454,"clientPercentages":[{"client":"Nimbus","percentage":0.03640040444893832},{"client":"Prysm","percentage":0.9464105156723963},{"client":"Lighthouse","percentage":0.011122345803842264},{"client":"Teku","percentage":0.006066734074823054}],"networkPenetration":0.0055043452202577165},{"id":"StakeWise","idType":"entity","timeWindow":"1d","validatorCount":1980,"avgCorrectness":0.9828638463378666,"avgInclusionDelay":1.0429855486882404,"avgUptime":0.9992918069584742,"avgValidatorEffectiveness":95.23215570857266,"clientPercentages":[{"client":"Nimbus","percentage":0.02456140350877193},{"client":"Teku","percentage":0.060526315789473685},{"client":"Prysm","percentage":0.3850877192982456},{"client":"Lighthouse","percentage":0.5298245614035088}],"networkPenetration":0.004746778543602038},{"id":"OKex","idType":"entity","timeWindow":"1d","validatorCount":1731,"avgCorrectness":0.9825697837736518,"avgInclusionDelay":1.0419511468649618,"avgUptime":0.9999435137043462,"avgValidatorEffectiveness":95.51930327791452,"clientPercentages":[{"client":"Teku","percentage":0.002098635886673662},{"client":"Lighthouse","percentage":0.012591815320041973},{"client":"Nimbus","percentage":0.04512067156348373},{"client":"Prysm","percentage":0.9401888772298006}],"networkPenetration":0.004149835181300569}]}