{"page":{"from":0,"size":15},"total":31,"next":"/v0/eth/operators?window=1d&from=15&size=15&idType=entity","data":[{"id":"Lido","idType":"entity","timeWindow":"1d","validatorCount":128793,"avgCorrectness":0.9876192263763992,"avgInclusionDelay":1.0166349051837105,"avgUptime":0.9997343318004963,"avgValidatorEffectiveness":97.85461218456122,"clientPercentages":[{"client":"Teku","percentage":0.1616713707569852},{"client":"Lighthouse","percentage":0.4034317458895211},{"client":"Prysm","percentage":0.35912369517494735},{"client":"Nimbus","percentage":0.07577318817854636}],"networkPenetration":0.3204492749295831},{"id":"Coinbase","idType":"entity","timeWindow":"1d","validatorCount":55741,"avgCorrectness":0.9874731484015321,"avgInclusionDelay":1.0165958459266813,"avgUptime":0.9998244659327136,"avgValidatorEffectiveness":97.86041607595698,"clientPercentages":[{"client":"Lighthouse","percentage":0.3142138284658747},{"client":"Prysm","percentage":0.42568234657154685},{"client":"Nimbus","percentage":0.10153189592025223},{"client":"Teku","percentage":0.1585719290423262}],"networkPenetration":0.13869646571715785},{"id":"Kraken","idType":"entity","timeWindow":"1d","validatorCount":35609,"avgCorrectness":0.9820320661628062,"avgInclusionDelay":1.0254001392876175,"avgUptime":0.998834865266787,"avgValidatorEffectiveness":96.9234579412628,"clientPercentages":[{"client":"Teku","percentage":0.08162209693270574},{"client":"Lighthouse","percentage":0.2455387161847618},{"client":"Prysm","percentage":0.6349247400817255},{"client":"Nimbus","percentage":0.03791444680080691}],"networkPenetration":0.08853373543140944},{"id":"Binance","idType":"entity","timeWindow":"1d","validatorCount":20422,"avgCorrectness":0.9882845568540123,"avgInclusionDelay":1.0145645925098745,"avgUptime":0.9997747527176585,"avgValidatorEffectiveness":98.06472353816818,"clientPercentages":[{"client":"Nimbus","percentage":0.07459801423425007},{"client":"Teku","percentage":0.010543888937703189},{"client":"Prysm","percentage":0.6037255074246551},{"client":"Lighthouse","percentage":0.3111325894033916}],"networkPenetration":0.050814646721009625},{"id":"Bitcoin Suisse","idType":"entity","timeWindow":"1d","validatorCount":8908,"avgCorrectness":0.9859838467998016,"avgInclusionDelay":1.0386985075733308,"avgUptime":0.9987613397782868,"avgValidatorEffectiveness":95.91796024373389,"clientPercentages":[{"client":"Teku","percentage":0.9917963819941102},{"client":"Nimbus","percentage":0.007993268826251577},{"client":"Prysm","percentage":0.00021034917963819942}],"networkPenetration":0.022162670568212355},{"id":"Rocketpool","idType":"entity","timeWindow":"1d","validatorCount":5850,"avgCorrectness":0.9872226455480122,"avgInclusionDelay":1.01820357398231,"avgUptime":0.9719787095142665,"avgValidatorEffectiveness":95.35441899311681,"clientPercentages":[{"client":"Prysm","percentage":0.060119915734889},{"client":"Teku","percentage":0.24210014584346135},{"client":"Nimbus","percentage":0.2550640090747043},{"client":"Lighthouse","percentage":0.44271592934694537}],"networkPenetration":0.0145486847212684},{"id":"Staked.us","idType":"entity","timeWindow":"1d","validatorCount":5263,"avgCorrectness":0.9865679028948218,"avgInclusionDelay":1.0182221159239453,"avgUptime":0.9921599425760557,"avgValidatorEffectiveness":97.02071058195143,"clientPercentages":[{"client":"Prysm","percentage":0.4500330906684315},{"client":"Nimbus","percentage":0.053606882859033755},{"client":"Teku","percentage":0.49503639973527463},{"client":"Lighthouse","percentage":0.0013236267372600927}],"networkPenetration":0.013095558010609815},{"id":"f2pool.eth","idType":"entity","timeWindow":"1d","validatorCount":3501,"avgCorrectness":0.9779998662160483,"avgInclusionDelay":1.101489779861693,"avgUptime":0.9963470754387627,"avgValidatorEffectiveness":90.64255527100093,"clientPercentages":[{"client":"Nimbus","percentage":0.0004723665564478035},{"client":"Lighthouse","percentage":0.9995276334435522}],"networkPenetration":0.0087112955719447},{"id":"Bitfinex","idType":"entity","timeWindow":"1d","validatorCount":3214,"avgCorrectness":0.987050061659786,"avgInclusionDelay":1.0163635319887374,"avgUptime":0.9996798727788154,"avgValidatorEffectiveness":97.86984159378416,"clientPercentages":[{"client":"Lighthouse","percentage":0.0027427317608337905},{"client":"Nimbus","percentage":0.10367526055951728},{"client":"Teku","percentage":0.015907844212835986},{"client":"Prysm","percentage":0.8776741634668129}],"networkPenetration":0.007997173369960088},{"id":"Huobi","idType":"entity","timeWindow":"1d","validatorCount":2855,"avgCorrectness":0.9845173900008954,"avgInclusionDelay":1.025701303909392,"avgUptime":0.9995835765713178,"avgValidatorEffectiveness":96.92207236948492,"clientPercentages":[{"client":"Lighthouse","percentage":0.0024110910186859553},{"client":"Teku","percentage":0.016877637130801686},{"client":"Prysm","percentage":0.8842676311030742},{"client":"Nimbus","percentage":0.09644364074743822}],"networkPenetration":0.007103898559812089},{"id":"wedex.eth","idType":"entity","timeWindow":"1d","validatorCount":2399,"avgCorrectness":0.9870966456929838,"avgInclusionDelay":1.0179851183197337,"avgUptime":0.9999055161872998,"avgValidatorEffectiveness":97.7244531425425,"clientPercentages":[{"client":"Lighthouse","percentage":1.0}],"networkPenetration":0.0059692653747773034},{"id":"Bloxstaking","idType":"entity","timeWindow":"1d","validatorCount":2297,"avgCorrectness":0.9846554834159678,"avgInclusionDelay":1.024973407810838,"avgUptime":0.9998150238373209,"avgValidatorEffectiveness":97.00956224810994,"clientPercentages":[{"client":"Lighthouse","percentage":0.45180722891566266},{"client":"Prysm","percentage":0.5015060240963856},{"client":"Teku","percentage":0.010542168674698794},{"client":"Nimbus","percentage":0.03614457831325301}],"networkPenetration":0.005705512923870094},{"id":"Ankr","idType":"entity","timeWindow":"1d","validatorCount":2283,"avgCorrectness":0.8531936399131876,"avgInclusionDelay":1.4885486626680964,"avgUptime":0.9485715676254435,"avgValidatorEffectiveness":67.56816470963342,"clientPercentages":[{"client":"Prysm","percentage":0.887592788971368},{"client":"Teku","percentage":0.006362672322375398},{"client":"Nimbus","percentage":0.09650053022269353},{"client":"Lighthouse","percentage":0.009544008483563097}],"networkPenetration":0.005680630617180735},{"id":"StakeWise","idType":"entity","timeWindow":"1d","validatorCount":1937,"avgCorrectness":0.9857283900611369,"avgInclusionDelay":1.0295754016245644,"avgUptime":0.9970641886078127,"avgValidatorEffectiveness":96.52315686036158,"clientPercentages":[{"client":"Prysm","percentage":0.3795411089866157},{"client":"Lighthouse","percentage":0.5277246653919694},{"client":"Teku","percentage":0.04397705544933078},{"client":"Nimbus","percentage":0.04875717017208413}],"networkPenetration":0.004819702805728902},{"id":"OKex","idType":"entity","timeWindow":"1d","validatorCount":1528,"avgCorrectness":0.986299127590602,"avgInclusionDelay":1.0174583728604436,"avgUptime":0.9995520651541597,"avgValidatorEffectiveness":97.69280171023064,"clientPercentages":[{"client":"Prysm","percentage":0.8918918918918919},{"client":"Nimbus","percentage":0.09518213866039953},{"client":"Teku","percentage":0.012925969447708578}],"networkPenetration":0.003802016462134106}]}