{"page":{"from":0,"size":15},"total":31,"next":"/v0/eth/operators?window=1d&from=15&size=15&idType=entity","data":[{"id":"Lido","idType":"entity","timeWindow":"1d","validatorCount":128648,"avgCorrectness":0.9907041155855367,"avgInclusionDelay":1.0129981770281207,"avgUptime":0.9996260820695788,"avgValidatorEffectiveness":98.3330479696708,"clientPercentages":[{"client":"Lighthouse","percentage":0.4075468394326738},{"client":"Teku","percentage":0.15570828226230082},{"client":"Prysm","percentage":0.36285239012432147},{"client":"Nimbus","percentage":0.0738924881807039}],"networkPenetration":0.3226284659338895},{"id":"Coinbase","idType":"entity","timeWindow":"1d","validatorCount":55741,"avgCorrectness":0.9904526217233914,"avgInclusionDelay":1.0120617684195803,"avgUptime":0.9999115352951845,"avgValidatorEffectiveness":98.4092075742769,"clientPercentages":[{"client":"Lighthouse","percentage":0.2746597615319764},{"client":"Prysm","percentage":0.4683247019149705},{"client":"Nimbus","percentage":0.09887992291942671},{"client":"Teku","percentage":0.1581356136336264}],"networkPenetration":0.13981879568360484},{"id":"Kraken","idType":"entity","timeWindow":"1d","validatorCount":35320,"avgCorrectness":0.9863356663539029,"avgInclusionDelay":1.0191245722077953,"avgUptime":0.9990713439968633,"avgValidatorEffectiveness":97.63488356842156,"clientPercentages":[{"client":"Nimbus","percentage":0.036122047244094485},{"client":"Lighthouse","percentage":0.21619094488188975},{"client":"Teku","percentage":0.07898622047244094},{"client":"Prysm","percentage":0.6687007874015748}],"networkPenetration":0.08857539895551665},{"id":"Binance","idType":"entity","timeWindow":"1d","validatorCount":20422,"avgCorrectness":0.9908414972524764,"avgInclusionDelay":1.0114578645690866,"avgUptime":0.999943198511409,"avgValidatorEffectiveness":98.48507991620119,"clientPercentages":[{"client":"Prysm","percentage":0.6156448551860715},{"client":"Nimbus","percentage":0.06956019473553923},{"client":"Lighthouse","percentage":0.3042330225266111},{"client":"Teku","percentage":0.0105619275517782}],"networkPenetration":0.051225838170297945},{"id":"Bitcoin Suisse","idType":"entity","timeWindow":"1d","validatorCount":8691,"avgCorrectness":0.9885344705975632,"avgInclusionDelay":1.03053329983391,"avgUptime":0.9991024854362572,"avgValidatorEffectiveness":96.7316092653785,"clientPercentages":[{"client":"Nimbus","percentage":0.017020424509411294},{"client":"Prysm","percentage":0.00040048057669203043},{"client":"Teku","percentage":0.9825790949138967}],"networkPenetration":0.0216446850245569},{"id":"Rocketpool","idType":"entity","timeWindow":"1d","validatorCount":5772,"avgCorrectness":0.9897171946800346,"avgInclusionDelay":1.0151826916537943,"avgUptime":0.9925713381827268,"avgValidatorEffectiveness":97.50709382128753,"clientPercentages":[{"client":"Prysm","percentage":0.05618500698432407},{"client":"Nimbus","percentage":0.259506441098867},{"client":"Teku","percentage":0.23389725283253143},{"client":"Lighthouse","percentage":0.4504112990842775}],"networkPenetration":0.014463234888352655},{"id":"Staked.us","idType":"entity","timeWindow":"1d","validatorCount":5263,"avgCorrectness":0.9896796360620371,"avgInclusionDelay":1.0190406616254932,"avgUptime":0.9993358245191803,"avgValidatorEffectiveness":97.7472131503805,"clientPercentages":[{"client":"Lighthouse","percentage":0.004984423676012461},{"client":"Prysm","percentage":0.45981308411214955},{"client":"Nimbus","percentage":0.04672897196261682},{"client":"Teku","percentage":0.4884735202492212}],"networkPenetration":0.01320152709285467},{"id":"f2pool.eth","idType":"entity","timeWindow":"1d","validatorCount":3501,"avgCorrectness":0.9818226157783108,"avgInclusionDelay":1.100285701005334,"avgUptime":0.9968726395632983,"avgValidatorEffectiveness":91.09067116222201,"clientPercentages":[{"client":"Lighthouse","percentage":0.9995590828924162},{"client":"Nimbus","percentage":0.0004409171075837742}],"networkPenetration":0.008781787260513813},{"id":"Bitfinex","idType":"entity","timeWindow":"1d","validatorCount":3214,"avgCorrectness":0.9860292206864792,"avgInclusionDelay":1.021495757489621,"avgUptime":0.9924310309064505,"avgValidatorEffectiveness":96.80998513601455,"clientPercentages":[{"client":"Prysm","percentage":0.8813471502590674},{"client":"Nimbus","percentage":0.10103626943005181},{"client":"Teku","percentage":0.014507772020725389},{"client":"Lighthouse","percentage":0.0031088082901554403}],"networkPenetration":0.008061886391114366},{"id":"Huobi","idType":"entity","timeWindow":"1d","validatorCount":2855,"avgCorrectness":0.9878268026018073,"avgInclusionDelay":1.0204720252768351,"avgUptime":0.9996793150418373,"avgValidatorEffectiveness":97.54333253275215,"clientPercentages":[{"client":"Nimbus","percentage":0.0867579908675799},{"client":"Teku","percentage":0.0182648401826484},{"client":"Prysm","percentage":0.8921232876712328},{"client":"Lighthouse","percentage":0.0028538812785388126}],"networkPenetration":0.007161383213015406},{"id":"wedex.eth","idType":"entity","timeWindow":"1d","validatorCount":2399,"avgCorrectness":0.9907209876863422,"avgInclusionDelay":1.0103090873553657,"avgUptime":0.9999842526978832,"avgValidatorEffectiveness":98.57573854599362,"clientPercentages":[{"client":"Nimbus","percentage":0.0006793478260869565},{"client":"Lighthouse","percentage":0.9993206521739131}],"networkPenetration":0.0060175685912518245},{"id":"Bloxstaking","idType":"entity","timeWindow":"1d","validatorCount":2283,"avgCorrectness":0.9894175464284463,"avgInclusionDelay":1.0121683612871066,"avgUptime":0.9999171933337505,"avgValidatorEffectiveness":98.33924493627558,"clientPercentages":[{"client":"Prysm","percentage":0.5197699496764917},{"client":"Lighthouse","percentage":0.43134435657800146},{"client":"Teku","percentage":0.012221423436376708},{"client":"Nimbus","percentage":0.03666427030913012}],"networkPenetration":0.005726598205013721},{"id":"Ankr","idType":"entity","timeWindow":"1d","validatorCount":2281,"avgCorrectness":0.8428397406225719,"avgInclusionDelay":1.5377029227488386,"avgUptime":0.942915875103512,"avgValidatorEffectiveness":64.23342978949611,"clientPercentages":[{"client":"Nimbus","percentage":0.07834101382488479},{"client":"Lighthouse","percentage":0.010138248847926268},{"client":"Prysm","percentage":0.9069124423963134},{"client":"Teku","percentage":0.004608294930875576}],"networkPenetration":0.005721581474216512},{"id":"StakeWise","idType":"entity","timeWindow":"1d","validatorCount":1988,"avgCorrectness":0.9885298713626248,"avgInclusionDelay":1.0211447965219105,"avgUptime":0.9986183769282362,"avgValidatorEffectiveness":97.47044384475433,"clientPercentages":[{"client":"Lighthouse","percentage":0.43920145190562615},{"client":"Teku","percentage":0.04446460980036298},{"client":"Prysm","percentage":0.4673321234119782},{"client":"Nimbus","percentage":0.04900181488203267}],"networkPenetration":0.004986630412425439},{"id":"Stakefish","idType":"entity","timeWindow":"1d","validatorCount":1518,"avgCorrectness":0.982009899143846,"avgInclusionDelay":1.1007357551143864,"avgUptime":0.9970267896354859,"avgValidatorEffectiveness":90.97548137486899,"clientPercentages":[{"client":"Lighthouse","percentage":0.9599578503688093},{"client":"Teku","percentage":0.03898840885142255},{"client":"Prysm","percentage":0.001053740779768177}],"networkPenetration":0.0038076986750813966}]}