{"page":{"from":0,"size":15},"total":30,"next":"/v0/eth/operators?window=1d&from=15&size=15&idType=entity","data":[{"id":"Lido","idType":"entity","timeWindow":"1d","validatorCount":132585,"avgCorrectness":0.9901239216829268,"avgInclusionDelay":1.0260263329375006,"avgUptime":0.9982525609708346,"avgValidatorEffectiveness":96.89742239965025,"clientPercentages":[{"client":"Nimbus","percentage":0.02589569705335174},{"client":"Teku","percentage":0.19303246714277142},{"client":"Lodestar","percentage":0.001155254155914301},{"client":"Lighthouse","percentage":0.3920362479745544},{"client":"Prysm","percentage":0.38788033367340813}],"networkPenetration":0.3017159883277257,"relayerPercentages":[{"relayer":"bloxroute_ethical","percentage":0.02104317022232797},{"relayer":"flashbots","percentage":0.23898273719829752},{"relayer":"manifold","percentage":0.0016126047532186005},{"relayer":"bloxroute_regulated","percentage":0.006371110582388241},{"relayer":"no_mev_boost","percentage":0.7014037592196051},{"relayer":"bloxroute_maxprofit","percentage":0.01607317524519523},{"relayer":"edennetwork","percentage":0.0009252650223385413},{"relayer":"blocknative","percentage":0.013588177756628864}]},{"id":"Coinbase","idType":"entity","timeWindow":"1d","validatorCount":54486,"avgCorrectness":0.989464551851623,"avgInclusionDelay":1.0234126300286654,"avgUptime":0.9965614900399595,"avgValidatorEffectiveness":96.88180319193407,"clientPercentages":[{"client":"Lighthouse","percentage":0.43064773274999074},{"client":"Nimbus","percentage":0.022431500500537615},{"client":"Prysm","percentage":0.38200289199510584},{"client":"Teku","percentage":0.1649178747543658}],"networkPenetration":0.12411700520969773,"relayerPercentages":[{"relayer":"no_mev_boost","percentage":0.9997386304234187},{"relayer":"bloxroute_regulated","percentage":6.534239414532148e-05},{"relayer":"flashbots","percentage":0.00019602718243596446}]},{"id":"Kraken","idType":"entity","timeWindow":"1d","validatorCount":37515,"avgCorrectness":0.9903685969730777,"avgInclusionDelay":1.0207037353809467,"avgUptime":0.9975004399752414,"avgValidatorEffectiveness":97.24949879968318,"clientPercentages":[{"client":"Lighthouse","percentage":0.2660751509968464},{"client":"Prysm","percentage":0.6222139077449356},{"client":"Teku","percentage":0.1116040408359613},{"client":"Nimbus","percentage":0.00010690042225666791}],"networkPenetration":0.08536432575759302,"relayerPercentages":[{"relayer":"bloxroute_maxprofit","percentage":0.0037068719703450244},{"relayer":"manifold","percentage":9.5047999239616e-05},{"relayer":"no_mev_boost","percentage":0.6021290751829674},{"relayer":"blocknative","percentage":0.005512783955897728},{"relayer":"edennetwork","percentage":0.001045527991635776},{"relayer":"flashbots","percentage":0.38751069289991447}]},{"id":"Binance","idType":"entity","timeWindow":"1d","validatorCount":23051,"avgCorrectness":0.9919558553626425,"avgInclusionDelay":1.0181758019665395,"avgUptime":0.9993938750720455,"avgValidatorEffectiveness":97.74688044456326,"clientPercentages":[{"client":"Teku","percentage":0.013248542660307366},{"client":"Lighthouse","percentage":0.42483660130718953},{"client":"Nimbus","percentage":0.00026497085320614734},{"client":"Prysm","percentage":0.5616498851792969}],"networkPenetration":0.05250928838763614,"relayerPercentages":[{"relayer":"bloxroute_regulated","percentage":0.0021462517246665647},{"relayer":"edennetwork","percentage":0.0016863406408094434},{"relayer":"bloxroute_maxprofit","percentage":0.007665184730952016},{"relayer":"flashbots","percentage":0.1741529970872298},{"relayer":"blocknative","percentage":0.0006132147784761613},{"relayer":"bloxroute_ethical","percentage":0.00015330369461904033},{"relayer":"no_mev_boost","percentage":0.813582707343247}]},{"id":"Bitcoin Suisse","idType":"entity","timeWindow":"1d","validatorCount":9184,"avgCorrectness":0.9922451079197111,"avgInclusionDelay":1.0231280403899452,"avgUptime":0.9988433429774344,"avgValidatorEffectiveness":97.32692690951495,"clientPercentages":[{"client":"Teku","percentage":0.9669882100750268},{"client":"Nimbus","percentage":0.0330117899249732}],"networkPenetration":0.020920797559847742,"relayerPercentages":[{"relayer":"no_mev_boost","percentage":1.0}]},{"id":"Rocketpool","idType":"entity","timeWindow":"1d","validatorCount":8847,"avgCorrectness":0.9870523642076651,"avgInclusionDelay":1.030963820273155,"avgUptime":0.9866307762844968,"avgValidatorEffectiveness":95.36198638849766,"clientPercentages":[{"client":"Nimbus","percentage":0.222397250465416},{"client":"Lighthouse","percentage":0.43190605756838035},{"client":"Teku","percentage":0.29987111556637547},{"client":"Prysm","percentage":0.045825576399828157}],"networkPenetration":0.020062006109492492,"relayerPercentages":[{"relayer":"blocknative","percentage":0.01997276441216523},{"relayer":"no_mev_boost","percentage":0.3613254652746255},{"relayer":"bloxroute_regulated","percentage":0.07489786654561961},{"relayer":"bloxroute_maxprofit","percentage":0.09169314571039491},{"relayer":"flashbots","percentage":0.41670449387199276},{"relayer":"edennetwork","percentage":0.004539264639128461},{"relayer":"manifold","percentage":0.0009078529278256923},{"relayer":"bloxroute_ethical","percentage":0.029959146618247844}]},{"id":"Staked.us","idType":"entity","timeWindow":"1d","validatorCount":5263,"avgCorrectness":0.9899392024162268,"avgInclusionDelay":1.0218185309275953,"avgUptime":0.9984359213316082,"avgValidatorEffectiveness":97.20020223999109,"clientPercentages":[{"client":"Teku","percentage":0.4700886262924668},{"client":"Lighthouse","percentage":0.05243722304283604},{"client":"Prysm","percentage":0.4771048744460857},{"client":"Nimbus","percentage":0.00036927621861152144}],"networkPenetration":0.011988910883871806,"relayerPercentages":[{"relayer":"no_mev_boost","percentage":0.5832793259883344},{"relayer":"flashbots","percentage":0.39857420609202854},{"relayer":"bloxroute_maxprofit","percentage":0.01814646791963707}]},{"id":"f2pool.eth","idType":"entity","timeWindow":"1d","validatorCount":3501,"avgCorrectness":0.9886643276173189,"avgInclusionDelay":1.0395038258455125,"avgUptime":0.9903690697215768,"avgValidatorEffectiveness":95.0562535896043,"clientPercentages":[{"client":"Lighthouse","percentage":0.9835886214442013},{"client":"Teku","percentage":0.014223194748358862},{"client":"Prysm","percentage":0.0010940919037199124},{"client":"Nimbus","percentage":0.0010940919037199124}],"networkPenetration":0.00797514288512924,"relayerPercentages":[{"relayer":"no_mev_boost","percentage":0.35490605427974947},{"relayer":"manifold","percentage":0.049060542797494784},{"relayer":"flashbots","percentage":0.5960334029227558}]},{"id":"Bitfinex","idType":"entity","timeWindow":"1d","validatorCount":3214,"avgCorrectness":0.99238808080235,"avgInclusionDelay":1.0180845639134837,"avgUptime":0.9993970575162231,"avgValidatorEffectiveness":97.79234741974498,"clientPercentages":[{"client":"Teku","percentage":0.03431372549019608},{"client":"Lighthouse","percentage":0.009191176470588236},{"client":"Prysm","percentage":0.9564950980392157}],"networkPenetration":0.007321367961383998,"relayerPercentages":[{"relayer":"flashbots","percentage":0.11572052401746726},{"relayer":"no_mev_boost","percentage":0.8842794759825328}]},{"id":"Huobi","idType":"entity","timeWindow":"1d","validatorCount":2855,"avgCorrectness":0.9908117224859264,"avgInclusionDelay":1.0186112664603075,"avgUptime":0.9993469338114696,"avgValidatorEffectiveness":97.60855854462034,"clientPercentages":[{"client":"Prysm","percentage":0.9693165969316597},{"client":"Teku","percentage":0.02301255230125523},{"client":"Lighthouse","percentage":0.007670850767085077}],"networkPenetration":0.0065035798163507515,"relayerPercentages":[{"relayer":"bloxroute_ethical","percentage":0.10610079575596817},{"relayer":"flashbots","percentage":0.39389920424403185},{"relayer":"edennetwork","percentage":0.011936339522546418},{"relayer":"blocknative","percentage":0.005305039787798408},{"relayer":"no_mev_boost","percentage":0.46816976127320953},{"relayer":"bloxroute_maxprofit","percentage":0.002652519893899204},{"relayer":"bloxroute_regulated","percentage":0.011936339522546418}]},{"id":"Bloxstaking","idType":"entity","timeWindow":"1d","validatorCount":2532,"avgCorrectness":0.9910062163649053,"avgInclusionDelay":1.0172369373243046,"avgUptime":0.999332510983626,"avgValidatorEffectiveness":97.72805024162778,"clientPercentages":[{"client":"Prysm","percentage":0.4911392405063291},{"client":"Teku","percentage":0.006751054852320675},{"client":"Lighthouse","percentage":0.5021097046413502}],"networkPenetration":0.005760964397741174,"relayerPercentages":[{"relayer":"flashbots","percentage":0.6214285714285714},{"relayer":"bloxroute_ethical","percentage":0.025714285714285714},{"relayer":"blocknative","percentage":0.11428571428571428},{"relayer":"no_mev_boost","percentage":0.23857142857142857}]},{"id":"wedex.eth","idType":"entity","timeWindow":"1d","validatorCount":2399,"avgCorrectness":0.98427981470622,"avgInclusionDelay":1.0478568037753764,"avgUptime":0.995234758034101,"avgValidatorEffectiveness":94.42095481093253,"clientPercentages":[{"client":"Lighthouse","percentage":0.9983935742971888},{"client":"Prysm","percentage":0.001606425702811245}],"networkPenetration":0.0054648294148600535,"relayerPercentages":[{"relayer":"flashbots","percentage":0.39363241678726485},{"relayer":"bloxroute_ethical","percentage":0.015918958031837915},{"relayer":"blocknative","percentage":0.04775687409551375},{"relayer":"bloxroute_maxprofit","percentage":0.2793053545586107},{"relayer":"no_mev_boost","percentage":0.22865412445730826},{"relayer":"edennetwork","percentage":0.02894356005788712},{"relayer":"manifold","percentage":0.005788712011577424}]},{"id":"Ankr","idType":"entity","timeWindow":"1d","validatorCount":2299,"avgCorrectness":0.9913781428715147,"avgInclusionDelay":1.0170550839259873,"avgUptime":0.9993184838818809,"avgValidatorEffectiveness":97.77758512376394,"clientPercentages":[{"client":"Prysm","percentage":0.526829268292683},{"client":"Teku","percentage":0.005853658536585366},{"client":"Lighthouse","percentage":0.46731707317073173}],"networkPenetration":0.005237033274182269,"relayerPercentages":[{"relayer":"flashbots","percentage":0.10882352941176471},{"relayer":"no_mev_boost","percentage":0.8911764705882353}]},{"id":"StakeWise","idType":"entity","timeWindow":"1d","validatorCount":1993,"avgCorrectness":0.9911806743677453,"avgInclusionDelay":1.0211420199742305,"avgUptime":0.9989298356368417,"avgValidatorEffectiveness":97.39635231690738,"clientPercentages":[{"client":"Teku","percentage":0.340625},{"client":"Nimbus","percentage":0.009375},{"client":"Lighthouse","percentage":0.5416666666666666},{"client":"Prysm","percentage":0.10833333333333334}],"networkPenetration":0.004533143199487914,"relayerPercentages":[{"relayer":"manifold","percentage":0.0017241379310344827},{"relayer":"bloxroute_maxprofit","percentage":0.3413793103448276},{"relayer":"blocknative","percentage":0.05172413793103448},{"relayer":"flashbots","percentage":0.4810344827586207},{"relayer":"bloxroute_regulated","percentage":0.01896551724137931},{"relayer":"no_mev_boost","percentage":0.10517241379310345}]},{"id":"OKex","idType":"entity","timeWindow":"1d","validatorCount":1812,"avgCorrectness":0.9911970151880755,"avgInclusionDelay":1.0182134107779872,"avgUptime":0.9994885209687163,"avgValidatorEffectiveness":97.68799432029374,"clientPercentages":[{"client":"Prysm","percentage":0.9546485260770975},{"client":"Teku","percentage":0.024943310657596373},{"client":"Lighthouse","percentage":0.02040816326530612}],"networkPenetration":0.00412538810767468,"relayerPercentages":[{"relayer":"no_mev_boost","percentage":1.0}]}]}