{"page":{"from":0,"size":15},"total":29,"next":"/v0/eth/operators?window=1d&from=15&size=15&idType=entity","data":[{"id":"Lido","idType":"entity","timeWindow":"1d","validatorCount":127941,"avgCorrectness":0.9876003582661593,"avgInclusionDelay":1.0190914873022405,"avgUptime":0.9994236088814391,"avgValidatorEffectiveness":97.63969295422356,"clientPercentages":[{"client":"Nimbus","percentage":0.08723331875394859},{"client":"Prysm","percentage":0.3591064457079911},{"client":"Lighthouse","percentage":0.40130566490094116},{"client":"Teku","percentage":0.1523545706371191}],"networkPenetration":0.3252493878835482},{"id":"Coinbase","idType":"entity","timeWindow":"1d","validatorCount":55456,"avgCorrectness":0.9874830252058168,"avgInclusionDelay":1.015891886480258,"avgUptime":0.9997820440481421,"avgValidatorEffectiveness":97.90437813352409,"clientPercentages":[{"client":"Lighthouse","percentage":0.1399023184653407},{"client":"Nimbus","percentage":0.12089561021537013},{"client":"Prysm","percentage":0.5763798987878075},{"client":"Teku","percentage":0.1628221725314817}],"networkPenetration":0.14154793185231426},{"id":"Kraken","idType":"entity","timeWindow":"1d","validatorCount":33475,"avgCorrectness":0.9839342525801594,"avgInclusionDelay":1.0221993414738642,"avgUptime":0.9981286337791367,"avgValidatorEffectiveness":97.12519051734584,"clientPercentages":[{"client":"Nimbus","percentage":0.06411867027444917},{"client":"Prysm","percentage":0.750966370313104},{"client":"Lighthouse","percentage":0.11321028218013143},{"client":"Teku","percentage":0.07170467723231543}],"networkPenetration":0.0855402359430687},{"id":"Binance","idType":"entity","timeWindow":"1d","validatorCount":19738,"avgCorrectness":0.9877594063023788,"avgInclusionDelay":1.0148699161037833,"avgUptime":0.999832809808488,"avgValidatorEffectiveness":98.0077118541347,"clientPercentages":[{"client":"Lighthouse","percentage":0.29638377585926046},{"client":"Teku","percentage":0.01628929793125916},{"client":"Nimbus","percentage":0.08063202475973286},{"client":"Prysm","percentage":0.6066949014497475}],"networkPenetration":0.050499287463189865},{"id":"Bitcoin Suisse","idType":"entity","timeWindow":"1d","validatorCount":8133,"avgCorrectness":0.9830217084282585,"avgInclusionDelay":1.06739033574599,"avgUptime":0.9983441005095846,"avgValidatorEffectiveness":93.51754916713449,"clientPercentages":[{"client":"Prysm","percentage":0.0009778994719342852},{"client":"Nimbus","percentage":0.12438881283004107},{"client":"Teku","percentage":0.8746332876980246}],"networkPenetration":0.020808121640395336},{"id":"Rocketpool","idType":"entity","timeWindow":"1d","validatorCount":5443,"avgCorrectness":0.9850496788533284,"avgInclusionDelay":1.0257069461586976,"avgUptime":0.9949028240173432,"avgValidatorEffectiveness":96.67795329930108,"clientPercentages":[{"client":"Lighthouse","percentage":0.4493120354262217},{"client":"Prysm","percentage":0.05962359639411672},{"client":"Nimbus","percentage":0.26174284358690497},{"client":"Teku","percentage":0.2293215245927566}],"networkPenetration":0.013887431976400575},{"id":"Staked.us","idType":"entity","timeWindow":"1d","validatorCount":5263,"avgCorrectness":0.9865545408951611,"avgInclusionDelay":1.0289697208869388,"avgUptime":0.9993231574724997,"avgValidatorEffectiveness":96.77319876565544,"clientPercentages":[{"client":"Prysm","percentage":0.430622009569378},{"client":"Teku","percentage":0.4967105263157895},{"client":"Lighthouse","percentage":0.00687799043062201},{"client":"Nimbus","percentage":0.06578947368421052}],"networkPenetration":0.013465282699299232},{"id":"f2pool.eth","idType":"entity","timeWindow":"1d","validatorCount":3501,"avgCorrectness":0.9828228750394029,"avgInclusionDelay":1.0600303275271246,"avgUptime":0.9987546415309899,"avgValidatorEffectiveness":94.13048774758522,"clientPercentages":[{"client":"Lighthouse","percentage":1.0}],"networkPenetration":0.008957240115950334},{"id":"Bitfinex","idType":"entity","timeWindow":"1d","validatorCount":3214,"avgCorrectness":0.9823751859668547,"avgInclusionDelay":1.0280745943327683,"avgUptime":0.9992048675931684,"avgValidatorEffectiveness":96.6341646746761,"clientPercentages":[{"client":"Nimbus","percentage":0.11834319526627218},{"client":"Prysm","percentage":0.841715976331361},{"client":"Teku","percentage":0.03796844181459566},{"client":"Lighthouse","percentage":0.0019723865877712033}],"networkPenetration":0.008222956221840725},{"id":"Huobi","idType":"entity","timeWindow":"1d","validatorCount":2855,"avgCorrectness":0.9859759050779674,"avgInclusionDelay":1.0194003678400068,"avgUptime":0.9996139326717263,"avgValidatorEffectiveness":97.51630469767008,"clientPercentages":[{"client":"Prysm","percentage":0.8620689655172413},{"client":"Lighthouse","percentage":0.0005473453749315818},{"client":"Nimbus","percentage":0.11056376573617953},{"client":"Teku","percentage":0.02681992337164751}],"networkPenetration":0.007304461734086891},{"id":"wedex.eth","idType":"entity","timeWindow":"1d","validatorCount":2399,"avgCorrectness":0.9871656961257117,"avgInclusionDelay":1.0166719942184481,"avgUptime":0.999763790468251,"avgValidatorEffectiveness":97.82085210655774,"clientPercentages":[{"client":"Lighthouse","percentage":1.0}],"networkPenetration":0.006137794641006813},{"id":"Ankr","idType":"entity","timeWindow":"1d","validatorCount":2268,"avgCorrectness":0.8577352214660339,"avgInclusionDelay":1.4610894424887066,"avgUptime":0.959405777628685,"avgValidatorEffectiveness":69.77372233507674,"clientPercentages":[{"client":"Teku","percentage":0.01},{"client":"Nimbus","percentage":0.10916666666666666},{"client":"Lighthouse","percentage":0.004166666666666667},{"client":"Prysm","percentage":0.8766666666666667}],"networkPenetration":0.005800075219325738},{"id":"Bloxstaking","idType":"entity","timeWindow":"1d","validatorCount":2265,"avgCorrectness":0.9863242151621487,"avgInclusionDelay":1.015841007041756,"avgUptime":0.9998175128771151,"avgValidatorEffectiveness":97.84533898213968,"clientPercentages":[{"client":"Teku","percentage":0.01977401129943503},{"client":"Lighthouse","percentage":0.3870056497175141},{"client":"Prysm","percentage":0.528954802259887},{"client":"Nimbus","percentage":0.06426553672316385}],"networkPenetration":0.005794958258391177},{"id":"Stakewise","idType":"entity","timeWindow":"1d","validatorCount":2252,"avgCorrectness":0.9852820692883895,"avgInclusionDelay":1.0250597108487272,"avgUptime":0.9985096452187124,"avgValidatorEffectiveness":96.95073786776796,"clientPercentages":[{"client":"Teku","percentage":0.03550784475639967},{"client":"Prysm","percentage":0.4310487200660611},{"client":"Nimbus","percentage":0.053674649050371594},{"client":"Lighthouse","percentage":0.4797687861271676}],"networkPenetration":0.005730996246709154},{"id":"Stakefish","idType":"entity","timeWindow":"1d","validatorCount":1518,"avgCorrectness":0.9808340835579119,"avgInclusionDelay":1.073266394728585,"avgUptime":0.9984160445030015,"avgValidatorEffectiveness":92.9682121307181,"clientPercentages":[{"client":"Teku","percentage":0.045317220543806644},{"client":"Lighthouse","percentage":0.9546827794561934}],"networkPenetration":0.0038837733493323643}]}