{"page":{"from":0,"size":15},"total":36,"next":"/v0/eth/operators?window=1d&from=15&size=15&idType=entity","data":[{"id":"Lido","idType":"entity","timeWindow":"1d","validatorCount":139800,"avgCorrectness":0.9892935031181637,"avgInclusionDelay":1.0258366695991636,"avgUptime":0.9991561279535104,"avgValidatorEffectiveness":96.45488749138275,"clientPercentages":[{"client":"Lighthouse","percentage":0.45778842956887955},{"client":"Nimbus","percentage":0.01863293804721268},{"client":"Lodestar","percentage":0.003989803834644797},{"client":"Teku","percentage":0.1635681037348997},{"client":"Prysm","percentage":0.3560207248143633}],"networkPenetration":0.3047874585336946,"relayerPercentages":[{"relayer":"blocknative","percentage":0.03914338172897413},{"relayer":"bloxroute_ethical","percentage":0.05225803465354173},{"relayer":"bloxroute_maxprofit","percentage":0.03918966873929613},{"relayer":"bloxroute_regulated","percentage":0.012528350793822227},{"relayer":"edennetwork","percentage":0.05298319781525311},{"relayer":"flashbots","percentage":0.6019471402342123},{"relayer":"manifold","percentage":0.014796414299600389},{"relayer":"no_mev_boost","percentage":0.18690694768024932},{"relayer":"relayooor","percentage":0.0002468640550506843}],"nodeOperatorCount":29},{"id":"Coinbase","idType":"entity","timeWindow":"1d","validatorCount":54645,"avgCorrectness":0.988309507219851,"avgInclusionDelay":1.023575833445359,"avgUptime":0.9979772877461601,"avgValidatorEffectiveness":96.42074922956155,"clientPercentages":[{"client":"Prysm","percentage":0.3576168047581394},{"client":"Lighthouse","percentage":0.42874823804448725},{"client":"Teku","percentage":0.20679341286485373},{"client":"Nimbus","percentage":0.0068415443325196825}],"networkPenetration":0.11949512244723912,"relayerPercentages":[{"relayer":"bloxroute_ethical","percentage":0.0009973149213655542},{"relayer":"bloxroute_maxprofit","percentage":0.017222861526658997},{"relayer":"bloxroute_regulated","percentage":3.835826620636747e-05},{"relayer":"flashbots","percentage":0.07391637897967011},{"relayer":"manifold","percentage":7.671653241273494e-05},{"relayer":"no_mev_boost","percentage":0.9077483697736862}],"nodeOperatorCount":null},{"id":"Kraken","idType":"entity","timeWindow":"1d","validatorCount":38066,"avgCorrectness":0.9893620272151761,"avgInclusionDelay":1.0214640007005937,"avgUptime":0.9976067759974214,"avgValidatorEffectiveness":96.67418692669403,"clientPercentages":[{"client":"Nimbus","percentage":9.843973027513905e-05},{"client":"Prysm","percentage":0.6941969779002806},{"client":"Lighthouse","percentage":0.25358074518875817},{"client":"Teku","percentage":0.052123837180686125}],"networkPenetration":0.08313160536104387,"relayerPercentages":[{"relayer":"blocknative","percentage":0.007917872549554962},{"relayer":"bloxroute_ethical","percentage":0.0031671490198219845},{"relayer":"bloxroute_maxprofit","percentage":0.01354229236061814},{"relayer":"edennetwork","percentage":0.007863266531971823},{"relayer":"flashbots","percentage":0.44820619232239395},{"relayer":"manifold","percentage":0.005569813793480041},{"relayer":"no_mev_boost","percentage":0.5137334134221592}],"nodeOperatorCount":null},{"id":"Binance","idType":"entity","timeWindow":"1d","validatorCount":23826,"avgCorrectness":0.9905440404036635,"avgInclusionDelay":1.0186329065752335,"avgUptime":0.9999477694768562,"avgValidatorEffectiveness":97.27465045464797,"clientPercentages":[{"client":"Nimbus","percentage":0.0011181215557862791},{"client":"Prysm","percentage":0.5314272023001357},{"client":"Lighthouse","percentage":0.4613848734126667},{"client":"Teku","percentage":0.006069802731411229}],"networkPenetration":0.05210157905440423,"relayerPercentages":[{"relayer":"blocknative","percentage":0.0014845864989957208},{"relayer":"bloxroute_ethical","percentage":8.732861758798358e-05},{"relayer":"bloxroute_maxprofit","percentage":0.0029691729979914416},{"relayer":"bloxroute_regulated","percentage":0.04497423805781155},{"relayer":"edennetwork","percentage":0.004104445026635229},{"relayer":"flashbots","percentage":0.7551305562832941},{"relayer":"no_mev_boost","percentage":0.19124967251768404}],"nodeOperatorCount":null},{"id":"Staked.us","idType":"entity","timeWindow":"1d","validatorCount":12841,"avgCorrectness":0.9891145329147868,"avgInclusionDelay":1.02121378486169,"avgUptime":0.999060128581194,"avgValidatorEffectiveness":96.8152510862368,"clientPercentages":[{"client":"Lighthouse","percentage":0.11148402159638114},{"client":"Nimbus","percentage":0.00029184298847220193},{"client":"Teku","percentage":0.25857288778637094},{"client":"Prysm","percentage":0.6296512476287757}],"networkPenetration":0.028080096392076082,"relayerPercentages":[{"relayer":"blocknative","percentage":0.012026183589587456},{"relayer":"bloxroute_ethical","percentage":0.007154818084944436},{"relayer":"bloxroute_maxprofit","percentage":0.03501293956462171},{"relayer":"edennetwork","percentage":0.02253006545897397},{"relayer":"flashbots","percentage":0.5314355305221495},{"relayer":"manifold","percentage":0.0038057543005023597},{"relayer":"no_mev_boost","percentage":0.38803470847922056}],"nodeOperatorCount":null},{"id":"Bitcoin Suisse","idType":"entity","timeWindow":"1d","validatorCount":9214,"avgCorrectness":0.9909164537754491,"avgInclusionDelay":1.0210198468244573,"avgUptime":0.9998555338494565,"avgValidatorEffectiveness":97.08605030999709,"clientPercentages":[{"client":"Nimbus","percentage":0.024842271293375396},{"client":"Prysm","percentage":0.0005914826498422713},{"client":"Lighthouse","percentage":0.0001971608832807571},{"client":"Teku","percentage":0.9743690851735016}],"networkPenetration":0.020148742944987853,"relayerPercentages":[{"relayer":"no_mev_boost","percentage":1.0}],"nodeOperatorCount":null},{"id":"Rocketpool","idType":"entity","timeWindow":"1d","validatorCount":9144,"avgCorrectness":0.9878823115798077,"avgInclusionDelay":1.026222335281137,"avgUptime":0.9884670562920793,"avgValidatorEffectiveness":95.31725092202197,"clientPercentages":[{"client":"Nimbus","percentage":0.1949977365323676},{"client":"Lighthouse","percentage":0.4125169760072431},{"client":"Teku","percentage":0.3408782254413762},{"client":"Prysm","percentage":0.05160706201901313}],"networkPenetration":0.01996724243875451,"relayerPercentages":[{"relayer":"blocknative","percentage":0.05041058394160584},{"relayer":"bloxroute_ethical","percentage":0.0385492700729927},{"relayer":"bloxroute_maxprofit","percentage":0.08188868613138686},{"relayer":"bloxroute_regulated","percentage":0.05132299270072993},{"relayer":"edennetwork","percentage":0.052463503649635035},{"relayer":"flashbots","percentage":0.5629562043795621},{"relayer":"manifold","percentage":0.0015967153284671533},{"relayer":"no_mev_boost","percentage":0.16012773722627738},{"relayer":"relayooor","percentage":0.0006843065693430657}],"nodeOperatorCount":1590},{"id":"Stakefish","idType":"entity","timeWindow":"1d","validatorCount":8077,"avgCorrectness":0.9876335877581691,"avgInclusionDelay":1.0414322602154478,"avgUptime":0.9982469841640709,"avgValidatorEffectiveness":94.84181753716248,"clientPercentages":[{"client":"Nimbus","percentage":0.006570580754557015},{"client":"Prysm","percentage":0.000847816871555744},{"client":"Lighthouse","percentage":0.6877914370495973},{"client":"Teku","percentage":0.30479016532428993}],"networkPenetration":0.01763616364785403,"relayerPercentages":[{"relayer":"bloxroute_ethical","percentage":0.00044742729306487697},{"relayer":"bloxroute_maxprofit","percentage":0.003803131991051454},{"relayer":"bloxroute_regulated","percentage":0.00022371364653243848},{"relayer":"edennetwork","percentage":0.0008948545861297539},{"relayer":"flashbots","percentage":0.8959731543624161},{"relayer":"manifold","percentage":0.07472035794183446},{"relayer":"no_mev_boost","percentage":0.023937360178970916}],"nodeOperatorCount":null},{"id":"Celsius Network","idType":"entity","timeWindow":"1d","validatorCount":4943,"avgCorrectness":0.9907373563122788,"avgInclusionDelay":1.018286254309901,"avgUptime":0.9999500977813744,"avgValidatorEffectiveness":97.32537980566073,"clientPercentages":[{"client":"Lighthouse","percentage":0.004900113079532605},{"client":"Prysm","percentage":0.9890689785148888},{"client":"Teku","percentage":0.00603090840557859}],"networkPenetration":0.01080912050977588,"relayerPercentages":[{"relayer":"flashbots","percentage":0.938884331419196},{"relayer":"no_mev_boost","percentage":0.06111566858080394}],"nodeOperatorCount":null},{"id":"Bitfinex","idType":"entity","timeWindow":"1d","validatorCount":3214,"avgCorrectness":0.9909052039575662,"avgInclusionDelay":1.0186727055854237,"avgUptime":0.9999135725644753,"avgValidatorEffectiveness":97.30201114678599,"clientPercentages":[{"client":"Prysm","percentage":0.9792387543252595},{"client":"Teku","percentage":0.016724336793540944},{"client":"Nimbus","percentage":0.0005767012687427913},{"client":"Lighthouse","percentage":0.0034602076124567475}],"networkPenetration":0.0070282244220958275,"relayerPercentages":[{"relayer":"blocknative","percentage":0.0012919896640826874},{"relayer":"bloxroute_maxprofit","percentage":0.0012919896640826874},{"relayer":"edennetwork","percentage":0.00516795865633075},{"relayer":"flashbots","percentage":0.8333333333333334},{"relayer":"no_mev_boost","percentage":0.15891472868217055}],"nodeOperatorCount":null},{"id":"Abyss","idType":"entity","timeWindow":"1d","validatorCount":2989,"avgCorrectness":0.9901487158551715,"avgInclusionDelay":1.021404694255437,"avgUptime":0.9966017997964934,"avgValidatorEffectiveness":96.6725562209675,"clientPercentages":[{"client":"Prysm","percentage":0.033630748112560054},{"client":"Lighthouse","percentage":0.08098833218943034},{"client":"Teku","percentage":0.8407687028140014},{"client":"Nimbus","percentage":0.04461221688400824}],"networkPenetration":0.006534018224400228,"relayerPercentages":[{"relayer":"blocknative","percentage":0.007173601147776184},{"relayer":"bloxroute_ethical","percentage":0.006456241032998565},{"relayer":"bloxroute_maxprofit","percentage":0.02080344332855093},{"relayer":"bloxroute_regulated","percentage":0.014347202295552367},{"relayer":"edennetwork","percentage":0.015064562410329985},{"relayer":"flashbots","percentage":0.3794835007173601},{"relayer":"manifold","percentage":0.00430416068866571},{"relayer":"no_mev_boost","percentage":0.5502152080344332},{"relayer":"relayooor","percentage":0.002152080344332855}],"nodeOperatorCount":null},{"id":"Huobi","idType":"entity","timeWindow":"1d","validatorCount":2855,"avgCorrectness":0.9903032029710793,"avgInclusionDelay":1.0186058314670676,"avgUptime":0.9999229422066545,"avgValidatorEffectiveness":97.24875404251249,"clientPercentages":[{"client":"Teku","percentage":0.010876519513755598},{"client":"Lighthouse","percentage":0.007677543186180422},{"client":"Prysm","percentage":0.981445937300064}],"networkPenetration":0.006243180063809455,"relayerPercentages":[{"relayer":"blocknative","percentage":0.061224489795918366},{"relayer":"bloxroute_ethical","percentage":0.01749271137026239},{"relayer":"bloxroute_maxprofit","percentage":0.11005830903790087},{"relayer":"bloxroute_regulated","percentage":0.060495626822157436},{"relayer":"edennetwork","percentage":0.09548104956268222},{"relayer":"flashbots","percentage":0.5947521865889213},{"relayer":"manifold","percentage":0.056851311953352766},{"relayer":"no_mev_boost","percentage":0.0036443148688046646}],"nodeOperatorCount":null},{"id":"Bloxstaking","idType":"entity","timeWindow":"1d","validatorCount":2621,"avgCorrectness":0.9894931634355506,"avgInclusionDelay":1.0189220081005566,"avgUptime":0.9965590955028534,"avgValidatorEffectiveness":96.81243087285897,"clientPercentages":[{"client":"Prysm","percentage":0.683969465648855},{"client":"Lighthouse","percentage":0.3099236641221374},{"client":"Teku","percentage":0.0061068702290076335}],"networkPenetration":0.005729293088329517,"relayerPercentages":[{"relayer":"blocknative","percentage":0.05267489711934156},{"relayer":"bloxroute_ethical","percentage":0.0032921810699588477},{"relayer":"flashbots","percentage":0.9275720164609054},{"relayer":"no_mev_boost","percentage":0.01646090534979424}],"nodeOperatorCount":null},{"id":"wedex.eth","idType":"entity","timeWindow":"1d","validatorCount":2399,"avgCorrectness":0.990331554408513,"avgInclusionDelay":1.0184892694797827,"avgUptime":0.9999453475985363,"avgValidatorEffectiveness":97.26203014299632,"clientPercentages":[{"client":"Lighthouse","percentage":0.993841416474211},{"client":"Nimbus","percentage":0.006158583525789068}],"networkPenetration":0.005246020656069661,"relayerPercentages":[{"relayer":"blocknative","percentage":0.045454545454545456},{"relayer":"bloxroute_ethical","percentage":0.009433962264150943},{"relayer":"bloxroute_maxprofit","percentage":0.10548885077186965},{"relayer":"edennetwork","percentage":0.12006861063464837},{"relayer":"flashbots","percentage":0.5025728987993139},{"relayer":"manifold","percentage":0.048027444253859346},{"relayer":"no_mev_boost","percentage":0.16895368782161235}],"nodeOperatorCount":null},{"id":"Ankr","idType":"entity","timeWindow":"1d","validatorCount":2304,"avgCorrectness":0.9904149366647171,"avgInclusionDelay":1.0183597361710834,"avgUptime":0.9999720293209875,"avgValidatorEffectiveness":97.290725189059,"clientPercentages":[{"client":"Prysm","percentage":0.162291169451074},{"client":"Lighthouse","percentage":0.8369132856006364},{"client":"Teku","percentage":0.0007955449482895784}],"networkPenetration":0.005038279112790538,"relayerPercentages":[{"relayer":"flashbots","percentage":0.15173674588665448},{"relayer":"no_mev_boost","percentage":0.8482632541133455}],"nodeOperatorCount":null}]}