{"page":{"from":0,"to":null,"size":15},"total":36,"next":"/v0/eth/operators?window=1d&from=15&size=15&idType=entity","data":[{"id":"Lido","idType":"entity","timeWindow":"1d","validatorCount":142064,"avgCorrectness":0.9874815622121105,"avgInclusionDelay":1.0227491596433598,"avgUptime":0.997644500686461,"avgValidatorEffectiveness":96.43798221766167,"clientPercentages":[{"client":"Lodestar","percentage":0.003989803834644797},{"client":"Prysm","percentage":0.3560207248143633},{"client":"Lighthouse","percentage":0.45778842956887955},{"client":"Nimbus","percentage":0.01863293804721268},{"client":"Teku","percentage":0.1635681037348997}],"networkPenetration":0.3043631102298912,"relayerPercentages":[{"relayer":"edennetwork","percentage":0.06666666666666667},{"relayer":"manifold","percentage":0.003218390804597701},{"relayer":"bloxroute_ethical","percentage":0.04551724137931035},{"relayer":"bloxroute_regulated","percentage":0.014712643678160919},{"relayer":"blocknative","percentage":0.05057471264367816},{"relayer":"no_mev_boost","percentage":0.0073563218390804595},{"relayer":"flashbots","percentage":0.7057471264367816},{"relayer":"bloxroute_maxprofit","percentage":0.10620689655172413}],"nodeOperatorCount":29},{"id":"Coinbase","idType":"entity","timeWindow":"1d","validatorCount":54761,"avgCorrectness":0.985718052243574,"avgInclusionDelay":1.0210800644360043,"avgUptime":0.9977703515681273,"avgValidatorEffectiveness":96.39380169303902,"clientPercentages":[{"client":"Teku","percentage":0.20679341286485373},{"client":"Nimbus","percentage":0.0068415443325196825},{"client":"Prysm","percentage":0.3576168047581394},{"client":"Lighthouse","percentage":0.42874823804448725}],"networkPenetration":0.11737848989871925,"relayerPercentages":[{"relayer":"blocknative","percentage":0.002325581395348837},{"relayer":"bloxroute_maxprofit","percentage":0.23604651162790696},{"relayer":"bloxroute_ethical","percentage":0.005813953488372093},{"relayer":"flashbots","percentage":0.7441860465116279},{"relayer":"no_mev_boost","percentage":0.011627906976744186}],"nodeOperatorCount":null},{"id":"Kraken","idType":"entity","timeWindow":"1d","validatorCount":38284,"avgCorrectness":0.9874925500381115,"avgInclusionDelay":1.017509895211716,"avgUptime":0.9988232210745192,"avgValidatorEffectiveness":96.97972260869014,"clientPercentages":[{"client":"Teku","percentage":0.052123837180686125},{"client":"Nimbus","percentage":9.843973027513905e-05},{"client":"Lighthouse","percentage":0.25358074518875817},{"client":"Prysm","percentage":0.6941969779002806}],"networkPenetration":0.08203418895021702,"relayerPercentages":[{"relayer":"no_mev_boost","percentage":0.013445378151260505},{"relayer":"edennetwork","percentage":0.013445378151260505},{"relayer":"bloxroute_ethical","percentage":0.0016806722689075631},{"relayer":"bloxroute_maxprofit","percentage":0.13109243697478992},{"relayer":"blocknative","percentage":0.015126050420168067},{"relayer":"flashbots","percentage":0.8168067226890756},{"relayer":"manifold","percentage":0.008403361344537815}],"nodeOperatorCount":null},{"id":"Binance","idType":"entity","timeWindow":"1d","validatorCount":24402,"avgCorrectness":0.98971631334861,"avgInclusionDelay":1.0135548083193378,"avgUptime":0.9998925406842779,"avgValidatorEffectiveness":97.66320595051438,"clientPercentages":[{"client":"Prysm","percentage":0.5313897763578275},{"client":"Teku","percentage":0.0060702875399361025},{"client":"Lighthouse","percentage":0.4614217252396166},{"client":"Nimbus","percentage":0.0011182108626198084}],"networkPenetration":0.05230587857028026,"relayerPercentages":[{"relayer":"flashbots","percentage":0.8441558441558441},{"relayer":"edennetwork","percentage":0.046753246753246755},{"relayer":"bloxroute_regulated","percentage":0.046753246753246755},{"relayer":"no_mev_boost","percentage":0.04155844155844156},{"relayer":"blocknative","percentage":0.02077922077922078}],"nodeOperatorCount":null},{"id":"Staked.us","idType":"entity","timeWindow":"1d","validatorCount":12917,"avgCorrectness":0.9862814896608006,"avgInclusionDelay":1.0191371944085164,"avgUptime":0.9983835255864364,"avgValidatorEffectiveness":96.67809566665349,"clientPercentages":[{"client":"Nimbus","percentage":0.00029184298847220193},{"client":"Teku","percentage":0.25857288778637094},{"client":"Prysm","percentage":0.6296512476287757},{"client":"Lighthouse","percentage":0.11148402159638114}],"networkPenetration":0.027687690906167944,"relayerPercentages":[{"relayer":"blocknative","percentage":0.008333333333333333},{"relayer":"bloxroute_ethical","percentage":0.0375},{"relayer":"manifold","percentage":0.0125},{"relayer":"edennetwork","percentage":0.08333333333333333},{"relayer":"no_mev_boost","percentage":0.08333333333333333},{"relayer":"bloxroute_maxprofit","percentage":0.3541666666666667},{"relayer":"flashbots","percentage":0.42083333333333334}],"nodeOperatorCount":null},{"id":"Rocketpool","idType":"entity","timeWindow":"1d","validatorCount":9293,"avgCorrectness":0.9868059767780925,"avgInclusionDelay":1.0216252620064787,"avgUptime":0.9874640840016151,"avgValidatorEffectiveness":95.52771032003277,"clientPercentages":[{"client":"Prysm","percentage":0.05160706201901313},{"client":"Lighthouse","percentage":0.4125169760072431},{"client":"Nimbus","percentage":0.1949977365323676},{"client":"Teku","percentage":0.3408782254413762}],"networkPenetration":0.01983602164942929,"relayerPercentages":[{"relayer":"bloxroute_maxprofit","percentage":0.16778523489932887},{"relayer":"flashbots","percentage":0.5771812080536913},{"relayer":"bloxroute_regulated","percentage":0.020134228187919462},{"relayer":"bloxroute_ethical","percentage":0.06711409395973154},{"relayer":"no_mev_boost","percentage":0.12080536912751678},{"relayer":"edennetwork","percentage":0.013422818791946308},{"relayer":"blocknative","percentage":0.03355704697986577}],"nodeOperatorCount":1624},{"id":"Bitcoin Suisse","idType":"entity","timeWindow":"1d","validatorCount":9214,"avgCorrectness":0.9902549830167523,"avgInclusionDelay":1.016842183575598,"avgUptime":0.9984714082434953,"avgValidatorEffectiveness":97.28096343379511,"clientPercentages":[{"client":"Teku","percentage":0.9743640307631631},{"client":"Nimbus","percentage":0.02484717018339578},{"client":"Lighthouse","percentage":0.00019719976336028398},{"client":"Prysm","percentage":0.0005915992900808519}],"networkPenetration":0.019750281335405392,"relayerPercentages":[{"relayer":"edennetwork","percentage":0.006896551724137931},{"relayer":"blocknative","percentage":0.006896551724137931},{"relayer":"no_mev_boost","percentage":0.9379310344827586},{"relayer":"bloxroute_regulated","percentage":0.020689655172413793},{"relayer":"bloxroute_maxprofit","percentage":0.027586206896551724}],"nodeOperatorCount":null},{"id":"Stakefish","idType":"entity","timeWindow":"1d","validatorCount":8078,"avgCorrectness":0.9869057478880239,"avgInclusionDelay":1.029455027331456,"avgUptime":0.996451266815218,"avgValidatorEffectiveness":95.66167145254434,"clientPercentages":[{"client":"Teku","percentage":0.30479016532428993},{"client":"Lighthouse","percentage":0.6877914370495973},{"client":"Prysm","percentage":0.000847816871555744},{"client":"Nimbus","percentage":0.006570580754557015}],"networkPenetration":0.017315256417126626,"relayerPercentages":[{"relayer":"relayooor","percentage":0.007042253521126761},{"relayer":"blocknative","percentage":0.02112676056338028},{"relayer":"no_mev_boost","percentage":0.007042253521126761},{"relayer":"flashbots","percentage":0.7887323943661971},{"relayer":"bloxroute_regulated","percentage":0.014084507042253521},{"relayer":"edennetwork","percentage":0.04929577464788732},{"relayer":"bloxroute_maxprofit","percentage":0.11267605633802817}],"nodeOperatorCount":null},{"id":"Celsius Network","idType":"entity","timeWindow":"1d","validatorCount":4943,"avgCorrectness":0.9895356606805777,"avgInclusionDelay":1.013262084216528,"avgUptime":0.9998129790725389,"avgValidatorEffectiveness":97.6628899040772,"clientPercentages":[{"client":"Prysm","percentage":0.9890689785148888},{"client":"Teku","percentage":0.00603090840557859},{"client":"Lighthouse","percentage":0.004900113079532605}],"networkPenetration":0.010595359305503456,"relayerPercentages":[{"relayer":"flashbots","percentage":0.9375},{"relayer":"no_mev_boost","percentage":0.0625}],"nodeOperatorCount":null},{"id":"Bitfinex","idType":"entity","timeWindow":"1d","validatorCount":3214,"avgCorrectness":0.9905669728331953,"avgInclusionDelay":1.0132996416454711,"avgUptime":0.999829910806886,"avgValidatorEffectiveness":97.76531570127138,"clientPercentages":[{"client":"Teku","percentage":0.01673398730525101},{"client":"Nimbus","percentage":0.0005770340450086555},{"client":"Prysm","percentage":0.9792267743796884},{"client":"Lighthouse","percentage":0.003462204270051933}],"networkPenetration":0.006889234231820374,"relayerPercentages":[{"relayer":"flashbots","percentage":0.9803921568627451},{"relayer":"no_mev_boost","percentage":0.0196078431372549}],"nodeOperatorCount":null},{"id":"Abyss","idType":"entity","timeWindow":"1d","validatorCount":3078,"avgCorrectness":0.9899837685437755,"avgInclusionDelay":1.0153304054005166,"avgUptime":0.9983770124900729,"avgValidatorEffectiveness":97.3932544879278,"clientPercentages":[{"client":"Nimbus","percentage":0.04461221688400824},{"client":"Lighthouse","percentage":0.08098833218943034},{"client":"Teku","percentage":0.8407687028140014},{"client":"Prysm","percentage":0.033630748112560054}],"networkPenetration":0.006591286640587321,"relayerPercentages":[{"relayer":"flashbots","percentage":0.5},{"relayer":"bloxroute_regulated","percentage":0.02631578947368421},{"relayer":"no_mev_boost","percentage":0.42105263157894735},{"relayer":"bloxroute_ethical","percentage":0.05263157894736842}],"nodeOperatorCount":null},{"id":"Huobi","idType":"entity","timeWindow":"1d","validatorCount":2855,"avgCorrectness":0.9882551790118362,"avgInclusionDelay":1.0135876547785718,"avgUptime":0.9996139326717263,"avgValidatorEffectiveness":97.48773196966226,"clientPercentages":[{"client":"Prysm","percentage":0.981445937300064},{"client":"Lighthouse","percentage":0.007677543186180422},{"client":"Teku","percentage":0.010876519513755598}],"networkPenetration":0.006119714913455871,"relayerPercentages":[{"relayer":"edennetwork","percentage":0.12727272727272726},{"relayer":"blocknative","percentage":0.01818181818181818},{"relayer":"bloxroute_regulated","percentage":0.10909090909090909},{"relayer":"bloxroute_maxprofit","percentage":0.09090909090909091},{"relayer":"flashbots","percentage":0.6545454545454545}],"nodeOperatorCount":null},{"id":"Bloxstaking","idType":"entity","timeWindow":"1d","validatorCount":2690,"avgCorrectness":0.9882516622823831,"avgInclusionDelay":1.012759587040146,"avgUptime":0.9999041718298228,"avgValidatorEffectiveness":97.59327679293064,"clientPercentages":[{"client":"Teku","percentage":0.007598784194528876},{"client":"Prysm","percentage":0.6838905775075987},{"client":"Lighthouse","percentage":0.30851063829787234}],"networkPenetration":0.00575960559455549,"relayerPercentages":[{"relayer":"flashbots","percentage":0.8108108108108109},{"relayer":"blocknative","percentage":0.1891891891891892}],"nodeOperatorCount":null},{"id":"wedex.eth","idType":"entity","timeWindow":"1d","validatorCount":2399,"avgCorrectness":0.9890448237610651,"avgInclusionDelay":1.0143658140689737,"avgUptime":0.9998314112361635,"avgValidatorEffectiveness":97.5141166146755,"clientPercentages":[{"client":"Lighthouse","percentage":0.993841416474211},{"client":"Nimbus","percentage":0.006158583525789068}],"networkPenetration":0.005142275333583409,"relayerPercentages":[{"relayer":"bloxroute_maxprofit","percentage":0.16},{"relayer":"flashbots","percentage":0.6},{"relayer":"no_mev_boost","percentage":0.16},{"relayer":"blocknative","percentage":0.08}],"nodeOperatorCount":null},{"id":"Ankr","idType":"entity","timeWindow":"1d","validatorCount":2306,"avgCorrectness":0.989816688833632,"avgInclusionDelay":1.0127122727886042,"avgUptime":0.9998843596415148,"avgValidatorEffectiveness":97.75035579012965,"clientPercentages":[{"client":"Lighthouse","percentage":0.8369132856006364},{"client":"Prysm","percentage":0.162291169451074},{"client":"Teku","percentage":0.0007955449482895784}],"networkPenetration":0.004942929103477841,"relayerPercentages":[{"relayer":"flashbots","percentage":0.0625},{"relayer":"no_mev_boost","percentage":0.9375}],"nodeOperatorCount":null}]}