{"page":{"from":0,"size":15},"total":30,"next":"/v0/eth/operators?window=1d&from=15&size=15&idType=entity","data":[{"id":"Lido","idType":"entity","timeWindow":"1d","validatorCount":129389,"avgCorrectness":0.9899516376982951,"avgInclusionDelay":1.0197571115901194,"avgUptime":0.9998904347215016,"avgValidatorEffectiveness":97.74002236380235,"clientPercentages":[{"client":"Prysm","percentage":0.36031478358628444},{"client":"Teku","percentage":0.2215128884606119},{"client":"Nimbus","percentage":0.06436200112422709},{"client":"Lighthouse","percentage":0.3538103268288766}],"networkPenetration":0.3146044738192332},{"id":"Coinbase","idType":"entity","timeWindow":"1d","validatorCount":56391,"avgCorrectness":0.9905004500269637,"avgInclusionDelay":1.0191232657232856,"avgUptime":0.999656638516997,"avgValidatorEffectiveness":97.79490471983776,"clientPercentages":[{"client":"Prysm","percentage":0.3732605304212169},{"client":"Teku","percentage":0.1432449297971919},{"client":"Lighthouse","percentage":0.39151326053042124},{"client":"Nimbus","percentage":0.09198127925117004}],"networkPenetration":0.1369404990309724},{"id":"Kraken","idType":"entity","timeWindow":"1d","validatorCount":36012,"avgCorrectness":0.9851859589285148,"avgInclusionDelay":1.0271950722023289,"avgUptime":0.9994170102655635,"avgValidatorEffectiveness":96.92786715349904,"clientPercentages":[{"client":"Teku","percentage":0.09004533616282434},{"client":"Nimbus","percentage":0.04528793286389505},{"client":"Lighthouse","percentage":0.2649754027201698},{"client":"Prysm","percentage":0.5996913282531108}],"networkPenetration":0.08755778298158969},{"id":"Binance","idType":"entity","timeWindow":"1d","validatorCount":21153,"avgCorrectness":0.9905075261362933,"avgInclusionDelay":1.0181045153244321,"avgUptime":0.9995580348466455,"avgValidatorEffectiveness":97.8652071452581,"clientPercentages":[{"client":"Nimbus","percentage":0.06721352640830335},{"client":"Lighthouse","percentage":0.34309868586255965},{"client":"Teku","percentage":0.003264417845484222},{"client":"Prysm","percentage":0.5864233698836528}],"networkPenetration":0.051437492248995104},{"id":"Bitcoin Suisse","idType":"entity","timeWindow":"1d","validatorCount":9000,"avgCorrectness":0.9885752018985943,"avgInclusionDelay":1.0348759205426956,"avgUptime":0.99930987654321,"avgValidatorEffectiveness":96.38476828097177,"clientPercentages":[{"client":"Teku","percentage":0.9934552454282964},{"client":"Nimbus","percentage":0.0063522617901828685},{"client":"Prysm","percentage":0.00019249278152069297}],"networkPenetration":0.021885190291729587},{"id":"Rocketpool","idType":"entity","timeWindow":"1d","validatorCount":6521,"avgCorrectness":0.9894236690932484,"avgInclusionDelay":1.0219810134795095,"avgUptime":0.995636153721172,"avgValidatorEffectiveness":97.19118731560482,"clientPercentages":[{"client":"Prysm","percentage":0.07037830121341898},{"client":"Teku","percentage":0.291220556745182},{"client":"Lighthouse","percentage":0.4055674518201285},{"client":"Nimbus","percentage":0.2328336902212705}],"networkPenetration":0.01580110739062876},{"id":"Staked.us","idType":"entity","timeWindow":"1d","validatorCount":5263,"avgCorrectness":0.9901441934088805,"avgInclusionDelay":1.0179610371181251,"avgUptime":0.9997643929317879,"avgValidatorEffectiveness":97.87947764064396,"clientPercentages":[{"client":"Nimbus","percentage":0.043752071594298975},{"client":"Prysm","percentage":0.4461385482267153},{"client":"Lighthouse","percentage":0.0019887305270135896},{"client":"Teku","percentage":0.5081206496519721}],"networkPenetration":0.012797972945041423},{"id":"f2pool.eth","idType":"entity","timeWindow":"1d","validatorCount":3501,"avgCorrectness":0.9908365863721477,"avgInclusionDelay":1.0180576978006284,"avgUptime":1.0,"avgValidatorEffectiveness":97.93034817717796,"clientPercentages":[{"client":"Lighthouse","percentage":1.0}],"networkPenetration":0.00851333902348281},{"id":"Bitfinex","idType":"entity","timeWindow":"1d","validatorCount":3214,"avgCorrectness":0.9890203468081736,"avgInclusionDelay":1.020238201473039,"avgUptime":0.999504252229827,"avgValidatorEffectiveness":97.6412757583146,"clientPercentages":[{"client":"Lighthouse","percentage":0.0027233115468409588},{"client":"Teku","percentage":0.01579520697167756},{"client":"Prysm","percentage":0.8850762527233116},{"client":"Nimbus","percentage":0.09640522875816994}],"networkPenetration":0.007815444621957655},{"id":"Huobi","idType":"entity","timeWindow":"1d","validatorCount":2855,"avgCorrectness":0.9897330219887137,"avgInclusionDelay":1.0185896088733217,"avgUptime":1.0,"avgValidatorEffectiveness":97.82416578555313,"clientPercentages":[{"client":"Nimbus","percentage":0.07923169267707082},{"client":"Lighthouse","percentage":0.0012004801920768306},{"client":"Teku","percentage":0.007202881152460984},{"client":"Prysm","percentage":0.9123649459783914}],"networkPenetration":0.006942468698098663},{"id":"wedex.eth","idType":"entity","timeWindow":"1d","validatorCount":2399,"avgCorrectness":0.9897315093060224,"avgInclusionDelay":1.0221404777696672,"avgUptime":0.9999685053957664,"avgValidatorEffectiveness":97.53156673162029,"clientPercentages":[{"client":"Lighthouse","percentage":1.0}],"networkPenetration":0.005833619056651031},{"id":"Bloxstaking","idType":"entity","timeWindow":"1d","validatorCount":2344,"avgCorrectness":0.9896381628845337,"avgInclusionDelay":1.018744122019295,"avgUptime":0.9999848312476312,"avgValidatorEffectiveness":97.80411289869332,"clientPercentages":[{"client":"Teku","percentage":0.0014727540500736377},{"client":"Lighthouse","percentage":0.49852724594992637},{"client":"Nimbus","percentage":0.054491899852724596},{"client":"Prysm","percentage":0.44550810014727543}],"networkPenetration":0.0056998762270904614},{"id":"Ankr","idType":"entity","timeWindow":"1d","validatorCount":2289,"avgCorrectness":0.8983629277850785,"avgInclusionDelay":1.360009324908128,"avgUptime":0.9869734478908807,"avgValidatorEffectiveness":77.54155307709011,"clientPercentages":[{"client":"Teku","percentage":0.004319654427645789},{"client":"Prysm","percentage":0.9071274298056156},{"client":"Nimbus","percentage":0.07235421166306695},{"client":"Lighthouse","percentage":0.016198704103671708}],"networkPenetration":0.005566133397529892},{"id":"StakeWise","idType":"entity","timeWindow":"1d","validatorCount":1978,"avgCorrectness":0.9903411657113068,"avgInclusionDelay":1.0213894250538724,"avgUptime":0.9999618020447149,"avgValidatorEffectiveness":97.64508289072828,"clientPercentages":[{"client":"Nimbus","percentage":0.04017467248908297},{"client":"Prysm","percentage":0.36069868995633186},{"client":"Lighthouse","percentage":0.5388646288209606},{"client":"Teku","percentage":0.06026200873362445}],"networkPenetration":0.004809878488560125},{"id":"OKex","idType":"entity","timeWindow":"1d","validatorCount":1700,"avgCorrectness":0.9894673301963097,"avgInclusionDelay":1.0186627673011104,"avgUptime":0.9999960525541953,"avgValidatorEffectiveness":97.79921057450528,"clientPercentages":[{"client":"Teku","percentage":0.006718924972004479},{"client":"Prysm","percentage":0.8891377379619261},{"client":"Lighthouse","percentage":0.0022396416573348264},{"client":"Nimbus","percentage":0.1019036954087346}],"networkPenetration":0.004053623579590358}]}