{"page":{"from":0,"size":15},"total":31,"next":"/v0/eth/operators?window=1d&from=15&size=15&idType=entity","data":[{"id":"Lido","idType":"entity","timeWindow":"1d","validatorCount":128946,"avgCorrectness":0.9869118658263509,"avgInclusionDelay":1.0132840941724908,"avgUptime":0.9992866882448869,"avgValidatorEffectiveness":98.0481791113851,"clientPercentages":[{"client":"Prysm","percentage":0.35219787605861},{"client":"Lighthouse","percentage":0.37658287404220997},{"client":"Nimbus","percentage":0.07909665277591074},{"client":"Teku","percentage":0.19212259712326926}],"networkPenetration":0.3184850722858533},{"id":"Coinbase","idType":"entity","timeWindow":"1d","validatorCount":57073,"avgCorrectness":0.9867052698370175,"avgInclusionDelay":1.013573204900984,"avgUptime":0.9999266047187136,"avgValidatorEffectiveness":98.06824399271065,"clientPercentages":[{"client":"Nimbus","percentage":0.0928185943824359},{"client":"Lighthouse","percentage":0.37394210719980375},{"client":"Prysm","percentage":0.3634551698761192},{"client":"Teku","percentage":0.16978412854164113}],"networkPenetration":0.14097285174051688},{"id":"Kraken","idType":"entity","timeWindow":"1d","validatorCount":35759,"avgCorrectness":0.9799307213918278,"avgInclusionDelay":1.024227917327005,"avgUptime":0.999112701639164,"avgValidatorEffectiveness":96.95512080446011,"clientPercentages":[{"client":"Nimbus","percentage":0.04148429141134131},{"client":"Lighthouse","percentage":0.26855364264176634},{"client":"Prysm","percentage":0.6030055442077619},{"client":"Teku","percentage":0.08695652173913043}],"networkPenetration":0.08831150225638568},{"id":"Binance","idType":"entity","timeWindow":"1d","validatorCount":20810,"avgCorrectness":0.9869769990825961,"avgInclusionDelay":1.0127479186384725,"avgUptime":0.9994145976827333,"avgValidatorEffectiveness":98.10544034867183,"clientPercentages":[{"client":"Prysm","percentage":0.5931080741175484},{"client":"Nimbus","percentage":0.0726083675693804},{"client":"Lighthouse","percentage":0.3254800033537352},{"client":"Teku","percentage":0.008803554959335961}],"networkPenetration":0.051401626771330686},{"id":"Bitcoin Suisse","idType":"entity","timeWindow":"1d","validatorCount":9000,"avgCorrectness":0.9827569718989051,"avgInclusionDelay":1.0518210075829293,"avgUptime":0.9992229629629638,"avgValidatorEffectiveness":94.74111594896314,"clientPercentages":[{"client":"Nimbus","percentage":0.006906077348066298},{"client":"Teku","percentage":0.9928966061562746},{"client":"Prysm","percentage":0.0001973164956590371}],"networkPenetration":0.02223040081412668},{"id":"Rocketpool","idType":"entity","timeWindow":"1d","validatorCount":5940,"avgCorrectness":0.9859797570360881,"avgInclusionDelay":1.0158877579848589,"avgUptime":0.9911793070256163,"avgValidatorEffectiveness":97.11862041358802,"clientPercentages":[{"client":"Prysm","percentage":0.05987755711512618},{"client":"Nimbus","percentage":0.2553382111393161},{"client":"Lighthouse","percentage":0.41735105271016876},{"client":"Teku","percentage":0.267433179035389}],"networkPenetration":0.014667124448253802},{"id":"Staked.us","idType":"entity","timeWindow":"1d","validatorCount":5263,"avgCorrectness":0.9862338280225684,"avgInclusionDelay":1.0121495552191242,"avgUptime":0.9992910676209181,"avgValidatorEffectiveness":98.09994272845839,"clientPercentages":[{"client":"Teku","percentage":0.5096774193548387},{"client":"Lighthouse","percentage":0.000967741935483871},{"client":"Prysm","percentage":0.4309677419354839},{"client":"Nimbus","percentage":0.05838709677419355}],"networkPenetration":0.012999844387194301},{"id":"f2pool.eth","idType":"entity","timeWindow":"1d","validatorCount":3501,"avgCorrectness":0.987865952624119,"avgInclusionDelay":1.0113720394834977,"avgUptime":0.9999955568250342,"avgValidatorEffectiveness":98.31964605961002,"clientPercentages":[{"client":"Lighthouse","percentage":1.0}],"networkPenetration":0.008647625916695278},{"id":"Bitfinex","idType":"entity","timeWindow":"1d","validatorCount":3214,"avgCorrectness":0.9857280259865262,"avgInclusionDelay":1.0137064439090946,"avgUptime":0.9927546152250573,"avgValidatorEffectiveness":97.40879912803516,"clientPercentages":[{"client":"Nimbus","percentage":0.10370768404083826},{"client":"Prysm","percentage":0.8753358409457281},{"client":"Teku","percentage":0.018807092960773777},{"client":"Lighthouse","percentage":0.0021493820526598604}],"networkPenetration":0.007938723135178127},{"id":"Huobi","idType":"entity","timeWindow":"1d","validatorCount":2855,"avgCorrectness":0.9826336200285424,"avgInclusionDelay":1.021029159760107,"avgUptime":0.9997330219887135,"avgValidatorEffectiveness":97.20734487659989,"clientPercentages":[{"client":"Nimbus","percentage":0.09800469483568075},{"client":"Prysm","percentage":0.886150234741784},{"client":"Lighthouse","percentage":0.0017605633802816902},{"client":"Teku","percentage":0.014084507042253521}],"networkPenetration":0.007051977147147963},{"id":"wedex.eth","idType":"entity","timeWindow":"1d","validatorCount":2399,"avgCorrectness":0.9851489185439982,"avgInclusionDelay":1.0221665815685907,"avgUptime":0.9996266963086478,"avgValidatorEffectiveness":97.26265488362742,"clientPercentages":[{"client":"Lighthouse","percentage":1.0}],"networkPenetration":0.005925636839232211},{"id":"Bloxstaking","idType":"entity","timeWindow":"1d","validatorCount":2317,"avgCorrectness":0.9846175621300863,"avgInclusionDelay":1.0156318151488513,"avgUptime":0.9996302829530737,"avgValidatorEffectiveness":97.75502301619005,"clientPercentages":[{"client":"Nimbus","percentage":0.05139833711262283},{"client":"Teku","percentage":0.008314436885865457},{"client":"Prysm","percentage":0.43386243386243384},{"client":"Lighthouse","percentage":0.5064247921390779}],"networkPenetration":0.005698392742021139},{"id":"Ankr","idType":"entity","timeWindow":"1d","validatorCount":2287,"avgCorrectness":0.8881862291909665,"avgInclusionDelay":1.3487390048562098,"avgUptime":0.9481815482866067,"avgValidatorEffectiveness":74.2634392423376,"clientPercentages":[{"client":"Prysm","percentage":0.8990731204943357},{"client":"Lighthouse","percentage":0.008238928939237899},{"client":"Teku","percentage":0.009268795056642637},{"client":"Nimbus","percentage":0.08341915550978372}],"networkPenetration":0.00564899185132308},{"id":"StakeWise","idType":"entity","timeWindow":"1d","validatorCount":1968,"avgCorrectness":0.987852110087177,"avgInclusionDelay":1.0126619935457088,"avgUptime":0.998264453477868,"avgValidatorEffectiveness":98.0598046048147,"clientPercentages":[{"client":"Nimbus","percentage":0.04028648164726947},{"client":"Prysm","percentage":0.36436884512085943},{"client":"Lighthouse","percentage":0.5461056401074306},{"client":"Teku","percentage":0.049239033124440466}],"networkPenetration":0.004861047644689033},{"id":"OKex","idType":"entity","timeWindow":"1d","validatorCount":1543,"avgCorrectness":0.9836004990807923,"avgInclusionDelay":1.019353788345945,"avgUptime":0.9996053863325418,"avgValidatorEffectiveness":97.39320172461666,"clientPercentages":[{"client":"Teku","percentage":0.017582417582417582},{"client":"Prysm","percentage":0.8736263736263736},{"client":"Nimbus","percentage":0.1087912087912088}],"networkPenetration":0.003811278717355274}]}