{"page":{"from":0,"size":15},"total":31,"next":"/v0/eth/operators?window=1d&from=15&size=15&idType=entity","data":[{"id":"Lido","idType":"entity","timeWindow":"1d","validatorCount":132766,"avgCorrectness":0.9885957788534949,"avgInclusionDelay":1.0323969419618504,"avgUptime":0.9979984937142083,"avgValidatorEffectiveness":96.24132752836805,"clientPercentages":[{"client":"Prysm","percentage":0.38788033367340813},{"client":"Lighthouse","percentage":0.3920362479745544},{"client":"Nimbus","percentage":0.02589569705335174},{"client":"Teku","percentage":0.19303246714277142},{"client":"Lodestar","percentage":0.001155254155914301}],"networkPenetration":0.3014919879768534,"relayerPercentages":[{"relayer":"flashbots","percentage":0.2898265495912453},{"relayer":"edennetwork","percentage":0.0010813616505904234},{"relayer":"blocknative","percentage":0.015030926943206886},{"relayer":"manifold","percentage":0.0013192612137203166},{"relayer":"bloxroute_ethical","percentage":0.02076214369133613},{"relayer":"no_mev_boost","percentage":0.644880833946105},{"relayer":"bloxroute_maxprofit","percentage":0.019529391409663047},{"relayer":"bloxroute_regulated","percentage":0.007569531554132964}]},{"id":"Coinbase","idType":"entity","timeWindow":"1d","validatorCount":54483,"avgCorrectness":0.9872667920325939,"avgInclusionDelay":1.0309882175571752,"avgUptime":0.9893200487541054,"avgValidatorEffectiveness":95.48499290835346,"clientPercentages":[{"client":"Teku","percentage":0.1649178747543658},{"client":"Prysm","percentage":0.38200289199510584},{"client":"Lighthouse","percentage":0.43064773274999074},{"client":"Nimbus","percentage":0.022431500500537615}],"networkPenetration":0.1237825200896965,"relayerPercentages":[{"relayer":"flashbots","percentage":0.0002675370538819627},{"relayer":"bloxroute_regulated","percentage":5.350741077639253e-05},{"relayer":"no_mev_boost","percentage":0.9996789555353417}]},{"id":"Kraken","idType":"entity","timeWindow":"1d","validatorCount":37581,"avgCorrectness":0.9879121694458792,"avgInclusionDelay":1.0285789716732023,"avgUptime":0.9897010080619825,"avgValidatorEffectiveness":95.7546478676939,"clientPercentages":[{"client":"Lighthouse","percentage":0.2660751509968464},{"client":"Teku","percentage":0.1116040408359613},{"client":"Prysm","percentage":0.6222139077449356},{"client":"Nimbus","percentage":0.00010690042225666791}],"networkPenetration":0.08535707064166616,"relayerPercentages":[{"relayer":"edennetwork","percentage":0.0024029145027517247},{"relayer":"flashbots","percentage":0.3955507325013565},{"relayer":"blocknative","percentage":0.005348422602899},{"relayer":"manifold","percentage":7.751337105650724e-05},{"relayer":"bloxroute_maxprofit","percentage":0.003488101697542826},{"relayer":"no_mev_boost","percentage":0.5931323153243935}]},{"id":"Binance","idType":"entity","timeWindow":"1d","validatorCount":23051,"avgCorrectness":0.9904079544366502,"avgInclusionDelay":1.0244760701552946,"avgUptime":0.9995400153937477,"avgValidatorEffectiveness":97.11050823282154,"clientPercentages":[{"client":"Nimbus","percentage":0.00026497085320614734},{"client":"Prysm","percentage":0.5616498851792969},{"client":"Teku","percentage":0.013248542660307366},{"client":"Lighthouse","percentage":0.42483660130718953}],"networkPenetration":0.05237066370404702,"relayerPercentages":[{"relayer":"edennetwork","percentage":0.002625656414103526},{"relayer":"flashbots","percentage":0.19254813703425858},{"relayer":"blocknative","percentage":0.0008752188047011753},{"relayer":"bloxroute_maxprofit","percentage":0.007501875468867217},{"relayer":"bloxroute_regulated","percentage":0.0018754688672168042},{"relayer":"no_mev_boost","percentage":0.7944486121530383},{"relayer":"bloxroute_ethical","percentage":0.00012503125781445363}]},{"id":"Staked.us","idType":"entity","timeWindow":"1d","validatorCount":13346,"avgCorrectness":0.9884814346940195,"avgInclusionDelay":1.0287720486848,"avgUptime":0.9921829420130313,"avgValidatorEffectiveness":95.995010857336,"clientPercentages":[{"client":"Unknown","percentage":1.0}],"networkPenetration":0.030321412424372546,"relayerPercentages":[{"relayer":"manifold","percentage":0.001314060446780552},{"relayer":"flashbots","percentage":0.573149364870784},{"relayer":"no_mev_boost","percentage":0.41677617170389836},{"relayer":"bloxroute_maxprofit","percentage":0.008760402978537012}]},{"id":"Bitcoin Suisse","idType":"entity","timeWindow":"1d","validatorCount":9184,"avgCorrectness":0.9904386918028653,"avgInclusionDelay":1.0284690845975468,"avgUptime":0.999069089271887,"avgValidatorEffectiveness":96.75857891191401,"clientPercentages":[{"client":"Nimbus","percentage":0.0330117899249732},{"client":"Teku","percentage":0.9669882100750268}],"networkPenetration":0.020865566589647645,"relayerPercentages":[{"relayer":"no_mev_boost","percentage":1.0}]},{"id":"Rocketpool","idType":"entity","timeWindow":"1d","validatorCount":8616,"avgCorrectness":0.9859961814985193,"avgInclusionDelay":1.0358039477623973,"avgUptime":0.9878622616388886,"avgValidatorEffectiveness":95.00608722962663,"clientPercentages":[{"client":"Teku","percentage":0.29987111556637547},{"client":"Prysm","percentage":0.045825576399828157},{"client":"Nimbus","percentage":0.222397250465416},{"client":"Lighthouse","percentage":0.43190605756838035}],"networkPenetration":0.019531933359233537,"relayerPercentages":[{"relayer":"edennetwork","percentage":0.0043859649122807015},{"relayer":"blocknative","percentage":0.0222953216374269},{"relayer":"manifold","percentage":0.0007309941520467836},{"relayer":"flashbots","percentage":0.4411549707602339},{"relayer":"no_mev_boost","percentage":0.33260233918128657},{"relayer":"bloxroute_ethical","percentage":0.03216374269005848},{"relayer":"bloxroute_maxprofit","percentage":0.09064327485380116},{"relayer":"bloxroute_regulated","percentage":0.07602339181286549}]},{"id":"f2pool.eth","idType":"entity","timeWindow":"1d","validatorCount":3501,"avgCorrectness":0.9878338244198209,"avgInclusionDelay":1.0398951639420146,"avgUptime":0.994238083336734,"avgValidatorEffectiveness":95.2653320159601,"clientPercentages":[{"client":"Prysm","percentage":0.0010940919037199124},{"client":"Nimbus","percentage":0.0010940919037199124},{"client":"Teku","percentage":0.014223194748358862},{"client":"Lighthouse","percentage":0.9835886214442013}],"networkPenetration":0.007954088483270514,"relayerPercentages":[{"relayer":"manifold","percentage":0.04055220017256255},{"relayer":"flashbots","percentage":0.6591889559965487},{"relayer":"no_mev_boost","percentage":0.3002588438308887}]},{"id":"Bitfinex","idType":"entity","timeWindow":"1d","validatorCount":3214,"avgCorrectness":0.9906271338525261,"avgInclusionDelay":1.0245999685910745,"avgUptime":0.9994889977874575,"avgValidatorEffectiveness":97.11661274154608,"clientPercentages":[{"client":"Lighthouse","percentage":0.009191176470588236},{"client":"Prysm","percentage":0.9564950980392157},{"client":"Teku","percentage":0.03431372549019608}],"networkPenetration":0.007302039527344025,"relayerPercentages":[{"relayer":"no_mev_boost","percentage":0.8824577025823687},{"relayer":"flashbots","percentage":0.11754229741763135}]},{"id":"Huobi","idType":"entity","timeWindow":"1d","validatorCount":2855,"avgCorrectness":0.9899532028578756,"avgInclusionDelay":1.0235164205325966,"avgUptime":0.9995765504684067,"avgValidatorEffectiveness":97.14940345514871,"clientPercentages":[{"client":"Lighthouse","percentage":0.007670850767085077},{"client":"Prysm","percentage":0.9693165969316597},{"client":"Teku","percentage":0.02301255230125523}],"networkPenetration":0.006486410345540507,"relayerPercentages":[{"relayer":"blocknative","percentage":0.007415254237288136},{"relayer":"flashbots","percentage":0.4300847457627119},{"relayer":"edennetwork","percentage":0.037076271186440676},{"relayer":"bloxroute_ethical","percentage":0.09216101694915255},{"relayer":"bloxroute_regulated","percentage":0.024364406779661018},{"relayer":"no_mev_boost","percentage":0.3866525423728814},{"relayer":"bloxroute_maxprofit","percentage":0.022245762711864406}]},{"id":"Abyss","idType":"entity","timeWindow":"1d","validatorCount":2676,"avgCorrectness":0.9870679369275107,"avgInclusionDelay":1.0354636735770057,"avgUptime":0.9956792372335456,"avgValidatorEffectiveness":95.77279202045489,"clientPercentages":[{"client":"Unknown","percentage":1.0}],"networkPenetration":0.006077459780847936,"relayerPercentages":[{"relayer":"flashbots","percentage":0.2911795961742827},{"relayer":"blocknative","percentage":0.0010626992561105207},{"relayer":"edennetwork","percentage":0.008501594048884165},{"relayer":"no_mev_boost","percentage":0.6705632306057385},{"relayer":"bloxroute_regulated","percentage":0.015940488841657812},{"relayer":"bloxroute_ethical","percentage":0.003188097768331562},{"relayer":"bloxroute_maxprofit","percentage":0.009564293304994687}]},{"id":"Bloxstaking","idType":"entity","timeWindow":"1d","validatorCount":2533,"avgCorrectness":0.9896783280289905,"avgInclusionDelay":1.023108561437632,"avgUptime":0.9996148224390422,"avgValidatorEffectiveness":97.16152233224523,"clientPercentages":[{"client":"Lighthouse","percentage":0.5021097046413502},{"client":"Teku","percentage":0.006751054852320675},{"client":"Prysm","percentage":0.4911392405063291}],"networkPenetration":0.00575484322425713,"relayerPercentages":[{"relayer":"flashbots","percentage":0.6892980437284235},{"relayer":"blocknative","percentage":0.09205983889528194},{"relayer":"bloxroute_ethical","percentage":0.020713463751438434},{"relayer":"no_mev_boost","percentage":0.19792865362485615}]},{"id":"wedex.eth","idType":"entity","timeWindow":"1d","validatorCount":2399,"avgCorrectness":0.9821326010649254,"avgInclusionDelay":1.059120344529548,"avgUptime":0.9924798733930141,"avgValidatorEffectiveness":93.19693220376843,"clientPercentages":[{"client":"Lighthouse","percentage":0.9983935742971888},{"client":"Prysm","percentage":0.001606425702811245}],"networkPenetration":0.005450402248319327,"relayerPercentages":[{"relayer":"edennetwork","percentage":0.04096385542168675},{"relayer":"flashbots","percentage":0.40602409638554215},{"relayer":"manifold","percentage":0.004819277108433735},{"relayer":"blocknative","percentage":0.04096385542168675},{"relayer":"no_mev_boost","percentage":0.25542168674698795},{"relayer":"bloxroute_maxprofit","percentage":0.2385542168674699},{"relayer":"bloxroute_ethical","percentage":0.01325301204819277}]},{"id":"Ankr","idType":"entity","timeWindow":"1d","validatorCount":2299,"avgCorrectness":0.9901497508665511,"avgInclusionDelay":1.0240825776801188,"avgUptime":0.9995234211561963,"avgValidatorEffectiveness":97.11666586467797,"clientPercentages":[{"client":"Lighthouse","percentage":0.46731707317073173},{"client":"Teku","percentage":0.005853658536585366},{"client":"Prysm","percentage":0.526829268292683}],"networkPenetration":0.005223207490156787,"relayerPercentages":[{"relayer":"no_mev_boost","percentage":0.8896797153024911},{"relayer":"flashbots","percentage":0.1103202846975089}]},{"id":"StakeWise","idType":"entity","timeWindow":"1d","validatorCount":2002,"avgCorrectness":0.9897105454080287,"avgInclusionDelay":1.0278685433858368,"avgUptime":0.9990548076345236,"avgValidatorEffectiveness":96.74496627350237,"clientPercentages":[{"client":"Lighthouse","percentage":0.5416666666666666},{"client":"Nimbus","percentage":0.009375},{"client":"Teku","percentage":0.340625},{"client":"Prysm","percentage":0.10833333333333334}],"networkPenetration":0.0045279915301794154,"relayerPercentages":[{"relayer":"no_mev_boost","percentage":0.0967741935483871},{"relayer":"bloxroute_maxprofit","percentage":0.30995792426367463},{"relayer":"bloxroute_regulated","percentage":0.02244039270687237},{"relayer":"flashbots","percentage":0.5217391304347826},{"relayer":"blocknative","percentage":0.047685834502103785},{"relayer":"manifold","percentage":0.001402524544179523}]}]}