{"page":{"from":0,"size":15},"total":30,"next":"/v0/eth/operators?window=1d&from=15&size=15&idType=entity","data":[{"id":"Lido","idType":"entity","timeWindow":"1d","validatorCount":129832,"avgCorrectness":0.9881183675165746,"avgInclusionDelay":1.025561735839181,"avgUptime":0.9992074736109566,"avgValidatorEffectiveness":97.11615971412262,"clientPercentages":[{"client":"Lighthouse","percentage":0.3503037354727856},{"client":"Teku","percentage":0.22193660113917715},{"client":"Prysm","percentage":0.40259494270290747},{"client":"Lodestar","percentage":0.00037882375224926605},{"client":"Nimbus","percentage":0.02478589693288055}],"networkPenetration":0.310543300663367},{"id":"Coinbase","idType":"entity","timeWindow":"1d","validatorCount":54533,"avgCorrectness":0.9888472457661635,"avgInclusionDelay":1.022907841388985,"avgUptime":0.9980272495553127,"avgValidatorEffectiveness":97.25446037777914,"clientPercentages":[{"client":"Teku","percentage":0.13761287144967985},{"client":"Lighthouse","percentage":0.4201608931209982},{"client":"Prysm","percentage":0.38581513708750614},{"client":"Nimbus","percentage":0.05641109834181579}],"networkPenetration":0.13045579267928012},{"id":"Kraken","idType":"entity","timeWindow":"1d","validatorCount":36610,"avgCorrectness":0.9885565308270975,"avgInclusionDelay":1.0230080010857339,"avgUptime":0.9985227246587655,"avgValidatorEffectiveness":97.2698296398153,"clientPercentages":[{"client":"Teku","percentage":0.0939898624185373},{"client":"Nimbus","percentage":0.01955104996379435},{"client":"Prysm","percentage":0.6236543567463191},{"client":"Lighthouse","percentage":0.26280473087134926}],"networkPenetration":0.08755104433052086},{"id":"Binance","idType":"entity","timeWindow":"1d","validatorCount":21708,"avgCorrectness":0.9881477572374218,"avgInclusionDelay":1.0240180893365314,"avgUptime":0.9975754678987132,"avgValidatorEffectiveness":97.08263607239321,"clientPercentages":[{"client":"Teku","percentage":0.0005820237798287187},{"client":"Prysm","percentage":0.6109586763116321},{"client":"Lighthouse","percentage":0.35769518583187826},{"client":"Nimbus","percentage":0.030764114076660846}],"networkPenetration":0.051634016635607474},{"id":"Bitcoin Suisse","idType":"entity","timeWindow":"1d","validatorCount":9000,"avgCorrectness":0.990471833705139,"avgInclusionDelay":1.0182221536429819,"avgUptime":0.9969143209876552,"avgValidatorEffectiveness":97.6346781162492,"clientPercentages":[{"client":"Teku","percentage":0.9935897435897436},{"client":"Nimbus","percentage":0.00641025641025641}],"networkPenetration":0.02153012183656724},{"id":"Rocketpool","idType":"entity","timeWindow":"1d","validatorCount":6884,"avgCorrectness":0.9877453238586374,"avgInclusionDelay":1.025172135466005,"avgUptime":0.9958589685676282,"avgValidatorEffectiveness":96.86158670858406,"clientPercentages":[{"client":"Lighthouse","percentage":0.41714285714285715},{"client":"Teku","percentage":0.30272108843537415},{"client":"Nimbus","percentage":0.2276190476190476},{"client":"Prysm","percentage":0.05251700680272109}],"networkPenetration":0.016451405318896987},{"id":"Staked.us","idType":"entity","timeWindow":"1d","validatorCount":5263,"avgCorrectness":0.9797413300246156,"avgInclusionDelay":1.0695799875285485,"avgUptime":0.9933384001520045,"avgValidatorEffectiveness":93.46528909401833,"clientPercentages":[{"client":"Teku","percentage":0.49422161794697483},{"client":"Nimbus","percentage":0.02821210061182869},{"client":"Lighthouse","percentage":0.005778382053025153},{"client":"Prysm","percentage":0.47178789938817134}],"networkPenetration":0.012590336802872597},{"id":"f2pool.eth","idType":"entity","timeWindow":"1d","validatorCount":3501,"avgCorrectness":0.9884417022924263,"avgInclusionDelay":1.0302436516324374,"avgUptime":0.9999714367323619,"avgValidatorEffectiveness":96.80287860713153,"clientPercentages":[{"client":"Lighthouse","percentage":0.986387943607195},{"client":"Prysm","percentage":0.013612056392805057}],"networkPenetration":0.008375217394424655},{"id":"Bitfinex","idType":"entity","timeWindow":"1d","validatorCount":3214,"avgCorrectness":0.988150287612018,"avgInclusionDelay":1.0235695287552975,"avgUptime":0.9953764779091471,"avgValidatorEffectiveness":96.92769670864337,"clientPercentages":[{"client":"Teku","percentage":0.012380416432189083},{"client":"Nimbus","percentage":0.03939223410241981},{"client":"Lighthouse","percentage":0.004501969611705121},{"client":"Prysm","percentage":0.943725379853686}],"networkPenetration":0.007688645731414122},{"id":"Huobi","idType":"entity","timeWindow":"1d","validatorCount":2855,"avgCorrectness":0.9872718130495732,"avgInclusionDelay":1.0245993958343549,"avgUptime":0.9999976649153531,"avgValidatorEffectiveness":97.18729080869174,"clientPercentages":[{"client":"Teku","percentage":0.002430133657351154},{"client":"Nimbus","percentage":0.04495747266099635},{"client":"Lighthouse","percentage":0.0006075334143377885},{"client":"Prysm","percentage":0.9520048602673147}],"networkPenetration":0.0068298330937110515},{"id":"wedex.eth","idType":"entity","timeWindow":"1d","validatorCount":2399,"avgCorrectness":0.9736684944099161,"avgInclusionDelay":1.0993041304265092,"avgUptime":0.9492482979019041,"avgValidatorEffectiveness":87.04818734901835,"clientPercentages":[{"client":"Lighthouse","percentage":1.0}],"networkPenetration":0.005738973587324978},{"id":"Bloxstaking","idType":"entity","timeWindow":"1d","validatorCount":2390,"avgCorrectness":0.9871559803716365,"avgInclusionDelay":1.0336342705644317,"avgUptime":0.9996810785681075,"avgValidatorEffectiveness":96.48926677946201,"clientPercentages":[{"client":"Teku","percentage":0.0015082956259426848},{"client":"Nimbus","percentage":0.024132730015082957},{"client":"Lighthouse","percentage":0.4917043740573152},{"client":"Prysm","percentage":0.48265460030165913}],"networkPenetration":0.005717443465488411},{"id":"Ankr","idType":"entity","timeWindow":"1d","validatorCount":2296,"avgCorrectness":0.9414859243005395,"avgInclusionDelay":1.154578574461903,"avgUptime":0.9959765776229188,"avgValidatorEffectiveness":87.92142130480896,"clientPercentages":[{"client":"Lighthouse","percentage":0.011122345803842264},{"client":"Teku","percentage":0.006066734074823054},{"client":"Nimbus","percentage":0.03640040444893832},{"client":"Prysm","percentage":0.9464105156723963}],"networkPenetration":0.0054925733040842644},{"id":"StakeWise","idType":"entity","timeWindow":"1d","validatorCount":1981,"avgCorrectness":0.988302167541194,"avgInclusionDelay":1.0255950751165912,"avgUptime":0.9997823770261935,"avgValidatorEffectiveness":97.16200143611864,"clientPercentages":[{"client":"Nimbus","percentage":0.02456140350877193},{"client":"Teku","percentage":0.060526315789473685},{"client":"Prysm","percentage":0.3850877192982456},{"client":"Lighthouse","percentage":0.5298245614035088}],"networkPenetration":0.004739019039804411},{"id":"OKex","idType":"entity","timeWindow":"1d","validatorCount":1733,"avgCorrectness":0.9876966591430255,"avgInclusionDelay":1.0256052584846855,"avgUptime":0.9964813746233245,"avgValidatorEffectiveness":96.8328204963054,"clientPercentages":[{"client":"Nimbus","percentage":0.04512067156348373},{"client":"Teku","percentage":0.002098635886673662},{"client":"Prysm","percentage":0.9401888772298006},{"client":"Lighthouse","percentage":0.012591815320041973}],"networkPenetration":0.004145744571419002}]}