{"page":{"from":0,"size":15},"total":36,"next":"/v0/eth/operators?window=1d&from=15&size=15&idType=entity","data":[{"id":"Lido","idType":"entity","timeWindow":"1d","validatorCount":141219,"avgCorrectness":0.9890522091065661,"avgInclusionDelay":1.0180906923100543,"avgUptime":0.9991869870033805,"avgValidatorEffectiveness":97.1545265241914,"clientPercentages":[{"client":"Lodestar","percentage":0.003989803834644797},{"client":"Teku","percentage":0.1635681037348997},{"client":"Lighthouse","percentage":0.45778842956887955},{"client":"Prysm","percentage":0.3560207248143633},{"client":"Nimbus","percentage":0.01863293804721268}],"networkPenetration":0.30613746462243674,"relayerPercentages":[{"relayer":"edennetwork","percentage":0.07308286155429748},{"relayer":"blocknative","percentage":0.08749356664951106},{"relayer":"bloxroute_ethical","percentage":0.04477611940298507},{"relayer":"no_mev_boost","percentage":0.010293360782295419},{"relayer":"manifold","percentage":0.007720020586721565},{"relayer":"flashbots","percentage":0.6500257334019557},{"relayer":"bloxroute_regulated","percentage":0.024189397838394237},{"relayer":"bloxroute_maxprofit","percentage":0.10241893978383942}],"nodeOperatorCount":29},{"id":"Coinbase","idType":"entity","timeWindow":"1d","validatorCount":54683,"avgCorrectness":0.9881802628369736,"avgInclusionDelay":1.0160732856809767,"avgUptime":0.9992789578113852,"avgValidatorEffectiveness":97.23848932641619,"clientPercentages":[{"client":"Prysm","percentage":0.3576168047581394},{"client":"Teku","percentage":0.20679341286485373},{"client":"Nimbus","percentage":0.0068415443325196825},{"client":"Lighthouse","percentage":0.42874823804448725}],"networkPenetration":0.11868412827947841,"relayerPercentages":[{"relayer":"edennetwork","percentage":0.0012121212121212121},{"relayer":"blocknative","percentage":0.0024242424242424242},{"relayer":"flashbots","percentage":0.7006060606060606},{"relayer":"bloxroute_regulated","percentage":0.0036363636363636364},{"relayer":"bloxroute_maxprofit","percentage":0.2727272727272727},{"relayer":"no_mev_boost","percentage":0.006060606060606061},{"relayer":"bloxroute_ethical","percentage":0.013333333333333334}],"nodeOperatorCount":null},{"id":"Kraken","idType":"entity","timeWindow":"1d","validatorCount":38141,"avgCorrectness":0.9889276386216423,"avgInclusionDelay":1.0137043438618272,"avgUptime":0.9994206081325925,"avgValidatorEffectiveness":97.53262614503404,"clientPercentages":[{"client":"Teku","percentage":0.052123837180686125},{"client":"Nimbus","percentage":9.843973027513905e-05},{"client":"Prysm","percentage":0.6941969779002806},{"client":"Lighthouse","percentage":0.25358074518875817}],"networkPenetration":0.08274226034413905,"relayerPercentages":[{"relayer":"edennetwork","percentage":0.02095238095238095},{"relayer":"no_mev_boost","percentage":0.011428571428571429},{"relayer":"blocknative","percentage":0.01904761904761905},{"relayer":"flashbots","percentage":0.8076190476190476},{"relayer":"manifold","percentage":0.0038095238095238095},{"relayer":"bloxroute_ethical","percentage":0.0038095238095238095},{"relayer":"bloxroute_maxprofit","percentage":0.13333333333333333}],"nodeOperatorCount":null},{"id":"Binance","idType":"entity","timeWindow":"1d","validatorCount":23826,"avgCorrectness":0.9907163019830514,"avgInclusionDelay":1.0098826553032998,"avgUptime":0.9999373196248186,"avgValidatorEffectiveness":98.11111320531879,"clientPercentages":[{"client":"Prysm","percentage":0.5314272023001357},{"client":"Teku","percentage":0.006069802731411229},{"client":"Nimbus","percentage":0.0011181215557862791},{"client":"Lighthouse","percentage":0.4613848734126667}],"networkPenetration":0.051712013612765444,"relayerPercentages":[{"relayer":"flashbots","percentage":0.8704819277108434},{"relayer":"edennetwork","percentage":0.009036144578313253},{"relayer":"no_mev_boost","percentage":0.060240963855421686},{"relayer":"bloxroute_maxprofit","percentage":0.006024096385542169},{"relayer":"bloxroute_regulated","percentage":0.05421686746987952}],"nodeOperatorCount":null},{"id":"Staked.us","idType":"entity","timeWindow":"1d","validatorCount":12889,"avgCorrectness":0.9883397016594119,"avgInclusionDelay":1.0145425979491465,"avgUptime":0.9992038711545222,"avgValidatorEffectiveness":97.38049078478252,"clientPercentages":[{"client":"Lighthouse","percentage":0.11148402159638114},{"client":"Teku","percentage":0.25857288778637094},{"client":"Prysm","percentage":0.6296512476287757},{"client":"Nimbus","percentage":0.00029184298847220193}],"networkPenetration":0.02796997899050232,"relayerPercentages":[{"relayer":"bloxroute_maxprofit","percentage":0.295},{"relayer":"bloxroute_ethical","percentage":0.05},{"relayer":"no_mev_boost","percentage":0.145},{"relayer":"blocknative","percentage":0.08},{"relayer":"edennetwork","percentage":0.05},{"relayer":"flashbots","percentage":0.38}],"nodeOperatorCount":null},{"id":"Bitcoin Suisse","idType":"entity","timeWindow":"1d","validatorCount":9214,"avgCorrectness":0.9909962002379324,"avgInclusionDelay":1.0109481875846564,"avgUptime":0.9998651702378372,"avgValidatorEffectiveness":98.032001859189,"clientPercentages":[{"client":"Teku","percentage":0.9743690851735016},{"client":"Prysm","percentage":0.0005914826498422713},{"client":"Lighthouse","percentage":0.0001971608832807571},{"client":"Nimbus","percentage":0.024842271293375396}],"networkPenetration":0.019998090045665273,"relayerPercentages":[{"relayer":"no_mev_boost","percentage":1.0}],"nodeOperatorCount":null},{"id":"Rocketpool","idType":"entity","timeWindow":"1d","validatorCount":9199,"avgCorrectness":0.9877978565850835,"avgInclusionDelay":1.0185850357863444,"avgUptime":0.9906900758938053,"avgValidatorEffectiveness":96.22693484932803,"clientPercentages":[{"client":"Teku","percentage":0.3408782254413762},{"client":"Lighthouse","percentage":0.4125169760072431},{"client":"Nimbus","percentage":0.1949977365323676},{"client":"Prysm","percentage":0.05160706201901313}],"networkPenetration":0.01995468199260327,"relayerPercentages":[{"relayer":"bloxroute_regulated","percentage":0.07042253521126761},{"relayer":"bloxroute_maxprofit","percentage":0.11971830985915492},{"relayer":"bloxroute_ethical","percentage":0.04929577464788732},{"relayer":"blocknative","percentage":0.056338028169014086},{"relayer":"flashbots","percentage":0.5563380281690141},{"relayer":"no_mev_boost","percentage":0.06338028169014084},{"relayer":"relayooor","percentage":0.007042253521126761},{"relayer":"edennetwork","percentage":0.07746478873239436}],"nodeOperatorCount":1600},{"id":"Stakefish","idType":"entity","timeWindow":"1d","validatorCount":8078,"avgCorrectness":0.9868834546390237,"avgInclusionDelay":1.0369794883105425,"avgUptime":0.9978931902050243,"avgValidatorEffectiveness":95.16484889563034,"clientPercentages":[{"client":"Teku","percentage":0.30479016532428993},{"client":"Lighthouse","percentage":0.6877914370495973},{"client":"Nimbus","percentage":0.006570580754557015},{"client":"Prysm","percentage":0.000847816871555744}],"networkPenetration":0.017532512631743442,"relayerPercentages":[{"relayer":"bloxroute_maxprofit","percentage":0.007462686567164179},{"relayer":"flashbots","percentage":0.9552238805970149},{"relayer":"edennetwork","percentage":0.007462686567164179},{"relayer":"blocknative","percentage":0.014925373134328358},{"relayer":"no_mev_boost","percentage":0.014925373134328358}],"nodeOperatorCount":null},{"id":"Celsius Network","idType":"entity","timeWindow":"1d","validatorCount":4943,"avgCorrectness":0.9905447928914708,"avgInclusionDelay":1.0103044296412538,"avgUptime":0.9999150293504688,"avgValidatorEffectiveness":98.05370352270363,"clientPercentages":[{"client":"Teku","percentage":0.00603090840557859},{"client":"Lighthouse","percentage":0.004900113079532605},{"client":"Prysm","percentage":0.9890689785148888}],"networkPenetration":0.010728300314274304,"relayerPercentages":[{"relayer":"no_mev_boost","percentage":0.03614457831325301},{"relayer":"flashbots","percentage":0.963855421686747}],"nodeOperatorCount":null},{"id":"Bitfinex","idType":"entity","timeWindow":"1d","validatorCount":3214,"avgCorrectness":0.9912144642088649,"avgInclusionDelay":1.010317483916965,"avgUptime":0.9999149523167497,"avgValidatorEffectiveness":98.11808148092379,"clientPercentages":[{"client":"Lighthouse","percentage":0.0034602076124567475},{"client":"Teku","percentage":0.016724336793540944},{"client":"Prysm","percentage":0.9792387543252595},{"client":"Nimbus","percentage":0.0005767012687427913}],"networkPenetration":0.006975674127064053,"relayerPercentages":[{"relayer":"no_mev_boost","percentage":0.020833333333333332},{"relayer":"edennetwork","percentage":0.020833333333333332},{"relayer":"flashbots","percentage":0.9583333333333334}],"nodeOperatorCount":null},{"id":"Abyss","idType":"entity","timeWindow":"1d","validatorCount":2996,"avgCorrectness":0.990134910240401,"avgInclusionDelay":1.0131357687533515,"avgUptime":0.9980509386658891,"avgValidatorEffectiveness":97.5882039718979,"clientPercentages":[{"client":"Nimbus","percentage":0.04461221688400824},{"client":"Prysm","percentage":0.033630748112560054},{"client":"Teku","percentage":0.8407687028140014},{"client":"Lighthouse","percentage":0.08098833218943034}],"networkPenetration":0.006498185543382008,"relayerPercentages":[{"relayer":"manifold","percentage":0.018867924528301886},{"relayer":"flashbots","percentage":0.41509433962264153},{"relayer":"relayooor","percentage":0.03773584905660377},{"relayer":"blocknative","percentage":0.018867924528301886},{"relayer":"no_mev_boost","percentage":0.41509433962264153},{"relayer":"bloxroute_ethical","percentage":0.05660377358490566},{"relayer":"bloxroute_maxprofit","percentage":0.018867924528301886},{"relayer":"bloxroute_regulated","percentage":0.018867924528301886}],"nodeOperatorCount":null},{"id":"Huobi","idType":"entity","timeWindow":"1d","validatorCount":2855,"avgCorrectness":0.9898676378122963,"avgInclusionDelay":1.010763461527982,"avgUptime":0.9999089282239455,"avgValidatorEffectiveness":97.94341972404939,"clientPercentages":[{"client":"Teku","percentage":0.010876519513755598},{"client":"Prysm","percentage":0.981445937300064},{"client":"Lighthouse","percentage":0.007677543186180422}],"networkPenetration":0.00619649957460108,"relayerPercentages":[{"relayer":"flashbots","percentage":0.4634146341463415},{"relayer":"blocknative","percentage":0.0975609756097561},{"relayer":"edennetwork","percentage":0.07317073170731707},{"relayer":"bloxroute_regulated","percentage":0.07317073170731707},{"relayer":"bloxroute_maxprofit","percentage":0.2926829268292683}],"nodeOperatorCount":null},{"id":"Bloxstaking","idType":"entity","timeWindow":"1d","validatorCount":2683,"avgCorrectness":0.989947876340539,"avgInclusionDelay":1.0106180898392474,"avgUptime":0.9983375202877763,"avgValidatorEffectiveness":97.81645774157775,"clientPercentages":[{"client":"Lighthouse","percentage":0.3089802130898021},{"client":"Prysm","percentage":0.684931506849315},{"client":"Teku","percentage":0.0060882800608828}],"networkPenetration":0.005821019915614745,"relayerPercentages":[{"relayer":"blocknative","percentage":0.11627906976744186},{"relayer":"flashbots","percentage":0.8837209302325582}],"nodeOperatorCount":null},{"id":"wedex.eth","idType":"entity","timeWindow":"1d","validatorCount":2399,"avgCorrectness":0.989282992029809,"avgInclusionDelay":1.0113750318884946,"avgUptime":0.9986077532305122,"avgValidatorEffectiveness":97.69795126452243,"clientPercentages":[{"client":"Lighthouse","percentage":0.993841416474211},{"client":"Nimbus","percentage":0.006158583525789068}],"networkPenetration":0.005206795964787387,"relayerPercentages":[{"relayer":"blocknative","percentage":0.07407407407407407},{"relayer":"flashbots","percentage":0.5555555555555556},{"relayer":"manifold","percentage":0.037037037037037035},{"relayer":"edennetwork","percentage":0.037037037037037035},{"relayer":"no_mev_boost","percentage":0.18518518518518517},{"relayer":"bloxroute_maxprofit","percentage":0.1111111111111111}],"nodeOperatorCount":null},{"id":"Ankr","idType":"entity","timeWindow":"1d","validatorCount":2304,"avgCorrectness":0.9905486746151175,"avgInclusionDelay":1.0099722190068294,"avgUptime":0.9999498413731815,"avgValidatorEffectiveness":98.08683862113506,"clientPercentages":[{"client":"Prysm","percentage":0.162291169451074},{"client":"Lighthouse","percentage":0.8369132856006364},{"client":"Teku","percentage":0.0007955449482895784}],"networkPenetration":0.005000607712742868,"relayerPercentages":[{"relayer":"no_mev_boost","percentage":0.8709677419354839},{"relayer":"flashbots","percentage":0.12903225806451613}],"nodeOperatorCount":null}]}