{"page":{"from":0,"size":15},"total":36,"next":"/v0/eth/operators?window=1d&from=15&size=15&idType=entity","data":[{"id":"Lido","idType":"entity","timeWindow":"1d","validatorCount":141433,"avgCorrectness":0.9893372726593945,"avgInclusionDelay":1.0209538662688984,"avgUptime":0.9988296369149398,"avgValidatorEffectiveness":96.8736454291861,"clientPercentages":[{"client":"Nimbus","percentage":0.01863293804721268},{"client":"Lighthouse","percentage":0.45778842956887955},{"client":"Lodestar","percentage":0.003989803834644797},{"client":"Prysm","percentage":0.3560207248143633},{"client":"Teku","percentage":0.1635681037348997}],"networkPenetration":0.30624315918376194,"relayerPercentages":[{"relayer":"flashbots","percentage":0.6773901223380154},{"relayer":"manifold","percentage":0.0022655188038060714},{"relayer":"bloxroute_maxprofit","percentage":0.16810149524241053},{"relayer":"edennetwork","percentage":0.05527865881286815},{"relayer":"no_mev_boost","percentage":0.011327594019030359},{"relayer":"bloxroute_ethical","percentage":0.04032623470774807},{"relayer":"blocknative","percentage":0.01359311282283643},{"relayer":"bloxroute_regulated","percentage":0.031717263253285}],"nodeOperatorCount":29},{"id":"Coinbase","idType":"entity","timeWindow":"1d","validatorCount":54683,"avgCorrectness":0.9873509745620901,"avgInclusionDelay":1.0216917976244901,"avgUptime":0.9987716678147036,"avgValidatorEffectiveness":96.59534217940596,"clientPercentages":[{"client":"Prysm","percentage":0.3576168047581394},{"client":"Teku","percentage":0.20679341286485373},{"client":"Nimbus","percentage":0.0068415443325196825},{"client":"Lighthouse","percentage":0.42874823804448725}],"networkPenetration":0.1185192409809595,"relayerPercentages":[{"relayer":"blocknative","percentage":0.0023923444976076554},{"relayer":"flashbots","percentage":0.6303827751196173},{"relayer":"bloxroute_maxprofit","percentage":0.35167464114832536},{"relayer":"no_mev_boost","percentage":0.005980861244019139},{"relayer":"bloxroute_ethical","percentage":0.004784688995215311},{"relayer":"bloxroute_regulated","percentage":0.0023923444976076554},{"relayer":"edennetwork","percentage":0.0023923444976076554}],"nodeOperatorCount":null},{"id":"Kraken","idType":"entity","timeWindow":"1d","validatorCount":38181,"avgCorrectness":0.9885002315735106,"avgInclusionDelay":1.0186072744425247,"avgUptime":0.9992395618154682,"avgValidatorEffectiveness":97.01916898941312,"clientPercentages":[{"client":"Prysm","percentage":0.6941969779002806},{"client":"Lighthouse","percentage":0.25358074518875817},{"client":"Teku","percentage":0.052123837180686125},{"client":"Nimbus","percentage":9.843973027513905e-05}],"networkPenetration":0.08269232853257041,"relayerPercentages":[{"relayer":"blocknative","percentage":0.008210180623973728},{"relayer":"bloxroute_maxprofit","percentage":0.20525451559934318},{"relayer":"flashbots","percentage":0.7553366174055829},{"relayer":"edennetwork","percentage":0.009852216748768473},{"relayer":"bloxroute_ethical","percentage":0.006568144499178982},{"relayer":"manifold","percentage":0.0016420361247947454},{"relayer":"no_mev_boost","percentage":0.013136288998357963}],"nodeOperatorCount":null},{"id":"Binance","idType":"entity","timeWindow":"1d","validatorCount":23826,"avgCorrectness":0.9912874901280401,"avgInclusionDelay":1.013465104565043,"avgUptime":0.9998974043295383,"avgValidatorEffectiveness":97.82580215491761,"clientPercentages":[{"client":"Teku","percentage":0.006069802731411229},{"client":"Prysm","percentage":0.5314272023001357},{"client":"Nimbus","percentage":0.0011181215557862791},{"client":"Lighthouse","percentage":0.4613848734126667}],"networkPenetration":0.05164017035664358,"relayerPercentages":[{"relayer":"no_mev_boost","percentage":0.005376344086021506},{"relayer":"edennetwork","percentage":0.002688172043010753},{"relayer":"flashbots","percentage":0.9166666666666666},{"relayer":"bloxroute_regulated","percentage":0.06451612903225806},{"relayer":"bloxroute_maxprofit","percentage":0.010752688172043012}],"nodeOperatorCount":null},{"id":"Staked.us","idType":"entity","timeWindow":"1d","validatorCount":12913,"avgCorrectness":0.9880706956457608,"avgInclusionDelay":1.019011413395973,"avgUptime":0.998785719817239,"avgValidatorEffectiveness":96.9010120482652,"clientPercentages":[{"client":"Teku","percentage":0.25857288778637094},{"client":"Nimbus","percentage":0.00029184298847220193},{"client":"Lighthouse","percentage":0.11148402159638114},{"client":"Prysm","percentage":0.6296512476287757}],"networkPenetration":0.027948459529460214,"relayerPercentages":[{"relayer":"no_mev_boost","percentage":0.12041884816753927},{"relayer":"bloxroute_maxprofit","percentage":0.36649214659685864},{"relayer":"flashbots","percentage":0.387434554973822},{"relayer":"bloxroute_ethical","percentage":0.04712041884816754},{"relayer":"manifold","percentage":0.020942408376963352},{"relayer":"edennetwork","percentage":0.04712041884816754},{"relayer":"blocknative","percentage":0.010471204188481676}],"nodeOperatorCount":null},{"id":"Bitcoin Suisse","idType":"entity","timeWindow":"1d","validatorCount":9214,"avgCorrectness":0.991521065428664,"avgInclusionDelay":1.0147768868641582,"avgUptime":0.9995200540240697,"avgValidatorEffectiveness":97.69155621464215,"clientPercentages":[{"client":"Lighthouse","percentage":0.0001971608832807571},{"client":"Prysm","percentage":0.0005914826498422713},{"client":"Teku","percentage":0.9743690851735016},{"client":"Nimbus","percentage":0.024842271293375396}],"networkPenetration":0.019970306793675563,"relayerPercentages":[{"relayer":"no_mev_boost","percentage":1.0}],"nodeOperatorCount":null},{"id":"Rocketpool","idType":"entity","timeWindow":"1d","validatorCount":9207,"avgCorrectness":0.9877740388621544,"avgInclusionDelay":1.0229399725017188,"avgUptime":0.9891619520083546,"avgValidatorEffectiveness":95.69335559733767,"clientPercentages":[{"client":"Nimbus","percentage":0.1949977365323676},{"client":"Teku","percentage":0.3408782254413762},{"client":"Prysm","percentage":0.05160706201901313},{"client":"Lighthouse","percentage":0.4125169760072431}],"networkPenetration":0.01993996337115424,"relayerPercentages":[{"relayer":"no_mev_boost","percentage":0.07692307692307693},{"relayer":"bloxroute_ethical","percentage":0.02097902097902098},{"relayer":"edennetwork","percentage":0.03496503496503497},{"relayer":"blocknative","percentage":0.013986013986013986},{"relayer":"relayooor","percentage":0.006993006993006993},{"relayer":"flashbots","percentage":0.5874125874125874},{"relayer":"bloxroute_regulated","percentage":0.08391608391608392},{"relayer":"bloxroute_maxprofit","percentage":0.17482517482517482}],"nodeOperatorCount":1607},{"id":"Stakefish","idType":"entity","timeWindow":"1d","validatorCount":8078,"avgCorrectness":0.9873814103201084,"avgInclusionDelay":1.0388102646089163,"avgUptime":0.9966317295260109,"avgValidatorEffectiveness":94.89194060889446,"clientPercentages":[{"client":"Lighthouse","percentage":0.6877914370495973},{"client":"Prysm","percentage":0.000847816871555744},{"client":"Nimbus","percentage":0.006570580754557015},{"client":"Teku","percentage":0.30479016532428993}],"networkPenetration":0.017508154794802604,"relayerPercentages":[{"relayer":"no_mev_boost","percentage":0.03333333333333333},{"relayer":"bloxroute_maxprofit","percentage":0.013333333333333334},{"relayer":"flashbots","percentage":0.9333333333333333},{"relayer":"manifold","percentage":0.006666666666666667},{"relayer":"edennetwork","percentage":0.006666666666666667},{"relayer":"blocknative","percentage":0.006666666666666667}],"nodeOperatorCount":null},{"id":"Celsius Network","idType":"entity","timeWindow":"1d","validatorCount":4943,"avgCorrectness":0.9912770944070711,"avgInclusionDelay":1.0131477546483845,"avgUptime":0.9998903050329305,"avgValidatorEffectiveness":97.85797114995802,"clientPercentages":[{"client":"Lighthouse","percentage":0.004900113079532605},{"client":"Prysm","percentage":0.9890689785148888},{"client":"Teku","percentage":0.00603090840557859}],"networkPenetration":0.010713395537349502,"relayerPercentages":[{"relayer":"flashbots","percentage":0.9},{"relayer":"no_mev_boost","percentage":0.1}],"nodeOperatorCount":null},{"id":"Bitfinex","idType":"entity","timeWindow":"1d","validatorCount":3214,"avgCorrectness":0.9918535482609963,"avgInclusionDelay":1.01349336740903,"avgUptime":0.9999253266957061,"avgValidatorEffectiveness":97.88181606388837,"clientPercentages":[{"client":"Prysm","percentage":0.9792387543252595},{"client":"Teku","percentage":0.016724336793540944},{"client":"Nimbus","percentage":0.0005767012687427913},{"client":"Lighthouse","percentage":0.0034602076124567475}],"networkPenetration":0.006965982855966275,"relayerPercentages":[{"relayer":"flashbots","percentage":0.9473684210526315},{"relayer":"bloxroute_maxprofit","percentage":0.017543859649122806},{"relayer":"no_mev_boost","percentage":0.017543859649122806},{"relayer":"edennetwork","percentage":0.017543859649122806}],"nodeOperatorCount":null},{"id":"Abyss","idType":"entity","timeWindow":"1d","validatorCount":3059,"avgCorrectness":0.9905468106326699,"avgInclusionDelay":1.017294629923861,"avgUptime":0.9939965856670673,"avgValidatorEffectiveness":96.84510251041722,"clientPercentages":[{"client":"Nimbus","percentage":0.04461221688400824},{"client":"Prysm","percentage":0.033630748112560054},{"client":"Lighthouse","percentage":0.08098833218943034},{"client":"Teku","percentage":0.8407687028140014}],"networkPenetration":0.0066300378209087855,"relayerPercentages":[{"relayer":"flashbots","percentage":0.49122807017543857},{"relayer":"bloxroute_ethical","percentage":0.05263157894736842},{"relayer":"manifold","percentage":0.017543859649122806},{"relayer":"no_mev_boost","percentage":0.3508771929824561},{"relayer":"bloxroute_maxprofit","percentage":0.03508771929824561},{"relayer":"bloxroute_regulated","percentage":0.017543859649122806},{"relayer":"relayooor","percentage":0.017543859649122806},{"relayer":"blocknative","percentage":0.017543859649122806}],"nodeOperatorCount":null},{"id":"Huobi","idType":"entity","timeWindow":"1d","validatorCount":2855,"avgCorrectness":0.9912503866458241,"avgInclusionDelay":1.0138102622548562,"avgUptime":0.9998458844133093,"avgValidatorEffectiveness":97.78392028477086,"clientPercentages":[{"client":"Prysm","percentage":0.981445937300064},{"client":"Lighthouse","percentage":0.007677543186180422},{"client":"Teku","percentage":0.010876519513755598}],"networkPenetration":0.00618789080702667,"relayerPercentages":[{"relayer":"bloxroute_maxprofit","percentage":0.16326530612244897},{"relayer":"flashbots","percentage":0.673469387755102},{"relayer":"edennetwork","percentage":0.061224489795918366},{"relayer":"bloxroute_regulated","percentage":0.08163265306122448},{"relayer":"blocknative","percentage":0.02040816326530612}],"nodeOperatorCount":null},{"id":"Bloxstaking","idType":"entity","timeWindow":"1d","validatorCount":2684,"avgCorrectness":0.9899996742025279,"avgInclusionDelay":1.0129463080243917,"avgUptime":0.9998277860572944,"avgValidatorEffectiveness":97.74639888783956,"clientPercentages":[{"client":"Prysm","percentage":0.684931506849315},{"client":"Lighthouse","percentage":0.3089802130898021},{"client":"Teku","percentage":0.0060882800608828}],"networkPenetration":0.005815100187479004,"relayerPercentages":[{"relayer":"flashbots","percentage":0.975},{"relayer":"blocknative","percentage":0.025}],"nodeOperatorCount":null},{"id":"wedex.eth","idType":"entity","timeWindow":"1d","validatorCount":2399,"avgCorrectness":0.989783556202179,"avgInclusionDelay":1.014311793978371,"avgUptime":0.9995924227687456,"avgValidatorEffectiveness":97.57015705812725,"clientPercentages":[{"client":"Lighthouse","percentage":0.993841416474211},{"client":"Nimbus","percentage":0.006158583525789068}],"networkPenetration":0.005199562187760764,"relayerPercentages":[{"relayer":"edennetwork","percentage":0.075},{"relayer":"manifold","percentage":0.025},{"relayer":"bloxroute_maxprofit","percentage":0.175},{"relayer":"flashbots","percentage":0.6},{"relayer":"blocknative","percentage":0.05},{"relayer":"no_mev_boost","percentage":0.075}],"nodeOperatorCount":null},{"id":"Ankr","idType":"entity","timeWindow":"1d","validatorCount":2304,"avgCorrectness":0.9909440315039415,"avgInclusionDelay":1.013235745193096,"avgUptime":0.9999402006172844,"avgValidatorEffectiveness":97.81588294074639,"clientPercentages":[{"client":"Lighthouse","percentage":0.8369132856006364},{"client":"Prysm","percentage":0.162291169451074},{"client":"Teku","percentage":0.0007955449482895784}],"networkPenetration":0.004993660392080367,"relayerPercentages":[{"relayer":"no_mev_boost","percentage":0.9032258064516129},{"relayer":"flashbots","percentage":0.0967741935483871}],"nodeOperatorCount":null}]}