{"page":{"from":0,"size":15},"total":31,"next":"/v0/eth/operators?window=1d&from=15&size=15&idType=entity","data":[{"id":"Lido","idType":"entity","timeWindow":"1d","validatorCount":128869,"avgCorrectness":0.9941673395263154,"avgInclusionDelay":1.0121108355282658,"avgUptime":0.9998740900218881,"avgValidatorEffectiveness":98.44405866872845,"clientPercentages":[{"client":"Prysm","percentage":0.3543988731007508},{"client":"Lighthouse","percentage":0.3901341611848853},{"client":"Teku","percentage":0.1765840182710849},{"client":"Nimbus","percentage":0.07888294744327895}],"networkPenetration":0.3189007654746908},{"id":"Coinbase","idType":"entity","timeWindow":"1d","validatorCount":56982,"avgCorrectness":0.9939484109750377,"avgInclusionDelay":1.0132005959441368,"avgUptime":0.9998371487264087,"avgValidatorEffectiveness":98.33805427825779,"clientPercentages":[{"client":"Teku","percentage":0.16583114263006662},{"client":"Lighthouse","percentage":0.36210796600843675},{"client":"Nimbus","percentage":0.09720608913614966},{"client":"Prysm","percentage":0.37485480222534695}],"networkPenetration":0.14095821691171923},{"id":"Kraken","idType":"entity","timeWindow":"1d","validatorCount":35712,"avgCorrectness":0.9908298469958501,"avgInclusionDelay":1.0243500392933553,"avgUptime":0.9986397417068176,"avgValidatorEffectiveness":97.33538431208511,"clientPercentages":[{"client":"Nimbus","percentage":0.038755137991779216},{"client":"Prysm","percentage":0.6030045018594636},{"client":"Teku","percentage":0.08519279702485809},{"client":"Lighthouse","percentage":0.273047563123899}],"networkPenetration":0.08837483263748475},{"id":"Binance","idType":"entity","timeWindow":"1d","validatorCount":20810,"avgCorrectness":0.9940646502855404,"avgInclusionDelay":1.0127162168088855,"avgUptime":0.9994957552458765,"avgValidatorEffectiveness":98.35644920423223,"clientPercentages":[{"client":"Lighthouse","percentage":0.3196625459405279},{"client":"Prysm","percentage":0.5929669228199131},{"client":"Teku","percentage":0.01110925492816572},{"client":"Nimbus","percentage":0.07626127631139325}],"networkPenetration":0.05150186975793379},{"id":"Bitcoin Suisse","idType":"entity","timeWindow":"1d","validatorCount":9000,"avgCorrectness":0.9911802000042498,"avgInclusionDelay":1.041310360401985,"avgUptime":0.9993355555555549,"avgValidatorEffectiveness":95.86416492799113,"clientPercentages":[{"client":"Teku","percentage":0.9930375969763279},{"client":"Nimbus","percentage":0.00696240302367217}],"networkPenetration":0.02227375434028852},{"id":"Rocketpool","idType":"entity","timeWindow":"1d","validatorCount":5915,"avgCorrectness":0.9935609529842722,"avgInclusionDelay":1.0159320344534277,"avgUptime":0.991045494247674,"avgValidatorEffectiveness":97.36122402397362,"clientPercentages":[{"client":"Nimbus","percentage":0.25508037609948436},{"client":"Lighthouse","percentage":0.42796481649984836},{"client":"Prysm","percentage":0.056414922656960874},{"client":"Teku","percentage":0.2605398847437064}],"networkPenetration":0.014616532570415999},{"id":"Staked.us","idType":"entity","timeWindow":"1d","validatorCount":5263,"avgCorrectness":0.993962010118078,"avgInclusionDelay":1.011723760168018,"avgUptime":0.9997833935018052,"avgValidatorEffectiveness":98.444136901527,"clientPercentages":[{"client":"Teku","percentage":0.5096401028277635},{"client":"Lighthouse","percentage":0.0016066838046272494},{"client":"Prysm","percentage":0.43316195372750643},{"client":"Nimbus","percentage":0.05559125964010283}],"networkPenetration":0.013025196565882052},{"id":"f2pool.eth","idType":"entity","timeWindow":"1d","validatorCount":3501,"avgCorrectness":0.9934879107914893,"avgInclusionDelay":1.0198270766014972,"avgUptime":0.9996604144847514,"avgValidatorEffectiveness":97.74359686074222,"clientPercentages":[{"client":"Nimbus","percentage":0.00045024763619990995},{"client":"Lighthouse","percentage":0.9995497523638001}],"networkPenetration":0.008664490438372235},{"id":"Bitfinex","idType":"entity","timeWindow":"1d","validatorCount":3214,"avgCorrectness":0.9926846949682814,"avgInclusionDelay":1.0180062069677678,"avgUptime":0.9909610730830405,"avgValidatorEffectiveness":97.1588335997725,"clientPercentages":[{"client":"Lighthouse","percentage":0.0031364349189754314},{"client":"Prysm","percentage":0.865656037637219},{"client":"Nimbus","percentage":0.1097752221641401},{"client":"Teku","percentage":0.021432305279665446}],"networkPenetration":0.007954205161076366},{"id":"Huobi","idType":"entity","timeWindow":"1d","validatorCount":2855,"avgCorrectness":0.9918829462452495,"avgInclusionDelay":1.0244679534046077,"avgUptime":0.9996738665109939,"avgValidatorEffectiveness":97.2464046789721,"clientPercentages":[{"client":"Lighthouse","percentage":0.0034924330616996507},{"client":"Prysm","percentage":0.8795110593713621},{"client":"Teku","percentage":0.018044237485448197},{"client":"Nimbus","percentage":0.0989522700814901}],"networkPenetration":0.007065729849058192},{"id":"wedex.eth","idType":"entity","timeWindow":"1d","validatorCount":2399,"avgCorrectness":0.9931205308938907,"avgInclusionDelay":1.0191049507152887,"avgUptime":0.9994293918762434,"avgValidatorEffectiveness":97.79513579323248,"clientPercentages":[{"client":"Lighthouse","percentage":1.0}],"networkPenetration":0.005937192962483573},{"id":"Bloxstaking","idType":"entity","timeWindow":"1d","validatorCount":2308,"avgCorrectness":0.9933147235072552,"avgInclusionDelay":1.0149565958086457,"avgUptime":0.9998632249023842,"avgValidatorEffectiveness":98.15176728841476,"clientPercentages":[{"client":"Teku","percentage":0.008733624454148471},{"client":"Lighthouse","percentage":0.49417758369723436},{"client":"Nimbus","percentage":0.04439592430858806},{"client":"Prysm","percentage":0.45269286754002913}],"networkPenetration":0.005709505695893957},{"id":"Ankr","idType":"entity","timeWindow":"1d","validatorCount":2284,"avgCorrectness":0.9673016454859253,"avgInclusionDelay":1.1573494068505583,"avgUptime":0.9873876240513718,"avgValidatorEffectiveness":88.2852540629182,"clientPercentages":[{"client":"Teku","percentage":0.008008008008008008},{"client":"Lighthouse","percentage":0.01001001001001001},{"client":"Prysm","percentage":0.8898898898898899},{"client":"Nimbus","percentage":0.0920920920920921}],"networkPenetration":0.005652583879246553},{"id":"StakeWise","idType":"entity","timeWindow":"1d","validatorCount":1968,"avgCorrectness":0.9939581321542119,"avgInclusionDelay":1.0144318136897803,"avgUptime":0.9997798102981048,"avgValidatorEffectiveness":98.25910107026269,"clientPercentages":[{"client":"Prysm","percentage":0.3770197486535009},{"client":"Nimbus","percentage":0.0466786355475763},{"client":"Teku","percentage":0.04039497307001795},{"client":"Lighthouse","percentage":0.5359066427289049}],"networkPenetration":0.00487052761574309},{"id":"OKex","idType":"entity","timeWindow":"1d","validatorCount":1534,"avgCorrectness":0.9930065724161419,"avgInclusionDelay":1.0174042217085384,"avgUptime":0.9995712009271326,"avgValidatorEffectiveness":97.8995843778842,"clientPercentages":[{"client":"Teku","percentage":0.021134593993325918},{"client":"Prysm","percentage":0.8765294771968855},{"client":"Nimbus","percentage":0.10233592880978866}],"networkPenetration":0.00379643768422251}]}