{"page":{"from":0,"size":15},"total":30,"next":"/v0/eth/operators?window=1d&from=15&size=15&idType=entity","data":[{"id":"Lido","idType":"entity","timeWindow":"1d","validatorCount":130069,"avgCorrectness":0.9850536921820362,"avgInclusionDelay":1.0471961208398994,"avgUptime":0.9927019846063492,"avgValidatorEffectiveness":94.73327347936262,"clientPercentages":[{"client":"Prysm","percentage":0.40259494270290747},{"client":"Lighthouse","percentage":0.3503037354727856},{"client":"Teku","percentage":0.22193660113917715},{"client":"Lodestar","percentage":0.00037882375224926605},{"client":"Nimbus","percentage":0.02478589693288055}],"networkPenetration":0.30436889000189576},{"id":"Coinbase","idType":"entity","timeWindow":"1d","validatorCount":54348,"avgCorrectness":0.9864823957124225,"avgInclusionDelay":1.038334032793717,"avgUptime":0.9984553862761023,"avgValidatorEffectiveness":95.93363335372264,"clientPercentages":[{"client":"Lighthouse","percentage":0.42492342522306564},{"client":"Teku","percentage":0.13553735517379145},{"client":"Nimbus","percentage":0.055733120255693165},{"client":"Prysm","percentage":0.38380609934744975}],"networkPenetration":0.12719796101303388},{"id":"Kraken","idType":"entity","timeWindow":"1d","validatorCount":36720,"avgCorrectness":0.9880461364327671,"avgInclusionDelay":1.0358273861676743,"avgUptime":0.9991163612617859,"avgValidatorEffectiveness":96.259020095957,"clientPercentages":[{"client":"Nimbus","percentage":0.01955104996379435},{"client":"Lighthouse","percentage":0.26280473087134926},{"client":"Teku","percentage":0.0939898624185373},{"client":"Prysm","percentage":0.6236543567463191}],"networkPenetration":0.0859080068621554},{"id":"Binance","idType":"entity","timeWindow":"1d","validatorCount":22496,"avgCorrectness":0.9883321591188118,"avgInclusionDelay":1.0351112905137656,"avgUptime":0.9995281106433095,"avgValidatorEffectiveness":96.37236731773795,"clientPercentages":[{"client":"Prysm","percentage":0.6109586763116321},{"client":"Teku","percentage":0.0005820237798287187},{"client":"Lighthouse","percentage":0.35769518583187826},{"client":"Nimbus","percentage":0.030764114076660846}],"networkPenetration":0.05215425338953498},{"id":"Bitcoin Suisse","idType":"entity","timeWindow":"1d","validatorCount":9062,"avgCorrectness":0.9894138690797051,"avgInclusionDelay":1.035941517987328,"avgUptime":0.9990112557934218,"avgValidatorEffectiveness":96.31957410149599,"clientPercentages":[{"client":"Teku","percentage":0.9935897435897436},{"client":"Nimbus","percentage":0.00641025641025641}],"networkPenetration":0.02120902190881197},{"id":"Rocketpool","idType":"entity","timeWindow":"1d","validatorCount":7193,"avgCorrectness":0.983234924436235,"avgInclusionDelay":1.046084283485444,"avgUptime":0.9729888020937794,"avgValidatorEffectiveness":93.12857745968319,"clientPercentages":[{"client":"Prysm","percentage":0.05238870792616721},{"client":"Teku","percentage":0.30442453854505974},{"client":"Nimbus","percentage":0.2270629750271444},{"client":"Lighthouse","percentage":0.4161237785016287}],"networkPenetration":0.016600705407106967},{"id":"Staked.us","idType":"entity","timeWindow":"1d","validatorCount":5263,"avgCorrectness":0.985243085424305,"avgInclusionDelay":1.04266776095145,"avgUptime":0.9939616188485656,"avgValidatorEffectiveness":95.17019056758355,"clientPercentages":[{"client":"Teku","percentage":0.49422161794697483},{"client":"Prysm","percentage":0.47178789938817134},{"client":"Nimbus","percentage":0.02821210061182869},{"client":"Lighthouse","percentage":0.005778382053025153}],"networkPenetration":0.012317709369463409},{"id":"f2pool.eth","idType":"entity","timeWindow":"1d","validatorCount":3501,"avgCorrectness":0.9862345501050411,"avgInclusionDelay":1.048089816704629,"avgUptime":0.9973588498524237,"avgValidatorEffectiveness":95.09811980123666,"clientPercentages":[{"client":"Lighthouse","percentage":0.986387943607195},{"client":"Prysm","percentage":0.013612056392805057}],"networkPenetration":0.008193862911360705},{"id":"Bitfinex","idType":"entity","timeWindow":"1d","validatorCount":3214,"avgCorrectness":0.9894364164362599,"avgInclusionDelay":1.0336223416279757,"avgUptime":0.9940365069487657,"avgValidatorEffectiveness":96.07620379909002,"clientPercentages":[{"client":"Prysm","percentage":0.943725379853686},{"client":"Nimbus","percentage":0.03939223410241981},{"client":"Lighthouse","percentage":0.004501969611705121},{"client":"Teku","percentage":0.012380416432189083}],"networkPenetration":0.007522158068298574},{"id":"Huobi","idType":"entity","timeWindow":"1d","validatorCount":2855,"avgCorrectness":0.9883022951636511,"avgInclusionDelay":1.0336535766559747,"avgUptime":0.9997587079198282,"avgValidatorEffectiveness":96.49726418095824,"clientPercentages":[{"client":"Lighthouse","percentage":0.0006075334143377885},{"client":"Nimbus","percentage":0.04495747266099635},{"client":"Teku","percentage":0.002430133657351154},{"client":"Prysm","percentage":0.9520048602673147}],"networkPenetration":0.006681941905722598},{"id":"Bloxstaking","idType":"entity","timeWindow":"1d","validatorCount":2434,"avgCorrectness":0.9868160682768123,"avgInclusionDelay":1.0366877266715515,"avgUptime":0.9921237926930744,"avgValidatorEffectiveness":95.53175156175698,"clientPercentages":[{"client":"Lighthouse","percentage":0.4880418535127055},{"client":"Prysm","percentage":0.4857997010463378},{"client":"Nimbus","percentage":0.02391629297458894},{"client":"Teku","percentage":0.002242152466367713}],"networkPenetration":0.005684916598599016},{"id":"wedex.eth","idType":"entity","timeWindow":"1d","validatorCount":2399,"avgCorrectness":0.9801208371553193,"avgInclusionDelay":1.0620649956008161,"avgUptime":0.9896530961974902,"avgValidatorEffectiveness":93.08352357726397,"clientPercentages":[{"client":"Lighthouse","percentage":1.0}],"networkPenetration":0.00561470354880158},{"id":"Ankr","idType":"entity","timeWindow":"1d","validatorCount":2298,"avgCorrectness":0.9888271479557786,"avgInclusionDelay":1.033327530008028,"avgUptime":0.9997969248621987,"avgValidatorEffectiveness":96.55495075912407,"clientPercentages":[{"client":"Nimbus","percentage":0.03640040444893832},{"client":"Lighthouse","percentage":0.011122345803842264},{"client":"Prysm","percentage":0.9464105156723963},{"client":"Teku","percentage":0.006066734074823054}],"networkPenetration":0.005378319614483548},{"id":"StakeWise","idType":"entity","timeWindow":"1d","validatorCount":1981,"avgCorrectness":0.9874386318066367,"avgInclusionDelay":1.0367977848211958,"avgUptime":0.9941656851197482,"avgValidatorEffectiveness":95.73180697573156,"clientPercentages":[{"client":"Teku","percentage":0.060526315789473685},{"client":"Prysm","percentage":0.3850877192982456},{"client":"Lighthouse","percentage":0.5298245614035088},{"client":"Nimbus","percentage":0.02456140350877193}],"networkPenetration":0.004636401721623981},{"id":"OKex","idType":"entity","timeWindow":"1d","validatorCount":1737,"avgCorrectness":0.9886682652567682,"avgInclusionDelay":1.0327681114543161,"avgUptime":0.9998362438431521,"avgValidatorEffectiveness":96.59223720736138,"clientPercentages":[{"client":"Nimbus","percentage":0.04512067156348373},{"client":"Prysm","percentage":0.9401888772298006},{"client":"Teku","percentage":0.002098635886673662},{"client":"Lighthouse","percentage":0.012591815320041973}],"networkPenetration":0.004065335583271507}]}