{"page":{"from":0,"size":15},"total":31,"next":"/v0/eth/operators?window=1d&from=15&size=15&idType=entity","data":[{"id":"Lido","idType":"entity","timeWindow":"1d","validatorCount":129023,"avgCorrectness":0.9885331723453437,"avgInclusionDelay":1.020877219595259,"avgUptime":0.9997284867862268,"avgValidatorEffectiveness":97.5496399421418,"clientPercentages":[{"client":"Teku","percentage":0.19212259712326926},{"client":"Nimbus","percentage":0.07909665277591074},{"client":"Prysm","percentage":0.35219787605861},{"client":"Lighthouse","percentage":0.37658287404220997}],"networkPenetration":0.317846284241597},{"id":"Coinbase","idType":"entity","timeWindow":"1d","validatorCount":56969,"avgCorrectness":0.9880636892077947,"avgInclusionDelay":1.021930826036524,"avgUptime":0.9998598879938806,"avgValidatorEffectiveness":97.45316858307103,"clientPercentages":[{"client":"Prysm","percentage":0.36379950495049507},{"client":"Lighthouse","percentage":0.37688737623762375},{"client":"Nimbus","percentage":0.09226485148514851},{"client":"Teku","percentage":0.16704826732673267}],"networkPenetration":0.14024825927769263},{"id":"Kraken","idType":"entity","timeWindow":"1d","validatorCount":35840,"avgCorrectness":0.9811799680521264,"avgInclusionDelay":1.0335478141000491,"avgUptime":0.9987931746559722,"avgValidatorEffectiveness":96.28029993378135,"clientPercentages":[{"client":"Nimbus","percentage":0.04148429141134131},{"client":"Lighthouse","percentage":0.26855364264176634},{"client":"Teku","percentage":0.08695652173913043},{"client":"Prysm","percentage":0.6030055442077619}],"networkPenetration":0.08825080198883375},{"id":"Binance","idType":"entity","timeWindow":"1d","validatorCount":20810,"avgCorrectness":0.9886262534247416,"avgInclusionDelay":1.0201262408764775,"avgUptime":0.9999300549949282,"avgValidatorEffectiveness":97.62664251669348,"clientPercentages":[{"client":"Teku","percentage":0.008803554959335961},{"client":"Nimbus","percentage":0.0726083675693804},{"client":"Lighthouse","percentage":0.3254800033537352},{"client":"Prysm","percentage":0.5931080741175484}],"networkPenetration":0.05127308027772713},{"id":"Bitcoin Suisse","idType":"entity","timeWindow":"1d","validatorCount":9000,"avgCorrectness":0.9851497615391193,"avgInclusionDelay":1.0525602478866223,"avgUptime":0.9991027160493833,"avgValidatorEffectiveness":94.80504654791932,"clientPercentages":[{"client":"Nimbus","percentage":0.006906077348066298},{"client":"Teku","percentage":0.9928966061562746},{"client":"Prysm","percentage":0.0001973164956590371}],"networkPenetration":0.022174806463216925},{"id":"Rocketpool","idType":"entity","timeWindow":"1d","validatorCount":6220,"avgCorrectness":0.987164990951826,"avgInclusionDelay":1.026285026689495,"avgUptime":0.9905297191323661,"avgValidatorEffectiveness":96.36362623186264,"clientPercentages":[{"client":"Nimbus","percentage":0.2553382111393161},{"client":"Lighthouse","percentage":0.41735105271016876},{"client":"Teku","percentage":0.267433179035389},{"client":"Prysm","percentage":0.05987755711512618}],"networkPenetration":0.015300616459619677},{"id":"Staked.us","idType":"entity","timeWindow":"1d","validatorCount":5263,"avgCorrectness":0.9870787020285876,"avgInclusionDelay":1.0221360022723969,"avgUptime":0.9989165452741364,"avgValidatorEffectiveness":97.29515556768408,"clientPercentages":[{"client":"Lighthouse","percentage":0.000967741935483871},{"client":"Prysm","percentage":0.4309677419354839},{"client":"Nimbus","percentage":0.05838709677419355},{"client":"Teku","percentage":0.5096774193548387}],"networkPenetration":0.012967334046212297},{"id":"f2pool.eth","idType":"entity","timeWindow":"1d","validatorCount":3501,"avgCorrectness":0.9895947189691834,"avgInclusionDelay":1.0190053635469232,"avgUptime":1.0,"avgValidatorEffectiveness":97.78370322805421,"clientPercentages":[{"client":"Lighthouse","percentage":1.0}],"networkPenetration":0.008625999714191384},{"id":"Bitfinex","idType":"entity","timeWindow":"1d","validatorCount":3214,"avgCorrectness":0.9879830887735409,"avgInclusionDelay":1.0212873771655464,"avgUptime":0.9974362165525826,"avgValidatorEffectiveness":97.30616480190862,"clientPercentages":[{"client":"Prysm","percentage":0.8753358409457281},{"client":"Nimbus","percentage":0.10370768404083826},{"client":"Teku","percentage":0.018807092960773777},{"client":"Lighthouse","percentage":0.0021493820526598604}],"networkPenetration":0.007918869774753244},{"id":"Huobi","idType":"entity","timeWindow":"1d","validatorCount":2855,"avgCorrectness":0.9867910678381301,"avgInclusionDelay":1.0225475825918278,"avgUptime":0.9999307258221448,"avgValidatorEffectiveness":97.33100892337077,"clientPercentages":[{"client":"Lighthouse","percentage":0.0017605633802816902},{"client":"Teku","percentage":0.014084507042253521},{"client":"Nimbus","percentage":0.09800469483568075},{"client":"Prysm","percentage":0.886150234741784}],"networkPenetration":0.007034341383609369},{"id":"wedex.eth","idType":"entity","timeWindow":"1d","validatorCount":2399,"avgCorrectness":0.9866566876442401,"avgInclusionDelay":1.0333691713086113,"avgUptime":0.9994256866286889,"avgValidatorEffectiveness":96.42719710016154,"clientPercentages":[{"client":"Lighthouse","percentage":1.0}],"networkPenetration":0.005910817856139711},{"id":"Bloxstaking","idType":"entity","timeWindow":"1d","validatorCount":2322,"avgCorrectness":0.9860406577759722,"avgInclusionDelay":1.022478100644093,"avgUptime":0.9998984843155515,"avgValidatorEffectiveness":97.28785475842609,"clientPercentages":[{"client":"Teku","percentage":0.008314436885865457},{"client":"Prysm","percentage":0.43386243386243384},{"client":"Nimbus","percentage":0.05139833711262283},{"client":"Lighthouse","percentage":0.5064247921390779}],"networkPenetration":0.005713708465355561},{"id":"Ankr","idType":"entity","timeWindow":"1d","validatorCount":2287,"avgCorrectness":0.8536774471482137,"avgInclusionDelay":1.5048821993938213,"avgUptime":0.951833066122528,"avgValidatorEffectiveness":68.35419122777115,"clientPercentages":[{"client":"Lighthouse","percentage":0.008238928939237899},{"client":"Prysm","percentage":0.8990731204943357},{"client":"Nimbus","percentage":0.08341915550978372},{"client":"Teku","percentage":0.009268795056642637}],"networkPenetration":0.0056348647090419006},{"id":"StakeWise","idType":"entity","timeWindow":"1d","validatorCount":1976,"avgCorrectness":0.9889333073871313,"avgInclusionDelay":1.0222683654680047,"avgUptime":0.9997964462438148,"avgValidatorEffectiveness":97.48212398007522,"clientPercentages":[{"client":"Lighthouse","percentage":0.5461056401074306},{"client":"Prysm","percentage":0.36436884512085943},{"client":"Teku","percentage":0.049239033124440466},{"client":"Nimbus","percentage":0.04028648164726947}],"networkPenetration":0.004868601952368516},{"id":"OKex","idType":"entity","timeWindow":"1d","validatorCount":1548,"avgCorrectness":0.9817624004758196,"avgInclusionDelay":1.0380339682384616,"avgUptime":0.9992276772896932,"avgValidatorEffectiveness":95.75514252256323,"clientPercentages":[{"client":"Nimbus","percentage":0.1087912087912088},{"client":"Teku","percentage":0.017582417582417582},{"client":"Prysm","percentage":0.8736263736263736}],"networkPenetration":0.003814066711673311}]}