{"page":{"from":0,"size":15},"total":30,"next":"/v0/eth/operators?window=1d&from=15&size=15&idType=entity","data":[{"id":"Lido","idType":"entity","timeWindow":"1d","validatorCount":129344,"avgCorrectness":0.9898929161601485,"avgInclusionDelay":1.022236299340101,"avgUptime":0.9997890365469912,"avgValidatorEffectiveness":97.52122437610666,"clientPercentages":[{"client":"Lighthouse","percentage":0.3538103268288766},{"client":"Prysm","percentage":0.36031478358628444},{"client":"Teku","percentage":0.2215128884606119},{"client":"Nimbus","percentage":0.06436200112422709}],"networkPenetration":0.3150957921612193},{"id":"Coinbase","idType":"entity","timeWindow":"1d","validatorCount":56137,"avgCorrectness":0.990531817499081,"avgInclusionDelay":1.021401217275239,"avgUptime":0.9996428974354428,"avgValidatorEffectiveness":97.61203305880844,"clientPercentages":[{"client":"Teku","percentage":0.14360857792025897},{"client":"Prysm","percentage":0.3734321018394597},{"client":"Nimbus","percentage":0.09231535373027483},{"client":"Lighthouse","percentage":0.39064396651000655}],"networkPenetration":0.1367620690327233},{"id":"Kraken","idType":"entity","timeWindow":"1d","validatorCount":35967,"avgCorrectness":0.9827147454015714,"avgInclusionDelay":1.0341183017547173,"avgUptime":0.9972943506146272,"avgValidatorEffectiveness":96.19025128123255,"clientPercentages":[{"client":"Nimbus","percentage":0.04528793286389505},{"client":"Lighthouse","percentage":0.2649754027201698},{"client":"Prysm","percentage":0.5996913282531108},{"client":"Teku","percentage":0.09004533616282434}],"networkPenetration":0.08760889902356311},{"id":"Binance","idType":"entity","timeWindow":"1d","validatorCount":21153,"avgCorrectness":0.9904723094351565,"avgInclusionDelay":1.0206140766544078,"avgUptime":0.999865950193561,"avgValidatorEffectiveness":97.68123133357483,"clientPercentages":[{"client":"Lighthouse","percentage":0.34309868586255965},{"client":"Prysm","percentage":0.5864233698836528},{"client":"Teku","percentage":0.003264417845484222},{"client":"Nimbus","percentage":0.06721352640830335}],"networkPenetration":0.05153335672104309},{"id":"Bitcoin Suisse","idType":"entity","timeWindow":"1d","validatorCount":9000,"avgCorrectness":0.9869920444819552,"avgInclusionDelay":1.0461954475932354,"avgUptime":0.9970251851851875,"avgValidatorEffectiveness":95.20750504170158,"clientPercentages":[{"client":"Nimbus","percentage":0.0063522617901828685},{"client":"Teku","percentage":0.9934552454282964},{"client":"Prysm","percentage":0.00019249278152069297}],"networkPenetration":0.02192597789861428},{"id":"Rocketpool","idType":"entity","timeWindow":"1d","validatorCount":6349,"avgCorrectness":0.9893640287365704,"avgInclusionDelay":1.024885603104645,"avgUptime":0.9974707425786992,"avgValidatorEffectiveness":97.10997413085502,"clientPercentages":[{"client":"Nimbus","percentage":0.2328336902212705},{"client":"Teku","percentage":0.291220556745182},{"client":"Prysm","percentage":0.07037830121341898},{"client":"Lighthouse","percentage":0.4055674518201285}],"networkPenetration":0.015465123077822605},{"id":"Staked.us","idType":"entity","timeWindow":"1d","validatorCount":5263,"avgCorrectness":0.9899552995387806,"avgInclusionDelay":1.0218975570009146,"avgUptime":0.9980509637511346,"avgValidatorEffectiveness":97.40032804557711,"clientPercentages":[{"client":"Lighthouse","percentage":0.0019887305270135896},{"client":"Teku","percentage":0.5081206496519721},{"client":"Nimbus","percentage":0.043752071594298975},{"client":"Prysm","percentage":0.4461385482267153}],"networkPenetration":0.012821824631156328},{"id":"f2pool.eth","idType":"entity","timeWindow":"1d","validatorCount":3501,"avgCorrectness":0.9908615947681885,"avgInclusionDelay":1.0202978344448754,"avgUptime":0.9999930178679111,"avgValidatorEffectiveness":97.74920142324768,"clientPercentages":[{"client":"Lighthouse","percentage":1.0}],"networkPenetration":0.008529205402560955},{"id":"Bitfinex","idType":"entity","timeWindow":"1d","validatorCount":3214,"avgCorrectness":0.9885710095723502,"avgInclusionDelay":1.0237724661080143,"avgUptime":0.9995312175897125,"avgValidatorEffectiveness":97.36061815914022,"clientPercentages":[{"client":"Prysm","percentage":0.8850762527233116},{"client":"Teku","percentage":0.01579520697167756},{"client":"Lighthouse","percentage":0.0027233115468409588},{"client":"Nimbus","percentage":0.09640522875816994}],"networkPenetration":0.00783001032957181},{"id":"Huobi","idType":"entity","timeWindow":"1d","validatorCount":2855,"avgCorrectness":0.9899466587584949,"avgInclusionDelay":1.021295243343631,"avgUptime":0.9999976649153532,"avgValidatorEffectiveness":97.61659714299958,"clientPercentages":[{"client":"Prysm","percentage":0.9123649459783914},{"client":"Nimbus","percentage":0.07923169267707082},{"client":"Teku","percentage":0.007202881152460984},{"client":"Lighthouse","percentage":0.0012004801920768306}],"networkPenetration":0.006955407433393752},{"id":"wedex.eth","idType":"entity","timeWindow":"1d","validatorCount":2399,"avgCorrectness":0.9901124238758076,"avgInclusionDelay":1.0230192888096743,"avgUptime":0.9999407160390913,"avgValidatorEffectiveness":97.48070448921368,"clientPercentages":[{"client":"Lighthouse","percentage":1.0}],"networkPenetration":0.0058444912198639615},{"id":"Bloxstaking","idType":"entity","timeWindow":"1d","validatorCount":2343,"avgCorrectness":0.9899133977633393,"avgInclusionDelay":1.0207744368567837,"avgUptime":0.9954104424526964,"avgValidatorEffectiveness":97.2612847854682,"clientPercentages":[{"client":"Teku","percentage":0.0014727540500736377},{"client":"Nimbus","percentage":0.054491899852724596},{"client":"Lighthouse","percentage":0.49852724594992637},{"client":"Prysm","percentage":0.44550810014727543}],"networkPenetration":0.00570806291293925},{"id":"Ankr","idType":"entity","timeWindow":"1d","validatorCount":2289,"avgCorrectness":0.9455829159914471,"avgInclusionDelay":1.1983255530451549,"avgUptime":0.9938750546089996,"avgValidatorEffectiveness":88.41035225584449,"clientPercentages":[{"client":"Nimbus","percentage":0.07235421166306695},{"client":"Prysm","percentage":0.9071274298056156},{"client":"Lighthouse","percentage":0.016198704103671708},{"client":"Teku","percentage":0.004319654427645789}],"networkPenetration":0.0055765070455475645},{"id":"StakeWise","idType":"entity","timeWindow":"1d","validatorCount":1978,"avgCorrectness":0.9902594812621833,"avgInclusionDelay":1.023348257672365,"avgUptime":0.9999382091899788,"avgValidatorEffectiveness":97.47182768954156,"clientPercentages":[{"client":"Teku","percentage":0.06026200873362445},{"client":"Lighthouse","percentage":0.5388646288209606},{"client":"Prysm","percentage":0.36069868995633186},{"client":"Nimbus","percentage":0.04017467248908297}],"networkPenetration":0.004818842698162116},{"id":"OKex","idType":"entity","timeWindow":"1d","validatorCount":1627,"avgCorrectness":0.9900605001085758,"avgInclusionDelay":1.0207833403426598,"avgUptime":1.0,"avgValidatorEffectiveness":97.66038818445328,"clientPercentages":[{"client":"Teku","percentage":0.006718924972004479},{"client":"Lighthouse","percentage":0.0022396416573348264},{"client":"Prysm","percentage":0.8891377379619261},{"client":"Nimbus","percentage":0.1019036954087346}],"networkPenetration":0.003934494922918007}]}