{"page":{"from":0,"to":null,"size":15},"total":36,"next":"/v0/eth/operators?window=1d&from=15&size=15&idType=entity","data":[{"id":"Lido","idType":"entity","timeWindow":"1d","validatorCount":142297,"avgCorrectness":0.9885614612531022,"avgInclusionDelay":1.0219814784373464,"avgUptime":0.9974012636603621,"avgValidatorEffectiveness":96.58517425670524,"clientPercentages":[{"client":"Prysm","percentage":0.3560207248143633},{"client":"Lodestar","percentage":0.003989803834644797},{"client":"Lighthouse","percentage":0.45778842956887955},{"client":"Nimbus","percentage":0.01863293804721268},{"client":"Teku","percentage":0.1635681037348997}],"networkPenetration":0.30394262779094744,"relayerPercentages":[{"relayer":"no_mev_boost","percentage":0.1330049261083744},{"relayer":"blocknative","percentage":0.054187192118226604},{"relayer":"bloxroute_ethical","percentage":0.017733990147783252},{"relayer":"manifold","percentage":0.0034482758620689655},{"relayer":"bloxroute_maxprofit","percentage":0.034975369458128076},{"relayer":"edennetwork","percentage":0.0665024630541872},{"relayer":"bloxroute_regulated","percentage":0.0064039408866995075},{"relayer":"flashbots","percentage":0.683743842364532}],"nodeOperatorCount":29},{"id":"Coinbase","idType":"entity","timeWindow":"1d","validatorCount":54761,"avgCorrectness":0.9876446191995346,"avgInclusionDelay":1.0196889837274323,"avgUptime":0.9978754547538937,"avgValidatorEffectiveness":96.71512662085371,"clientPercentages":[{"client":"Nimbus","percentage":0.0068415443325196825},{"client":"Prysm","percentage":0.3576168047581394},{"client":"Lighthouse","percentage":0.42874823804448725},{"client":"Teku","percentage":0.20679341286485373}],"networkPenetration":0.11715988737794285,"relayerPercentages":[{"relayer":"edennetwork","percentage":0.0012345679012345679},{"relayer":"manifold","percentage":0.0012345679012345679},{"relayer":"bloxroute_ethical","percentage":0.003703703703703704},{"relayer":"no_mev_boost","percentage":0.18765432098765433},{"relayer":"bloxroute_maxprofit","percentage":0.06419753086419754},{"relayer":"flashbots","percentage":0.7419753086419754}],"nodeOperatorCount":null},{"id":"Kraken","idType":"entity","timeWindow":"1d","validatorCount":38296,"avgCorrectness":0.9889897703845475,"avgInclusionDelay":1.01654255486771,"avgUptime":0.9982397312896036,"avgValidatorEffectiveness":97.15732862012916,"clientPercentages":[{"client":"Lighthouse","percentage":0.25358074518875817},{"client":"Teku","percentage":0.052123837180686125},{"client":"Nimbus","percentage":9.843973027513905e-05},{"client":"Prysm","percentage":0.6941969779002806}],"networkPenetration":0.08190772864588236,"relayerPercentages":[{"relayer":"blocknative","percentage":0.006},{"relayer":"bloxroute_maxprofit","percentage":0.038},{"relayer":"edennetwork","percentage":0.012},{"relayer":"no_mev_boost","percentage":0.098},{"relayer":"manifold","percentage":0.018},{"relayer":"flashbots","percentage":0.828}],"nodeOperatorCount":null},{"id":"Binance","idType":"entity","timeWindow":"1d","validatorCount":24402,"avgCorrectness":0.9907743430253086,"avgInclusionDelay":1.0133530332653202,"avgUptime":0.999493119871773,"avgValidatorEffectiveness":97.74436996800999,"clientPercentages":[{"client":"Lighthouse","percentage":0.4614217252396166},{"client":"Nimbus","percentage":0.0011182108626198084},{"client":"Teku","percentage":0.0060702875399361025},{"client":"Prysm","percentage":0.5313897763578275}],"networkPenetration":0.052207512130833286,"relayerPercentages":[{"relayer":"blocknative","percentage":0.029333333333333333},{"relayer":"edennetwork","percentage":0.016},{"relayer":"bloxroute_regulated","percentage":0.018666666666666668},{"relayer":"no_mev_boost","percentage":0.15466666666666667},{"relayer":"flashbots","percentage":0.7813333333333333}],"nodeOperatorCount":null},{"id":"Staked.us","idType":"entity","timeWindow":"1d","validatorCount":12989,"avgCorrectness":0.9883249903576239,"avgInclusionDelay":1.0174886233711946,"avgUptime":0.9969269177188179,"avgValidatorEffectiveness":96.8840615063893,"clientPercentages":[{"client":"Prysm","percentage":0.6296512476287757},{"client":"Teku","percentage":0.25857288778637094},{"client":"Lighthouse","percentage":0.11148402159638114},{"client":"Nimbus","percentage":0.00029184298847220193}],"networkPenetration":0.027635621432422486,"relayerPercentages":[{"relayer":"blocknative","percentage":0.013636363636363636},{"relayer":"manifold","percentage":0.013636363636363636},{"relayer":"bloxroute_ethical","percentage":0.01818181818181818},{"relayer":"no_mev_boost","percentage":0.39545454545454545},{"relayer":"bloxroute_maxprofit","percentage":0.06363636363636363},{"relayer":"edennetwork","percentage":0.05454545454545454},{"relayer":"flashbots","percentage":0.4409090909090909}],"nodeOperatorCount":null},{"id":"Rocketpool","idType":"entity","timeWindow":"1d","validatorCount":9306,"avgCorrectness":0.9880767773338368,"avgInclusionDelay":1.021340916486831,"avgUptime":0.9883184086730199,"avgValidatorEffectiveness":95.77478976226563,"clientPercentages":[{"client":"Nimbus","percentage":0.1949977365323676},{"client":"Prysm","percentage":0.05160706201901313},{"client":"Lighthouse","percentage":0.4125169760072431},{"client":"Teku","percentage":0.3408782254413762}],"networkPenetration":0.01988215761953257,"relayerPercentages":[{"relayer":"bloxroute_regulated","percentage":0.018292682926829267},{"relayer":"bloxroute_ethical","percentage":0.012195121951219513},{"relayer":"edennetwork","percentage":0.03048780487804878},{"relayer":"relayooor","percentage":0.018292682926829267},{"relayer":"no_mev_boost","percentage":0.25},{"relayer":"blocknative","percentage":0.07317073170731707},{"relayer":"bloxroute_maxprofit","percentage":0.042682926829268296},{"relayer":"flashbots","percentage":0.5548780487804879}],"nodeOperatorCount":1624},{"id":"Bitcoin Suisse","idType":"entity","timeWindow":"1d","validatorCount":9214,"avgCorrectness":0.9911899610056949,"avgInclusionDelay":1.0137737403594194,"avgUptime":0.9993685936859344,"avgValidatorEffectiveness":97.7320196102723,"clientPercentages":[{"client":"Nimbus","percentage":0.02484717018339578},{"client":"Lighthouse","percentage":0.00019719976336028398},{"client":"Teku","percentage":0.9743640307631631},{"client":"Prysm","percentage":0.0005915992900808519}],"networkPenetration":0.01971313895473723,"relayerPercentages":[{"relayer":"no_mev_boost","percentage":0.7516778523489933},{"relayer":"bloxroute_regulated","percentage":0.03355704697986577},{"relayer":"bloxroute_maxprofit","percentage":0.04697986577181208},{"relayer":"edennetwork","percentage":0.09395973154362416},{"relayer":"blocknative","percentage":0.0738255033557047}],"nodeOperatorCount":null},{"id":"Stakefish","idType":"entity","timeWindow":"1d","validatorCount":8078,"avgCorrectness":0.9883570490246945,"avgInclusionDelay":1.0266318566681754,"avgUptime":0.996803389177739,"avgValidatorEffectiveness":96.07596865256207,"clientPercentages":[{"client":"Nimbus","percentage":0.006570580754557015},{"client":"Teku","percentage":0.30479016532428993},{"client":"Lighthouse","percentage":0.6877914370495973},{"client":"Prysm","percentage":0.000847816871555744}],"networkPenetration":0.017282693344515664,"relayerPercentages":[{"relayer":"bloxroute_maxprofit","percentage":0.043209876543209874},{"relayer":"flashbots","percentage":0.7345679012345679},{"relayer":"no_mev_boost","percentage":0.1111111111111111},{"relayer":"edennetwork","percentage":0.043209876543209874},{"relayer":"bloxroute_regulated","percentage":0.024691358024691357},{"relayer":"blocknative","percentage":0.030864197530864196},{"relayer":"bloxroute_ethical","percentage":0.006172839506172839},{"relayer":"relayooor","percentage":0.006172839506172839}],"nodeOperatorCount":null},{"id":"Celsius Network","idType":"entity","timeWindow":"1d","validatorCount":4943,"avgCorrectness":0.9905084591281802,"avgInclusionDelay":1.0134431015733987,"avgUptime":0.9996601254298997,"avgValidatorEffectiveness":97.72766751949466,"clientPercentages":[{"client":"Prysm","percentage":0.9890689785148888},{"client":"Lighthouse","percentage":0.004900113079532605},{"client":"Teku","percentage":0.00603090840557859}],"networkPenetration":0.01057543367194119,"relayerPercentages":[{"relayer":"no_mev_boost","percentage":0.0547945205479452},{"relayer":"flashbots","percentage":0.9452054794520548}],"nodeOperatorCount":null},{"id":"Bitfinex","idType":"entity","timeWindow":"1d","validatorCount":3214,"avgCorrectness":0.991467686155069,"avgInclusionDelay":1.012393201996744,"avgUptime":0.9997607688584661,"avgValidatorEffectiveness":97.92842523962334,"clientPercentages":[{"client":"Prysm","percentage":0.9792267743796884},{"client":"Lighthouse","percentage":0.003462204270051933},{"client":"Teku","percentage":0.01673398730525101},{"client":"Nimbus","percentage":0.0005770340450086555}],"networkPenetration":0.006876278337369813,"relayerPercentages":[{"relayer":"flashbots","percentage":0.94},{"relayer":"bloxroute_maxprofit","percentage":0.02},{"relayer":"blocknative","percentage":0.02},{"relayer":"edennetwork","percentage":0.02}],"nodeOperatorCount":null},{"id":"Abyss","idType":"entity","timeWindow":"1d","validatorCount":3178,"avgCorrectness":0.9910970362446603,"avgInclusionDelay":1.0147250538730077,"avgUptime":0.9977938852073419,"avgValidatorEffectiveness":97.49503983710974,"clientPercentages":[{"client":"Lighthouse","percentage":0.08098833218943034},{"client":"Teku","percentage":0.8407687028140014},{"client":"Prysm","percentage":0.033630748112560054},{"client":"Nimbus","percentage":0.04461221688400824}],"networkPenetration":0.0065853094967094844,"relayerPercentages":[{"relayer":"edennetwork","percentage":0.03125},{"relayer":"bloxroute_ethical","percentage":0.03125},{"relayer":"relayooor","percentage":0.0625},{"relayer":"no_mev_boost","percentage":0.34375},{"relayer":"flashbots","percentage":0.53125}],"nodeOperatorCount":null},{"id":"Huobi","idType":"entity","timeWindow":"1d","validatorCount":2855,"avgCorrectness":0.9897851295778113,"avgInclusionDelay":1.0148582764586165,"avgUptime":0.9997291301809688,"avgValidatorEffectiveness":97.53811800846042,"clientPercentages":[{"client":"Prysm","percentage":0.981445937300064},{"client":"Teku","percentage":0.010876519513755598},{"client":"Lighthouse","percentage":0.007677543186180422}],"networkPenetration":0.006108206177097329,"relayerPercentages":[{"relayer":"bloxroute_regulated","percentage":0.03636363636363636},{"relayer":"bloxroute_maxprofit","percentage":0.05454545454545454},{"relayer":"blocknative","percentage":0.09090909090909091},{"relayer":"edennetwork","percentage":0.09090909090909091},{"relayer":"flashbots","percentage":0.5272727272727272},{"relayer":"no_mev_boost","percentage":0.2}],"nodeOperatorCount":null},{"id":"Bloxstaking","idType":"entity","timeWindow":"1d","validatorCount":2693,"avgCorrectness":0.9894518633959078,"avgInclusionDelay":1.0133755743060864,"avgUptime":0.9996798283615946,"avgValidatorEffectiveness":97.62346401791173,"clientPercentages":[{"client":"Lighthouse","percentage":0.3095599393019727},{"client":"Teku","percentage":0.007587253414264037},{"client":"Prysm","percentage":0.6828528072837633}],"networkPenetration":0.005755192510119725,"relayerPercentages":[{"relayer":"flashbots","percentage":0.875},{"relayer":"blocknative","percentage":0.125}],"nodeOperatorCount":null},{"id":"wedex.eth","idType":"entity","timeWindow":"1d","validatorCount":2399,"avgCorrectness":0.9891711827925103,"avgInclusionDelay":1.0148123985261737,"avgUptime":0.9995794544022962,"avgValidatorEffectiveness":97.45454812179591,"clientPercentages":[{"client":"Nimbus","percentage":0.006158583525789068},{"client":"Lighthouse","percentage":0.993841416474211}],"networkPenetration":0.005132604770177405,"relayerPercentages":[{"relayer":"manifold","percentage":0.02857142857142857},{"relayer":"blocknative","percentage":0.02857142857142857},{"relayer":"edennetwork","percentage":0.08571428571428572},{"relayer":"no_mev_boost","percentage":0.2857142857142857},{"relayer":"flashbots","percentage":0.5714285714285714}],"nodeOperatorCount":null},{"id":"Ankr","idType":"entity","timeWindow":"1d","validatorCount":2306,"avgCorrectness":0.9905346335118572,"avgInclusionDelay":1.0132581964842742,"avgUptime":0.999707044425171,"avgValidatorEffectiveness":97.75160501240167,"clientPercentages":[{"client":"Lighthouse","percentage":0.8369132856006364},{"client":"Prysm","percentage":0.162291169451074},{"client":"Teku","percentage":0.0007955449482895784}],"networkPenetration":0.00493363343060821,"relayerPercentages":[{"relayer":"flashbots","percentage":0.13157894736842105},{"relayer":"no_mev_boost","percentage":0.868421052631579}],"nodeOperatorCount":null}]}