{"page":{"from":0,"size":15},"total":36,"next":"/v0/eth/operators?window=1d&from=15&size=15&idType=entity","data":[{"id":"Lido","idType":"entity","timeWindow":"1d","validatorCount":133512,"avgCorrectness":0.9903460409373466,"avgInclusionDelay":1.025779713866361,"avgUptime":0.9988547017968219,"avgValidatorEffectiveness":96.98037228533127,"clientPercentages":[{"client":"Prysm","percentage":0.38788033367340813},{"client":"Nimbus","percentage":0.02589569705335174},{"client":"Lighthouse","percentage":0.3920362479745544},{"client":"Teku","percentage":0.19303246714277142},{"client":"Lodestar","percentage":0.001155254155914301}],"networkPenetration":0.30065035558929604,"relayerPercentages":[{"relayer":"blocknative","percentage":0.02951562909618024},{"relayer":"flashbots","percentage":0.36550649991518497},{"relayer":"bloxroute_ethical","percentage":0.032892809227874846},{"relayer":"edennetwork","percentage":0.014125557080512592},{"relayer":"bloxroute_regulated","percentage":0.009067497339892362},{"relayer":"no_mev_boost","percentage":0.5058213949758663},{"relayer":"manifold","percentage":0.017687788178327446},{"relayer":"bloxroute_maxprofit","percentage":0.025382824186161272}],"nodeOperatorCount":29},{"id":"Coinbase","idType":"entity","timeWindow":"1d","validatorCount":54230,"avgCorrectness":0.9892387984083182,"avgInclusionDelay":1.0242537621984207,"avgUptime":0.9986195784998539,"avgValidatorEffectiveness":96.9713705962618,"clientPercentages":[{"client":"Lighthouse","percentage":0.4350405527185341},{"client":"Nimbus","percentage":0.02177831180534695},{"client":"Teku","percentage":0.1621733253229198},{"client":"Prysm","percentage":0.3810078101531992}],"networkPenetration":0.12216412749402471,"relayerPercentages":[{"relayer":"bloxroute_regulated","percentage":3.8632412594166507e-05},{"relayer":"flashbots","percentage":0.0004249565385358316},{"relayer":"no_mev_boost","percentage":0.9994591462236817},{"relayer":"manifold","percentage":7.726482518833301e-05}],"nodeOperatorCount":null},{"id":"Kraken","idType":"entity","timeWindow":"1d","validatorCount":37729,"avgCorrectness":0.9904666527934183,"avgInclusionDelay":1.0208569292069836,"avgUptime":0.9990383528254698,"avgValidatorEffectiveness":97.37163124174498,"clientPercentages":[{"client":"Lighthouse","percentage":0.2660751509968464},{"client":"Nimbus","percentage":0.00010690042225666791},{"client":"Prysm","percentage":0.6222139077449356},{"client":"Teku","percentage":0.1116040408359613}],"networkPenetration":0.08498325114718941,"relayerPercentages":[{"relayer":"blocknative","percentage":0.00878011304395544},{"relayer":"bloxroute_maxprofit","percentage":0.003347418098008012},{"relayer":"flashbots","percentage":0.41381770290292486},{"relayer":"no_mev_boost","percentage":0.5699939636722823},{"relayer":"edennetwork","percentage":0.00219502826098886},{"relayer":"manifold","percentage":0.0012621412500685946},{"relayer":"bloxroute_ethical","percentage":0.0006036327717719366}],"nodeOperatorCount":null},{"id":"Binance","idType":"entity","timeWindow":"1d","validatorCount":23051,"avgCorrectness":0.9916468177052093,"avgInclusionDelay":1.0176534573837173,"avgUptime":0.9997830853669523,"avgValidatorEffectiveness":97.79054632349887,"clientPercentages":[{"client":"Nimbus","percentage":0.00026497085320614734},{"client":"Teku","percentage":0.013248542660307366},{"client":"Lighthouse","percentage":0.42483660130718953},{"client":"Prysm","percentage":0.5616498851792969}],"networkPenetration":0.051927075472335674,"relayerPercentages":[{"relayer":"bloxroute_regulated","percentage":0.014469453376205787},{"relayer":"bloxroute_ethical","percentage":8.931761343336905e-05},{"relayer":"edennetwork","percentage":0.003215434083601286},{"relayer":"bloxroute_maxprofit","percentage":0.006788138620936048},{"relayer":"no_mev_boost","percentage":0.6322793854948195},{"relayer":"flashbots","percentage":0.34101464808860305},{"relayer":"blocknative","percentage":0.0021436227224008574}],"nodeOperatorCount":null},{"id":"Staked.us","idType":"entity","timeWindow":"1d","validatorCount":12531,"avgCorrectness":0.9897385332296452,"avgInclusionDelay":1.0236724785787952,"avgUptime":0.9991749349228274,"avgValidatorEffectiveness":97.10721342524354,"clientPercentages":[{"client":"Lighthouse","percentage":0.055573610659733506},{"client":"Nimbus","percentage":0.0004874878128046799},{"client":"Teku","percentage":0.39681507962300944},{"client":"Prysm","percentage":0.5471238219044524}],"networkPenetration":0.028201598969162738,"relayerPercentages":[{"relayer":"flashbots","percentage":0.578239799906206},{"relayer":"bloxroute_maxprofit","percentage":0.005940284508363296},{"relayer":"no_mev_boost","percentage":0.4105049241832109},{"relayer":"manifold","percentage":0.00531499140221979}],"nodeOperatorCount":null},{"id":"Bitcoin Suisse","idType":"entity","timeWindow":"1d","validatorCount":9184,"avgCorrectness":0.9916458169202612,"avgInclusionDelay":1.0238098696816198,"avgUptime":0.9994763527235087,"avgValidatorEffectiveness":97.27790107013867,"clientPercentages":[{"client":"Nimbus","percentage":0.0330117899249732},{"client":"Teku","percentage":0.9669882100750268}],"networkPenetration":0.02068883177033234,"relayerPercentages":[{"relayer":"no_mev_boost","percentage":1.0}],"nodeOperatorCount":null},{"id":"Rocketpool","idType":"entity","timeWindow":"1d","validatorCount":8823,"avgCorrectness":0.9868353200989035,"avgInclusionDelay":1.0323220616952091,"avgUptime":0.9869001671584439,"avgValidatorEffectiveness":95.32723984069375,"clientPercentages":[{"client":"Lighthouse","percentage":0.43190605756838035},{"client":"Nimbus","percentage":0.222397250465416},{"client":"Prysm","percentage":0.045825576399828157},{"client":"Teku","percentage":0.29987111556637547}],"networkPenetration":0.0198553313614666,"relayerPercentages":[{"relayer":"no_mev_boost","percentage":0.2575128267774249},{"relayer":"manifold","percentage":0.0014659174199853407},{"relayer":"bloxroute_ethical","percentage":0.03469337893965307},{"relayer":"blocknative","percentage":0.046909357439530903},{"relayer":"flashbots","percentage":0.4717810896652822},{"relayer":"bloxroute_regulated","percentage":0.07231859271927682},{"relayer":"bloxroute_maxprofit","percentage":0.09284143659907158},{"relayer":"edennetwork","percentage":0.022477400439775225}],"nodeOperatorCount":1546},{"id":"Celsius Network","idType":"entity","timeWindow":"1d","validatorCount":4943,"avgCorrectness":0.9918057233552044,"avgInclusionDelay":1.0177693261291183,"avgUptime":0.9984420749721423,"avgValidatorEffectiveness":97.68069555792732,"clientPercentages":[{"client":"Prysm","percentage":0.966626936829559},{"client":"Teku","percentage":0.012316249503377036},{"client":"Lighthouse","percentage":0.021056813667063964}],"networkPenetration":0.011135114921684753,"relayerPercentages":[{"relayer":"flashbots","percentage":0.9630407391852163},{"relayer":"no_mev_boost","percentage":0.036959260814783707}],"nodeOperatorCount":null},{"id":"Stakefish","idType":"entity","timeWindow":"1d","validatorCount":4558,"avgCorrectness":0.9891361267589205,"avgInclusionDelay":1.0361406074179302,"avgUptime":0.9823043427916724,"avgValidatorEffectiveness":94.67874446977285,"clientPercentages":[{"client":"Prysm","percentage":0.0011420740063956144},{"client":"Lighthouse","percentage":0.9885792599360439},{"client":"Teku","percentage":0.009365006852444038},{"client":"Nimbus","percentage":0.0009136592051164915}],"networkPenetration":0.010267823955702832,"relayerPercentages":[{"relayer":"manifold","percentage":0.09002707581227437},{"relayer":"no_mev_boost","percentage":0.1651624548736462},{"relayer":"flashbots","percentage":0.7436823104693141},{"relayer":"bloxroute_maxprofit","percentage":0.0009025270758122744},{"relayer":"bloxroute_regulated","percentage":0.0002256317689530686}],"nodeOperatorCount":null},{"id":"Bitfinex","idType":"entity","timeWindow":"1d","validatorCount":3214,"avgCorrectness":0.9925457057926049,"avgInclusionDelay":1.0175325995692583,"avgUptime":0.9997676830533084,"avgValidatorEffectiveness":97.87554925689534,"clientPercentages":[{"client":"Lighthouse","percentage":0.009191176470588236},{"client":"Teku","percentage":0.03431372549019608},{"client":"Prysm","percentage":0.9564950980392157}],"networkPenetration":0.007240190038093222,"relayerPercentages":[{"relayer":"flashbots","percentage":0.3163265306122449},{"relayer":"no_mev_boost","percentage":0.6836734693877551}],"nodeOperatorCount":null},{"id":"Huobi","idType":"entity","timeWindow":"1d","validatorCount":2855,"avgCorrectness":0.991058862982857,"avgInclusionDelay":1.0183404012103903,"avgUptime":0.999648156256081,"avgValidatorEffectiveness":97.67112373724228,"clientPercentages":[{"client":"Teku","percentage":0.02301255230125523},{"client":"Lighthouse","percentage":0.007670850767085077},{"client":"Prysm","percentage":0.9693165969316597}],"networkPenetration":0.006431469371112678,"relayerPercentages":[{"relayer":"no_mev_boost","percentage":0.21433850702143384},{"relayer":"flashbots","percentage":0.4656319290465632},{"relayer":"bloxroute_maxprofit","percentage":0.06873614190687362},{"relayer":"edennetwork","percentage":0.06134515890613452},{"relayer":"manifold","percentage":0.03473762010347376},{"relayer":"bloxroute_regulated","percentage":0.03991130820399113},{"relayer":"blocknative","percentage":0.03917220990391722},{"relayer":"bloxroute_ethical","percentage":0.07612712490761271}],"nodeOperatorCount":null},{"id":"Abyss","idType":"entity","timeWindow":"1d","validatorCount":2704,"avgCorrectness":0.9917912567927653,"avgInclusionDelay":1.0200902093509774,"avgUptime":0.9981330915715796,"avgValidatorEffectiveness":97.48612640484583,"clientPercentages":[{"client":"Lighthouse","percentage":0.08607198748043818},{"client":"Prysm","percentage":0.025821596244131457},{"client":"Nimbus","percentage":0.026604068857589983},{"client":"Teku","percentage":0.8615023474178404}],"networkPenetration":0.00608455298471991,"relayerPercentages":[{"relayer":"bloxroute_regulated","percentage":0.01628423390081421},{"relayer":"flashbots","percentage":0.3301258327165063},{"relayer":"no_mev_boost","percentage":0.6202812731310141},{"relayer":"manifold","percentage":0.0029607698001480384},{"relayer":"bloxroute_maxprofit","percentage":0.014803849000740192},{"relayer":"blocknative","percentage":0.0029607698001480384},{"relayer":"bloxroute_ethical","percentage":0.0029607698001480384},{"relayer":"edennetwork","percentage":0.009622501850481125}],"nodeOperatorCount":null},{"id":"Bloxstaking","idType":"entity","timeWindow":"1d","validatorCount":2557,"avgCorrectness":0.9911221055512645,"avgInclusionDelay":1.017157937220355,"avgUptime":0.9994489234396805,"avgValidatorEffectiveness":97.75242905032457,"clientPercentages":[{"client":"Lighthouse","percentage":0.5016863406408094},{"client":"Prysm","percentage":0.49072512647554806},{"client":"Teku","percentage":0.007588532883642495}],"networkPenetration":0.005757910932596849,"relayerPercentages":[{"relayer":"bloxroute_ethical","percentage":0.014084507042253521},{"relayer":"blocknative","percentage":0.06338028169014084},{"relayer":"no_mev_boost","percentage":0.10876369327073553},{"relayer":"flashbots","percentage":0.8137715179968701}],"nodeOperatorCount":null},{"id":"wedex.eth","idType":"entity","timeWindow":"1d","validatorCount":2399,"avgCorrectness":0.9911102462889865,"avgInclusionDelay":1.017775801041493,"avgUptime":0.9997600686794094,"avgValidatorEffectiveness":97.7315346549201,"clientPercentages":[{"client":"Lighthouse","percentage":0.9983935742971888},{"client":"Prysm","percentage":0.001606425702811245}],"networkPenetration":0.005404236434780846,"relayerPercentages":[{"relayer":"blocknative","percentage":0.06060606060606061},{"relayer":"flashbots","percentage":0.4380952380952381},{"relayer":"manifold","percentage":0.032034632034632034},{"relayer":"bloxroute_ethical","percentage":0.009523809523809525},{"relayer":"no_mev_boost","percentage":0.16883116883116883},{"relayer":"edennetwork","percentage":0.06753246753246753},{"relayer":"bloxroute_maxprofit","percentage":0.22337662337662337}],"nodeOperatorCount":null},{"id":"Ankr","idType":"entity","timeWindow":"1d","validatorCount":2299,"avgCorrectness":0.9918556749540894,"avgInclusionDelay":1.0173119279715506,"avgUptime":0.9997786477212317,"avgValidatorEffectiveness":97.83581398217595,"clientPercentages":[{"client":"Teku","percentage":0.005853658536585366},{"client":"Lighthouse","percentage":0.46731707317073173},{"client":"Prysm","percentage":0.526829268292683}],"networkPenetration":0.005178966054006321,"relayerPercentages":[{"relayer":"flashbots","percentage":0.1264957264957265},{"relayer":"no_mev_boost","percentage":0.8735042735042735}],"nodeOperatorCount":null}]}