{"page":{"from":0,"size":15},"total":31,"next":"/v0/eth/operators?window=1d&from=15&size=15&idType=entity","data":[{"id":"Lido","idType":"entity","timeWindow":"1d","validatorCount":129062,"avgCorrectness":0.9875058232541435,"avgInclusionDelay":1.0171736338240671,"avgUptime":0.9999123404059065,"avgValidatorEffectiveness":97.81109032133715,"clientPercentages":[{"client":"Teku","percentage":0.19212259712326926},{"client":"Lighthouse","percentage":0.37658287404220997},{"client":"Prysm","percentage":0.35219787605861},{"client":"Nimbus","percentage":0.07909665277591074}],"networkPenetration":0.3156679491538275},{"id":"Coinbase","idType":"entity","timeWindow":"1d","validatorCount":56699,"avgCorrectness":0.9873107100120869,"avgInclusionDelay":1.0180216168748608,"avgUptime":0.9998823115633584,"avgValidatorEffectiveness":97.73268368882748,"clientPercentages":[{"client":"Lighthouse","percentage":0.37969267287150976},{"client":"Nimbus","percentage":0.09138609532138173},{"client":"Prysm","percentage":0.3645761759010557},{"client":"Teku","percentage":0.16434505590605283}],"networkPenetration":0.13861868061177818},{"id":"Kraken","idType":"entity","timeWindow":"1d","validatorCount":35889,"avgCorrectness":0.9801299729259767,"avgInclusionDelay":1.0297190310313011,"avgUptime":0.9985164507142154,"avgValidatorEffectiveness":96.48988630817254,"clientPercentages":[{"client":"Lighthouse","percentage":0.26855364264176634},{"client":"Prysm","percentage":0.6030055442077619},{"client":"Teku","percentage":0.08695652173913043},{"client":"Nimbus","percentage":0.04148429141134131}],"networkPenetration":0.08777006220021964},{"id":"Binance","idType":"entity","timeWindow":"1d","validatorCount":20810,"avgCorrectness":0.9871761249215798,"avgInclusionDelay":1.0173003507154363,"avgUptime":0.9988202253190234,"avgValidatorEffectiveness":97.68252001833972,"clientPercentages":[{"client":"Nimbus","percentage":0.0726083675693804},{"client":"Lighthouse","percentage":0.3254800033537352},{"client":"Prysm","percentage":0.5931080741175484},{"client":"Teku","percentage":0.008803554959335961}],"networkPenetration":0.05089998312302338},{"id":"Bitcoin Suisse","idType":"entity","timeWindow":"1d","validatorCount":9000,"avgCorrectness":0.9843748648873676,"avgInclusionDelay":1.0458662761093196,"avgUptime":0.9993948148148145,"avgValidatorEffectiveness":95.30735422292253,"clientPercentages":[{"client":"Teku","percentage":0.9928966061562746},{"client":"Nimbus","percentage":0.006906077348066298},{"client":"Prysm","percentage":0.0001973164956590371}],"networkPenetration":0.022013447770649227},{"id":"Rocketpool","idType":"entity","timeWindow":"1d","validatorCount":6264,"avgCorrectness":0.9828727769587418,"avgInclusionDelay":1.0313616645848087,"avgUptime":0.9871513299548815,"avgValidatorEffectiveness":95.53054660666797,"clientPercentages":[{"client":"Lighthouse","percentage":0.41735105271016876},{"client":"Teku","percentage":0.267433179035389},{"client":"Prysm","percentage":0.05987755711512618},{"client":"Nimbus","percentage":0.2553382111393161}],"networkPenetration":0.015309129955165944},{"id":"Staked.us","idType":"entity","timeWindow":"1d","validatorCount":5263,"avgCorrectness":0.9849869520704787,"avgInclusionDelay":1.0213591920982534,"avgUptime":0.9984769987544062,"avgValidatorEffectiveness":97.20846194622726,"clientPercentages":[{"client":"Teku","percentage":0.5096774193548387},{"client":"Prysm","percentage":0.4309677419354839},{"client":"Lighthouse","percentage":0.000967741935483871},{"client":"Nimbus","percentage":0.05838709677419355}],"networkPenetration":0.01287297506854743},{"id":"f2pool.eth","idType":"entity","timeWindow":"1d","validatorCount":3501,"avgCorrectness":0.989028074874796,"avgInclusionDelay":1.0158045739893236,"avgUptime":0.9999873052143831,"avgValidatorEffectiveness":98.01688165559858,"clientPercentages":[{"client":"Lighthouse","percentage":1.0}],"networkPenetration":0.008563231182782549},{"id":"Bitfinex","idType":"entity","timeWindow":"1d","validatorCount":3214,"avgCorrectness":0.9870143639801991,"avgInclusionDelay":1.0175378219033318,"avgUptime":0.9944824725160748,"avgValidatorEffectiveness":97.34405026868993,"clientPercentages":[{"client":"Teku","percentage":0.018807092960773777},{"client":"Lighthouse","percentage":0.0021493820526598604},{"client":"Nimbus","percentage":0.10370768404083826},{"client":"Prysm","percentage":0.8753358409457281}],"networkPenetration":0.007861246792762957},{"id":"Huobi","idType":"entity","timeWindow":"1d","validatorCount":2855,"avgCorrectness":0.9844500335893598,"avgInclusionDelay":1.0205731909424716,"avgUptime":0.9999089316987748,"avgValidatorEffectiveness":97.35315077280683,"clientPercentages":[{"client":"Lighthouse","percentage":0.0017605633802816902},{"client":"Nimbus","percentage":0.09800469483568075},{"client":"Teku","percentage":0.014084507042253521},{"client":"Prysm","percentage":0.886150234741784}],"networkPenetration":0.006983154820578171},{"id":"wedex.eth","idType":"entity","timeWindow":"1d","validatorCount":2399,"avgCorrectness":0.986766569814845,"avgInclusionDelay":1.021358976829684,"avgUptime":0.9997795377703673,"avgValidatorEffectiveness":97.41718941184797,"clientPercentages":[{"client":"Lighthouse","percentage":1.0}],"networkPenetration":0.00586780680019861},{"id":"Bloxstaking","idType":"entity","timeWindow":"1d","validatorCount":2336,"avgCorrectness":0.9849361657597321,"avgInclusionDelay":1.0183073937364435,"avgUptime":0.9999619482496198,"avgValidatorEffectiveness":97.57324246001258,"clientPercentages":[{"client":"Nimbus","percentage":0.05101275318829707},{"client":"Teku","percentage":0.008252063015753939},{"client":"Prysm","percentage":0.43810952738184544},{"client":"Lighthouse","percentage":0.5026256564141035}],"networkPenetration":0.005713712665804066},{"id":"Ankr","idType":"entity","timeWindow":"1d","validatorCount":2288,"avgCorrectness":0.8729720073761748,"avgInclusionDelay":1.457245917700188,"avgUptime":0.9596406371406376,"avgValidatorEffectiveness":69.86981262732135,"clientPercentages":[{"client":"Prysm","percentage":0.8990731204943357},{"client":"Nimbus","percentage":0.08341915550978372},{"client":"Teku","percentage":0.009268795056642637},{"client":"Lighthouse","percentage":0.008238928939237899}],"networkPenetration":0.00559630761102727},{"id":"StakeWise","idType":"entity","timeWindow":"1d","validatorCount":1976,"avgCorrectness":0.9883713979586083,"avgInclusionDelay":1.0180431963006824,"avgUptime":0.9971322537112008,"avgValidatorEffectiveness":97.55696487316546,"clientPercentages":[{"client":"Nimbus","percentage":0.04028648164726947},{"client":"Teku","percentage":0.049239033124440466},{"client":"Lighthouse","percentage":0.5461056401074306},{"client":"Prysm","percentage":0.36436884512085943}],"networkPenetration":0.0048331747549780965},{"id":"OKex","idType":"entity","timeWindow":"1d","validatorCount":1572,"avgCorrectness":0.977058516910772,"avgInclusionDelay":1.0426999128398817,"avgUptime":0.9988321321794906,"avgValidatorEffectiveness":95.10135233746516,"clientPercentages":[{"client":"Nimbus","percentage":0.1087912087912088},{"client":"Prysm","percentage":0.8736263736263736},{"client":"Teku","percentage":0.017582417582417582}],"networkPenetration":0.0038107724029634994}]}