{"page":{"from":0,"size":15},"total":30,"next":"/v0/eth/operators?window=1d&from=15&size=15&idType=entity","data":[{"id":"Lido","idType":"entity","timeWindow":"1d","validatorCount":129839,"avgCorrectness":0.989271792574323,"avgInclusionDelay":1.019737187029878,"avgUptime":0.99898016874931,"avgValidatorEffectiveness":97.62693105572527,"clientPercentages":[{"client":"Prysm","percentage":0.40259494270290747},{"client":"Nimbus","percentage":0.02478589693288055},{"client":"Teku","percentage":0.22193660113917715},{"client":"Lodestar","percentage":0.00037882375224926605},{"client":"Lighthouse","percentage":0.3503037354727856}],"networkPenetration":0.3103786259687977},{"id":"Coinbase","idType":"entity","timeWindow":"1d","validatorCount":54192,"avgCorrectness":0.9900629616824241,"avgInclusionDelay":1.0167395148942648,"avgUptime":0.9980457042394889,"avgValidatorEffectiveness":97.83469717862107,"clientPercentages":[{"client":"Nimbus","percentage":0.05609861161734981},{"client":"Lighthouse","percentage":0.4231419198780609},{"client":"Teku","percentage":0.1365519069551675},{"client":"Prysm","percentage":0.38420756154942176}],"networkPenetration":0.12948061448427212},{"id":"Kraken","idType":"entity","timeWindow":"1d","validatorCount":36625,"avgCorrectness":0.9894452293095385,"avgInclusionDelay":1.0179552427927927,"avgUptime":0.9985025301164477,"avgValidatorEffectiveness":97.73666235893813,"clientPercentages":[{"client":"Prysm","percentage":0.6236543567463191},{"client":"Lighthouse","percentage":0.26280473087134926},{"client":"Nimbus","percentage":0.01955104996379435},{"client":"Teku","percentage":0.0939898624185373}],"networkPenetration":0.0875204995433921},{"id":"Binance","idType":"entity","timeWindow":"1d","validatorCount":21861,"avgCorrectness":0.9886697914271516,"avgInclusionDelay":1.0202765109998955,"avgUptime":0.9993246242271736,"avgValidatorEffectiveness":97.56854126847114,"clientPercentages":[{"client":"Prysm","percentage":0.6109586763116321},{"client":"Nimbus","percentage":0.030764114076660846},{"client":"Teku","percentage":0.0005820237798287187},{"client":"Lighthouse","percentage":0.35769518583187826}],"networkPenetration":0.05189552046129352},{"id":"Bitcoin Suisse","idType":"entity","timeWindow":"1d","validatorCount":9000,"avgCorrectness":0.991514087699403,"avgInclusionDelay":1.0132769339839274,"avgUptime":0.9967718518518505,"avgValidatorEffectiveness":98.09632744079661,"clientPercentages":[{"client":"Teku","percentage":0.9935897435897436},{"client":"Nimbus","percentage":0.00641025641025641}],"networkPenetration":0.02151555574680494},{"id":"Rocketpool","idType":"entity","timeWindow":"1d","validatorCount":6885,"avgCorrectness":0.9877459313024021,"avgInclusionDelay":1.027635419497732,"avgUptime":0.9942830005498267,"avgValidatorEffectiveness":96.72482609879752,"clientPercentages":[{"client":"Nimbus","percentage":0.2276190476190476},{"client":"Lighthouse","percentage":0.41714285714285715},{"client":"Prysm","percentage":0.05251700680272109},{"client":"Teku","percentage":0.30272108843537415}],"networkPenetration":0.016457009529000578},{"id":"Staked.us","idType":"entity","timeWindow":"1d","validatorCount":5263,"avgCorrectness":0.9790745982459285,"avgInclusionDelay":1.0632473244286726,"avgUptime":0.9966166318322897,"avgValidatorEffectiveness":94.1915537201121,"clientPercentages":[{"client":"Teku","percentage":0.49422161794697483},{"client":"Nimbus","percentage":0.02821210061182869},{"client":"Lighthouse","percentage":0.005778382053025153},{"client":"Prysm","percentage":0.47178789938817134}],"networkPenetration":0.012581818877270489},{"id":"f2pool.eth","idType":"entity","timeWindow":"1d","validatorCount":3501,"avgCorrectness":0.9892971669848879,"avgInclusionDelay":1.0253918944995124,"avgUptime":0.9999834967786971,"avgValidatorEffectiveness":97.24890923044258,"clientPercentages":[{"client":"Prysm","percentage":0.013612056392805057},{"client":"Lighthouse","percentage":0.986387943607195}],"networkPenetration":0.008369551185507121},{"id":"Bitfinex","idType":"entity","timeWindow":"1d","validatorCount":3214,"avgCorrectness":0.9887749985302611,"avgInclusionDelay":1.0196516199981325,"avgUptime":0.999678489939846,"avgValidatorEffectiveness":97.65846350486262,"clientPercentages":[{"client":"Teku","percentage":0.012380416432189083},{"client":"Lighthouse","percentage":0.004501969611705121},{"client":"Prysm","percentage":0.943725379853686},{"client":"Nimbus","percentage":0.03939223410241981}],"networkPenetration":0.007683444018914564},{"id":"Huobi","idType":"entity","timeWindow":"1d","validatorCount":2855,"avgCorrectness":0.9875921095748813,"avgInclusionDelay":1.0210446103396233,"avgUptime":0.999997664915353,"avgValidatorEffectiveness":97.49961332363672,"clientPercentages":[{"client":"Teku","percentage":0.002430133657351154},{"client":"Lighthouse","percentage":0.0006075334143377885},{"client":"Nimbus","percentage":0.04495747266099635},{"client":"Prysm","percentage":0.9520048602673147}],"networkPenetration":0.006825212406347567},{"id":"wedex.eth","idType":"entity","timeWindow":"1d","validatorCount":2399,"avgCorrectness":0.9765825043290853,"avgInclusionDelay":1.07849771389927,"avgUptime":0.9163438469732769,"avgValidatorEffectiveness":85.91330224091122,"clientPercentages":[{"client":"Lighthouse","percentage":1.0}],"networkPenetration":0.005735090915176117},{"id":"Bloxstaking","idType":"entity","timeWindow":"1d","validatorCount":2391,"avgCorrectness":0.9878262776924764,"avgInclusionDelay":1.022208817723185,"avgUptime":0.9999758353083323,"avgValidatorEffectiveness":97.4273422775183,"clientPercentages":[{"client":"Prysm","percentage":0.48226415094339625},{"client":"Teku","percentage":0.0015094339622641509},{"client":"Nimbus","percentage":0.024150943396226414},{"client":"Lighthouse","percentage":0.4920754716981132}],"networkPenetration":0.005715965976734513},{"id":"Ankr","idType":"entity","timeWindow":"1d","validatorCount":2296,"avgCorrectness":0.9697157338119993,"avgInclusionDelay":1.0622139465852314,"avgUptime":0.996445993031359,"avgValidatorEffectiveness":93.27047202338159,"clientPercentages":[{"client":"Lighthouse","percentage":0.011122345803842264},{"client":"Nimbus","percentage":0.03640040444893832},{"client":"Prysm","percentage":0.9464105156723963},{"client":"Teku","percentage":0.006066734074823054}],"networkPenetration":0.00548885733274046},{"id":"StakeWise","idType":"entity","timeWindow":"1d","validatorCount":1981,"avgCorrectness":0.9890182067015918,"avgInclusionDelay":1.021159260962723,"avgUptime":0.9999775646418764,"avgValidatorEffectiveness":97.58342312261915,"clientPercentages":[{"client":"Teku","percentage":0.060526315789473685},{"client":"Prysm","percentage":0.3850877192982456},{"client":"Lighthouse","percentage":0.5298245614035088},{"client":"Nimbus","percentage":0.02456140350877193}],"networkPenetration":0.0047358128816022875},{"id":"OKex","idType":"entity","timeWindow":"1d","validatorCount":1733,"avgCorrectness":0.9882517732686824,"avgInclusionDelay":1.0210064136219978,"avgUptime":0.9964685516445466,"avgValidatorEffectiveness":97.23967582064165,"clientPercentages":[{"client":"Prysm","percentage":0.9401888772298006},{"client":"Nimbus","percentage":0.04512067156348373},{"client":"Teku","percentage":0.002098635886673662},{"client":"Lighthouse","percentage":0.012591815320041973}],"networkPenetration":0.004142939789912551}]}