{"page":{"from":0,"size":15},"total":30,"next":"/v0/eth/operators?window=1d&from=15&size=15&idType=entity","data":[{"id":"Lido","idType":"entity","timeWindow":"1d","validatorCount":132128,"avgCorrectness":0.991243889836687,"avgInclusionDelay":1.0362288450650377,"avgUptime":0.9986727399445636,"avgValidatorEffectiveness":96.22432653435729,"clientPercentages":[{"client":"Teku","percentage":0.22193660113917715},{"client":"Nimbus","percentage":0.02478589693288055},{"client":"Lighthouse","percentage":0.3503037354727856},{"client":"Lodestar","percentage":0.00037882375224926605},{"client":"Prysm","percentage":0.40259494270290747}],"networkPenetration":0.302997401548053,"relayerPercentages":[{"relayer":"bloxroute_maxprofit","percentage":0.008894308359932575},{"relayer":"blocknative","percentage":0.011117885449915718},{"relayer":"flashbots","percentage":0.17824480866477782},{"relayer":"bloxroute_ethical","percentage":0.008356346160743105},{"relayer":"bloxroute_regulated","percentage":0.0052361654054441775},{"relayer":"manifold","percentage":0.0019366639170820931},{"relayer":"no_mev_boost","percentage":0.7862138220421045}]},{"id":"Coinbase","idType":"entity","timeWindow":"1d","validatorCount":54602,"avgCorrectness":0.990410813721107,"avgInclusionDelay":1.0345022420519945,"avgUptime":0.9992011550539153,"avgValidatorEffectiveness":96.32069555474499,"clientPercentages":[{"client":"Prysm","percentage":0.3843697992731719},{"client":"Nimbus","percentage":0.05447814421084808},{"client":"Teku","percentage":0.1314743742145841},{"client":"Lighthouse","percentage":0.4296776823013959}],"networkPenetration":0.12533628375462533,"relayerPercentages":[{"relayer":"bloxroute_regulated","percentage":8.791208791208791e-05},{"relayer":"flashbots","percentage":0.00017582417582417582},{"relayer":"no_mev_boost","percentage":0.9997362637362638}]},{"id":"Kraken","idType":"entity","timeWindow":"1d","validatorCount":37392,"avgCorrectness":0.9913646226287046,"avgInclusionDelay":1.0323085044926799,"avgUptime":0.9988900671897086,"avgValidatorEffectiveness":96.54075938001043,"clientPercentages":[{"client":"Prysm","percentage":0.6236543567463191},{"client":"Teku","percentage":0.0939898624185373},{"client":"Lighthouse","percentage":0.26280473087134926},{"client":"Nimbus","percentage":0.01955104996379435}],"networkPenetration":0.08578793693933578,"relayerPercentages":[{"relayer":"no_mev_boost","percentage":0.6216146170791759},{"relayer":"edennetwork","percentage":0.0002591680704937152},{"relayer":"flashbots","percentage":0.3697032525592847},{"relayer":"bloxroute_maxprofit","percentage":0.0036283529869120122},{"relayer":"blocknative","percentage":0.00479460930413373}]},{"id":"Binance","idType":"entity","timeWindow":"1d","validatorCount":23046,"avgCorrectness":0.9927401238754687,"avgInclusionDelay":1.0290730278868105,"avgUptime":0.9998827022978818,"avgValidatorEffectiveness":96.99079544091157,"clientPercentages":[{"client":"Prysm","percentage":0.6109586763116321},{"client":"Teku","percentage":0.0005820237798287187},{"client":"Nimbus","percentage":0.030764114076660846},{"client":"Lighthouse","percentage":0.35769518583187826}],"networkPenetration":0.05163849381605164,"relayerPercentages":[{"relayer":"flashbots","percentage":0.14249578414839797},{"relayer":"bloxroute_regulated","percentage":0.002318718381112985},{"relayer":"bloxroute_ethical","percentage":0.00021079258010118043},{"relayer":"bloxroute_maxprofit","percentage":0.00463743676222597},{"relayer":"no_mev_boost","percentage":0.8492833052276559},{"relayer":"edennetwork","percentage":0.0010539629005059021}]},{"id":"Bitcoin Suisse","idType":"entity","timeWindow":"1d","validatorCount":9153,"avgCorrectness":0.9928533363923931,"avgInclusionDelay":1.033893831506404,"avgUptime":0.9990913801789331,"avgValidatorEffectiveness":96.55533868969681,"clientPercentages":[{"client":"Nimbus","percentage":0.00641025641025641},{"client":"Teku","percentage":0.9935897435897436}],"networkPenetration":0.02101027444427101,"relayerPercentages":[{"relayer":"no_mev_boost","percentage":1.0}]},{"id":"Rocketpool","idType":"entity","timeWindow":"1d","validatorCount":8241,"avgCorrectness":0.987123755463649,"avgInclusionDelay":1.044999894636557,"avgUptime":0.9798458235654246,"avgValidatorEffectiveness":93.86730807435268,"clientPercentages":[{"client":"Lighthouse","percentage":0.4175987063738041},{"client":"Teku","percentage":0.3027893814849751},{"client":"Nimbus","percentage":0.22571082064411804},{"client":"Prysm","percentage":0.053901091497102815}],"networkPenetration":0.018735481264518735,"relayerPercentages":[{"relayer":"bloxroute_ethical","percentage":0.029878048780487804},{"relayer":"bloxroute_maxprofit","percentage":0.08841463414634146},{"relayer":"manifold","percentage":0.0006097560975609756},{"relayer":"blocknative","percentage":0.016463414634146342},{"relayer":"edennetwork","percentage":0.0012195121951219512},{"relayer":"no_mev_boost","percentage":0.3926829268292683},{"relayer":"flashbots","percentage":0.39634146341463417},{"relayer":"bloxroute_regulated","percentage":0.07439024390243902}]},{"id":"Staked.us","idType":"entity","timeWindow":"1d","validatorCount":5263,"avgCorrectness":0.990662883702009,"avgInclusionDelay":1.033897510055367,"avgUptime":0.9993226504136389,"avgValidatorEffectiveness":96.39528089231646,"clientPercentages":[{"client":"Nimbus","percentage":0.02821210061182869},{"client":"Lighthouse","percentage":0.005778382053025153},{"client":"Teku","percentage":0.49422161794697483},{"client":"Prysm","percentage":0.47178789938817134}],"networkPenetration":0.012080965191762081,"relayerPercentages":[{"relayer":"no_mev_boost","percentage":0.5852417302798982},{"relayer":"flashbots","percentage":0.39100932994062765},{"relayer":"bloxroute_maxprofit","percentage":0.02374893977947413}]},{"id":"f2pool.eth","idType":"entity","timeWindow":"1d","validatorCount":3501,"avgCorrectness":0.9905963649015846,"avgInclusionDelay":1.0433582488566988,"avgUptime":0.9937742561082319,"avgValidatorEffectiveness":95.20607130150074,"clientPercentages":[{"client":"Lighthouse","percentage":0.986387943607195},{"client":"Prysm","percentage":0.013612056392805057}],"networkPenetration":0.008036378327258037,"relayerPercentages":[{"relayer":"no_mev_boost","percentage":0.4794908062234795},{"relayer":"flashbots","percentage":0.4625176803394625},{"relayer":"manifold","percentage":0.05799151343705799}]},{"id":"Bitfinex","idType":"entity","timeWindow":"1d","validatorCount":3214,"avgCorrectness":0.9933492214324279,"avgInclusionDelay":1.0285888961275178,"avgUptime":0.9998990342351417,"avgValidatorEffectiveness":97.08230734795637,"clientPercentages":[{"client":"Nimbus","percentage":0.03939223410241981},{"client":"Prysm","percentage":0.943725379853686},{"client":"Teku","percentage":0.012380416432189083},{"client":"Lighthouse","percentage":0.004501969611705121}],"networkPenetration":0.007377583531507377,"relayerPercentages":[{"relayer":"flashbots","percentage":0.12153846153846154},{"relayer":"no_mev_boost","percentage":0.8784615384615385}]},{"id":"Huobi","idType":"entity","timeWindow":"1d","validatorCount":2855,"avgCorrectness":0.9925949282499049,"avgInclusionDelay":1.0294316177930374,"avgUptime":0.9998995774608737,"avgValidatorEffectiveness":96.95235461483823,"clientPercentages":[{"client":"Lighthouse","percentage":0.0006075334143377885},{"client":"Nimbus","percentage":0.04495747266099635},{"client":"Teku","percentage":0.002430133657351154},{"client":"Prysm","percentage":0.9520048602673147}],"networkPenetration":0.006553516173756553,"relayerPercentages":[{"relayer":"no_mev_boost","percentage":0.5906642728904847},{"relayer":"bloxroute_ethical","percentage":0.07360861759425494},{"relayer":"flashbots","percentage":0.3357271095152603}]},{"id":"Bloxstaking","idType":"entity","timeWindow":"1d","validatorCount":2515,"avgCorrectness":0.9906760856567088,"avgInclusionDelay":1.0323236707487211,"avgUptime":0.999480108039162,"avgValidatorEffectiveness":96.5368030668042,"clientPercentages":[{"client":"Prysm","percentage":0.48618371919342795},{"client":"Teku","percentage":0.0022404779686333084},{"client":"Nimbus","percentage":0.02389843166542196},{"client":"Lighthouse","percentage":0.4876773711725168}],"networkPenetration":0.005768471504255768,"relayerPercentages":[{"relayer":"blocknative","percentage":0.1326923076923077},{"relayer":"no_mev_boost","percentage":0.3211538461538462},{"relayer":"bloxroute_ethical","percentage":0.03461538461538462},{"relayer":"flashbots","percentage":0.5115384615384615}]},{"id":"wedex.eth","idType":"entity","timeWindow":"1d","validatorCount":2399,"avgCorrectness":0.9835143926495434,"avgInclusionDelay":1.0672981536905153,"avgUptime":0.9908662091347579,"avgValidatorEffectiveness":92.59476921426517,"clientPercentages":[{"client":"Lighthouse","percentage":1.0}],"networkPenetration":0.005506789947755507,"relayerPercentages":[{"relayer":"manifold","percentage":0.007692307692307693},{"relayer":"bloxroute_maxprofit","percentage":0.3019230769230769},{"relayer":"no_mev_boost","percentage":0.17884615384615385},{"relayer":"blocknative","percentage":0.05576923076923077},{"relayer":"flashbots","percentage":0.4173076923076923},{"relayer":"bloxroute_ethical","percentage":0.021153846153846155},{"relayer":"edennetwork","percentage":0.01730769230769231}]},{"id":"Ankr","idType":"entity","timeWindow":"1d","validatorCount":2298,"avgCorrectness":0.9923371832805058,"avgInclusionDelay":1.0290985204092984,"avgUptime":0.9999119878223991,"avgValidatorEffectiveness":96.95304645011974,"clientPercentages":[{"client":"Lighthouse","percentage":0.011122345803842264},{"client":"Prysm","percentage":0.9464105156723963},{"client":"Nimbus","percentage":0.03640040444893832},{"client":"Teku","percentage":0.006066734074823054}],"networkPenetration":0.0052749492705052746,"relayerPercentages":[{"relayer":"flashbots","percentage":0.09127789046653144},{"relayer":"no_mev_boost","percentage":0.9087221095334685}]},{"id":"StakeWise","idType":"entity","timeWindow":"1d","validatorCount":1989,"avgCorrectness":0.9898263307577634,"avgInclusionDelay":1.0377768905500178,"avgUptime":0.9991485661216056,"avgValidatorEffectiveness":96.01377517676613,"clientPercentages":[{"client":"Teku","percentage":0.060526315789473685},{"client":"Prysm","percentage":0.3850877192982456},{"client":"Nimbus","percentage":0.02456140350877193},{"client":"Lighthouse","percentage":0.5298245614035088}],"networkPenetration":0.004565654525254565,"relayerPercentages":[{"relayer":"blocknative","percentage":0.05660377358490566},{"relayer":"flashbots","percentage":0.45754716981132076},{"relayer":"bloxroute_regulated","percentage":0.01650943396226415},{"relayer":"bloxroute_maxprofit","percentage":0.3632075471698113},{"relayer":"no_mev_boost","percentage":0.10613207547169812}]},{"id":"OKex","idType":"entity","timeWindow":"1d","validatorCount":1802,"avgCorrectness":0.9920426752894023,"avgInclusionDelay":1.029277252590776,"avgUptime":0.9999431878279119,"avgValidatorEffectiveness":96.92471663206892,"clientPercentages":[{"client":"Nimbus","percentage":0.04512067156348373},{"client":"Lighthouse","percentage":0.012591815320041973},{"client":"Prysm","percentage":0.9401888772298006},{"client":"Teku","percentage":0.002098635886673662}],"networkPenetration":0.004127223145504127,"relayerPercentages":[{"relayer":"no_mev_boost","percentage":1.0}]}]}