{"page":{"from":0,"size":15},"total":30,"next":"/v0/eth/operators?window=1d&from=15&size=15&idType=entity","data":[{"id":"Lido","idType":"entity","timeWindow":"1d","validatorCount":129497,"avgCorrectness":0.9913543581164741,"avgInclusionDelay":1.0180407892743186,"avgUptime":0.9999058999388315,"avgValidatorEffectiveness":97.9526698514543,"clientPercentages":[{"client":"Teku","percentage":0.2215128884606119},{"client":"Nimbus","percentage":0.06436200112422709},{"client":"Prysm","percentage":0.36031478358628444},{"client":"Lighthouse","percentage":0.3538103268288766}],"networkPenetration":0.31407815266694156},{"id":"Coinbase","idType":"entity","timeWindow":"1d","validatorCount":55903,"avgCorrectness":0.9915610347803588,"avgInclusionDelay":1.0178813912716207,"avgUptime":0.999602920969554,"avgValidatorEffectiveness":97.94971057823957,"clientPercentages":[{"client":"Lighthouse","percentage":0.3959406910941798},{"client":"Prysm","percentage":0.3733046694698239},{"client":"Nimbus","percentage":0.0904176282760583},{"client":"Teku","percentage":0.14033701115993805}],"networkPenetration":0.1355956048220826},{"id":"Kraken","idType":"entity","timeWindow":"1d","validatorCount":36109,"avgCorrectness":0.9849947149510628,"avgInclusionDelay":1.0288867920631481,"avgUptime":0.9984607316755696,"avgValidatorEffectiveness":96.76605450664543,"clientPercentages":[{"client":"Prysm","percentage":0.5996913282531108},{"client":"Teku","percentage":0.09004533616282434},{"client":"Nimbus","percentage":0.04528793286389505},{"client":"Lighthouse","percentage":0.2649754027201698}],"networkPenetration":0.08756397506488467},{"id":"Binance","idType":"entity","timeWindow":"1d","validatorCount":21153,"avgCorrectness":0.9913897159241875,"avgInclusionDelay":1.0173439099063075,"avgUptime":0.9999389632150913,"avgValidatorEffectiveness":98.01180712799098,"clientPercentages":[{"client":"Lighthouse","percentage":0.34309868586255965},{"client":"Teku","percentage":0.003264417845484222},{"client":"Nimbus","percentage":0.06721352640830335},{"client":"Prysm","percentage":0.5864233698836528}],"networkPenetration":0.05130860843621898},{"id":"Bitcoin Suisse","idType":"entity","timeWindow":"1d","validatorCount":9000,"avgCorrectness":0.9906107193525963,"avgInclusionDelay":1.0276966616083103,"avgUptime":0.9998530864197545,"avgValidatorEffectiveness":97.11924038229671,"clientPercentages":[{"client":"Teku","percentage":0.9934552454282964},{"client":"Nimbus","percentage":0.0063522617901828685},{"client":"Prysm","percentage":0.00019249278152069297}],"networkPenetration":0.021830353894292574},{"id":"Rocketpool","idType":"entity","timeWindow":"1d","validatorCount":6610,"avgCorrectness":0.9893965705926709,"avgInclusionDelay":1.0239997447602085,"avgUptime":0.981359700826925,"avgValidatorEffectiveness":95.87084104669282,"clientPercentages":[{"client":"Teku","percentage":0.291220556745182},{"client":"Nimbus","percentage":0.2328336902212705},{"client":"Lighthouse","percentage":0.4055674518201285},{"client":"Prysm","percentage":0.07037830121341898}],"networkPenetration":0.016006500594270744},{"id":"Staked.us","idType":"entity","timeWindow":"1d","validatorCount":5263,"avgCorrectness":0.9912038314153585,"avgInclusionDelay":1.0176404960021832,"avgUptime":0.9995004961259943,"avgValidatorEffectiveness":97.94254089768,"clientPercentages":[{"client":"Teku","percentage":0.5081206496519721},{"client":"Lighthouse","percentage":0.0019887305270135896},{"client":"Nimbus","percentage":0.043752071594298975},{"client":"Prysm","percentage":0.4461385482267153}],"networkPenetration":0.01276590583840687},{"id":"f2pool.eth","idType":"entity","timeWindow":"1d","validatorCount":3501,"avgCorrectness":0.9917321772578541,"avgInclusionDelay":1.0173601744269078,"avgUptime":0.9999968263035968,"avgValidatorEffectiveness":98.03535234718086,"clientPercentages":[{"client":"Lighthouse","percentage":1.0}],"networkPenetration":0.008492007664879812},{"id":"Bitfinex","idType":"entity","timeWindow":"1d","validatorCount":3214,"avgCorrectness":0.9898617957898742,"avgInclusionDelay":1.0200653832183073,"avgUptime":0.9993258660029039,"avgValidatorEffectiveness":97.71330274526588,"clientPercentages":[{"client":"Lighthouse","percentage":0.0027233115468409588},{"client":"Nimbus","percentage":0.09640522875816994},{"client":"Teku","percentage":0.01579520697167756},{"client":"Prysm","percentage":0.8850762527233116}],"networkPenetration":0.007795861935139593},{"id":"Huobi","idType":"entity","timeWindow":"1d","validatorCount":2855,"avgCorrectness":0.9906507719671053,"avgInclusionDelay":1.0199088506699983,"avgUptime":0.9999649737302979,"avgValidatorEffectiveness":97.76145885471283,"clientPercentages":[{"client":"Teku","percentage":0.007202881152460984},{"client":"Nimbus","percentage":0.07923169267707082},{"client":"Lighthouse","percentage":0.0012004801920768306},{"client":"Prysm","percentage":0.9123649459783914}],"networkPenetration":0.006925073374245034},{"id":"wedex.eth","idType":"entity","timeWindow":"1d","validatorCount":2399,"avgCorrectness":0.98917206425947,"avgInclusionDelay":1.0331539491099997,"avgUptime":0.9993756657866704,"avgValidatorEffectiveness":96.59528768518504,"clientPercentages":[{"client":"Lighthouse","percentage":1.0}],"networkPenetration":0.005819002110267543},{"id":"Bloxstaking","idType":"entity","timeWindow":"1d","validatorCount":2352,"avgCorrectness":0.9905008921369967,"avgInclusionDelay":1.0192658095469533,"avgUptime":0.9999499123526479,"avgValidatorEffectiveness":97.80509110021681,"clientPercentages":[{"client":"Teku","percentage":0.0014738393515106854},{"client":"Lighthouse","percentage":0.49815770081061167},{"client":"Nimbus","percentage":0.054532056005895356},{"client":"Prysm","percentage":0.4458364038319823}],"networkPenetration":0.005700147961287505},{"id":"Ankr","idType":"entity","timeWindow":"1d","validatorCount":2290,"avgCorrectness":0.8557496679334021,"avgInclusionDelay":1.5392500712287869,"avgUptime":0.9672857836001945,"avgValidatorEffectiveness":67.10562560331115,"clientPercentages":[{"client":"Lighthouse","percentage":0.016198704103671708},{"client":"Teku","percentage":0.004319654427645789},{"client":"Nimbus","percentage":0.07235421166306695},{"client":"Prysm","percentage":0.9071274298056156}],"networkPenetration":0.005554612268658889},{"id":"StakeWise","idType":"entity","timeWindow":"1d","validatorCount":1979,"avgCorrectness":0.9901845032544199,"avgInclusionDelay":1.0270284236564986,"avgUptime":0.9995777890067937,"avgValidatorEffectiveness":97.2880054070861,"clientPercentages":[{"client":"Teku","percentage":0.06026200873362445},{"client":"Lighthouse","percentage":0.5388646288209606},{"client":"Nimbus","percentage":0.04017467248908297},{"client":"Prysm","percentage":0.36069868995633186}],"networkPenetration":0.004800252261867223},{"id":"OKex","idType":"entity","timeWindow":"1d","validatorCount":1722,"avgCorrectness":0.9912148007986896,"avgInclusionDelay":1.0170166849731985,"avgUptime":0.9999987095109046,"avgValidatorEffectiveness":98.03408229415967,"clientPercentages":[{"client":"Nimbus","percentage":0.1019036954087346},{"client":"Lighthouse","percentage":0.0022396416573348264},{"client":"Teku","percentage":0.006718924972004479},{"client":"Prysm","percentage":0.8891377379619261}],"networkPenetration":0.004176874378441313}]}