{"page":{"from":0,"size":15},"total":30,"next":"/v0/eth/operators?window=1d&from=15&size=15&idType=entity","data":[{"id":"Lido","idType":"entity","timeWindow":"1d","validatorCount":129964,"avgCorrectness":0.9881297168696098,"avgInclusionDelay":1.031050685560411,"avgUptime":0.999590668499868,"avgValidatorEffectiveness":96.68879860108396,"clientPercentages":[{"client":"Prysm","percentage":0.40259494270290747},{"client":"Nimbus","percentage":0.02478589693288055},{"client":"Teku","percentage":0.22193660113917715},{"client":"Lighthouse","percentage":0.3503037354727856},{"client":"Lodestar","percentage":0.00037882375224926605}],"networkPenetration":0.3059711332438605},{"id":"Coinbase","idType":"entity","timeWindow":"1d","validatorCount":54348,"avgCorrectness":0.9890388795462167,"avgInclusionDelay":1.0276140464229226,"avgUptime":0.9984867651864038,"avgValidatorEffectiveness":96.91580736736996,"clientPercentages":[{"client":"Nimbus","percentage":0.055733120255693165},{"client":"Lighthouse","percentage":0.42492342522306564},{"client":"Prysm","percentage":0.38380609934744975},{"client":"Teku","percentage":0.13553735517379145}],"networkPenetration":0.12780250052977327},{"id":"Kraken","idType":"entity","timeWindow":"1d","validatorCount":36681,"avgCorrectness":0.9888028256492459,"avgInclusionDelay":1.028208272568183,"avgUptime":0.9989504082417007,"avgValidatorEffectiveness":96.8919791552447,"clientPercentages":[{"client":"Teku","percentage":0.0939898624185373},{"client":"Lighthouse","percentage":0.26280473087134926},{"client":"Prysm","percentage":0.6236543567463191},{"client":"Nimbus","percentage":0.01955104996379435}],"networkPenetration":0.08636010454192272},{"id":"Binance","idType":"entity","timeWindow":"1d","validatorCount":22284,"avgCorrectness":0.9874980960174174,"avgInclusionDelay":1.0316778782876515,"avgUptime":0.9999654017938169,"avgValidatorEffectiveness":96.61868046272562,"clientPercentages":[{"client":"Lighthouse","percentage":0.35769518583187826},{"client":"Teku","percentage":0.0005820237798287187},{"client":"Prysm","percentage":0.6109586763116321},{"client":"Nimbus","percentage":0.030764114076660846}],"networkPenetration":0.05246874337783429},{"id":"Bitcoin Suisse","idType":"entity","timeWindow":"1d","validatorCount":9062,"avgCorrectness":0.9913164107241726,"avgInclusionDelay":1.023781843448883,"avgUptime":0.9999632163613602,"avgValidatorEffectiveness":97.48082480916696,"clientPercentages":[{"client":"Teku","percentage":0.9935897435897436},{"client":"Nimbus","percentage":0.00641025641025641}],"networkPenetration":0.021336912246003155},{"id":"Rocketpool","idType":"entity","timeWindow":"1d","validatorCount":6980,"avgCorrectness":0.9887789060224499,"avgInclusionDelay":1.0286039409127867,"avgUptime":0.9865870526750036,"avgValidatorEffectiveness":95.82236181603876,"clientPercentages":[{"client":"Prysm","percentage":0.05238870792616721},{"client":"Lighthouse","percentage":0.4161237785016287},{"client":"Nimbus","percentage":0.2270629750271444},{"client":"Teku","percentage":0.30442453854505974}],"networkPenetration":0.016422970968425515},{"id":"Staked.us","idType":"entity","timeWindow":"1d","validatorCount":5263,"avgCorrectness":0.9857283662167206,"avgInclusionDelay":1.0335077918855853,"avgUptime":0.9990022589566594,"avgValidatorEffectiveness":96.29823745704074,"clientPercentages":[{"client":"Nimbus","percentage":0.02821210061182869},{"client":"Lighthouse","percentage":0.005778382053025153},{"client":"Prysm","percentage":0.47178789938817134},{"client":"Teku","percentage":0.49422161794697483}],"networkPenetration":0.012391985119257846},{"id":"f2pool.eth","idType":"entity","timeWindow":"1d","validatorCount":3501,"avgCorrectness":0.9895454989786708,"avgInclusionDelay":1.0298718165187464,"avgUptime":0.9999669935573952,"avgValidatorEffectiveness":96.88179073588896,"clientPercentages":[{"client":"Prysm","percentage":0.013612056392805057},{"client":"Lighthouse","percentage":0.986387943607195}],"networkPenetration":0.008243271879635515},{"id":"Bitfinex","idType":"entity","timeWindow":"1d","validatorCount":3214,"avgCorrectness":0.9880274984804891,"avgInclusionDelay":1.030052780099973,"avgUptime":0.9999232524372543,"avgValidatorEffectiveness":96.78019940652254,"clientPercentages":[{"client":"Prysm","percentage":0.943725379853686},{"client":"Nimbus","percentage":0.03939223410241981},{"client":"Lighthouse","percentage":0.004501969611705121},{"client":"Teku","percentage":0.012380416432189083}],"networkPenetration":0.0075675166584257495},{"id":"Huobi","idType":"entity","timeWindow":"1d","validatorCount":2855,"avgCorrectness":0.9872185759342921,"avgInclusionDelay":1.032245258874335,"avgUptime":0.9999735357073365,"avgValidatorEffectiveness":96.55629874857993,"clientPercentages":[{"client":"Nimbus","percentage":0.04495747266099635},{"client":"Teku","percentage":0.002430133657351154},{"client":"Lighthouse","percentage":0.0006075334143377885},{"client":"Prysm","percentage":0.9520048602673147}],"networkPenetration":0.006722233994961268},{"id":"Bloxstaking","idType":"entity","timeWindow":"1d","validatorCount":2425,"avgCorrectness":0.9859276301721741,"avgInclusionDelay":1.0349129493517661,"avgUptime":0.9993901191328096,"avgValidatorEffectiveness":96.19029861344376,"clientPercentages":[{"client":"Teku","percentage":0.0014947683109118087},{"client":"Nimbus","percentage":0.02391629297458894},{"client":"Lighthouse","percentage":0.4872944693572496},{"client":"Prysm","percentage":0.4872944693572496}],"networkPenetration":0.005707423889242071},{"id":"wedex.eth","idType":"entity","timeWindow":"1d","validatorCount":2399,"avgCorrectness":0.9887986156779753,"avgInclusionDelay":1.0281648014990532,"avgUptime":0.9817692557083973,"avgValidatorEffectiveness":95.4404029596592,"clientPercentages":[{"client":"Lighthouse","percentage":1.0}],"networkPenetration":0.0056485601940147396},{"id":"Ankr","idType":"entity","timeWindow":"1d","validatorCount":2297,"avgCorrectness":0.9883584246867572,"avgInclusionDelay":1.0290502436575037,"avgUptime":0.9999738789725733,"avgValidatorEffectiveness":96.88205044348805,"clientPercentages":[{"client":"Prysm","percentage":0.9464105156723963},{"client":"Lighthouse","percentage":0.011122345803842264},{"client":"Teku","percentage":0.006066734074823054},{"client":"Nimbus","percentage":0.03640040444893832}],"networkPenetration":0.005408396317487227},{"id":"StakeWise","idType":"entity","timeWindow":"1d","validatorCount":1981,"avgCorrectness":0.9881837558896118,"avgInclusionDelay":1.0300706753421585,"avgUptime":0.9999439116046891,"avgValidatorEffectiveness":96.78644504765622,"clientPercentages":[{"client":"Prysm","percentage":0.3850877192982456},{"client":"Lighthouse","percentage":0.5298245614035088},{"client":"Teku","percentage":0.060526315789473685},{"client":"Nimbus","percentage":0.02456140350877193}],"networkPenetration":0.004664359209813756},{"id":"OKex","idType":"entity","timeWindow":"1d","validatorCount":1737,"avgCorrectness":0.987966381866986,"avgInclusionDelay":1.0299564228341278,"avgUptime":0.9999385914411822,"avgValidatorEffectiveness":96.78224038126936,"clientPercentages":[{"client":"Prysm","percentage":0.9401888772298006},{"client":"Nimbus","percentage":0.04512067156348373},{"client":"Lighthouse","percentage":0.012591815320041973},{"client":"Teku","percentage":0.002098635886673662}],"networkPenetration":0.004089849544394999}]}