{"page":{"from":0,"size":15},"total":31,"next":"/v0/eth/operators?window=1d&from=15&size=15&idType=entity","data":[{"id":"Lido","idType":"entity","timeWindow":"1d","validatorCount":128977,"avgCorrectness":0.986415586597594,"avgInclusionDelay":1.0246938060722248,"avgUptime":0.9999129541114098,"avgValidatorEffectiveness":97.12395552860858,"clientPercentages":[{"client":"Lighthouse","percentage":0.37658287404220997},{"client":"Nimbus","percentage":0.07909665277591074},{"client":"Teku","percentage":0.19212259712326926},{"client":"Prysm","percentage":0.35219787605861}],"networkPenetration":0.3181878737639884},{"id":"Coinbase","idType":"entity","timeWindow":"1d","validatorCount":57288,"avgCorrectness":0.9860165901632422,"avgInclusionDelay":1.0258702465073546,"avgUptime":0.9998684179999722,"avgValidatorEffectiveness":97.00309633041522,"clientPercentages":[{"client":"Nimbus","percentage":0.09274935590725064},{"client":"Teku","percentage":0.16970310391363022},{"client":"Lighthouse","percentage":0.37403386087596613},{"client":"Prysm","percentage":0.363513679303153}],"networkPenetration":0.1412309787435609},{"id":"Kraken","idType":"entity","timeWindow":"1d","validatorCount":35782,"avgCorrectness":0.9793553860869508,"avgInclusionDelay":1.036912478508506,"avgUptime":0.9987807648080143,"avgValidatorEffectiveness":95.87680896528883,"clientPercentages":[{"client":"Lighthouse","percentage":0.26855364264176634},{"client":"Prysm","percentage":0.6030055442077619},{"client":"Nimbus","percentage":0.04148429141134131},{"client":"Teku","percentage":0.08695652173913043}],"networkPenetration":0.08826751139795133},{"id":"Binance","idType":"entity","timeWindow":"1d","validatorCount":20810,"avgCorrectness":0.986476813939607,"avgInclusionDelay":1.0242633976702602,"avgUptime":0.9998785840140985,"avgValidatorEffectiveness":97.15144951874908,"clientPercentages":[{"client":"Lighthouse","percentage":0.3254800033537352},{"client":"Prysm","percentage":0.5931080741175484},{"client":"Teku","percentage":0.008803554959335961},{"client":"Nimbus","percentage":0.0726083675693804}],"networkPenetration":0.05134012276235025},{"id":"Bitcoin Suisse","idType":"entity","timeWindow":"1d","validatorCount":9000,"avgCorrectness":0.9828930543109102,"avgInclusionDelay":1.0586631183360675,"avgUptime":0.9990671604938255,"avgValidatorEffectiveness":94.19872382788685,"clientPercentages":[{"client":"Nimbus","percentage":0.006906077348066298},{"client":"Teku","percentage":0.9928966061562746},{"client":"Prysm","percentage":0.0001973164956590371}],"networkPenetration":0.02220380129078098},{"id":"Rocketpool","idType":"entity","timeWindow":"1d","validatorCount":6186,"avgCorrectness":0.9855620975094164,"avgInclusionDelay":1.0269267789493566,"avgUptime":0.989924872032744,"avgValidatorEffectiveness":96.06162015223956,"clientPercentages":[{"client":"Teku","percentage":0.267433179035389},{"client":"Lighthouse","percentage":0.41735105271016876},{"client":"Prysm","percentage":0.05987755711512618},{"client":"Nimbus","percentage":0.2553382111393161}],"networkPenetration":0.015249077308701916},{"id":"Staked.us","idType":"entity","timeWindow":"1d","validatorCount":5263,"avgCorrectness":0.9858115801494736,"avgInclusionDelay":1.0243718155771493,"avgUptime":0.999757637173561,"avgValidatorEffectiveness":97.1019597837371,"clientPercentages":[{"client":"Prysm","percentage":0.4309677419354839},{"client":"Nimbus","percentage":0.05838709677419355},{"client":"Lighthouse","percentage":0.000967741935483871},{"client":"Teku","percentage":0.5096774193548387}],"networkPenetration":0.012984289577042256},{"id":"f2pool.eth","idType":"entity","timeWindow":"1d","validatorCount":3501,"avgCorrectness":0.9872416675711753,"avgInclusionDelay":1.02364099956774,"avgUptime":0.9999942873464722,"avgValidatorEffectiveness":97.26125259239242,"clientPercentages":[{"client":"Lighthouse","percentage":1.0}],"networkPenetration":0.008637278702113801},{"id":"Bitfinex","idType":"entity","timeWindow":"1d","validatorCount":3214,"avgCorrectness":0.985634576891101,"avgInclusionDelay":1.0250104094762893,"avgUptime":0.99965290741893,"avgValidatorEffectiveness":97.05947144266634,"clientPercentages":[{"client":"Lighthouse","percentage":0.0021493820526598604},{"client":"Prysm","percentage":0.8753358409457281},{"client":"Teku","percentage":0.018807092960773777},{"client":"Nimbus","percentage":0.10370768404083826}],"networkPenetration":0.007929224149841119},{"id":"Huobi","idType":"entity","timeWindow":"1d","validatorCount":2855,"avgCorrectness":0.9821912283283464,"avgInclusionDelay":1.0342853405526111,"avgUptime":0.999680093403386,"avgValidatorEffectiveness":96.09763677383344,"clientPercentages":[{"client":"Teku","percentage":0.014084507042253521},{"client":"Nimbus","percentage":0.09800469483568075},{"client":"Lighthouse","percentage":0.0017605633802816902},{"client":"Prysm","percentage":0.886150234741784}],"networkPenetration":0.007043539187242189},{"id":"wedex.eth","idType":"entity","timeWindow":"1d","validatorCount":2399,"avgCorrectness":0.9853340243403834,"avgInclusionDelay":1.0314114622494133,"avgUptime":0.9991376036311428,"avgValidatorEffectiveness":96.46382932343656,"clientPercentages":[{"client":"Lighthouse","percentage":1.0}],"networkPenetration":0.005918546588509286},{"id":"Bloxstaking","idType":"entity","timeWindow":"1d","validatorCount":2317,"avgCorrectness":0.984286695390943,"avgInclusionDelay":1.0267803360203194,"avgUptime":0.9999098451062195,"avgValidatorEffectiveness":96.83069821705945,"clientPercentages":[{"client":"Nimbus","percentage":0.05139833711262283},{"client":"Lighthouse","percentage":0.5064247921390779},{"client":"Prysm","percentage":0.43386243386243384},{"client":"Teku","percentage":0.008314436885865457}],"networkPenetration":0.0057162452878599486},{"id":"Ankr","idType":"entity","timeWindow":"1d","validatorCount":2287,"avgCorrectness":0.806679871303735,"avgInclusionDelay":1.6674541590255978,"avgUptime":0.8933333333333334,"avgValidatorEffectiveness":57.26788547135665,"clientPercentages":[{"client":"Lighthouse","percentage":0.008238928939237899},{"client":"Nimbus","percentage":0.08341915550978372},{"client":"Teku","percentage":0.009268795056642637},{"client":"Prysm","percentage":0.8990731204943357}],"networkPenetration":0.005642232616890678},{"id":"StakeWise","idType":"entity","timeWindow":"1d","validatorCount":1975,"avgCorrectness":0.9866531091351278,"avgInclusionDelay":1.0262143538020547,"avgUptime":0.9997850914205344,"avgValidatorEffectiveness":97.01187058502441,"clientPercentages":[{"client":"Prysm","percentage":0.36436884512085943},{"client":"Nimbus","percentage":0.04028648164726947},{"client":"Teku","percentage":0.049239033124440466},{"client":"Lighthouse","percentage":0.5461056401074306}],"networkPenetration":0.004872500838810271},{"id":"OKex","idType":"entity","timeWindow":"1d","validatorCount":1546,"avgCorrectness":0.983451962163571,"avgInclusionDelay":1.0286048356787907,"avgUptime":0.999643163992942,"avgValidatorEffectiveness":96.61355511858883,"clientPercentages":[{"client":"Prysm","percentage":0.8736263736263736},{"client":"Nimbus","percentage":0.1087912087912088},{"client":"Teku","percentage":0.017582417582417582}],"networkPenetration":0.003806718376852784}]}