{"page":{"from":0,"size":15},"total":31,"next":"/v0/eth/operators?window=1d&from=15&size=15&idType=entity","data":[{"id":"Lido","idType":"entity","timeWindow":"1d","validatorCount":129030,"avgCorrectness":0.9877983245655503,"avgInclusionDelay":1.017253932409282,"avgUptime":0.9997210981183202,"avgValidatorEffectiveness":97.80215653607254,"clientPercentages":[{"client":"Teku","percentage":0.19212259712326926},{"client":"Nimbus","percentage":0.07909665277591074},{"client":"Prysm","percentage":0.35219787605861},{"client":"Lighthouse","percentage":0.37658287404220997}],"networkPenetration":0.3177213381991539},{"id":"Coinbase","idType":"entity","timeWindow":"1d","validatorCount":57005,"avgCorrectness":0.9872775182578161,"avgInclusionDelay":1.0186152651068336,"avgUptime":0.9999674882320275,"avgValidatorEffectiveness":97.68719965385023,"clientPercentages":[{"client":"Lighthouse","percentage":0.37688737623762375},{"client":"Prysm","percentage":0.36379950495049507},{"client":"Nimbus","percentage":0.09226485148514851},{"client":"Teku","percentage":0.16704826732673267}],"networkPenetration":0.140372520918596},{"id":"Kraken","idType":"entity","timeWindow":"1d","validatorCount":35853,"avgCorrectness":0.9810117155703529,"avgInclusionDelay":1.02708559570805,"avgUptime":0.9994398427731417,"avgValidatorEffectiveness":96.75298871791807,"clientPercentages":[{"client":"Nimbus","percentage":0.04148429141134131},{"client":"Prysm","percentage":0.6030055442077619},{"client":"Teku","percentage":0.08695652173913043},{"client":"Lighthouse","percentage":0.26855364264176634}],"networkPenetration":0.08826194662372137},{"id":"Binance","idType":"entity","timeWindow":"1d","validatorCount":20810,"avgCorrectness":0.9879279124003439,"avgInclusionDelay":1.017031118834035,"avgUptime":0.9999817395482931,"avgValidatorEffectiveness":97.844458685718,"clientPercentages":[{"client":"Prysm","percentage":0.5931080741175484},{"client":"Nimbus","percentage":0.0726083675693804},{"client":"Teku","percentage":0.008803554959335961},{"client":"Lighthouse","percentage":0.3254800033537352}],"networkPenetration":0.051243788445153635},{"id":"Bitcoin Suisse","idType":"entity","timeWindow":"1d","validatorCount":9000,"avgCorrectness":0.9835957687478164,"avgInclusionDelay":1.0488202019263604,"avgUptime":0.9993130864197535,"avgValidatorEffectiveness":95.01240496476565,"clientPercentages":[{"client":"Nimbus","percentage":0.006906077348066298},{"client":"Teku","percentage":0.9928966061562746},{"client":"Prysm","percentage":0.0001973164956590371}],"networkPenetration":0.022162138203093835},{"id":"Rocketpool","idType":"entity","timeWindow":"1d","validatorCount":6229,"avgCorrectness":0.9861436338421663,"avgInclusionDelay":1.0240625340301752,"avgUptime":0.9897048975585199,"avgValidatorEffectiveness":96.41524088204531,"clientPercentages":[{"client":"Nimbus","percentage":0.2553382111393161},{"client":"Prysm","percentage":0.05987755711512618},{"client":"Teku","percentage":0.267433179035389},{"client":"Lighthouse","percentage":0.41735105271016876}],"networkPenetration":0.01533373717674059},{"id":"Staked.us","idType":"entity","timeWindow":"1d","validatorCount":5263,"avgCorrectness":0.9857522148271047,"avgInclusionDelay":1.0199070630788691,"avgUptime":0.9963328899866999,"avgValidatorEffectiveness":97.18578986539599,"clientPercentages":[{"client":"Nimbus","percentage":0.05838709677419355},{"client":"Prysm","percentage":0.4309677419354839},{"client":"Lighthouse","percentage":0.000967741935483871},{"client":"Teku","percentage":0.5096774193548387}],"networkPenetration":0.012959925929209205},{"id":"f2pool.eth","idType":"entity","timeWindow":"1d","validatorCount":3501,"avgCorrectness":0.9890647116696817,"avgInclusionDelay":1.0157434383826842,"avgUptime":1.0,"avgValidatorEffectiveness":98.02280999445522,"clientPercentages":[{"client":"Lighthouse","percentage":1.0}],"networkPenetration":0.0086210717610035},{"id":"Bitfinex","idType":"entity","timeWindow":"1d","validatorCount":3214,"avgCorrectness":0.9869123273209911,"avgInclusionDelay":1.0201936428220266,"avgUptime":0.9929101846090032,"avgValidatorEffectiveness":96.9508051089135,"clientPercentages":[{"client":"Nimbus","percentage":0.10370768404083826},{"client":"Prysm","percentage":0.8753358409457281},{"client":"Teku","percentage":0.018807092960773777},{"client":"Lighthouse","percentage":0.0021493820526598604}],"networkPenetration":0.007914345798304842},{"id":"Huobi","idType":"entity","timeWindow":"1d","validatorCount":2855,"avgCorrectness":0.9861917156520873,"avgInclusionDelay":1.0186793240011955,"avgUptime":0.9999891029383152,"avgValidatorEffectiveness":97.61714633039458,"clientPercentages":[{"client":"Lighthouse","percentage":0.0017605633802816902},{"client":"Prysm","percentage":0.886150234741784},{"client":"Nimbus","percentage":0.09800469483568075},{"client":"Teku","percentage":0.014084507042253521}],"networkPenetration":0.007030322729981433},{"id":"wedex.eth","idType":"entity","timeWindow":"1d","validatorCount":2399,"avgCorrectness":0.9864601447697683,"avgInclusionDelay":1.022619697249041,"avgUptime":0.9998323375480518,"avgValidatorEffectiveness":97.29687717348568,"clientPercentages":[{"client":"Lighthouse","percentage":1.0}],"networkPenetration":0.005907441061024679},{"id":"Bloxstaking","idType":"entity","timeWindow":"1d","validatorCount":2322,"avgCorrectness":0.9848316203627051,"avgInclusionDelay":1.0196828125194402,"avgUptime":0.9999722461479562,"avgValidatorEffectiveness":97.45487434627896,"clientPercentages":[{"client":"Teku","percentage":0.008314436885865457},{"client":"Lighthouse","percentage":0.5064247921390779},{"client":"Nimbus","percentage":0.05139833711262283},{"client":"Prysm","percentage":0.43386243386243384}],"networkPenetration":0.00571783165639821},{"id":"Ankr","idType":"entity","timeWindow":"1d","validatorCount":2287,"avgCorrectness":0.9434771865605901,"avgInclusionDelay":1.1885734544112103,"avgUptime":0.9949123062721659,"avgValidatorEffectiveness":87.91444766466127,"clientPercentages":[{"client":"Prysm","percentage":0.8990731204943357},{"client":"Lighthouse","percentage":0.008238928939237899},{"client":"Nimbus","percentage":0.08341915550978372},{"client":"Teku","percentage":0.009268795056642637}],"networkPenetration":0.005631645563386177},{"id":"StakeWise","idType":"entity","timeWindow":"1d","validatorCount":1976,"avgCorrectness":0.9884670623258869,"avgInclusionDelay":1.0186582901178542,"avgUptime":0.9999426450742248,"avgValidatorEffectiveness":97.75549440159082,"clientPercentages":[{"client":"Prysm","percentage":0.36436884512085943},{"client":"Teku","percentage":0.049239033124440466},{"client":"Lighthouse","percentage":0.5461056401074306},{"client":"Nimbus","percentage":0.04028648164726947}],"networkPenetration":0.004865820565479268},{"id":"OKex","idType":"entity","timeWindow":"1d","validatorCount":1552,"avgCorrectness":0.9779947574796304,"avgInclusionDelay":1.042215632007782,"avgUptime":0.9996331400667168,"avgValidatorEffectiveness":95.26641447556801,"clientPercentages":[{"client":"Prysm","percentage":0.8736263736263736},{"client":"Nimbus","percentage":0.1087912087912088},{"client":"Teku","percentage":0.017582417582417582}],"networkPenetration":0.0038143502307324832}]}