{"page":{"from":0,"size":15},"total":31,"next":"/v0/eth/operators?window=1d&from=15&size=15&idType=entity","data":[{"id":"Lido","idType":"entity","timeWindow":"1d","validatorCount":133195,"avgCorrectness":0.9910621879531274,"avgInclusionDelay":1.0276001883711727,"avgUptime":0.9990189983659716,"avgValidatorEffectiveness":96.93415710418577,"clientPercentages":[{"client":"Prysm","percentage":0.38788033367340813},{"client":"Lighthouse","percentage":0.3920362479745544},{"client":"Teku","percentage":0.19303246714277142},{"client":"Lodestar","percentage":0.001155254155914301},{"client":"Nimbus","percentage":0.02589569705335174}],"networkPenetration":0.30123913520905454,"relayerPercentages":[{"relayer":"bloxroute_ethical","percentage":0.025437116289089148},{"relayer":"bloxroute_maxprofit","percentage":0.020895415215596166},{"relayer":"no_mev_boost","percentage":0.5830431192331167},{"relayer":"bloxroute_regulated","percentage":0.007970416113165547},{"relayer":"flashbots","percentage":0.3247406024485693},{"relayer":"blocknative","percentage":0.02559867877786953},{"relayer":"edennetwork","percentage":0.005259756579183571},{"relayer":"manifold","percentage":0.0070548953434100455}]},{"id":"Coinbase","idType":"entity","timeWindow":"1d","validatorCount":54040,"avgCorrectness":0.9908159712710112,"avgInclusionDelay":1.0227988790616305,"avgUptime":0.9989865151489229,"avgValidatorEffectiveness":97.24851001413154,"clientPercentages":[{"client":"Nimbus","percentage":0.02177831180534695},{"client":"Prysm","percentage":0.3810078101531992},{"client":"Lighthouse","percentage":0.4350405527185341},{"client":"Teku","percentage":0.1621733253229198}],"networkPenetration":0.12235130037878188,"relayerPercentages":[{"relayer":"flashbots","percentage":0.0004508363013389838},{"relayer":"no_mev_boost","percentage":0.9995040800685271},{"relayer":"bloxroute_regulated","percentage":4.5083630133898384e-05}]},{"id":"Kraken","idType":"entity","timeWindow":"1d","validatorCount":37630,"avgCorrectness":0.9913633302667756,"avgInclusionDelay":1.020803191427101,"avgUptime":0.9994388402869827,"avgValidatorEffectiveness":97.49036312996958,"clientPercentages":[{"client":"Lighthouse","percentage":0.2660751509968464},{"client":"Nimbus","percentage":0.00010690042225666791},{"client":"Prysm","percentage":0.6222139077449356},{"client":"Teku","percentage":0.1116040408359613}],"networkPenetration":0.0851478109667881,"relayerPercentages":[{"relayer":"blocknative","percentage":0.007547169811320755},{"relayer":"bloxroute_ethical","percentage":0.00025583626479053407},{"relayer":"manifold","percentage":0.0004477134633834346},{"relayer":"flashbots","percentage":0.3976335145506876},{"relayer":"edennetwork","percentage":0.0023025263831148064},{"relayer":"bloxroute_maxprofit","percentage":0.0031979533098816758},{"relayer":"no_mev_boost","percentage":0.5886152862168212}]},{"id":"Binance","idType":"entity","timeWindow":"1d","validatorCount":23051,"avgCorrectness":0.9926512617986095,"avgInclusionDelay":1.0194486724493361,"avgUptime":0.9993996886131711,"avgValidatorEffectiveness":97.70524681985972,"clientPercentages":[{"client":"Prysm","percentage":0.5616498851792969},{"client":"Lighthouse","percentage":0.42483660130718953},{"client":"Nimbus","percentage":0.00026497085320614734},{"client":"Teku","percentage":0.013248542660307366}],"networkPenetration":0.05218948602944672,"relayerPercentages":[{"relayer":"blocknative","percentage":0.0017671517671517672},{"relayer":"edennetwork","percentage":0.002598752598752599},{"relayer":"flashbots","percentage":0.2079002079002079},{"relayer":"bloxroute_maxprofit","percentage":0.007796257796257797},{"relayer":"bloxroute_ethical","percentage":0.00010395010395010396},{"relayer":"no_mev_boost","percentage":0.7782744282744283},{"relayer":"bloxroute_regulated","percentage":0.0015592515592515593}]},{"id":"Staked.us","idType":"entity","timeWindow":"1d","validatorCount":13457,"avgCorrectness":0.9911877056643092,"avgInclusionDelay":1.0236267824240135,"avgUptime":0.99257876208915,"avgValidatorEffectiveness":96.67365675714585,"clientPercentages":[{"client":"Unknown","percentage":1.0}],"networkPenetration":0.030467828445545294,"relayerPercentages":[{"relayer":"no_mev_boost","percentage":0.42094717668488163},{"relayer":"bloxroute_maxprofit","percentage":0.007285974499089253},{"relayer":"flashbots","percentage":0.5693989071038251},{"relayer":"manifold","percentage":0.0023679417122040073}]},{"id":"Bitcoin Suisse","idType":"entity","timeWindow":"1d","validatorCount":9184,"avgCorrectness":0.9928635628867497,"avgInclusionDelay":1.0228502551615861,"avgUptime":0.9993060394889677,"avgValidatorEffectiveness":97.4407060605975,"clientPercentages":[{"client":"Nimbus","percentage":0.0330117899249732},{"client":"Teku","percentage":0.9669882100750268}],"networkPenetration":0.02079338161877744,"relayerPercentages":[{"relayer":"no_mev_boost","percentage":1.0}]},{"id":"Rocketpool","idType":"entity","timeWindow":"1d","validatorCount":8689,"avgCorrectness":0.9884879691328152,"avgInclusionDelay":1.0316229055247408,"avgUptime":0.9906460779726725,"avgValidatorEffectiveness":95.8948476723379,"clientPercentages":[{"client":"Lighthouse","percentage":0.43190605756838035},{"client":"Teku","percentage":0.29987111556637547},{"client":"Nimbus","percentage":0.222397250465416},{"client":"Prysm","percentage":0.045825576399828157}],"networkPenetration":0.0196568095834305,"relayerPercentages":[{"relayer":"blocknative","percentage":0.039701492537313435},{"relayer":"flashbots","percentage":0.448955223880597},{"relayer":"edennetwork","percentage":0.008656716417910448},{"relayer":"manifold","percentage":0.0008955223880597015},{"relayer":"no_mev_boost","percentage":0.30328358208955225},{"relayer":"bloxroute_ethical","percentage":0.031044776119402984},{"relayer":"bloxroute_regulated","percentage":0.07223880597014926},{"relayer":"bloxroute_maxprofit","percentage":0.09522388059701492}]},{"id":"f2pool.eth","idType":"entity","timeWindow":"1d","validatorCount":3501,"avgCorrectness":0.9896890688075388,"avgInclusionDelay":1.0438703686698385,"avgUptime":0.9884458408708622,"avgValidatorEffectiveness":94.66145335023432,"clientPercentages":[{"client":"Teku","percentage":0.014223194748358862},{"client":"Nimbus","percentage":0.0010940919037199124},{"client":"Prysm","percentage":0.0010940919037199124},{"client":"Lighthouse","percentage":0.9835886214442013}],"networkPenetration":0.007926571107070972,"relayerPercentages":[{"relayer":"manifold","percentage":0.048398576512455514},{"relayer":"flashbots","percentage":0.6868327402135231},{"relayer":"no_mev_boost","percentage":0.26476868327402137}]},{"id":"Bitfinex","idType":"entity","timeWindow":"1d","validatorCount":3214,"avgCorrectness":0.9931341697563483,"avgInclusionDelay":1.0196450176753673,"avgUptime":0.9937848302565171,"avgValidatorEffectiveness":97.24444374432917,"clientPercentages":[{"client":"Teku","percentage":0.03431372549019608},{"client":"Prysm","percentage":0.9564950980392157},{"client":"Lighthouse","percentage":0.009191176470588236}],"networkPenetration":0.007276777931484177,"relayerPercentages":[{"relayer":"no_mev_boost","percentage":0.8427299703264095},{"relayer":"flashbots","percentage":0.1572700296735905}]},{"id":"Huobi","idType":"entity","timeWindow":"1d","validatorCount":2855,"avgCorrectness":0.9921065239067347,"avgInclusionDelay":1.018365859697258,"avgUptime":0.9997229032885775,"avgValidatorEffectiveness":97.76954625154059,"clientPercentages":[{"client":"Lighthouse","percentage":0.007670850767085077},{"client":"Prysm","percentage":0.9693165969316597},{"client":"Teku","percentage":0.02301255230125523}],"networkPenetration":0.00646397044007073,"relayerPercentages":[{"relayer":"flashbots","percentage":0.43336199484092863},{"relayer":"edennetwork","percentage":0.052450558899398106},{"relayer":"manifold","percentage":0.014617368873602751},{"relayer":"blocknative","percentage":0.0352536543422184},{"relayer":"no_mev_boost","percentage":0.3069647463456578},{"relayer":"bloxroute_ethical","percentage":0.07824591573516768},{"relayer":"bloxroute_maxprofit","percentage":0.04557179707652623},{"relayer":"bloxroute_regulated","percentage":0.03353396388650043}]},{"id":"Abyss","idType":"entity","timeWindow":"1d","validatorCount":2698,"avgCorrectness":0.9927366210262284,"avgInclusionDelay":1.021709687666134,"avgUptime":0.9981351775179734,"avgValidatorEffectiveness":97.44036340621919,"clientPercentages":[{"client":"Unknown","percentage":1.0}],"networkPenetration":0.0060813396154220595,"relayerPercentages":[{"relayer":"blocknative","percentage":0.0017605633802816902},{"relayer":"edennetwork","percentage":0.01056338028169014},{"relayer":"flashbots","percentage":0.3125},{"relayer":"no_mev_boost","percentage":0.6434859154929577},{"relayer":"bloxroute_ethical","percentage":0.002640845070422535},{"relayer":"bloxroute_regulated","percentage":0.014964788732394365},{"relayer":"bloxroute_maxprofit","percentage":0.014084507042253521}]},{"id":"Bloxstaking","idType":"entity","timeWindow":"1d","validatorCount":2551,"avgCorrectness":0.9922012754964199,"avgInclusionDelay":1.018009121537255,"avgUptime":0.9998181942903841,"avgValidatorEffectiveness":97.81977716851023,"clientPercentages":[{"client":"Lighthouse","percentage":0.5021097046413502},{"client":"Teku","percentage":0.006751054852320675},{"client":"Prysm","percentage":0.4911392405063291}],"networkPenetration":0.005741726457449868,"relayerPercentages":[{"relayer":"blocknative","percentage":0.07414272474513438},{"relayer":"flashbots","percentage":0.7451343836886005},{"relayer":"bloxroute_ethical","percentage":0.016682113067655237},{"relayer":"no_mev_boost","percentage":0.16404077849860982}]},{"id":"wedex.eth","idType":"entity","timeWindow":"1d","validatorCount":2399,"avgCorrectness":0.98435325245497,"avgInclusionDelay":1.0528673701619182,"avgUptime":0.9947441063406053,"avgValidatorEffectiveness":94.03587867674,"clientPercentages":[{"client":"Prysm","percentage":0.001606425702811245},{"client":"Lighthouse","percentage":0.9983935742971888}],"networkPenetration":0.005431546439835265,"relayerPercentages":[{"relayer":"flashbots","percentage":0.4089581304771178},{"relayer":"blocknative","percentage":0.04965920155793573},{"relayer":"edennetwork","percentage":0.05744888023369036},{"relayer":"manifold","percentage":0.009737098344693282},{"relayer":"bloxroute_ethical","percentage":0.010710808179162609},{"relayer":"bloxroute_maxprofit","percentage":0.20545277507302823},{"relayer":"no_mev_boost","percentage":0.25803310613437197}]},{"id":"Ankr","idType":"entity","timeWindow":"1d","validatorCount":2299,"avgCorrectness":0.9926392650093411,"avgInclusionDelay":1.0184218184560438,"avgUptime":0.9997747813058814,"avgValidatorEffectiveness":97.81794257702691,"clientPercentages":[{"client":"Teku","percentage":0.005853658536585366},{"client":"Prysm","percentage":0.526829268292683},{"client":"Lighthouse","percentage":0.46731707317073173}],"networkPenetration":0.005205137667853803,"relayerPercentages":[{"relayer":"no_mev_boost","percentage":0.8759920634920635},{"relayer":"flashbots","percentage":0.12400793650793651}]},{"id":"StakeWise","idType":"entity","timeWindow":"1d","validatorCount":2010,"avgCorrectness":0.9919687422563631,"avgInclusionDelay":1.0221888385429572,"avgUptime":0.999557766721946,"avgValidatorEffectiveness":97.44446100186421,"clientPercentages":[{"client":"Teku","percentage":0.340625},{"client":"Lighthouse","percentage":0.5416666666666666},{"client":"Prysm","percentage":0.10833333333333334},{"client":"Nimbus","percentage":0.009375}],"networkPenetration":0.0045508163168273795,"relayerPercentages":[{"relayer":"flashbots","percentage":0.5381062355658198},{"relayer":"manifold","percentage":0.0011547344110854503},{"relayer":"blocknative","percentage":0.08429561200923788},{"relayer":"bloxroute_regulated","percentage":0.023094688221709007},{"relayer":"no_mev_boost","percentage":0.07505773672055427},{"relayer":"bloxroute_maxprofit","percentage":0.27829099307159355}]}]}