{"page":{"from":0,"size":15},"total":30,"next":"/v0/eth/operators?window=1d&from=15&size=15&idType=entity","data":[{"id":"Lido","idType":"entity","timeWindow":"1d","validatorCount":129632,"avgCorrectness":0.9892581227197648,"avgInclusionDelay":1.0218328805902817,"avgUptime":0.9988238095423871,"avgValidatorEffectiveness":97.43008602725612,"clientPercentages":[{"client":"Lighthouse","percentage":0.3538103268288766},{"client":"Prysm","percentage":0.36031478358628444},{"client":"Nimbus","percentage":0.06436200112422709},{"client":"Teku","percentage":0.2215128884606119}],"networkPenetration":0.31201062925886436},{"id":"Coinbase","idType":"entity","timeWindow":"1d","validatorCount":55805,"avgCorrectness":0.989387141492142,"avgInclusionDelay":1.022348326631448,"avgUptime":0.9998845981542863,"avgValidatorEffectiveness":97.48317625067628,"clientPercentages":[{"client":"Lighthouse","percentage":0.3988203411445879},{"client":"Teku","percentage":0.1384345608161964},{"client":"Nimbus","percentage":0.08952654232424677},{"client":"Prysm","percentage":0.3732185557149689}],"networkPenetration":0.13432196352450435},{"id":"Kraken","idType":"entity","timeWindow":"1d","validatorCount":36246,"avgCorrectness":0.9887690535883219,"avgInclusionDelay":1.0224665666829698,"avgUptime":0.9971051175145054,"avgValidatorEffectiveness":97.20514522887333,"clientPercentages":[{"client":"Lighthouse","percentage":0.2649754027201698},{"client":"Teku","percentage":0.09004533616282434},{"client":"Prysm","percentage":0.5996913282531108},{"client":"Nimbus","percentage":0.04528793286389505}],"networkPenetration":0.08723405791694447},{"id":"Binance","idType":"entity","timeWindow":"1d","validatorCount":21584,"avgCorrectness":0.98905366184549,"avgInclusionDelay":1.0217609856188412,"avgUptime":0.9999332839140112,"avgValidatorEffectiveness":97.51945160393359,"clientPercentages":[{"client":"Nimbus","percentage":0.06721352640830335},{"client":"Teku","percentage":0.003264417845484222},{"client":"Prysm","percentage":0.5864233698836528},{"client":"Lighthouse","percentage":0.34309868586255965}],"networkPenetration":0.05195242828981098},{"id":"Bitcoin Suisse","idType":"entity","timeWindow":"1d","validatorCount":9000,"avgCorrectness":0.9875353654375042,"avgInclusionDelay":1.0329574518415214,"avgUptime":0.9999649382716055,"avgValidatorEffectiveness":96.52299753420672,"clientPercentages":[{"client":"Nimbus","percentage":0.0063522617901828685},{"client":"Teku","percentage":0.9934552454282964},{"client":"Prysm","percentage":0.00019249278152069297}],"networkPenetration":0.021662891707204354},{"id":"Rocketpool","idType":"entity","timeWindow":"1d","validatorCount":6662,"avgCorrectness":0.9877252667810762,"avgInclusionDelay":1.0251887807061402,"avgUptime":0.9937747077608974,"avgValidatorEffectiveness":96.67833843273635,"clientPercentages":[{"client":"Nimbus","percentage":0.2328336902212705},{"client":"Teku","percentage":0.291220556745182},{"client":"Lighthouse","percentage":0.4055674518201285},{"client":"Prysm","percentage":0.07037830121341898}],"networkPenetration":0.016030539863331222},{"id":"Staked.us","idType":"entity","timeWindow":"1d","validatorCount":5263,"avgCorrectness":0.9882631775732522,"avgInclusionDelay":1.0231289039478326,"avgUptime":0.999427871725041,"avgValidatorEffectiveness":97.32294220522348,"clientPercentages":[{"client":"Lighthouse","percentage":0.0019887305270135896},{"client":"Nimbus","percentage":0.043752071594298975},{"client":"Prysm","percentage":0.4461385482267153},{"client":"Teku","percentage":0.5081206496519721}],"networkPenetration":0.012667977672779614},{"id":"f2pool.eth","idType":"entity","timeWindow":"1d","validatorCount":3501,"avgCorrectness":0.9896036053191152,"avgInclusionDelay":1.0213951569392872,"avgUptime":1.0,"avgValidatorEffectiveness":97.58545985855707,"clientPercentages":[{"client":"Lighthouse","percentage":1.0}],"networkPenetration":0.008426864874102494},{"id":"Bitfinex","idType":"entity","timeWindow":"1d","validatorCount":3214,"avgCorrectness":0.988448649026042,"avgInclusionDelay":1.024570271591147,"avgUptime":0.9903201272211861,"avgValidatorEffectiveness":96.44413819841198,"clientPercentages":[{"client":"Nimbus","percentage":0.09640522875816994},{"client":"Teku","percentage":0.01579520697167756},{"client":"Lighthouse","percentage":0.0027233115468409588},{"client":"Prysm","percentage":0.8850762527233116}],"networkPenetration":0.007736059327439422},{"id":"Huobi","idType":"entity","timeWindow":"1d","validatorCount":2855,"avgCorrectness":0.9884506110375963,"avgInclusionDelay":1.022651981007239,"avgUptime":0.9999610819225512,"avgValidatorEffectiveness":97.413093188874,"clientPercentages":[{"client":"Teku","percentage":0.007202881152460984},{"client":"Nimbus","percentage":0.07923169267707082},{"client":"Prysm","percentage":0.9123649459783914},{"client":"Lighthouse","percentage":0.0012004801920768306}],"networkPenetration":0.006871950647118715},{"id":"wedex.eth","idType":"entity","timeWindow":"1d","validatorCount":2399,"avgCorrectness":0.9888416366464143,"avgInclusionDelay":1.0222287269961807,"avgUptime":0.9999990736881108,"avgValidatorEffectiveness":97.47244100447188,"clientPercentages":[{"client":"Lighthouse","percentage":1.0}],"networkPenetration":0.005774364133953694},{"id":"Bloxstaking","idType":"entity","timeWindow":"1d","validatorCount":2366,"avgCorrectness":0.9866372024195657,"avgInclusionDelay":1.0257713446564791,"avgUptime":0.9994438175618862,"avgValidatorEffectiveness":97.01594611819282,"clientPercentages":[{"client":"Nimbus","percentage":0.054411764705882354},{"client":"Lighthouse","percentage":0.4970588235294118},{"client":"Teku","percentage":0.003676470588235294},{"client":"Prysm","percentage":0.44485294117647056}],"networkPenetration":0.005692526543059811},{"id":"Ankr","idType":"entity","timeWindow":"1d","validatorCount":2294,"avgCorrectness":0.8496221480514674,"avgInclusionDelay":1.4097088704418548,"avgUptime":0.9791182311343607,"avgValidatorEffectiveness":70.23642063815095,"clientPercentages":[{"client":"Nimbus","percentage":0.07235421166306695},{"client":"Prysm","percentage":0.9071274298056156},{"client":"Teku","percentage":0.004319654427645789},{"client":"Lighthouse","percentage":0.016198704103671708}],"networkPenetration":0.005521630397369644},{"id":"StakeWise","idType":"entity","timeWindow":"1d","validatorCount":1980,"avgCorrectness":0.9891969765677264,"avgInclusionDelay":1.0232268651757532,"avgUptime":0.9998967452300793,"avgValidatorEffectiveness":97.40589295261265,"clientPercentages":[{"client":"Lighthouse","percentage":0.5388646288209606},{"client":"Prysm","percentage":0.36069868995633186},{"client":"Teku","percentage":0.06026200873362445},{"client":"Nimbus","percentage":0.04017467248908297}],"networkPenetration":0.004765836175584958},{"id":"OKex","idType":"entity","timeWindow":"1d","validatorCount":1730,"avgCorrectness":0.9884990366088632,"avgInclusionDelay":1.0226140012845215,"avgUptime":1.0,"avgValidatorEffectiveness":97.42276795835872,"clientPercentages":[{"client":"Nimbus","percentage":0.1019036954087346},{"client":"Prysm","percentage":0.8891377379619261},{"client":"Teku","percentage":0.006718924972004479},{"client":"Lighthouse","percentage":0.0022396416573348264}],"networkPenetration":0.00416408918371817}]}