{"page":{"from":0,"size":15},"total":36,"next":"/v0/eth/operators?window=1d&from=15&size=15&idType=entity","data":[{"id":"Lido","idType":"entity","timeWindow":"1d","validatorCount":133577,"avgCorrectness":0.9897262527629712,"avgInclusionDelay":1.0261391826556996,"avgUptime":0.9987644342770421,"avgValidatorEffectiveness":96.44097556804897,"clientPercentages":[{"client":"Teku","percentage":0.19303246714277142},{"client":"Nimbus","percentage":0.02589569705335174},{"client":"Prysm","percentage":0.38788033367340813},{"client":"Lodestar","percentage":0.001155254155914301},{"client":"Lighthouse","percentage":0.3920362479745544}],"networkPenetration":0.3006898353448839,"relayerPercentages":[{"relayer":"bloxroute_ethical","percentage":0.034907916394919095},{"relayer":"manifold","percentage":0.01793533960682009},{"relayer":"edennetwork","percentage":0.015978757104257897},{"relayer":"blocknative","percentage":0.030342557222273983},{"relayer":"bloxroute_regulated","percentage":0.009487872294170627},{"relayer":"bloxroute_maxprofit","percentage":0.026584676542749774},{"relayer":"no_mev_boost","percentage":0.4855430292866238},{"relayer":"flashbots","percentage":0.3792198515481847}],"nodeOperatorCount":29},{"id":"Coinbase","idType":"entity","timeWindow":"1d","validatorCount":54230,"avgCorrectness":0.9885703655601139,"avgInclusionDelay":1.025127430191153,"avgUptime":0.998666543733481,"avgValidatorEffectiveness":96.39818845188921,"clientPercentages":[{"client":"Prysm","percentage":0.3810078101531992},{"client":"Teku","percentage":0.1621733253229198},{"client":"Lighthouse","percentage":0.4350405527185341},{"client":"Nimbus","percentage":0.02177831180534695}],"networkPenetration":0.12213441316700412,"relayerPercentages":[{"relayer":"bloxroute_regulated","percentage":3.886966999650173e-05},{"relayer":"manifold","percentage":7.773933999300346e-05},{"relayer":"no_mev_boost","percentage":0.999455824620049},{"relayer":"flashbots","percentage":0.00042756636996151904}],"nodeOperatorCount":null},{"id":"Kraken","idType":"entity","timeWindow":"1d","validatorCount":37744,"avgCorrectness":0.9897129816019389,"avgInclusionDelay":1.021892641463278,"avgUptime":0.9992458378342461,"avgValidatorEffectiveness":96.84373293954378,"clientPercentages":[{"client":"Nimbus","percentage":0.00010690042225666791},{"client":"Lighthouse","percentage":0.2660751509968464},{"client":"Teku","percentage":0.1116040408359613},{"client":"Prysm","percentage":0.6222139077449356}],"networkPenetration":0.08497158905362158,"relayerPercentages":[{"relayer":"blocknative","percentage":0.008852985115918774},{"relayer":"bloxroute_maxprofit","percentage":0.0036518563603164943},{"relayer":"bloxroute_ethical","percentage":0.0007746361976428927},{"relayer":"flashbots","percentage":0.41819288441321306},{"relayer":"no_mev_boost","percentage":0.5648757815525922},{"relayer":"manifold","percentage":0.0014386100813368007},{"relayer":"edennetwork","percentage":0.0022132462789796934}],"nodeOperatorCount":null},{"id":"Binance","idType":"entity","timeWindow":"1d","validatorCount":23051,"avgCorrectness":0.9909662986643709,"avgInclusionDelay":1.018487849963779,"avgUptime":0.9996217806891969,"avgValidatorEffectiveness":97.31195232338223,"clientPercentages":[{"client":"Nimbus","percentage":0.00026497085320614734},{"client":"Teku","percentage":0.013248542660307366},{"client":"Lighthouse","percentage":0.42483660130718953},{"client":"Prysm","percentage":0.5616498851792969}],"networkPenetration":0.05191444510257444,"relayerPercentages":[{"relayer":"bloxroute_ethical","percentage":8.975854950184004e-05},{"relayer":"edennetwork","percentage":0.003590341980073602},{"relayer":"flashbots","percentage":0.36792029440804236},{"relayer":"no_mev_boost","percentage":0.6025491428058523},{"relayer":"bloxroute_maxprofit","percentage":0.006911408311641684},{"relayer":"blocknative","percentage":0.002154205188044161},{"relayer":"bloxroute_regulated","percentage":0.01678484875684409}],"nodeOperatorCount":null},{"id":"Staked.us","idType":"entity","timeWindow":"1d","validatorCount":12594,"avgCorrectness":0.9889468977926783,"avgInclusionDelay":1.024777435809398,"avgUptime":0.9978246202487573,"avgValidatorEffectiveness":96.38904498066239,"clientPercentages":[{"client":"Prysm","percentage":0.5471238219044524},{"client":"Nimbus","percentage":0.0004874878128046799},{"client":"Lighthouse","percentage":0.055573610659733506},{"client":"Teku","percentage":0.39681507962300944}],"networkPenetration":0.028221765284818894,"relayerPercentages":[{"relayer":"manifold","percentage":0.00547816559712005},{"relayer":"bloxroute_maxprofit","percentage":0.004069494443574895},{"relayer":"no_mev_boost","percentage":0.40867115354515576},{"relayer":"flashbots","percentage":0.5817811864141493}],"nodeOperatorCount":null},{"id":"Bitcoin Suisse","idType":"entity","timeWindow":"1d","validatorCount":9184,"avgCorrectness":0.9907212902535288,"avgInclusionDelay":1.0246010031312436,"avgUptime":0.9993079352548954,"avgValidatorEffectiveness":96.70297898105159,"clientPercentages":[{"client":"Nimbus","percentage":0.0330117899249732},{"client":"Teku","percentage":0.9669882100750268}],"networkPenetration":0.02068379956713564,"relayerPercentages":[{"relayer":"no_mev_boost","percentage":1.0}],"nodeOperatorCount":null},{"id":"Rocketpool","idType":"entity","timeWindow":"1d","validatorCount":8848,"avgCorrectness":0.9864115000004248,"avgInclusionDelay":1.032430276447546,"avgUptime":0.9876944156482406,"avgValidatorEffectiveness":94.67110671333509,"clientPercentages":[{"client":"Nimbus","percentage":0.222397250465416},{"client":"Teku","percentage":0.29987111556637547},{"client":"Prysm","percentage":0.045825576399828157},{"client":"Lighthouse","percentage":0.43190605756838035}],"networkPenetration":0.019870771295822928,"relayerPercentages":[{"relayer":"no_mev_boost","percentage":0.24370569542899045},{"relayer":"blocknative","percentage":0.04839892446834515},{"relayer":"bloxroute_ethical","percentage":0.03348814470789538},{"relayer":"bloxroute_regulated","percentage":0.07284282571498411},{"relayer":"bloxroute_maxprofit","percentage":0.09288682473722806},{"relayer":"edennetwork","percentage":0.023466145196773404},{"relayer":"flashbots","percentage":0.4832559276460523},{"relayer":"manifold","percentage":0.001955512099731117}],"nodeOperatorCount":1549},{"id":"Celsius Network","idType":"entity","timeWindow":"1d","validatorCount":4943,"avgCorrectness":0.9910469533824486,"avgInclusionDelay":1.0182027939946208,"avgUptime":0.9996137816344427,"avgValidatorEffectiveness":97.34508144952235,"clientPercentages":[{"client":"Prysm","percentage":0.966626936829559},{"client":"Lighthouse","percentage":0.021056813667063964},{"client":"Teku","percentage":0.012316249503377036}],"networkPenetration":0.01113240649611841,"relayerPercentages":[{"relayer":"no_mev_boost","percentage":0.03535353535353535},{"relayer":"flashbots","percentage":0.9646464646464646}],"nodeOperatorCount":null},{"id":"Stakefish","idType":"entity","timeWindow":"1d","validatorCount":4558,"avgCorrectness":0.987864000849742,"avgInclusionDelay":1.0413637762348311,"avgUptime":0.9807967697646575,"avgValidatorEffectiveness":93.20557182606737,"clientPercentages":[{"client":"Teku","percentage":0.009365006852444038},{"client":"Prysm","percentage":0.0011420740063956144},{"client":"Nimbus","percentage":0.0009136592051164915},{"client":"Lighthouse","percentage":0.9885792599360439}],"networkPenetration":0.010265326483776595,"relayerPercentages":[{"relayer":"bloxroute_maxprofit","percentage":0.0009080590238365494},{"relayer":"no_mev_boost","percentage":0.13575482406356412},{"relayer":"bloxroute_regulated","percentage":0.00022701475595913735},{"relayer":"flashbots","percentage":0.7695800227014756},{"relayer":"manifold","percentage":0.09353007945516459}],"nodeOperatorCount":null},{"id":"Bitfinex","idType":"entity","timeWindow":"1d","validatorCount":3214,"avgCorrectness":0.9917388891309947,"avgInclusionDelay":1.0181911376827986,"avgUptime":0.999625901932025,"avgValidatorEffectiveness":97.41440496204945,"clientPercentages":[{"client":"Teku","percentage":0.03431372549019608},{"client":"Lighthouse","percentage":0.009191176470588236},{"client":"Prysm","percentage":0.9564950980392157}],"networkPenetration":0.0072384289861469895,"relayerPercentages":[{"relayer":"flashbots","percentage":0.3399487836107554},{"relayer":"no_mev_boost","percentage":0.6600512163892446}],"nodeOperatorCount":null},{"id":"Huobi","idType":"entity","timeWindow":"1d","validatorCount":2855,"avgCorrectness":0.9907060220066156,"avgInclusionDelay":1.0189069789717389,"avgUptime":0.9995897860895674,"avgValidatorEffectiveness":97.24143294394435,"clientPercentages":[{"client":"Teku","percentage":0.02301255230125523},{"client":"Prysm","percentage":0.9693165969316597},{"client":"Lighthouse","percentage":0.007670850767085077}],"networkPenetration":0.0064299050265867,"relayerPercentages":[{"relayer":"edennetwork","percentage":0.06547619047619048},{"relayer":"manifold","percentage":0.03571428571428571},{"relayer":"no_mev_boost","percentage":0.1793154761904762},{"relayer":"bloxroute_ethical","percentage":0.07663690476190477},{"relayer":"flashbots","percentage":0.4851190476190476},{"relayer":"bloxroute_maxprofit","percentage":0.0744047619047619},{"relayer":"blocknative","percentage":0.03943452380952381},{"relayer":"bloxroute_regulated","percentage":0.04389880952380952}],"nodeOperatorCount":null},{"id":"Abyss","idType":"entity","timeWindow":"1d","validatorCount":2704,"avgCorrectness":0.9909896409688922,"avgInclusionDelay":1.0211259024081782,"avgUptime":0.9986546386306001,"avgValidatorEffectiveness":96.99982709186581,"clientPercentages":[{"client":"Lighthouse","percentage":0.08607198748043818},{"client":"Teku","percentage":0.8615023474178404},{"client":"Nimbus","percentage":0.026604068857589983},{"client":"Prysm","percentage":0.025821596244131457}],"networkPenetration":0.006089829489278612,"relayerPercentages":[{"relayer":"flashbots","percentage":0.33210874357090375},{"relayer":"edennetwork","percentage":0.010286554004408524},{"relayer":"bloxroute_regulated","percentage":0.016164584864070537},{"relayer":"no_mev_boost","percentage":0.6157237325495959},{"relayer":"blocknative","percentage":0.0029390154298310064},{"relayer":"bloxroute_maxprofit","percentage":0.016164584864070537},{"relayer":"manifold","percentage":0.0029390154298310064},{"relayer":"bloxroute_ethical","percentage":0.0036737692872887582}],"nodeOperatorCount":null},{"id":"Bloxstaking","idType":"entity","timeWindow":"1d","validatorCount":2558,"avgCorrectness":0.9903679699788109,"avgInclusionDelay":1.0181720010329347,"avgUptime":0.9994585788042925,"avgValidatorEffectiveness":97.2608055304581,"clientPercentages":[{"client":"Lighthouse","percentage":0.5016863406408094},{"client":"Teku","percentage":0.007588532883642495},{"client":"Prysm","percentage":0.49072512647554806}],"networkPenetration":0.005758762575475374,"relayerPercentages":[{"relayer":"bloxroute_ethical","percentage":0.014195583596214511},{"relayer":"blocknative","percentage":0.06624605678233439},{"relayer":"flashbots","percentage":0.8391167192429022},{"relayer":"no_mev_boost","percentage":0.0804416403785489}],"nodeOperatorCount":null},{"id":"wedex.eth","idType":"entity","timeWindow":"1d","validatorCount":2399,"avgCorrectness":0.9902902514210763,"avgInclusionDelay":1.0190991545364314,"avgUptime":0.9996035261054539,"avgValidatorEffectiveness":97.18560985337012,"clientPercentages":[{"client":"Prysm","percentage":0.001606425702811245},{"client":"Lighthouse","percentage":0.9983935742971888}],"networkPenetration":0.005402921947033798,"relayerPercentages":[{"relayer":"flashbots","percentage":0.4432900432900433},{"relayer":"blocknative","percentage":0.06060606060606061},{"relayer":"manifold","percentage":0.032034632034632034},{"relayer":"no_mev_boost","percentage":0.15497835497835497},{"relayer":"bloxroute_ethical","percentage":0.009523809523809525},{"relayer":"edennetwork","percentage":0.07272727272727272},{"relayer":"bloxroute_maxprofit","percentage":0.22683982683982684}],"nodeOperatorCount":null},{"id":"Ankr","idType":"entity","timeWindow":"1d","validatorCount":2299,"avgCorrectness":0.9909653787278813,"avgInclusionDelay":1.0182210605405688,"avgUptime":0.9996703578850707,"avgValidatorEffectiveness":97.34076963240435,"clientPercentages":[{"client":"Teku","percentage":0.005853658536585366},{"client":"Lighthouse","percentage":0.46731707317073173},{"client":"Prysm","percentage":0.526829268292683}],"networkPenetration":0.005177706359412547,"relayerPercentages":[{"relayer":"no_mev_boost","percentage":0.8681699913269731},{"relayer":"flashbots","percentage":0.13183000867302688}],"nodeOperatorCount":null}]}