{"page":{"from":0,"size":15},"total":30,"next":"/v0/eth/operators?window=1d&from=15&size=15&idType=entity","data":[{"id":"Lido","idType":"entity","timeWindow":"1d","validatorCount":129543,"avgCorrectness":0.9915266347633104,"avgInclusionDelay":1.0173499380689057,"avgUptime":0.9999115455260701,"avgValidatorEffectiveness":98.03614404083268,"clientPercentages":[{"client":"Teku","percentage":0.2215128884606119},{"client":"Lighthouse","percentage":0.3538103268288766},{"client":"Nimbus","percentage":0.06436200112422709},{"client":"Prysm","percentage":0.36031478358628444}],"networkPenetration":0.313534149476737},{"id":"Coinbase","idType":"entity","timeWindow":"1d","validatorCount":55903,"avgCorrectness":0.991853332839867,"avgInclusionDelay":1.0171209903058904,"avgUptime":0.999961401395673,"avgValidatorEffectiveness":98.07054819196667,"clientPercentages":[{"client":"Teku","percentage":0.14033701115993805},{"client":"Lighthouse","percentage":0.3959406910941798},{"client":"Prysm","percentage":0.3733046694698239},{"client":"Nimbus","percentage":0.0904176282760583}],"networkPenetration":0.13533181143649792},{"id":"Kraken","idType":"entity","timeWindow":"1d","validatorCount":36163,"avgCorrectness":0.984428587645133,"avgInclusionDelay":1.0299284381783869,"avgUptime":0.999162439868545,"avgValidatorEffectiveness":96.78915832011096,"clientPercentages":[{"client":"Nimbus","percentage":0.04528793286389505},{"client":"Lighthouse","percentage":0.2649754027201698},{"client":"Prysm","percentage":0.5996913282531108},{"client":"Teku","percentage":0.09004533616282434}],"networkPenetration":0.0874574236045715},{"id":"Binance","idType":"entity","timeWindow":"1d","validatorCount":21584,"avgCorrectness":0.9917151314833155,"avgInclusionDelay":1.0160632220933727,"avgUptime":0.9995467506647195,"avgValidatorEffectiveness":98.11417003170546,"clientPercentages":[{"client":"Lighthouse","percentage":0.34309868586255965},{"client":"Teku","percentage":0.003264417845484222},{"client":"Prysm","percentage":0.5864233698836528},{"client":"Nimbus","percentage":0.06721352640830335}],"networkPenetration":0.05120787448466523},{"id":"Bitcoin Suisse","idType":"entity","timeWindow":"1d","validatorCount":9000,"avgCorrectness":0.9903782158123642,"avgInclusionDelay":1.0313705084572473,"avgUptime":0.9998145679012327,"avgValidatorEffectiveness":96.81785763405034,"clientPercentages":[{"client":"Teku","percentage":0.9934552454282964},{"client":"Nimbus","percentage":0.0063522617901828685},{"client":"Prysm","percentage":0.00019249278152069297}],"networkPenetration":0.021787494462345156},{"id":"Rocketpool","idType":"entity","timeWindow":"1d","validatorCount":6629,"avgCorrectness":0.9896659308155267,"avgInclusionDelay":1.0227943198304479,"avgUptime":0.9894574528150926,"avgValidatorEffectiveness":96.65129980983684,"clientPercentages":[{"client":"Nimbus","percentage":0.2328336902212705},{"client":"Lighthouse","percentage":0.4055674518201285},{"client":"Teku","percentage":0.291220556745182},{"client":"Prysm","percentage":0.07037830121341898}],"networkPenetration":0.016040437589722113},{"id":"Staked.us","idType":"entity","timeWindow":"1d","validatorCount":5263,"avgCorrectness":0.9913817364054925,"avgInclusionDelay":1.016382539264007,"avgUptime":0.9992374437899815,"avgValidatorEffectiveness":98.04312553853819,"clientPercentages":[{"client":"Lighthouse","percentage":0.0019887305270135896},{"client":"Nimbus","percentage":0.043752071594298975},{"client":"Prysm","percentage":0.4461385482267153},{"client":"Teku","percentage":0.5081206496519721}],"networkPenetration":0.01274084259503584},{"id":"f2pool.eth","idType":"entity","timeWindow":"1d","validatorCount":3501,"avgCorrectness":0.9923329842267289,"avgInclusionDelay":1.0157720016503222,"avgUptime":1.0,"avgValidatorEffectiveness":98.21176764715509,"clientPercentages":[{"client":"Lighthouse","percentage":1.0}],"networkPenetration":0.008475335345852266},{"id":"Bitfinex","idType":"entity","timeWindow":"1d","validatorCount":3214,"avgCorrectness":0.9900200153176333,"avgInclusionDelay":1.0193373013429565,"avgUptime":0.9993728825278305,"avgValidatorEffectiveness":97.81421271839159,"clientPercentages":[{"client":"Teku","percentage":0.01579520697167756},{"client":"Nimbus","percentage":0.09640522875816994},{"client":"Prysm","percentage":0.8850762527233116},{"client":"Lighthouse","percentage":0.0027233115468409588}],"networkPenetration":0.007780556355775259},{"id":"Huobi","idType":"entity","timeWindow":"1d","validatorCount":2855,"avgCorrectness":0.9909973970252607,"avgInclusionDelay":1.0176751636978432,"avgUptime":0.9999486281377696,"avgValidatorEffectiveness":97.97438759101922,"clientPercentages":[{"client":"Lighthouse","percentage":0.0012004801920768306},{"client":"Teku","percentage":0.007202881152460984},{"client":"Nimbus","percentage":0.07923169267707082},{"client":"Prysm","percentage":0.9123649459783914}],"networkPenetration":0.006911477409999492},{"id":"wedex.eth","idType":"entity","timeWindow":"1d","validatorCount":2399,"avgCorrectness":0.9893191131610438,"avgInclusionDelay":1.0332031630181593,"avgUptime":0.9993450974943268,"avgValidatorEffectiveness":96.5971585455154,"clientPercentages":[{"client":"Lighthouse","percentage":1.0}],"networkPenetration":0.005807577690574004},{"id":"Bloxstaking","idType":"entity","timeWindow":"1d","validatorCount":2355,"avgCorrectness":0.9909820017633854,"avgInclusionDelay":1.0174459986821809,"avgUptime":0.9999443192766604,"avgValidatorEffectiveness":97.99103365764167,"clientPercentages":[{"client":"Lighthouse","percentage":0.49815770081061167},{"client":"Nimbus","percentage":0.054532056005895356},{"client":"Prysm","percentage":0.4458364038319823},{"client":"Teku","percentage":0.0014738393515106854}],"networkPenetration":0.005698640218262278},{"id":"Ankr","idType":"entity","timeWindow":"1d","validatorCount":2290,"avgCorrectness":0.8575057324559776,"avgInclusionDelay":1.543411761285193,"avgUptime":0.9678709364386229,"avgValidatorEffectiveness":67.65686320910132,"clientPercentages":[{"client":"Lighthouse","percentage":0.016198704103671708},{"client":"Teku","percentage":0.004319654427645789},{"client":"Prysm","percentage":0.9071274298056156},{"client":"Nimbus","percentage":0.07235421166306695}],"networkPenetration":0.005543706924307824},{"id":"StakeWise","idType":"entity","timeWindow":"1d","validatorCount":1980,"avgCorrectness":0.9918671065900918,"avgInclusionDelay":1.0176235150899875,"avgUptime":0.9998596679273801,"avgValidatorEffectiveness":98.03228448349809,"clientPercentages":[{"client":"Lighthouse","percentage":0.5388646288209606},{"client":"Teku","percentage":0.06026200873362445},{"client":"Prysm","percentage":0.36069868995633186},{"client":"Nimbus","percentage":0.04017467248908297}],"networkPenetration":0.004790827948997896},{"id":"OKex","idType":"entity","timeWindow":"1d","validatorCount":1722,"avgCorrectness":0.9913395966337782,"avgInclusionDelay":1.0165499854904236,"avgUptime":0.9961336946702796,"avgValidatorEffectiveness":97.7581489900433,"clientPercentages":[{"client":"Lighthouse","percentage":0.0022396416573348264},{"client":"Teku","percentage":0.006718924972004479},{"client":"Prysm","percentage":0.8891377379619261},{"client":"Nimbus","percentage":0.1019036954087346}],"networkPenetration":0.00416867394046204}]}