{"page":{"from":0,"size":15},"total":36,"next":"/v0/eth/operators?window=1d&from=15&size=15&idType=entity","data":[{"id":"Lido","idType":"entity","timeWindow":"1d","validatorCount":139800,"avgCorrectness":0.9892935031181637,"avgInclusionDelay":1.0258366695991636,"avgUptime":0.9991561279535152,"avgValidatorEffectiveness":96.45488749138275,"clientPercentages":[{"client":"Nimbus","percentage":0.01863293804721268},{"client":"Lighthouse","percentage":0.45778842956887955},{"client":"Prysm","percentage":0.3560207248143633},{"client":"Lodestar","percentage":0.003989803834644797},{"client":"Teku","percentage":0.1635681037348997}],"networkPenetration":0.3047874585336946,"relayerPercentages":[{"relayer":"blocknative","percentage":0.038710376423972265},{"relayer":"bloxroute_ethical","percentage":0.05101535413571075},{"relayer":"bloxroute_maxprofit","percentage":0.03790552253590886},{"relayer":"bloxroute_regulated","percentage":0.012366889549281822},{"relayer":"edennetwork","percentage":0.051046310054482416},{"relayer":"flashbots","percentage":0.5969848935116394},{"relayer":"manifold","percentage":0.015183878157503715},{"relayer":"no_mev_boost","percentage":0.1966319960376424},{"relayer":"relayooor","percentage":0.0001547795938583457}],"nodeOperatorCount":29},{"id":"Coinbase","idType":"entity","timeWindow":"1d","validatorCount":54645,"avgCorrectness":0.988309507219851,"avgInclusionDelay":1.023575833445359,"avgUptime":0.9979772877461599,"avgValidatorEffectiveness":96.42074922956134,"clientPercentages":[{"client":"Prysm","percentage":0.3576168047581394},{"client":"Teku","percentage":0.20679341286485373},{"client":"Lighthouse","percentage":0.42874823804448725},{"client":"Nimbus","percentage":0.0068415443325196825}],"networkPenetration":0.11949512244723912,"relayerPercentages":[{"relayer":"bloxroute_ethical","percentage":0.000538130381303813},{"relayer":"bloxroute_maxprofit","percentage":0.011454489544895448},{"relayer":"bloxroute_regulated","percentage":3.843788437884379e-05},{"relayer":"flashbots","percentage":0.055734932349323495},{"relayer":"manifold","percentage":7.687576875768758e-05},{"relayer":"no_mev_boost","percentage":0.9321571340713407}],"nodeOperatorCount":null},{"id":"Kraken","idType":"entity","timeWindow":"1d","validatorCount":38066,"avgCorrectness":0.9893620272151761,"avgInclusionDelay":1.0214640007005937,"avgUptime":0.9976067759974205,"avgValidatorEffectiveness":96.67418692669318,"clientPercentages":[{"client":"Nimbus","percentage":9.843973027513905e-05},{"client":"Lighthouse","percentage":0.25358074518875817},{"client":"Prysm","percentage":0.6941969779002806},{"client":"Teku","percentage":0.052123837180686125}],"networkPenetration":0.08313160536104387,"relayerPercentages":[{"relayer":"blocknative","percentage":0.007879616963064296},{"relayer":"bloxroute_ethical","percentage":0.003009575923392613},{"relayer":"bloxroute_maxprofit","percentage":0.010341997264021888},{"relayer":"edennetwork","percentage":0.007551299589603283},{"relayer":"flashbots","percentage":0.4377564979480164},{"relayer":"manifold","percentage":0.005417236662106703},{"relayer":"no_mev_boost","percentage":0.5280437756497948}],"nodeOperatorCount":null},{"id":"Binance","idType":"entity","timeWindow":"1d","validatorCount":23826,"avgCorrectness":0.9905440404036635,"avgInclusionDelay":1.0186329065752335,"avgUptime":0.9999477694768559,"avgValidatorEffectiveness":97.27465045464808,"clientPercentages":[{"client":"Teku","percentage":0.006069802731411229},{"client":"Prysm","percentage":0.5314272023001357},{"client":"Nimbus","percentage":0.0011181215557862791},{"client":"Lighthouse","percentage":0.4613848734126667}],"networkPenetration":0.05210157905440423,"relayerPercentages":[{"relayer":"blocknative","percentage":0.0017514668534897976},{"relayer":"bloxroute_ethical","percentage":8.757334267448988e-05},{"relayer":"bloxroute_maxprofit","percentage":0.002977493650932656},{"relayer":"bloxroute_regulated","percentage":0.04317365793852351},{"relayer":"edennetwork","percentage":0.004115947105701024},{"relayer":"flashbots","percentage":0.7394693055433926},{"relayer":"no_mev_boost","percentage":0.20842455556528594}],"nodeOperatorCount":null},{"id":"Staked.us","idType":"entity","timeWindow":"1d","validatorCount":12841,"avgCorrectness":0.9891145329147868,"avgInclusionDelay":1.02121378486169,"avgUptime":0.9990601285811949,"avgValidatorEffectiveness":96.81525108623705,"clientPercentages":[{"client":"Prysm","percentage":0.6296512476287757},{"client":"Nimbus","percentage":0.00029184298847220193},{"client":"Teku","percentage":0.25857288778637094},{"client":"Lighthouse","percentage":0.11148402159638114}],"networkPenetration":0.028080096392076082,"relayerPercentages":[{"relayer":"blocknative","percentage":0.009940357852882704},{"relayer":"bloxroute_ethical","percentage":0.004587857470561248},{"relayer":"bloxroute_maxprofit","percentage":0.026150787582199114},{"relayer":"edennetwork","percentage":0.021257072946933783},{"relayer":"flashbots","percentage":0.5384615384615384},{"relayer":"manifold","percentage":0.003976143141153081},{"relayer":"no_mev_boost","percentage":0.3956262425447316}],"nodeOperatorCount":null},{"id":"Bitcoin Suisse","idType":"entity","timeWindow":"1d","validatorCount":9214,"avgCorrectness":0.9909164537754491,"avgInclusionDelay":1.0210198468244573,"avgUptime":0.9998555338494548,"avgValidatorEffectiveness":97.08605030999716,"clientPercentages":[{"client":"Nimbus","percentage":0.024842271293375396},{"client":"Prysm","percentage":0.0005914826498422713},{"client":"Lighthouse","percentage":0.0001971608832807571},{"client":"Teku","percentage":0.9743690851735016}],"networkPenetration":0.020148742944987853,"relayerPercentages":[{"relayer":"no_mev_boost","percentage":1.0}],"nodeOperatorCount":null},{"id":"Rocketpool","idType":"entity","timeWindow":"1d","validatorCount":9144,"avgCorrectness":0.9878823115798077,"avgInclusionDelay":1.026222335281137,"avgUptime":0.9884670562920783,"avgValidatorEffectiveness":95.3172509220215,"clientPercentages":[{"client":"Teku","percentage":0.3408782254413762},{"client":"Nimbus","percentage":0.1949977365323676},{"client":"Prysm","percentage":0.05160706201901313},{"client":"Lighthouse","percentage":0.4125169760072431}],"networkPenetration":0.01996724243875451,"relayerPercentages":[{"relayer":"blocknative","percentage":0.049712313003452246},{"relayer":"bloxroute_ethical","percentage":0.037054085155350976},{"relayer":"bloxroute_maxprofit","percentage":0.08239355581127733},{"relayer":"bloxroute_regulated","percentage":0.0522439585730725},{"relayer":"edennetwork","percentage":0.051323360184119676},{"relayer":"flashbots","percentage":0.5652474108170311},{"relayer":"manifold","percentage":0.001611047180667434},{"relayer":"no_mev_boost","percentage":0.15972382048331416},{"relayer":"relayooor","percentage":0.0006904487917146145}],"nodeOperatorCount":1590},{"id":"Stakefish","idType":"entity","timeWindow":"1d","validatorCount":8077,"avgCorrectness":0.9876335877581691,"avgInclusionDelay":1.0414322602154478,"avgUptime":0.9982469841640718,"avgValidatorEffectiveness":94.84181753716283,"clientPercentages":[{"client":"Nimbus","percentage":0.006570580754557015},{"client":"Prysm","percentage":0.000847816871555744},{"client":"Teku","percentage":0.30479016532428993},{"client":"Lighthouse","percentage":0.6877914370495973}],"networkPenetration":0.01763616364785403,"relayerPercentages":[{"relayer":"bloxroute_ethical","percentage":0.00044802867383512545},{"relayer":"bloxroute_maxprofit","percentage":0.0035842293906810036},{"relayer":"bloxroute_regulated","percentage":0.00022401433691756272},{"relayer":"edennetwork","percentage":0.0008960573476702509},{"relayer":"flashbots","percentage":0.8953853046594982},{"relayer":"manifold","percentage":0.07571684587813621},{"relayer":"no_mev_boost","percentage":0.023745519713261647}],"nodeOperatorCount":null},{"id":"Celsius Network","idType":"entity","timeWindow":"1d","validatorCount":4943,"avgCorrectness":0.9907373563122788,"avgInclusionDelay":1.018286254309901,"avgUptime":0.9999500977813736,"avgValidatorEffectiveness":97.32537980566065,"clientPercentages":[{"client":"Lighthouse","percentage":0.004900113079532605},{"client":"Prysm","percentage":0.9890689785148888},{"client":"Teku","percentage":0.00603090840557859}],"networkPenetration":0.01080912050977588,"relayerPercentages":[{"relayer":"flashbots","percentage":0.940549405494055},{"relayer":"no_mev_boost","percentage":0.05945059450594506}],"nodeOperatorCount":null},{"id":"Bitfinex","idType":"entity","timeWindow":"1d","validatorCount":3214,"avgCorrectness":0.9909052039575662,"avgInclusionDelay":1.0186727055854237,"avgUptime":0.9999135725644748,"avgValidatorEffectiveness":97.3020111467861,"clientPercentages":[{"client":"Lighthouse","percentage":0.0034602076124567475},{"client":"Prysm","percentage":0.9792387543252595},{"client":"Teku","percentage":0.016724336793540944},{"client":"Nimbus","percentage":0.0005767012687427913}],"networkPenetration":0.0070282244220958275,"relayerPercentages":[{"relayer":"blocknative","percentage":0.0012828736369467607},{"relayer":"bloxroute_maxprofit","percentage":0.0012828736369467607},{"relayer":"edennetwork","percentage":0.004490057729313663},{"relayer":"flashbots","percentage":0.809493264913406},{"relayer":"no_mev_boost","percentage":0.18345093008338678}],"nodeOperatorCount":null},{"id":"Abyss","idType":"entity","timeWindow":"1d","validatorCount":2989,"avgCorrectness":0.9901487158551715,"avgInclusionDelay":1.021404694255437,"avgUptime":0.9966017997964939,"avgValidatorEffectiveness":96.67255622096748,"clientPercentages":[{"client":"Teku","percentage":0.8407687028140014},{"client":"Lighthouse","percentage":0.08098833218943034},{"client":"Prysm","percentage":0.033630748112560054},{"client":"Nimbus","percentage":0.04461221688400824}],"networkPenetration":0.006534018224400228,"relayerPercentages":[{"relayer":"blocknative","percentage":0.007215007215007215},{"relayer":"bloxroute_ethical","percentage":0.006493506493506494},{"relayer":"bloxroute_maxprofit","percentage":0.020923520923520924},{"relayer":"bloxroute_regulated","percentage":0.01443001443001443},{"relayer":"edennetwork","percentage":0.01443001443001443},{"relayer":"flashbots","percentage":0.3795093795093795},{"relayer":"manifold","percentage":0.004329004329004329},{"relayer":"no_mev_boost","percentage":0.5505050505050505},{"relayer":"relayooor","percentage":0.0021645021645021645}],"nodeOperatorCount":null},{"id":"Huobi","idType":"entity","timeWindow":"1d","validatorCount":2855,"avgCorrectness":0.9903032029710793,"avgInclusionDelay":1.0186058314670676,"avgUptime":0.9999229422066547,"avgValidatorEffectiveness":97.24875404251264,"clientPercentages":[{"client":"Lighthouse","percentage":0.007677543186180422},{"client":"Prysm","percentage":0.981445937300064},{"client":"Teku","percentage":0.010876519513755598}],"networkPenetration":0.006243180063809455,"relayerPercentages":[{"relayer":"blocknative","percentage":0.06073752711496746},{"relayer":"bloxroute_ethical","percentage":0.01735357917570499},{"relayer":"bloxroute_maxprofit","percentage":0.10556760665220535},{"relayer":"bloxroute_regulated","percentage":0.05856832971800434},{"relayer":"edennetwork","percentage":0.09689081706435286},{"relayer":"flashbots","percentage":0.5994215473608099},{"relayer":"manifold","percentage":0.05784526391901663},{"relayer":"no_mev_boost","percentage":0.0036153289949385392}],"nodeOperatorCount":null},{"id":"Bloxstaking","idType":"entity","timeWindow":"1d","validatorCount":2637,"avgCorrectness":0.9895001130367238,"avgInclusionDelay":1.0189158440887143,"avgUptime":0.9980971380712595,"avgValidatorEffectiveness":96.96310728579027,"clientPercentages":[{"client":"Lighthouse","percentage":0.30885692657077973},{"client":"Teku","percentage":0.006056018168054504},{"client":"Prysm","percentage":0.6850870552611658}],"networkPenetration":0.005764281137723896,"relayerPercentages":[{"relayer":"blocknative","percentage":0.047619047619047616},{"relayer":"bloxroute_ethical","percentage":0.003284072249589491},{"relayer":"flashbots","percentage":0.9318555008210181},{"relayer":"no_mev_boost","percentage":0.017241379310344827}],"nodeOperatorCount":null},{"id":"wedex.eth","idType":"entity","timeWindow":"1d","validatorCount":2399,"avgCorrectness":0.990331554408513,"avgInclusionDelay":1.0184892694797827,"avgUptime":0.9999453475985369,"avgValidatorEffectiveness":97.26203014299647,"clientPercentages":[{"client":"Lighthouse","percentage":0.993841416474211},{"client":"Nimbus","percentage":0.006158583525789068}],"networkPenetration":0.005246020656069661,"relayerPercentages":[{"relayer":"blocknative","percentage":0.04627249357326478},{"relayer":"bloxroute_ethical","percentage":0.009425878320479864},{"relayer":"bloxroute_maxprofit","percentage":0.10197086546700942},{"relayer":"edennetwork","percentage":0.11825192802056556},{"relayer":"flashbots","percentage":0.5029991431019709},{"relayer":"manifold","percentage":0.04712939160239932},{"relayer":"no_mev_boost","percentage":0.17395029991431019}],"nodeOperatorCount":null},{"id":"Ankr","idType":"entity","timeWindow":"1d","validatorCount":2304,"avgCorrectness":0.9904149366647171,"avgInclusionDelay":1.0183597361710834,"avgUptime":0.9999720293209877,"avgValidatorEffectiveness":97.29072518905895,"clientPercentages":[{"client":"Lighthouse","percentage":0.8369132856006364},{"client":"Prysm","percentage":0.162291169451074},{"client":"Teku","percentage":0.0007955449482895784}],"networkPenetration":0.005038279112790538,"relayerPercentages":[{"relayer":"flashbots","percentage":0.152014652014652},{"relayer":"no_mev_boost","percentage":0.847985347985348}],"nodeOperatorCount":null}]}