{"page":{"from":0,"size":15},"total":31,"next":"/v0/eth/operators?window=1d&from=15&size=15&idType=entity","data":[{"id":"Lido","idType":"entity","timeWindow":"1d","validatorCount":133051,"avgCorrectness":0.9905126259211352,"avgInclusionDelay":1.027499255847429,"avgUptime":0.9984117437318922,"avgValidatorEffectiveness":96.8330022004582,"clientPercentages":[{"client":"Lighthouse","percentage":0.3920362479745544},{"client":"Nimbus","percentage":0.02589569705335174},{"client":"Prysm","percentage":0.38788033367340813},{"client":"Teku","percentage":0.19303246714277142},{"client":"Lodestar","percentage":0.001155254155914301}],"networkPenetration":0.30132457833727583,"relayerPercentages":[{"relayer":"bloxroute_ethical","percentage":0.023599599750788226},{"relayer":"bloxroute_maxprofit","percentage":0.02074876810089301},{"relayer":"no_mev_boost","percentage":0.6032435289897483},{"relayer":"bloxroute_regulated","percentage":0.007929465516264843},{"relayer":"blocknative","percentage":0.02112636169690562},{"relayer":"flashbots","percentage":0.3184624388770366},{"relayer":"manifold","percentage":0.0026809145316895426},{"relayer":"edennetwork","percentage":0.002208922536673778}]},{"id":"Coinbase","idType":"entity","timeWindow":"1d","validatorCount":54040,"avgCorrectness":0.9899381724275117,"avgInclusionDelay":1.0238775068769608,"avgUptime":0.9982491081952691,"avgValidatorEffectiveness":97.01958047014037,"clientPercentages":[{"client":"Prysm","percentage":0.3810078101531992},{"client":"Lighthouse","percentage":0.4350405527185341},{"client":"Teku","percentage":0.1621733253229198},{"client":"Nimbus","percentage":0.02177831180534695}],"networkPenetration":0.1223909477328548,"relayerPercentages":[{"relayer":"flashbots","percentage":0.0002842120221685377},{"relayer":"no_mev_boost","percentage":0.9996684193074701},{"relayer":"bloxroute_regulated","percentage":4.736867036142295e-05}]},{"id":"Kraken","idType":"entity","timeWindow":"1d","validatorCount":37608,"avgCorrectness":0.9905703340756535,"avgInclusionDelay":1.0216040329674199,"avgUptime":0.9988008534283432,"avgValidatorEffectiveness":97.29895396073192,"clientPercentages":[{"client":"Teku","percentage":0.1116040408359613},{"client":"Nimbus","percentage":0.00010690042225666791},{"client":"Prysm","percentage":0.6222139077449356},{"client":"Lighthouse","percentage":0.2660751509968464}],"networkPenetration":0.08519807498844449,"relayerPercentages":[{"relayer":"blocknative","percentage":0.0062061521856449},{"relayer":"manifold","percentage":0.00020237452779276849},{"relayer":"edennetwork","percentage":0.0024284943335132216},{"relayer":"flashbots","percentage":0.39692390717754994},{"relayer":"bloxroute_ethical","percentage":0.0002698327037236913},{"relayer":"bloxroute_maxprofit","percentage":0.0033054506206152186},{"relayer":"no_mev_boost","percentage":0.5906637884511603}]},{"id":"Binance","idType":"entity","timeWindow":"1d","validatorCount":23051,"avgCorrectness":0.9920910922195278,"avgInclusionDelay":1.0195198164511379,"avgUptime":0.9994289319128826,"avgValidatorEffectiveness":97.6468813708239,"clientPercentages":[{"client":"Prysm","percentage":0.5616498851792969},{"client":"Nimbus","percentage":0.00026497085320614734},{"client":"Teku","percentage":0.013248542660307366},{"client":"Lighthouse","percentage":0.42483660130718953}],"networkPenetration":0.05222862684321669,"relayerPercentages":[{"relayer":"flashbots","percentage":0.2011356191308146},{"relayer":"blocknative","percentage":0.001310329766324525},{"relayer":"edennetwork","percentage":0.00262065953264905},{"relayer":"bloxroute_maxprofit","percentage":0.007752784450753439},{"relayer":"bloxroute_regulated","percentage":0.0016379122079056563},{"relayer":"bloxroute_ethical","percentage":0.00010919414719371041},{"relayer":"no_mev_boost","percentage":0.785433500764359}]},{"id":"Staked.us","idType":"entity","timeWindow":"1d","validatorCount":13457,"avgCorrectness":0.9905181098045811,"avgInclusionDelay":1.0241167240433402,"avgUptime":0.9918185795277223,"avgValidatorEffectiveness":96.50697749494523,"clientPercentages":[{"client":"Unknown","percentage":1.0}],"networkPenetration":0.030390983985426466,"relayerPercentages":[{"relayer":"bloxroute_maxprofit","percentage":0.007627765064836003},{"relayer":"no_mev_boost","percentage":0.4185736079328757},{"relayer":"flashbots","percentage":0.5722730739893211},{"relayer":"manifold","percentage":0.0015255530129672007}]},{"id":"Bitcoin Suisse","idType":"entity","timeWindow":"1d","validatorCount":9184,"avgCorrectness":0.9919903075501926,"avgInclusionDelay":1.0241790380180578,"avgUptime":0.998852976276893,"avgValidatorEffectiveness":97.21277461879478,"clientPercentages":[{"client":"Nimbus","percentage":0.0330117899249732},{"client":"Teku","percentage":0.9669882100750268}],"networkPenetration":0.0208089761367447,"relayerPercentages":[{"relayer":"no_mev_boost","percentage":1.0}]},{"id":"Rocketpool","idType":"entity","timeWindow":"1d","validatorCount":8682,"avgCorrectness":0.9881466893840878,"avgInclusionDelay":1.0303982847353004,"avgUptime":0.9810897931546998,"avgValidatorEffectiveness":95.09344515621783,"clientPercentages":[{"client":"Nimbus","percentage":0.222397250465416},{"client":"Lighthouse","percentage":0.43190605756838035},{"client":"Prysm","percentage":0.045825576399828157},{"client":"Teku","percentage":0.29987111556637547}],"networkPenetration":0.019612641271740214,"relayerPercentages":[{"relayer":"flashbots","percentage":0.449685534591195},{"relayer":"edennetwork","percentage":0.005660377358490566},{"relayer":"manifold","percentage":0.0009433962264150943},{"relayer":"blocknative","percentage":0.0330188679245283},{"relayer":"bloxroute_regulated","percentage":0.07169811320754717},{"relayer":"bloxroute_maxprofit","percentage":0.09528301886792453},{"relayer":"bloxroute_ethical","percentage":0.031132075471698113},{"relayer":"no_mev_boost","percentage":0.31257861635220124}]},{"id":"f2pool.eth","idType":"entity","timeWindow":"1d","validatorCount":3501,"avgCorrectness":0.9887874153076417,"avgInclusionDelay":1.0437767683905623,"avgUptime":0.9890188999288188,"avgValidatorEffectiveness":94.6330393354867,"clientPercentages":[{"client":"Nimbus","percentage":0.0010940919037199124},{"client":"Lighthouse","percentage":0.9835886214442013},{"client":"Prysm","percentage":0.0010940919037199124},{"client":"Teku","percentage":0.014223194748358862}],"networkPenetration":0.007932515837842246,"relayerPercentages":[{"relayer":"manifold","percentage":0.044095665171898356},{"relayer":"flashbots","percentage":0.6816143497757847},{"relayer":"no_mev_boost","percentage":0.2742899850523169}]},{"id":"Bitfinex","idType":"entity","timeWindow":"1d","validatorCount":3214,"avgCorrectness":0.9924533488612692,"avgInclusionDelay":1.019754236981191,"avgUptime":0.9927452378483017,"avgValidatorEffectiveness":97.0867499595658,"clientPercentages":[{"client":"Teku","percentage":0.03431372549019608},{"client":"Prysm","percentage":0.9564950980392157},{"client":"Lighthouse","percentage":0.009191176470588236}],"networkPenetration":0.007282235333568975,"relayerPercentages":[{"relayer":"no_mev_boost","percentage":0.88515625},{"relayer":"flashbots","percentage":0.11484375}]},{"id":"Huobi","idType":"entity","timeWindow":"1d","validatorCount":2855,"avgCorrectness":0.9915979934251261,"avgInclusionDelay":1.0194068594579817,"avgUptime":0.9994823235482161,"avgValidatorEffectiveness":97.61654174651437,"clientPercentages":[{"client":"Lighthouse","percentage":0.007670850767085077},{"client":"Teku","percentage":0.02301255230125523},{"client":"Prysm","percentage":0.9693165969316597}],"networkPenetration":0.006468818256795092,"relayerPercentages":[{"relayer":"blocknative","percentage":0.02645985401459854},{"relayer":"edennetwork","percentage":0.05018248175182482},{"relayer":"manifold","percentage":0.004562043795620438},{"relayer":"flashbots","percentage":0.42883211678832117},{"relayer":"bloxroute_maxprofit","percentage":0.04105839416058394},{"relayer":"no_mev_boost","percentage":0.3357664233576642},{"relayer":"bloxroute_ethical","percentage":0.08302919708029197},{"relayer":"bloxroute_regulated","percentage":0.030109489051094892}]},{"id":"Abyss","idType":"entity","timeWindow":"1d","validatorCount":2686,"avgCorrectness":0.9895462839050413,"avgInclusionDelay":1.027577890719402,"avgUptime":0.9959012394342445,"avgValidatorEffectiveness":96.62313051190321,"clientPercentages":[{"client":"Unknown","percentage":1.0}],"networkPenetration":0.006070039968460263,"relayerPercentages":[{"relayer":"flashbots","percentage":0.30783410138248846},{"relayer":"edennetwork","percentage":0.009216589861751152},{"relayer":"blocknative","percentage":0.0018433179723502304},{"relayer":"no_mev_boost","percentage":0.6534562211981567},{"relayer":"bloxroute_regulated","percentage":0.013824884792626729},{"relayer":"bloxroute_ethical","percentage":0.0027649769585253456},{"relayer":"bloxroute_maxprofit","percentage":0.011059907834101382}]},{"id":"Bloxstaking","idType":"entity","timeWindow":"1d","validatorCount":2536,"avgCorrectness":0.9916954570159136,"avgInclusionDelay":1.018131999694774,"avgUptime":0.9995643158911791,"avgValidatorEffectiveness":97.73670346166642,"clientPercentages":[{"client":"Prysm","percentage":0.4911392405063291},{"client":"Teku","percentage":0.006751054852320675},{"client":"Lighthouse","percentage":0.5021097046413502}],"networkPenetration":0.005743766823459039,"relayerPercentages":[{"relayer":"blocknative","percentage":0.0784313725490196},{"relayer":"flashbots","percentage":0.7323529411764705},{"relayer":"bloxroute_ethical","percentage":0.01764705882352941},{"relayer":"no_mev_boost","percentage":0.1715686274509804}]},{"id":"wedex.eth","idType":"entity","timeWindow":"1d","validatorCount":2399,"avgCorrectness":0.9839753867110114,"avgInclusionDelay":1.0564341429221258,"avgUptime":0.993822909843388,"avgValidatorEffectiveness":93.65007890263672,"clientPercentages":[{"client":"Lighthouse","percentage":0.9983935742971888},{"client":"Prysm","percentage":0.001606425702811245}],"networkPenetration":0.005435619964291217,"relayerPercentages":[{"relayer":"manifold","percentage":0.006179196704428424},{"relayer":"edennetwork","percentage":0.05149330587023687},{"relayer":"blocknative","percentage":0.042224510813594233},{"relayer":"flashbots","percentage":0.4057672502574665},{"relayer":"bloxroute_ethical","percentage":0.01132852729145211},{"relayer":"bloxroute_maxprofit","percentage":0.2121524201853759},{"relayer":"no_mev_boost","percentage":0.2708547888774459}]},{"id":"Ankr","idType":"entity","timeWindow":"1d","validatorCount":2299,"avgCorrectness":0.9919962731377375,"avgInclusionDelay":1.0185920778385489,"avgUptime":0.9994886147876574,"avgValidatorEffectiveness":97.7182347309109,"clientPercentages":[{"client":"Teku","percentage":0.005853658536585366},{"client":"Prysm","percentage":0.526829268292683},{"client":"Lighthouse","percentage":0.46731707317073173}],"networkPenetration":0.005209041391373701,"relayerPercentages":[{"relayer":"no_mev_boost","percentage":0.8827225130890053},{"relayer":"flashbots","percentage":0.11727748691099477}]},{"id":"StakeWise","idType":"entity","timeWindow":"1d","validatorCount":2010,"avgCorrectness":0.991273612058201,"avgInclusionDelay":1.023081810855569,"avgUptime":0.9992589232525346,"avgValidatorEffectiveness":97.27743403762602,"clientPercentages":[{"client":"Nimbus","percentage":0.009375},{"client":"Teku","percentage":0.340625},{"client":"Lighthouse","percentage":0.5416666666666666},{"client":"Prysm","percentage":0.10833333333333334}],"networkPenetration":0.0045519635299129035,"relayerPercentages":[{"relayer":"manifold","percentage":0.0012106537530266344},{"relayer":"blocknative","percentage":0.07384987893462469},{"relayer":"flashbots","percentage":0.5338983050847458},{"relayer":"bloxroute_regulated","percentage":0.020581113801452784},{"relayer":"no_mev_boost","percentage":0.08595641646489104},{"relayer":"bloxroute_maxprofit","percentage":0.2845036319612591}]}]}