{"page":{"from":0,"size":15},"total":31,"next":"/v0/eth/operators?window=1d&from=15&size=15&idType=entity","data":[{"id":"Lido","idType":"entity","timeWindow":"1d","validatorCount":128939,"avgCorrectness":0.9876483710735902,"avgInclusionDelay":1.0152830472250693,"avgUptime":0.9989766594772869,"avgValidatorEffectiveness":97.89315169921602,"clientPercentages":[{"client":"Teku","percentage":0.1765840182710849},{"client":"Nimbus","percentage":0.07888294744327895},{"client":"Lighthouse","percentage":0.3901341611848853},{"client":"Prysm","percentage":0.3543988731007508}],"networkPenetration":0.318577729457259},{"id":"Coinbase","idType":"entity","timeWindow":"1d","validatorCount":57073,"avgCorrectness":0.9872371953726463,"avgInclusionDelay":1.0159608218407155,"avgUptime":0.9998819445661191,"avgValidatorEffectiveness":97.89484416225088,"clientPercentages":[{"client":"Lighthouse","percentage":0.36296205480291793},{"client":"Prysm","percentage":0.37500766260038004},{"client":"Nimbus","percentage":0.09706982161466315},{"client":"Teku","percentage":0.16496046098203887}],"networkPenetration":0.1410237086272717},{"id":"Kraken","idType":"entity","timeWindow":"1d","validatorCount":35753,"avgCorrectness":0.9812966694300502,"avgInclusionDelay":1.0260574173206163,"avgUptime":0.9990811606845691,"avgValidatorEffectiveness":96.85250161592681,"clientPercentages":[{"client":"Teku","percentage":0.08519279702485809},{"client":"Lighthouse","percentage":0.273047563123899},{"client":"Prysm","percentage":0.6030045018594636},{"client":"Nimbus","percentage":0.038755137991779216}],"networkPenetration":0.08833594840686426},{"id":"Binance","idType":"entity","timeWindow":"1d","validatorCount":20810,"avgCorrectness":0.9875282276151766,"avgInclusionDelay":1.0154510289018503,"avgUptime":0.9991488066634636,"avgValidatorEffectiveness":97.8873668694938,"clientPercentages":[{"client":"Lighthouse","percentage":0.3196625459405279},{"client":"Prysm","percentage":0.5929669228199131},{"client":"Nimbus","percentage":0.07626127631139325},{"client":"Teku","percentage":0.01110925492816572}],"networkPenetration":0.0514201702474642},{"id":"Bitcoin Suisse","idType":"entity","timeWindow":"1d","validatorCount":9000,"avgCorrectness":0.9840000830265961,"avgInclusionDelay":1.052253134254006,"avgUptime":0.9992335802469128,"avgValidatorEffectiveness":94.77498988470981,"clientPercentages":[{"client":"Teku","percentage":0.9930375969763279},{"client":"Nimbus","percentage":0.00696240302367217}],"networkPenetration":0.02223842057795184},{"id":"Rocketpool","idType":"entity","timeWindow":"1d","validatorCount":5938,"avgCorrectness":0.9866069705361677,"avgInclusionDelay":1.0187504683075912,"avgUptime":0.9906020730707987,"avgValidatorEffectiveness":96.86169694934611,"clientPercentages":[{"client":"Lighthouse","percentage":0.42796481649984836},{"client":"Teku","percentage":0.2605398847437064},{"client":"Prysm","percentage":0.056414922656960874},{"client":"Nimbus","percentage":0.25508037609948436}],"networkPenetration":0.014637822611531856},{"id":"Staked.us","idType":"entity","timeWindow":"1d","validatorCount":5263,"avgCorrectness":0.986941663704035,"avgInclusionDelay":1.0153307205810675,"avgUptime":0.9988291426520565,"avgValidatorEffectiveness":97.83531165835421,"clientPercentages":[{"client":"Lighthouse","percentage":0.0016066838046272494},{"client":"Prysm","percentage":0.43316195372750643},{"client":"Nimbus","percentage":0.05559125964010283},{"client":"Teku","percentage":0.5096401028277635}],"networkPenetration":0.013004534166862283},{"id":"f2pool.eth","idType":"entity","timeWindow":"1d","validatorCount":3501,"avgCorrectness":0.9883819315820276,"avgInclusionDelay":1.0141199187017673,"avgUptime":0.9999898441715065,"avgValidatorEffectiveness":98.1173458982802,"clientPercentages":[{"client":"Nimbus","percentage":0.00045024763619990995},{"client":"Lighthouse","percentage":0.9995497523638001}],"networkPenetration":0.008650745604823266},{"id":"Bitfinex","idType":"entity","timeWindow":"1d","validatorCount":3214,"avgCorrectness":0.9859741239064104,"avgInclusionDelay":1.0182550045035295,"avgUptime":0.9902578994676066,"avgValidatorEffectiveness":96.82786925489503,"clientPercentages":[{"client":"Teku","percentage":0.021432305279665446},{"client":"Nimbus","percentage":0.1097752221641401},{"client":"Prysm","percentage":0.865656037637219},{"client":"Lighthouse","percentage":0.0031364349189754314}],"networkPenetration":0.00794158708194858},{"id":"Huobi","idType":"entity","timeWindow":"1d","validatorCount":2855,"avgCorrectness":0.9832986182758231,"avgInclusionDelay":1.0241266405297973,"avgUptime":0.9996224946487628,"avgValidatorEffectiveness":96.97839298848372,"clientPercentages":[{"client":"Teku","percentage":0.018044237485448197},{"client":"Nimbus","percentage":0.0989522700814901},{"client":"Lighthouse","percentage":0.0034924330616996507},{"client":"Prysm","percentage":0.8795110593713621}],"networkPenetration":0.007054521194450279},{"id":"wedex.eth","idType":"entity","timeWindow":"1d","validatorCount":2399,"avgCorrectness":0.9856617953684055,"avgInclusionDelay":1.0278525822205336,"avgUptime":0.9995924227687458,"avgValidatorEffectiveness":96.8256863784805,"clientPercentages":[{"client":"Lighthouse","percentage":1.0}],"networkPenetration":0.005927774551834052},{"id":"Bloxstaking","idType":"entity","timeWindow":"1d","validatorCount":2307,"avgCorrectness":0.9850647336181265,"avgInclusionDelay":1.019131053060564,"avgUptime":0.9998034966045362,"avgValidatorEffectiveness":97.50601383295717,"clientPercentages":[{"client":"Prysm","percentage":0.45302257829570286},{"client":"Lighthouse","percentage":0.493809176984705},{"client":"Teku","percentage":0.00873998543335761},{"client":"Nimbus","percentage":0.04442825928623452}],"networkPenetration":0.005700448474814989},{"id":"Ankr","idType":"entity","timeWindow":"1d","validatorCount":2287,"avgCorrectness":0.8671954980084635,"avgInclusionDelay":1.4486117270621004,"avgUptime":0.9385054944843643,"avgValidatorEffectiveness":68.8091531521437,"clientPercentages":[{"client":"Prysm","percentage":0.8898898898898899},{"client":"Nimbus","percentage":0.0920920920920921},{"client":"Teku","percentage":0.008008008008008008},{"client":"Lighthouse","percentage":0.01001001001001001}],"networkPenetration":0.005643616955560223},{"id":"StakeWise","idType":"entity","timeWindow":"1d","validatorCount":1968,"avgCorrectness":0.9883237461577897,"avgInclusionDelay":1.014879883643985,"avgUptime":0.999952574525745,"avgValidatorEffectiveness":98.04866284884307,"clientPercentages":[{"client":"Lighthouse","percentage":0.5359066427289049},{"client":"Teku","percentage":0.04039497307001795},{"client":"Nimbus","percentage":0.0466786355475763},{"client":"Prysm","percentage":0.3770197486535009}],"networkPenetration":0.004862801299712136},{"id":"OKex","idType":"entity","timeWindow":"1d","validatorCount":1543,"avgCorrectness":0.9847570156341626,"avgInclusionDelay":1.0207115553909838,"avgUptime":0.9995780226110756,"avgValidatorEffectiveness":97.33898886967873,"clientPercentages":[{"client":"Nimbus","percentage":0.10233592880978866},{"client":"Prysm","percentage":0.8765294771968855},{"client":"Teku","percentage":0.021134593993325918}],"networkPenetration":0.0038126536613088545}]}