{"page":{"from":0,"size":15},"total":30,"next":"/v0/eth/operators?window=1d&from=15&size=15&idType=entity","data":[{"id":"Lido","idType":"entity","timeWindow":"1d","validatorCount":132128,"avgCorrectness":0.9912440288271783,"avgInclusionDelay":1.036226631044934,"avgUptime":0.9986728087210659,"avgValidatorEffectiveness":96.22500909743624,"clientPercentages":[{"client":"Lighthouse","percentage":0.3503037354727856},{"client":"Teku","percentage":0.22193660113917715},{"client":"Prysm","percentage":0.40259494270290747},{"client":"Lodestar","percentage":0.00037882375224926605},{"client":"Nimbus","percentage":0.02478589693288055}],"networkPenetration":0.302997401548053},{"id":"Coinbase","idType":"entity","timeWindow":"1d","validatorCount":54602,"avgCorrectness":0.9904108211156779,"avgInclusionDelay":1.0345000171489682,"avgUptime":0.9992012077440053,"avgValidatorEffectiveness":96.32084115184614,"clientPercentages":[{"client":"Prysm","percentage":0.3843697992731719},{"client":"Lighthouse","percentage":0.4296776823013959},{"client":"Nimbus","percentage":0.05447814421084808},{"client":"Teku","percentage":0.1314743742145841}],"networkPenetration":0.12533628375462533},{"id":"Kraken","idType":"entity","timeWindow":"1d","validatorCount":37392,"avgCorrectness":0.9913645458159454,"avgInclusionDelay":1.032306803526725,"avgUptime":0.9988889128068863,"avgValidatorEffectiveness":96.54076148980795,"clientPercentages":[{"client":"Nimbus","percentage":0.01955104996379435},{"client":"Teku","percentage":0.0939898624185373},{"client":"Prysm","percentage":0.6236543567463191},{"client":"Lighthouse","percentage":0.26280473087134926}],"networkPenetration":0.08578793693933578},{"id":"Binance","idType":"entity","timeWindow":"1d","validatorCount":23046,"avgCorrectness":0.9927406279417882,"avgInclusionDelay":1.0290710092939432,"avgUptime":0.9998827143510696,"avgValidatorEffectiveness":96.99097310696786,"clientPercentages":[{"client":"Teku","percentage":0.0005820237798287187},{"client":"Prysm","percentage":0.6109586763116321},{"client":"Lighthouse","percentage":0.35769518583187826},{"client":"Nimbus","percentage":0.030764114076660846}],"networkPenetration":0.05163849381605164},{"id":"Bitcoin Suisse","idType":"entity","timeWindow":"1d","validatorCount":9153,"avgCorrectness":0.9928538539579714,"avgInclusionDelay":1.0338913768952078,"avgUptime":0.9990914777269654,"avgValidatorEffectiveness":96.55556778285282,"clientPercentages":[{"client":"Nimbus","percentage":0.00641025641025641},{"client":"Teku","percentage":0.9935897435897436}],"networkPenetration":0.02101027444427101},{"id":"Rocketpool","idType":"entity","timeWindow":"1d","validatorCount":8241,"avgCorrectness":0.987119582410191,"avgInclusionDelay":1.0450003645898172,"avgUptime":0.9798450952576789,"avgValidatorEffectiveness":93.8675894924645,"clientPercentages":[{"client":"Nimbus","percentage":0.22571082064411804},{"client":"Lighthouse","percentage":0.4175987063738041},{"client":"Prysm","percentage":0.053901091497102815},{"client":"Teku","percentage":0.3027893814849751}],"networkPenetration":0.018735481264518735},{"id":"Staked.us","idType":"entity","timeWindow":"1d","validatorCount":5263,"avgCorrectness":0.9906635899303791,"avgInclusionDelay":1.0338949461606362,"avgUptime":0.9993227069629542,"avgValidatorEffectiveness":96.39551414573526,"clientPercentages":[{"client":"Teku","percentage":0.49422161794697483},{"client":"Lighthouse","percentage":0.005778382053025153},{"client":"Nimbus","percentage":0.02821210061182869},{"client":"Prysm","percentage":0.47178789938817134}],"networkPenetration":0.012080965191762081},{"id":"f2pool.eth","idType":"entity","timeWindow":"1d","validatorCount":3501,"avgCorrectness":0.9905970977093174,"avgInclusionDelay":1.043354870029287,"avgUptime":0.993774922017745,"avgValidatorEffectiveness":95.20642188442437,"clientPercentages":[{"client":"Lighthouse","percentage":0.986387943607195},{"client":"Prysm","percentage":0.013612056392805057}],"networkPenetration":0.008036378327258037},{"id":"Bitfinex","idType":"entity","timeWindow":"1d","validatorCount":3214,"avgCorrectness":0.9933496583660721,"avgInclusionDelay":1.028587017933793,"avgUptime":0.9998990373218357,"avgValidatorEffectiveness":97.08246875356065,"clientPercentages":[{"client":"Teku","percentage":0.012380416432189083},{"client":"Nimbus","percentage":0.03939223410241981},{"client":"Prysm","percentage":0.943725379853686},{"client":"Lighthouse","percentage":0.004501969611705121}],"networkPenetration":0.007377583531507377},{"id":"Huobi","idType":"entity","timeWindow":"1d","validatorCount":2855,"avgCorrectness":0.9925954182625936,"avgInclusionDelay":1.029429670227011,"avgUptime":0.9998995774608737,"avgValidatorEffectiveness":96.95471473788385,"clientPercentages":[{"client":"Nimbus","percentage":0.04495747266099635},{"client":"Prysm","percentage":0.9520048602673147},{"client":"Teku","percentage":0.002430133657351154},{"client":"Lighthouse","percentage":0.0006075334143377885}],"networkPenetration":0.006553516173756553},{"id":"Bloxstaking","idType":"entity","timeWindow":"1d","validatorCount":2515,"avgCorrectness":0.9906768124016286,"avgInclusionDelay":1.0323211513064952,"avgUptime":0.9994801159283349,"avgValidatorEffectiveness":96.53702600187341,"clientPercentages":[{"client":"Lighthouse","percentage":0.4876773711725168},{"client":"Teku","percentage":0.0022404779686333084},{"client":"Nimbus","percentage":0.02389843166542196},{"client":"Prysm","percentage":0.48618371919342795}],"networkPenetration":0.005768471504255768},{"id":"wedex.eth","idType":"entity","timeWindow":"1d","validatorCount":2399,"avgCorrectness":0.9835155948344126,"avgInclusionDelay":1.067293246087151,"avgUptime":0.9908667053732702,"avgValidatorEffectiveness":92.59526081359718,"clientPercentages":[{"client":"Lighthouse","percentage":1.0}],"networkPenetration":0.005506789947755507},{"id":"Ankr","idType":"entity","timeWindow":"1d","validatorCount":2298,"avgCorrectness":0.9923376427846271,"avgInclusionDelay":1.0290967755039273,"avgUptime":0.9999119878223992,"avgValidatorEffectiveness":96.95318899962365,"clientPercentages":[{"client":"Teku","percentage":0.006066734074823054},{"client":"Nimbus","percentage":0.03640040444893832},{"client":"Lighthouse","percentage":0.011122345803842264},{"client":"Prysm","percentage":0.9464105156723963}],"networkPenetration":0.0052749492705052746},{"id":"StakeWise","idType":"entity","timeWindow":"1d","validatorCount":1989,"avgCorrectness":0.989827047506581,"avgInclusionDelay":1.0377742291167635,"avgUptime":0.9991486209868563,"avgValidatorEffectiveness":96.01398257253602,"clientPercentages":[{"client":"Teku","percentage":0.060526315789473685},{"client":"Lighthouse","percentage":0.5298245614035088},{"client":"Prysm","percentage":0.3850877192982456},{"client":"Nimbus","percentage":0.02456140350877193}],"networkPenetration":0.004565654525254565},{"id":"OKex","idType":"entity","timeWindow":"1d","validatorCount":1802,"avgCorrectness":0.9920432752224221,"avgInclusionDelay":1.0292750452671846,"avgUptime":0.9999431878279117,"avgValidatorEffectiveness":96.92495319287137,"clientPercentages":[{"client":"Prysm","percentage":0.9401888772298006},{"client":"Nimbus","percentage":0.04512067156348373},{"client":"Teku","percentage":0.002098635886673662},{"client":"Lighthouse","percentage":0.012591815320041973}],"networkPenetration":0.004127223145504127}]}