{"page":{"from":0,"size":15},"total":30,"next":"/v0/eth/operators?window=1d&from=15&size=15&idType=entity","data":[{"id":"Lido","idType":"entity","timeWindow":"1d","validatorCount":129927,"avgCorrectness":0.9768844169340426,"avgInclusionDelay":1.0679736994041018,"avgUptime":0.9863140153895269,"avgValidatorEffectiveness":92.20362442341033,"clientPercentages":[{"client":"Lighthouse","percentage":0.3503037354727856},{"client":"Lodestar","percentage":0.00037882375224926605},{"client":"Nimbus","percentage":0.02478589693288055},{"client":"Teku","percentage":0.22193660113917715},{"client":"Prysm","percentage":0.40259494270290747}],"networkPenetration":0.3082094934426541},{"id":"Coinbase","idType":"entity","timeWindow":"1d","validatorCount":54286,"avgCorrectness":0.9778986632987002,"avgInclusionDelay":1.0624116164012738,"avgUptime":0.9985369258290453,"avgValidatorEffectiveness":93.62897398778523,"clientPercentages":[{"client":"Lighthouse","percentage":0.4231508483563097},{"client":"Nimbus","percentage":0.056104188759278896},{"client":"Teku","percentage":0.1365323435843054},{"client":"Prysm","percentage":0.38421261930010603}],"networkPenetration":0.128788741483042},{"id":"Kraken","idType":"entity","timeWindow":"1d","validatorCount":36656,"avgCorrectness":0.9770486160836586,"avgInclusionDelay":1.0643934992068755,"avgUptime":0.9971006536053139,"avgValidatorEffectiveness":93.31490932640489,"clientPercentages":[{"client":"Teku","percentage":0.0939898624185373},{"client":"Lighthouse","percentage":0.26280473087134926},{"client":"Prysm","percentage":0.6236543567463191},{"client":"Nimbus","percentage":0.01955104996379435}],"networkPenetration":0.08694651635066143},{"id":"Binance","idType":"entity","timeWindow":"1d","validatorCount":21878,"avgCorrectness":0.9747000601133409,"avgInclusionDelay":1.072587521579344,"avgUptime":0.9972635777895272,"avgValidatorEffectiveness":92.60764974121973,"clientPercentages":[{"client":"Teku","percentage":0.0005820237798287187},{"client":"Lighthouse","percentage":0.35769518583187826},{"client":"Prysm","percentage":0.6109586763116321},{"client":"Nimbus","percentage":0.030764114076660846}],"networkPenetration":0.051863292148266245},{"id":"Bitcoin Suisse","idType":"entity","timeWindow":"1d","validatorCount":9000,"avgCorrectness":0.9817002355580261,"avgInclusionDelay":1.0533622025058198,"avgUptime":0.9998846913580253,"avgValidatorEffectiveness":94.63149411166363,"clientPercentages":[{"client":"Teku","percentage":0.9935897435897436},{"client":"Nimbus","percentage":0.00641025641025641}],"networkPenetration":0.021351705289529125},{"id":"Rocketpool","idType":"entity","timeWindow":"1d","validatorCount":6966,"avgCorrectness":0.9772230230811815,"avgInclusionDelay":1.0648399129333224,"avgUptime":0.9904221076192171,"avgValidatorEffectiveness":92.78938040530993,"clientPercentages":[{"client":"Lighthouse","percentage":0.41714285714285715},{"client":"Nimbus","percentage":0.2276190476190476},{"client":"Teku","percentage":0.30272108843537415},{"client":"Prysm","percentage":0.05251700680272109}],"networkPenetration":0.016516730247300195},{"id":"Staked.us","idType":"entity","timeWindow":"1d","validatorCount":5263,"avgCorrectness":0.9702676737912359,"avgInclusionDelay":1.0776847578860242,"avgUptime":0.9937293896594679,"avgValidatorEffectiveness":91.69443694333576,"clientPercentages":[{"client":"Teku","percentage":0.49422161794697483},{"client":"Nimbus","percentage":0.02821210061182869},{"client":"Lighthouse","percentage":0.005778382053025153},{"client":"Prysm","percentage":0.47178789938817134}],"networkPenetration":0.012486002770976863},{"id":"f2pool.eth","idType":"entity","timeWindow":"1d","validatorCount":3501,"avgCorrectness":0.977543964565522,"avgInclusionDelay":1.0771234435994665,"avgUptime":0.9998343330476999,"avgValidatorEffectiveness":92.63662128139848,"clientPercentages":[{"client":"Lighthouse","percentage":0.986387943607195},{"client":"Prysm","percentage":0.013612056392805057}],"networkPenetration":0.00830581335762683},{"id":"Bitfinex","idType":"entity","timeWindow":"1d","validatorCount":3214,"avgCorrectness":0.9759262653359326,"avgInclusionDelay":1.0674107613953825,"avgUptime":0.9959261563990875,"avgValidatorEffectiveness":92.93277719421093,"clientPercentages":[{"client":"Teku","percentage":0.012380416432189083},{"client":"Prysm","percentage":0.943725379853686},{"client":"Lighthouse","percentage":0.004501969611705121},{"client":"Nimbus","percentage":0.03939223410241981}],"networkPenetration":0.007624931200060733},{"id":"Huobi","idType":"entity","timeWindow":"1d","validatorCount":2855,"avgCorrectness":0.9744046167664717,"avgInclusionDelay":1.0716119186488107,"avgUptime":0.9991585911655958,"avgValidatorEffectiveness":92.78570521163738,"clientPercentages":[{"client":"Lighthouse","percentage":0.0006075334143377885},{"client":"Nimbus","percentage":0.04495747266099635},{"client":"Prysm","percentage":0.9520048602673147},{"client":"Teku","percentage":0.002430133657351154}],"networkPenetration":0.006773235400178405},{"id":"Bloxstaking","idType":"entity","timeWindow":"1d","validatorCount":2406,"avgCorrectness":0.9724132368252462,"avgInclusionDelay":1.0804554435067035,"avgUptime":0.996512863141292,"avgValidatorEffectiveness":91.80426122254086,"clientPercentages":[{"client":"Lighthouse","percentage":0.487256371814093},{"client":"Nimbus","percentage":0.0239880059970015},{"client":"Teku","percentage":0.0014992503748125937},{"client":"Prysm","percentage":0.487256371814093}],"networkPenetration":0.005705650135701949},{"id":"wedex.eth","idType":"entity","timeWindow":"1d","validatorCount":2399,"avgCorrectness":0.9729727594635538,"avgInclusionDelay":1.0825729341896149,"avgUptime":0.9966838034366171,"avgValidatorEffectiveness":91.66592582342031,"clientPercentages":[{"client":"Lighthouse","percentage":1.0}],"networkPenetration":0.00569141566550893},{"id":"Ankr","idType":"entity","timeWindow":"1d","validatorCount":2297,"avgCorrectness":0.9684280221917012,"avgInclusionDelay":1.09331246092577,"avgUptime":0.9826295167609924,"avgValidatorEffectiveness":89.61423045530597,"clientPercentages":[{"client":"Prysm","percentage":0.9464105156723963},{"client":"Nimbus","percentage":0.03640040444893832},{"client":"Lighthouse","percentage":0.011122345803842264},{"client":"Teku","percentage":0.006066734074823054}],"networkPenetration":0.0054494296722275995},{"id":"StakeWise","idType":"entity","timeWindow":"1d","validatorCount":1981,"avgCorrectness":0.9760943830757651,"avgInclusionDelay":1.067918677861756,"avgUptime":0.9956049133434284,"avgValidatorEffectiveness":92.86723792310715,"clientPercentages":[{"client":"Lighthouse","percentage":0.5298245614035088},{"client":"Prysm","percentage":0.3850877192982456},{"client":"Nimbus","percentage":0.02456140350877193},{"client":"Teku","percentage":0.060526315789473685}],"networkPenetration":0.004699747575395243},{"id":"OKex","idType":"entity","timeWindow":"1d","validatorCount":1737,"avgCorrectness":0.9748496330352948,"avgInclusionDelay":1.0706487278813597,"avgUptime":0.9967299942429477,"avgValidatorEffectiveness":92.68688957017667,"clientPercentages":[{"client":"Nimbus","percentage":0.04512067156348373},{"client":"Lighthouse","percentage":0.012591815320041973},{"client":"Teku","percentage":0.002098635886673662},{"client":"Prysm","percentage":0.9401888772298006}],"networkPenetration":0.004120879120879121}]}