{"page":{"from":0,"size":15},"total":36,"next":"/v0/eth/operators?window=1d&from=15&size=15&idType=entity","data":[{"id":"Lido","idType":"entity","timeWindow":"1d","validatorCount":134817,"avgCorrectness":0.9883917976698231,"avgInclusionDelay":1.0352546314194622,"avgUptime":0.9983371448678424,"avgValidatorEffectiveness":95.45737045167127,"clientPercentages":[{"client":"Lodestar","percentage":0.003989803834644797},{"client":"Nimbus","percentage":0.01863293804721268},{"client":"Lighthouse","percentage":0.45778842956887955},{"client":"Prysm","percentage":0.3560207248143633},{"client":"Teku","percentage":0.1635681037348997}],"networkPenetration":0.2994554304634289,"relayerPercentages":[{"relayer":"bloxroute_ethical","percentage":0.0503494331417922},{"relayer":"flashbots","percentage":0.5144742972511259},{"relayer":"bloxroute_maxprofit","percentage":0.037971734741419474},{"relayer":"no_mev_boost","percentage":0.2955427861469172},{"relayer":"manifold","percentage":0.01883832893306414},{"relayer":"blocknative","percentage":0.03595278769995341},{"relayer":"edennetwork","percentage":0.035036496350364967},{"relayer":"bloxroute_regulated","percentage":0.011834135735362634}],"nodeOperatorCount":29},{"id":"Coinbase","idType":"entity","timeWindow":"1d","validatorCount":54468,"avgCorrectness":0.9867735695263731,"avgInclusionDelay":1.0349347622643927,"avgUptime":0.9985007763769259,"avgValidatorEffectiveness":95.33396346718939,"clientPercentages":[{"client":"Prysm","percentage":0.3576388888888889},{"client":"Lighthouse","percentage":0.428733498349835},{"client":"Nimbus","percentage":0.006841309130913091},{"client":"Teku","percentage":0.20678630363036304}],"networkPenetration":0.12111724588793298,"relayerPercentages":[{"relayer":"bloxroute_ethical","percentage":3.84201629014907e-05},{"relayer":"manifold","percentage":7.68403258029814e-05},{"relayer":"no_mev_boost","percentage":0.987782388197326},{"relayer":"bloxroute_regulated","percentage":3.84201629014907e-05},{"relayer":"flashbots","percentage":0.0099124020285846},{"relayer":"bloxroute_maxprofit","percentage":0.002151529122483479}],"nodeOperatorCount":null},{"id":"Kraken","idType":"entity","timeWindow":"1d","validatorCount":37900,"avgCorrectness":0.9881860020036546,"avgInclusionDelay":1.0316560429282735,"avgUptime":0.9987691947136306,"avgValidatorEffectiveness":95.77808090832572,"clientPercentages":[{"client":"Lighthouse","percentage":0.25358074518875817},{"client":"Nimbus","percentage":9.843973027513905e-05},{"client":"Teku","percentage":0.052123837180686125},{"client":"Prysm","percentage":0.6941969779002806}],"networkPenetration":0.08424706423874782,"relayerPercentages":[{"relayer":"bloxroute_maxprofit","percentage":0.0071788689171416046},{"relayer":"blocknative","percentage":0.0075076720736519074},{"relayer":"bloxroute_ethical","percentage":0.0020276194651468655},{"relayer":"no_mev_boost","percentage":0.5386891714160456},{"relayer":"manifold","percentage":0.003671635247698378},{"relayer":"edennetwork","percentage":0.0029592284085927225},{"relayer":"flashbots","percentage":0.43796580447172295}],"nodeOperatorCount":null},{"id":"Binance","idType":"entity","timeWindow":"1d","validatorCount":23826,"avgCorrectness":0.9894496599781409,"avgInclusionDelay":1.02833352197776,"avgUptime":0.9996108467940159,"avgValidatorEffectiveness":96.2754339861539,"clientPercentages":[{"client":"Nimbus","percentage":0.0011181215557862791},{"client":"Prysm","percentage":0.5314272023001357},{"client":"Lighthouse","percentage":0.4613848734126667},{"client":"Teku","percentage":0.006069802731411229}],"networkPenetration":0.052980456424430694,"relayerPercentages":[{"relayer":"blocknative","percentage":0.0022057526027880713},{"relayer":"no_mev_boost","percentage":0.3653608611258161},{"relayer":"bloxroute_maxprofit","percentage":0.006352567496029645},{"relayer":"edennetwork","percentage":0.004146814893241574},{"relayer":"bloxroute_ethical","percentage":8.823010411152286e-05},{"relayer":"flashbots","percentage":0.5874360331745192},{"relayer":"bloxroute_regulated","percentage":0.03440974060349391}],"nodeOperatorCount":null},{"id":"Staked.us","idType":"entity","timeWindow":"1d","validatorCount":12762,"avgCorrectness":0.9877453445943272,"avgInclusionDelay":1.0322532815458019,"avgUptime":0.9988801013277144,"avgValidatorEffectiveness":95.70037211376786,"clientPercentages":[{"client":"Nimbus","percentage":0.00029184298847220193},{"client":"Prysm","percentage":0.6296512476287757},{"client":"Teku","percentage":0.25857288778637094},{"client":"Lighthouse","percentage":0.11148402159638114}],"networkPenetration":0.028315836989368775,"relayerPercentages":[{"relayer":"edennetwork","percentage":0.004039776258545681},{"relayer":"no_mev_boost","percentage":0.41096954630205096},{"relayer":"bloxroute_maxprofit","percentage":0.002175264139216905},{"relayer":"manifold","percentage":0.005127408328154133},{"relayer":"flashbots","percentage":0.5756681168427594},{"relayer":"bloxroute_ethical","percentage":0.00015537600994406463},{"relayer":"blocknative","percentage":0.0018645121193287756}],"nodeOperatorCount":null},{"id":"Bitcoin Suisse","idType":"entity","timeWindow":"1d","validatorCount":9214,"avgCorrectness":0.9900343880038351,"avgInclusionDelay":1.0307916271210684,"avgUptime":0.9949335207637797,"avgValidatorEffectiveness":95.66132944525836,"clientPercentages":[{"client":"Lighthouse","percentage":0.0001971608832807571},{"client":"Nimbus","percentage":0.024842271293375396},{"client":"Prysm","percentage":0.0005914826498422713},{"client":"Teku","percentage":0.9743690851735016}],"networkPenetration":0.02048862274383885,"relayerPercentages":[{"relayer":"no_mev_boost","percentage":1.0}],"nodeOperatorCount":null},{"id":"Rocketpool","idType":"entity","timeWindow":"1d","validatorCount":9054,"avgCorrectness":0.9865212171611236,"avgInclusionDelay":1.0366929434438057,"avgUptime":0.9673297604202086,"avgValidatorEffectiveness":92.28836476664229,"clientPercentages":[{"client":"Prysm","percentage":0.05160706201901313},{"client":"Lighthouse","percentage":0.4125169760072431},{"client":"Nimbus","percentage":0.1949977365323676},{"client":"Teku","percentage":0.3408782254413762}],"networkPenetration":0.020099485671973012,"relayerPercentages":[{"relayer":"blocknative","percentage":0.05439429928741093},{"relayer":"bloxroute_ethical","percentage":0.03705463182897862},{"relayer":"bloxroute_maxprofit","percentage":0.08954869358669834},{"relayer":"edennetwork","percentage":0.04180522565320665},{"relayer":"no_mev_boost","percentage":0.17957244655581947},{"relayer":"flashbots","percentage":0.5306413301662708},{"relayer":"bloxroute_regulated","percentage":0.065083135391924},{"relayer":"manifold","percentage":0.0019002375296912114}],"nodeOperatorCount":1570},{"id":"Stakefish","idType":"entity","timeWindow":"1d","validatorCount":8060,"avgCorrectness":0.9854333676143776,"avgInclusionDelay":1.0627445428015752,"avgUptime":0.9971733630015376,"avgValidatorEffectiveness":92.8104017224087,"clientPercentages":[{"client":"Nimbus","percentage":0.006570580754557015},{"client":"Teku","percentage":0.30479016532428993},{"client":"Lighthouse","percentage":0.6877914370495973},{"client":"Prysm","percentage":0.000847816871555744}],"networkPenetration":0.017920318069524342,"relayerPercentages":[{"relayer":"bloxroute_regulated","percentage":0.00022406453058480843},{"relayer":"bloxroute_maxprofit","percentage":0.0013443871835088505},{"relayer":"flashbots","percentage":0.8897602509522743},{"relayer":"manifold","percentage":0.08828142505041452},{"relayer":"no_mev_boost","percentage":0.02016580775263276},{"relayer":"bloxroute_ethical","percentage":0.00022406453058480843}],"nodeOperatorCount":null},{"id":"Celsius Network","idType":"entity","timeWindow":"1d","validatorCount":4943,"avgCorrectness":0.9896212405726181,"avgInclusionDelay":1.0284745351057298,"avgUptime":0.9996259220189523,"avgValidatorEffectiveness":96.2792128452812,"clientPercentages":[{"client":"Prysm","percentage":0.9890689785148888},{"client":"Lighthouse","percentage":0.004900113079532605},{"client":"Teku","percentage":0.00603090840557859}],"networkPenetration":0.010991454549901827,"relayerPercentages":[{"relayer":"no_mev_boost","percentage":0.04703476482617587},{"relayer":"flashbots","percentage":0.9529652351738241}],"nodeOperatorCount":null},{"id":"Bitfinex","idType":"entity","timeWindow":"1d","validatorCount":3214,"avgCorrectness":0.9899339126953987,"avgInclusionDelay":1.028448139301459,"avgUptime":0.9996072428660323,"avgValidatorEffectiveness":96.30870344357412,"clientPercentages":[{"client":"Lighthouse","percentage":0.0034602076124567475},{"client":"Nimbus","percentage":0.0005767012687427913},{"client":"Teku","percentage":0.016724336793540944},{"client":"Prysm","percentage":0.9792387543252595}],"networkPenetration":0.007146780279867382,"relayerPercentages":[{"relayer":"bloxroute_maxprofit","percentage":0.0012476606363069245},{"relayer":"no_mev_boost","percentage":0.4023705552089832},{"relayer":"flashbots","percentage":0.5945102932002495},{"relayer":"edennetwork","percentage":0.0018714909544603868}],"nodeOperatorCount":null},{"id":"Huobi","idType":"entity","timeWindow":"1d","validatorCount":2855,"avgCorrectness":0.9892416011496115,"avgInclusionDelay":1.0289648201447812,"avgUptime":0.9995975523309141,"avgValidatorEffectiveness":96.19769600689847,"clientPercentages":[{"client":"Lighthouse","percentage":0.007677543186180422},{"client":"Prysm","percentage":0.981445937300064},{"client":"Teku","percentage":0.010876519513755598}],"networkPenetration":0.006348493372439756,"relayerPercentages":[{"relayer":"bloxroute_maxprofit","percentage":0.09496810772501772},{"relayer":"flashbots","percentage":0.5768958185683912},{"relayer":"bloxroute_regulated","percentage":0.05598866052445074},{"relayer":"manifold","percentage":0.05457122608079376},{"relayer":"edennetwork","percentage":0.09496810772501772},{"relayer":"bloxroute_ethical","percentage":0.05244507441530829},{"relayer":"no_mev_boost","percentage":0.01630049610205528},{"relayer":"blocknative","percentage":0.05386250885896527}],"nodeOperatorCount":null},{"id":"Abyss","idType":"entity","timeWindow":"1d","validatorCount":2834,"avgCorrectness":0.989075961056049,"avgInclusionDelay":1.0309444062851842,"avgUptime":0.998664305780921,"avgValidatorEffectiveness":95.92150726073844,"clientPercentages":[{"client":"Nimbus","percentage":0.04461221688400824},{"client":"Lighthouse","percentage":0.08098833218943034},{"client":"Prysm","percentage":0.033630748112560054},{"client":"Teku","percentage":0.8407687028140014}],"networkPenetration":0.006279560519709237,"relayerPercentages":[{"relayer":"bloxroute_regulated","percentage":0.015032211882605583},{"relayer":"manifold","percentage":0.0035790980672870437},{"relayer":"flashbots","percentage":0.3514674302075877},{"relayer":"bloxroute_ethical","percentage":0.006442376521116679},{"relayer":"bloxroute_maxprofit","percentage":0.02290622763063708},{"relayer":"no_mev_boost","percentage":0.5798138869005011},{"relayer":"edennetwork","percentage":0.013600572655690766},{"relayer":"blocknative","percentage":0.0071581961345740875}],"nodeOperatorCount":null},{"id":"Bloxstaking","idType":"entity","timeWindow":"1d","validatorCount":2587,"avgCorrectness":0.9887720215751512,"avgInclusionDelay":1.0289478845181201,"avgUptime":0.9996440807298989,"avgValidatorEffectiveness":96.15261945631889,"clientPercentages":[{"client":"Lighthouse","percentage":0.30839002267573695},{"client":"Teku","percentage":0.006046863189720333},{"client":"Prysm","percentage":0.6855631141345427}],"networkPenetration":0.005745886821150378,"relayerPercentages":[{"relayer":"flashbots","percentage":0.9305666400638468},{"relayer":"bloxroute_ethical","percentage":0.0031923383878691143},{"relayer":"blocknative","percentage":0.04948124501197127},{"relayer":"no_mev_boost","percentage":0.01675977653631285}],"nodeOperatorCount":null},{"id":"wedex.eth","idType":"entity","timeWindow":"1d","validatorCount":2399,"avgCorrectness":0.9885091051638385,"avgInclusionDelay":1.0290665321234336,"avgUptime":0.9988337237076295,"avgValidatorEffectiveness":96.04409368747775,"clientPercentages":[{"client":"Nimbus","percentage":0.006158583525789068},{"client":"Lighthouse","percentage":0.993841416474211}],"networkPenetration":0.005334513345177924,"relayerPercentages":[{"relayer":"manifold","percentage":0.043706293706293704},{"relayer":"flashbots","percentage":0.4370629370629371},{"relayer":"bloxroute_ethical","percentage":0.009615384615384616},{"relayer":"blocknative","percentage":0.0472027972027972},{"relayer":"edennetwork","percentage":0.10314685314685315},{"relayer":"bloxroute_maxprofit","percentage":0.13723776223776224},{"relayer":"no_mev_boost","percentage":0.22202797202797203}],"nodeOperatorCount":null},{"id":"Ankr","idType":"entity","timeWindow":"1d","validatorCount":2300,"avgCorrectness":0.9892144124914446,"avgInclusionDelay":1.0283942167519304,"avgUptime":0.9995323283298825,"avgValidatorEffectiveness":96.23789292941936,"clientPercentages":[{"client":"Lighthouse","percentage":0.8369132856006364},{"client":"Prysm","percentage":0.162291169451074},{"client":"Teku","percentage":0.0007955449482895784}],"networkPenetration":0.005114372944522395,"relayerPercentages":[{"relayer":"flashbots","percentage":0.15022222222222223},{"relayer":"no_mev_boost","percentage":0.8497777777777777}],"nodeOperatorCount":null}]}