{"page":{"from":0,"size":15},"total":31,"next":"/v0/eth/operators?window=1d&from=15&size=15&idType=entity","data":[{"id":"Lido","idType":"entity","timeWindow":"1d","validatorCount":128851,"avgCorrectness":0.9847515201012463,"avgInclusionDelay":1.026009652016674,"avgUptime":0.9993281205201567,"avgValidatorEffectiveness":96.90888025683184,"clientPercentages":[{"client":"Teku","percentage":0.1765840182710849},{"client":"Prysm","percentage":0.3543988731007508},{"client":"Nimbus","percentage":0.07888294744327895},{"client":"Lighthouse","percentage":0.3901341611848853}],"networkPenetration":0.3197130535332331},{"id":"Coinbase","idType":"entity","timeWindow":"1d","validatorCount":56844,"avgCorrectness":0.9843799564069802,"avgInclusionDelay":1.0256734086215524,"avgUptime":0.9998133287424867,"avgValidatorEffectiveness":96.9419685531879,"clientPercentages":[{"client":"Teku","percentage":0.16583114263006662},{"client":"Lighthouse","percentage":0.36210796600843675},{"client":"Nimbus","percentage":0.09720608913614966},{"client":"Prysm","percentage":0.37485480222534695}],"networkPenetration":0.14105140917414802},{"id":"Kraken","idType":"entity","timeWindow":"1d","validatorCount":35665,"avgCorrectness":0.9778509944611335,"avgInclusionDelay":1.0352331630150253,"avgUptime":0.9985453017639717,"avgValidatorEffectiveness":95.91638191042023,"clientPercentages":[{"client":"Prysm","percentage":0.6030045018594636},{"client":"Teku","percentage":0.08519279702485809},{"client":"Lighthouse","percentage":0.273047563123899},{"client":"Nimbus","percentage":0.038755137991779216}],"networkPenetration":0.08846606220316525},{"id":"Binance","idType":"entity","timeWindow":"1d","validatorCount":20641,"avgCorrectness":0.985806385949683,"avgInclusionDelay":1.0209631429043777,"avgUptime":0.9995733410848995,"avgValidatorEffectiveness":97.37085101635246,"clientPercentages":[{"client":"Teku","percentage":0.01110925492816572},{"client":"Nimbus","percentage":0.07626127631139325},{"client":"Lighthouse","percentage":0.3196625459405279},{"client":"Prysm","percentage":0.5929669228199131}],"networkPenetration":0.051218108098719115},{"id":"Bitcoin Suisse","idType":"entity","timeWindow":"1d","validatorCount":8939,"avgCorrectness":0.9842327801433791,"avgInclusionDelay":1.0445801192462087,"avgUptime":0.9991798734633501,"avgValidatorEffectiveness":95.3776303288767,"clientPercentages":[{"client":"Teku","percentage":0.9930375969763279},{"client":"Nimbus","percentage":0.00696240302367217}],"networkPenetration":0.02218103135964586},{"id":"Rocketpool","idType":"entity","timeWindow":"1d","validatorCount":5895,"avgCorrectness":0.9855350150052106,"avgInclusionDelay":1.022674287276227,"avgUptime":0.9935020546323199,"avgValidatorEffectiveness":96.72472443471571,"clientPercentages":[{"client":"Lighthouse","percentage":0.42796481649984836},{"client":"Teku","percentage":0.2605398847437064},{"client":"Nimbus","percentage":0.25508037609948436},{"client":"Prysm","percentage":0.056414922656960874}],"networkPenetration":0.014617793460082084},{"id":"Staked.us","idType":"entity","timeWindow":"1d","validatorCount":5263,"avgCorrectness":0.9830400521201044,"avgInclusionDelay":1.0284746630635517,"avgUptime":0.9993164017142755,"avgValidatorEffectiveness":96.58663005556227,"clientPercentages":[{"client":"Teku","percentage":0.5096401028277635},{"client":"Nimbus","percentage":0.05559125964010283},{"client":"Lighthouse","percentage":0.0016066838046272494},{"client":"Prysm","percentage":0.43316195372750643}],"networkPenetration":0.013059488538518418},{"id":"f2pool.eth","idType":"entity","timeWindow":"1d","validatorCount":3501,"avgCorrectness":0.9784223313320444,"avgInclusionDelay":1.081803958481734,"avgUptime":0.9979859722618938,"avgValidatorEffectiveness":92.16966705417067,"clientPercentages":[{"client":"Lighthouse","percentage":0.9995497523638001},{"client":"Nimbus","percentage":0.00045024763619990995}],"networkPenetration":0.008687301799991068},{"id":"Bitfinex","idType":"entity","timeWindow":"1d","validatorCount":3214,"avgCorrectness":0.9811850705945383,"avgInclusionDelay":1.032258422239272,"avgUptime":0.9975371637972761,"avgValidatorEffectiveness":96.05641368379533,"clientPercentages":[{"client":"Teku","percentage":0.021432305279665446},{"client":"Nimbus","percentage":0.1097752221641401},{"client":"Prysm","percentage":0.865656037637219},{"client":"Lighthouse","percentage":0.0031364349189754314}],"networkPenetration":0.007975146525327418},{"id":"Huobi","idType":"entity","timeWindow":"1d","validatorCount":2855,"avgCorrectness":0.980700627520593,"avgInclusionDelay":1.0345416608274551,"avgUptime":0.9996972173574642,"avgValidatorEffectiveness":95.994740259409,"clientPercentages":[{"client":"Nimbus","percentage":0.0989522700814901},{"client":"Lighthouse","percentage":0.0034924330616996507},{"client":"Prysm","percentage":0.8795110593713621},{"client":"Teku","percentage":0.018044237485448197}],"networkPenetration":0.007084332087681947},{"id":"wedex.eth","idType":"entity","timeWindow":"1d","validatorCount":2399,"avgCorrectness":0.9839074037525145,"avgInclusionDelay":1.0298121889544607,"avgUptime":0.9996517067296561,"avgValidatorEffectiveness":96.55141323422357,"clientPercentages":[{"client":"Lighthouse","percentage":1.0}],"networkPenetration":0.0059528240554637445},{"id":"Bloxstaking","idType":"entity","timeWindow":"1d","validatorCount":2304,"avgCorrectness":0.9786442350587377,"avgInclusionDelay":1.0393328840059404,"avgUptime":0.999833077584173,"avgValidatorEffectiveness":95.49563464043992,"clientPercentages":[{"client":"Nimbus","percentage":0.04439592430858806},{"client":"Prysm","percentage":0.45269286754002913},{"client":"Lighthouse","percentage":0.49417758369723436},{"client":"Teku","percentage":0.008733624454148471}],"networkPenetration":0.005712130460891013},{"id":"Ankr","idType":"entity","timeWindow":"1d","validatorCount":2284,"avgCorrectness":0.8538896674212442,"avgInclusionDelay":1.4902597902582504,"avgUptime":0.9480205959818564,"avgValidatorEffectiveness":67.48593038595453,"clientPercentages":[{"client":"Prysm","percentage":0.8898898898898899},{"client":"Nimbus","percentage":0.0920920920920921},{"client":"Teku","percentage":0.008008008008008008},{"client":"Lighthouse","percentage":0.01001001001001001}],"networkPenetration":0.0056649842928819215},{"id":"StakeWise","idType":"entity","timeWindow":"1d","validatorCount":1967,"avgCorrectness":0.984546357529637,"avgInclusionDelay":1.0264958416909136,"avgUptime":0.9996637979035033,"avgValidatorEffectiveness":96.8751840872165,"clientPercentages":[{"client":"Nimbus","percentage":0.0466786355475763},{"client":"Lighthouse","percentage":0.5359066427289049},{"client":"Prysm","percentage":0.3770197486535009},{"client":"Teku","percentage":0.04039497307001795}],"networkPenetration":0.004863499436727361},{"id":"OKex","idType":"entity","timeWindow":"1d","validatorCount":1534,"avgCorrectness":0.9828019689731408,"avgInclusionDelay":1.0260391036556067,"avgUptime":0.9994909390323774,"avgValidatorEffectiveness":96.78503853647152,"clientPercentages":[{"client":"Nimbus","percentage":0.10233592880978866},{"client":"Teku","percentage":0.021134593993325918},{"client":"Prysm","percentage":0.8765294771968855}],"networkPenetration":0.0038014699678909783}]}