{"page":{"from":0,"size":15},"total":31,"next":"/v0/eth/operators?window=1d&from=15&size=15&idType=entity","data":[{"id":"Lido","idType":"entity","timeWindow":"1d","validatorCount":128845,"avgCorrectness":0.9845742365030115,"avgInclusionDelay":1.0284186745919537,"avgUptime":0.9993508306707881,"avgValidatorEffectiveness":96.70383685784793,"clientPercentages":[{"client":"Prysm","percentage":0.3543988731007508},{"client":"Lighthouse","percentage":0.3901341611848853},{"client":"Nimbus","percentage":0.07888294744327895},{"client":"Teku","percentage":0.1765840182710849}],"networkPenetration":0.31985115235286526},{"id":"Coinbase","idType":"entity","timeWindow":"1d","validatorCount":56844,"avgCorrectness":0.9843386613615324,"avgInclusionDelay":1.0277001503369225,"avgUptime":0.999732845550157,"avgValidatorEffectiveness":96.7660936748986,"clientPercentages":[{"client":"Lighthouse","percentage":0.36210796600843675},{"client":"Prysm","percentage":0.37485480222534695},{"client":"Nimbus","percentage":0.09720608913614966},{"client":"Teku","percentage":0.16583114263006662}],"networkPenetration":0.14103041496618904},{"id":"Kraken","idType":"entity","timeWindow":"1d","validatorCount":35652,"avgCorrectness":0.9776945371113973,"avgInclusionDelay":1.037710904919335,"avgUptime":0.9984113385112341,"avgValidatorEffectiveness":95.70282780613258,"clientPercentages":[{"client":"Lighthouse","percentage":0.273047563123899},{"client":"Prysm","percentage":0.6030045018594636},{"client":"Nimbus","percentage":0.038755137991779216},{"client":"Teku","percentage":0.08519279702485809}],"networkPenetration":0.0884819327355596},{"id":"Binance","idType":"entity","timeWindow":"1d","validatorCount":20641,"avgCorrectness":0.9857859293461644,"avgInclusionDelay":1.0229079325349322,"avgUptime":0.9996774488746772,"avgValidatorEffectiveness":97.21938778997563,"clientPercentages":[{"client":"Teku","percentage":0.01110925492816572},{"client":"Nimbus","percentage":0.07626127631139325},{"client":"Prysm","percentage":0.5929669228199131},{"client":"Lighthouse","percentage":0.3196625459405279}],"networkPenetration":0.051240231562850645},{"id":"Bitcoin Suisse","idType":"entity","timeWindow":"1d","validatorCount":8939,"avgCorrectness":0.984111186576437,"avgInclusionDelay":1.0464891313741738,"avgUptime":0.9992251361017734,"avgValidatorEffectiveness":95.21637477761196,"clientPercentages":[{"client":"Nimbus","percentage":0.00696240302367217},{"client":"Teku","percentage":0.9930375969763279}],"networkPenetration":0.02219061237054028},{"id":"Rocketpool","idType":"entity","timeWindow":"1d","validatorCount":5891,"avgCorrectness":0.9853787686407727,"avgInclusionDelay":1.0250493817961746,"avgUptime":0.9927252896060905,"avgValidatorEffectiveness":96.45623997659396,"clientPercentages":[{"client":"Nimbus","percentage":0.25508037609948436},{"client":"Teku","percentage":0.2605398847437064},{"client":"Lighthouse","percentage":0.42796481649984836},{"client":"Prysm","percentage":0.056414922656960874}],"networkPenetration":0.014619142661384015},{"id":"Staked.us","idType":"entity","timeWindow":"1d","validatorCount":5263,"avgCorrectness":0.9826263470236116,"avgInclusionDelay":1.031289429653169,"avgUptime":0.9995773428758429,"avgValidatorEffectiveness":96.35866905809507,"clientPercentages":[{"client":"Teku","percentage":0.5096401028277635},{"client":"Lighthouse","percentage":0.0016066838046272494},{"client":"Prysm","percentage":0.43316195372750643},{"client":"Nimbus","percentage":0.05559125964010283}],"networkPenetration":0.013065129534193254},{"id":"f2pool.eth","idType":"entity","timeWindow":"1d","validatorCount":3501,"avgCorrectness":0.9786763293871078,"avgInclusionDelay":1.0779153806142785,"avgUptime":0.9982176520994008,"avgValidatorEffectiveness":92.47352656226542,"clientPercentages":[{"client":"Nimbus","percentage":0.00045024763619990995},{"client":"Lighthouse","percentage":0.9995497523638001}],"networkPenetration":0.008691054246477405},{"id":"Bitfinex","idType":"entity","timeWindow":"1d","validatorCount":3214,"avgCorrectness":0.9818279406594367,"avgInclusionDelay":1.0326750339274187,"avgUptime":0.9970607757726606,"avgValidatorEffectiveness":96.01774860203055,"clientPercentages":[{"client":"Prysm","percentage":0.865656037637219},{"client":"Lighthouse","percentage":0.0031364349189754314},{"client":"Nimbus","percentage":0.1097752221641401},{"client":"Teku","percentage":0.021432305279665446}],"networkPenetration":0.007978591359091226},{"id":"Huobi","idType":"entity","timeWindow":"1d","validatorCount":2855,"avgCorrectness":0.9808498115111342,"avgInclusionDelay":1.0365151437295725,"avgUptime":0.9997478108581429,"avgValidatorEffectiveness":95.84489989690788,"clientPercentages":[{"client":"Lighthouse","percentage":0.0034924330616996507},{"client":"Nimbus","percentage":0.0989522700814901},{"client":"Prysm","percentage":0.8795110593713621},{"client":"Teku","percentage":0.018044237485448197}],"networkPenetration":0.007087392137587258},{"id":"wedex.eth","idType":"entity","timeWindow":"1d","validatorCount":2399,"avgCorrectness":0.9835836452581255,"avgInclusionDelay":1.031996998109921,"avgUptime":0.9997869482654815,"avgValidatorEffectiveness":96.36061927151016,"clientPercentages":[{"client":"Lighthouse","percentage":1.0}],"networkPenetration":0.005955395354841272},{"id":"Bloxstaking","idType":"entity","timeWindow":"1d","validatorCount":2303,"avgCorrectness":0.9784715662012862,"avgInclusionDelay":1.0420754924745141,"avgUptime":0.9998890000796135,"avgValidatorEffectiveness":95.2725100600358,"clientPercentages":[{"client":"Prysm","percentage":0.45269286754002913},{"client":"Lighthouse","percentage":0.49417758369723436},{"client":"Nimbus","percentage":0.04439592430858806},{"client":"Teku","percentage":0.008733624454148471}],"networkPenetration":0.005712115344514284},{"id":"Ankr","idType":"entity","timeWindow":"1d","validatorCount":2283,"avgCorrectness":0.8437493167926892,"avgInclusionDelay":1.5294068042763311,"avgUptime":0.9349715286903191,"avgValidatorEffectiveness":64.25763234153683,"clientPercentages":[{"client":"Lighthouse","percentage":0.01001001001001001},{"client":"Nimbus","percentage":0.0920920920920921},{"client":"Prysm","percentage":0.8898898898898899},{"client":"Teku","percentage":0.008008008008008008}],"networkPenetration":0.005667431260984838},{"id":"StakeWise","idType":"entity","timeWindow":"1d","validatorCount":1960,"avgCorrectness":0.9848108751069736,"avgInclusionDelay":1.0273852572702364,"avgUptime":0.9992480110982624,"avgValidatorEffectiveness":96.7724848059745,"clientPercentages":[{"client":"Prysm","percentage":0.3770197486535009},{"client":"Teku","percentage":0.04039497307001795},{"client":"Lighthouse","percentage":0.5359066427289049},{"client":"Nimbus","percentage":0.0466786355475763}],"networkPenetration":0.004863117757454794},{"id":"OKex","idType":"entity","timeWindow":"1d","validatorCount":1532,"avgCorrectness":0.9831877478431196,"avgInclusionDelay":1.0262839127912133,"avgUptime":0.9995032601037985,"avgValidatorEffectiveness":96.78291077421011,"clientPercentages":[{"client":"Nimbus","percentage":0.10233592880978866},{"client":"Prysm","percentage":0.8765294771968855},{"client":"Teku","percentage":0.021134593993325918}],"networkPenetration":0.0037931822018330403}]}