{"page":{"from":0,"size":15},"total":30,"next":"/v0/eth/operators?window=1d&from=15&size=15&idType=entity","data":[{"id":"Lido","idType":"entity","timeWindow":"1d","validatorCount":129475,"avgCorrectness":0.9903076925506802,"avgInclusionDelay":1.0218984870242989,"avgUptime":0.9998809599225633,"avgValidatorEffectiveness":97.5974515622625,"clientPercentages":[{"client":"Nimbus","percentage":0.06436200112422709},{"client":"Prysm","percentage":0.36031478358628444},{"client":"Lighthouse","percentage":0.3538103268288766},{"client":"Teku","percentage":0.2215128884606119}],"networkPenetration":0.31415584510135586},{"id":"Coinbase","idType":"entity","timeWindow":"1d","validatorCount":55902,"avgCorrectness":0.9915536515333655,"avgInclusionDelay":1.0194899273099263,"avgUptime":0.9996924912644316,"avgValidatorEffectiveness":97.82726671885311,"clientPercentages":[{"client":"Prysm","percentage":0.3733046694698239},{"client":"Teku","percentage":0.14033701115993805},{"client":"Nimbus","percentage":0.0904176282760583},{"client":"Lighthouse","percentage":0.3959406910941798}],"networkPenetration":0.13560305098977585},{"id":"Kraken","idType":"entity","timeWindow":"1d","validatorCount":36095,"avgCorrectness":0.9859735243396338,"avgInclusionDelay":1.029510064204672,"avgUptime":0.9991012077910776,"avgValidatorEffectiveness":96.80890806969953,"clientPercentages":[{"client":"Nimbus","percentage":0.04528793286389505},{"client":"Teku","percentage":0.09004533616282434},{"client":"Prysm","percentage":0.5996913282531108},{"client":"Lighthouse","percentage":0.2649754027201698}],"networkPenetration":0.0875885483530431},{"id":"Binance","idType":"entity","timeWindow":"1d","validatorCount":21153,"avgCorrectness":0.9915357593402485,"avgInclusionDelay":1.018450173257688,"avgUptime":0.9998096408704863,"avgValidatorEffectiveness":97.9197635237418,"clientPercentages":[{"client":"Teku","percentage":0.003264417845484222},{"client":"Prysm","percentage":0.5864233698836528},{"client":"Lighthouse","percentage":0.34309868586255965},{"client":"Nimbus","percentage":0.06721352640830335}],"networkPenetration":0.05133438333458719},{"id":"Bitcoin Suisse","idType":"entity","timeWindow":"1d","validatorCount":9000,"avgCorrectness":0.9899050082279743,"avgInclusionDelay":1.0380960524257512,"avgUptime":0.9991508641975306,"avgValidatorEffectiveness":96.1949152624577,"clientPercentages":[{"client":"Nimbus","percentage":0.0063522617901828685},{"client":"Teku","percentage":0.9934552454282964},{"client":"Prysm","percentage":0.00019249278152069297}],"networkPenetration":0.02184132038062141},{"id":"Rocketpool","idType":"entity","timeWindow":"1d","validatorCount":6567,"avgCorrectness":0.990219611473202,"avgInclusionDelay":1.0234881891999417,"avgUptime":0.9911529241679551,"avgValidatorEffectiveness":96.76452654944154,"clientPercentages":[{"client":"Nimbus","percentage":0.2328336902212705},{"client":"Teku","percentage":0.291220556745182},{"client":"Prysm","percentage":0.07037830121341898},{"client":"Lighthouse","percentage":0.4055674518201285}],"networkPenetration":0.015902908050468012},{"id":"Staked.us","idType":"entity","timeWindow":"1d","validatorCount":5263,"avgCorrectness":0.9911050273452601,"avgInclusionDelay":1.0185913969636093,"avgUptime":0.9994109823294703,"avgValidatorEffectiveness":97.85088240151765,"clientPercentages":[{"client":"Teku","percentage":0.5081206496519721},{"client":"Lighthouse","percentage":0.0019887305270135896},{"client":"Nimbus","percentage":0.043752071594298975},{"client":"Prysm","percentage":0.4461385482267153}],"networkPenetration":0.012772318795912275},{"id":"f2pool.eth","idType":"entity","timeWindow":"1d","validatorCount":3501,"avgCorrectness":0.9919337332190803,"avgInclusionDelay":1.018218286838681,"avgUptime":1.0,"avgValidatorEffectiveness":97.97753946488574,"clientPercentages":[{"client":"Lighthouse","percentage":1.0}],"networkPenetration":0.008496273628061728},{"id":"Bitfinex","idType":"entity","timeWindow":"1d","validatorCount":3214,"avgCorrectness":0.9896365382187126,"avgInclusionDelay":1.0214290372578159,"avgUptime":0.9965857705870158,"avgValidatorEffectiveness":97.38171924408317,"clientPercentages":[{"client":"Lighthouse","percentage":0.0027233115468409588},{"client":"Prysm","percentage":0.8850762527233116},{"client":"Nimbus","percentage":0.09640522875816994},{"client":"Teku","percentage":0.01579520697167756}],"networkPenetration":0.007799778189257468},{"id":"Huobi","idType":"entity","timeWindow":"1d","validatorCount":2855,"avgCorrectness":0.9909525121704785,"avgInclusionDelay":1.0194424075985509,"avgUptime":0.9999346176298888,"avgValidatorEffectiveness":97.81658628567183,"clientPercentages":[{"client":"Prysm","percentage":0.9123649459783914},{"client":"Nimbus","percentage":0.07923169267707082},{"client":"Lighthouse","percentage":0.0012004801920768306},{"client":"Teku","percentage":0.007202881152460984}],"networkPenetration":0.006928552187408236},{"id":"wedex.eth","idType":"entity","timeWindow":"1d","validatorCount":2399,"avgCorrectness":0.9911367595818815,"avgInclusionDelay":1.0195770627919045,"avgUptime":0.999601685887638,"avgValidatorEffectiveness":97.78955052370233,"clientPercentages":[{"client":"Lighthouse","percentage":1.0}],"networkPenetration":0.005821925288123418},{"id":"Bloxstaking","idType":"entity","timeWindow":"1d","validatorCount":2350,"avgCorrectness":0.989955811246842,"avgInclusionDelay":1.0214755447896067,"avgUptime":0.9996765957446796,"avgValidatorEffectiveness":97.56977057017266,"clientPercentages":[{"client":"Teku","percentage":0.0014727540500736377},{"client":"Lighthouse","percentage":0.49852724594992637},{"client":"Prysm","percentage":0.44550810014727543},{"client":"Nimbus","percentage":0.054491899852724596}],"networkPenetration":0.005703011432717813},{"id":"Ankr","idType":"entity","timeWindow":"1d","validatorCount":2290,"avgCorrectness":0.8464207340876498,"avgInclusionDelay":1.598464594657678,"avgUptime":0.9520754929204711,"avgValidatorEffectiveness":63.721809917036055,"clientPercentages":[{"client":"Lighthouse","percentage":0.016198704103671708},{"client":"Prysm","percentage":0.9071274298056156},{"client":"Teku","percentage":0.004319654427645789},{"client":"Nimbus","percentage":0.07235421166306695}],"networkPenetration":0.005557402630180336},{"id":"StakeWise","idType":"entity","timeWindow":"1d","validatorCount":1979,"avgCorrectness":0.9906002368055072,"avgInclusionDelay":1.0260800600326674,"avgUptime":0.9995867722194146,"avgValidatorEffectiveness":97.33837130846342,"clientPercentages":[{"client":"Prysm","percentage":0.36069868995633186},{"client":"Teku","percentage":0.06026200873362445},{"client":"Lighthouse","percentage":0.5388646288209606},{"client":"Nimbus","percentage":0.04017467248908297}],"networkPenetration":0.004802663670361086},{"id":"OKex","idType":"entity","timeWindow":"1d","validatorCount":1721,"avgCorrectness":0.9909419985608481,"avgInclusionDelay":1.019438885781205,"avgUptime":0.9999251036369401,"avgValidatorEffectiveness":97.81590306330358,"clientPercentages":[{"client":"Teku","percentage":0.006718924972004479},{"client":"Nimbus","percentage":0.1019036954087346},{"client":"Prysm","percentage":0.8891377379619261},{"client":"Lighthouse","percentage":0.0022396416573348264}],"networkPenetration":0.004174119006074314}]}