{"page":{"from":0,"size":15},"total":31,"next":"/v0/eth/operators?window=1d&from=15&size=15&idType=entity","data":[{"id":"Lido","idType":"entity","timeWindow":"1d","validatorCount":128793,"avgCorrectness":0.9841168104320867,"avgInclusionDelay":1.0251517661306147,"avgUptime":0.9997603907044552,"avgValidatorEffectiveness":96.9564320257159,"clientPercentages":[{"client":"Lighthouse","percentage":0.3901341611848853},{"client":"Prysm","percentage":0.3543988731007508},{"client":"Teku","percentage":0.1765840182710849},{"client":"Nimbus","percentage":0.07888294744327895}],"networkPenetration":0.32038378491328273},{"id":"Coinbase","idType":"entity","timeWindow":"1d","validatorCount":56616,"avgCorrectness":0.9838854558253483,"avgInclusionDelay":1.0257559109133914,"avgUptime":0.9997639222815597,"avgValidatorEffectiveness":96.9024489427994,"clientPercentages":[{"client":"Prysm","percentage":0.37485480222534695},{"client":"Nimbus","percentage":0.09720608913614966},{"client":"Lighthouse","percentage":0.36210796600843675},{"client":"Teku","percentage":0.16583114263006662}],"networkPenetration":0.14033472969880298},{"id":"Kraken","idType":"entity","timeWindow":"1d","validatorCount":35629,"avgCorrectness":0.9776152876004486,"avgInclusionDelay":1.035999179408323,"avgUptime":0.9988327958044043,"avgValidatorEffectiveness":95.86409806497986,"clientPercentages":[{"client":"Teku","percentage":0.08519279702485809},{"client":"Nimbus","percentage":0.038755137991779216},{"client":"Prysm","percentage":0.6030045018594636},{"client":"Lighthouse","percentage":0.273047563123899}],"networkPenetration":0.08858048338789441},{"id":"Binance","idType":"entity","timeWindow":"1d","validatorCount":20422,"avgCorrectness":0.9853567776682751,"avgInclusionDelay":1.0216494222630483,"avgUptime":0.9997937953623017,"avgValidatorEffectiveness":97.31120360385032,"clientPercentages":[{"client":"Nimbus","percentage":0.07626127631139325},{"client":"Teku","percentage":0.01110925492816572},{"client":"Lighthouse","percentage":0.3196625459405279},{"client":"Prysm","percentage":0.5929669228199131}],"networkPenetration":0.05080150051244291},{"id":"Bitcoin Suisse","idType":"entity","timeWindow":"1d","validatorCount":8908,"avgCorrectness":0.9834231808285613,"avgInclusionDelay":1.0453578988346086,"avgUptime":0.9990612682732143,"avgValidatorEffectiveness":95.27053540100502,"clientPercentages":[{"client":"Nimbus","percentage":0.00696240302367217},{"client":"Teku","percentage":0.9930375969763279}],"networkPenetration":0.022159424471885292},{"id":"Rocketpool","idType":"entity","timeWindow":"1d","validatorCount":5883,"avgCorrectness":0.9844053292180273,"avgInclusionDelay":1.0245770631138547,"avgUptime":0.9760110644329705,"avgValidatorEffectiveness":95.02417392969507,"clientPercentages":[{"client":"Prysm","percentage":0.056414922656960874},{"client":"Nimbus","percentage":0.25508037609948436},{"client":"Teku","percentage":0.2605398847437064},{"client":"Lighthouse","percentage":0.42796481649984836}],"networkPenetration":0.014594672583806804},{"id":"Staked.us","idType":"entity","timeWindow":"1d","validatorCount":5263,"avgCorrectness":0.9819176443648902,"avgInclusionDelay":1.0292862926419841,"avgUptime":0.9975751050309298,"avgValidatorEffectiveness":96.31350089712107,"clientPercentages":[{"client":"Nimbus","percentage":0.05559125964010283},{"client":"Prysm","percentage":0.43316195372750643},{"client":"Lighthouse","percentage":0.0016066838046272494},{"client":"Teku","percentage":0.5096401028277635}],"networkPenetration":0.013092170071343993},{"id":"f2pool.eth","idType":"entity","timeWindow":"1d","validatorCount":3501,"avgCorrectness":0.9753719409018219,"avgInclusionDelay":1.0986783283134542,"avgUptime":0.9974413659589323,"avgValidatorEffectiveness":90.79988844618637,"clientPercentages":[{"client":"Nimbus","percentage":0.00045024763619990995},{"client":"Lighthouse","percentage":0.9995497523638001}],"networkPenetration":0.008709041881013742},{"id":"Bitfinex","idType":"entity","timeWindow":"1d","validatorCount":3214,"avgCorrectness":0.9829465835759885,"avgInclusionDelay":1.0269980149535554,"avgUptime":0.9996612044527413,"avgValidatorEffectiveness":96.76306402349277,"clientPercentages":[{"client":"Teku","percentage":0.021432305279665446},{"client":"Nimbus","percentage":0.1097752221641401},{"client":"Prysm","percentage":0.865656037637219},{"client":"Lighthouse","percentage":0.0031364349189754314}],"networkPenetration":0.00799510442889979},{"id":"Huobi","idType":"entity","timeWindow":"1d","validatorCount":2855,"avgCorrectness":0.9805230903628013,"avgInclusionDelay":1.0332825430737476,"avgUptime":0.999701887526756,"avgValidatorEffectiveness":96.08931182627542,"clientPercentages":[{"client":"Prysm","percentage":0.8795110593713621},{"client":"Nimbus","percentage":0.0989522700814901},{"client":"Teku","percentage":0.018044237485448197},{"client":"Lighthouse","percentage":0.0034924330616996507}],"networkPenetration":0.00710206071702206},{"id":"wedex.eth","idType":"entity","timeWindow":"1d","validatorCount":2399,"avgCorrectness":0.9832546811483034,"avgInclusionDelay":1.027099337061206,"avgUptime":0.9998944004446289,"avgValidatorEffectiveness":96.75104052768671,"clientPercentages":[{"client":"Lighthouse","percentage":1.0}],"networkPenetration":0.005967721071851461},{"id":"Bloxstaking","idType":"entity","timeWindow":"1d","validatorCount":2299,"avgCorrectness":0.9788584552634736,"avgInclusionDelay":1.0392162932979379,"avgUptime":0.9998810437646615,"avgValidatorEffectiveness":95.52531975696954,"clientPercentages":[{"client":"Lighthouse","percentage":0.49417758369723436},{"client":"Nimbus","percentage":0.04439592430858806},{"client":"Teku","percentage":0.008733624454148471},{"client":"Prysm","percentage":0.45269286754002913}],"networkPenetration":0.005713987203852774},{"id":"Ankr","idType":"entity","timeWindow":"1d","validatorCount":2283,"avgCorrectness":0.8528438528931185,"avgInclusionDelay":1.502270319979637,"avgUptime":0.9483739718693733,"avgValidatorEffectiveness":66.69016295881701,"clientPercentages":[{"client":"Teku","percentage":0.008008008008008008},{"client":"Lighthouse","percentage":0.01001001001001001},{"client":"Prysm","percentage":0.8898898898898899},{"client":"Nimbus","percentage":0.0920920920920921}],"networkPenetration":0.005679160986676484},{"id":"StakeWise","idType":"entity","timeWindow":"1d","validatorCount":1959,"avgCorrectness":0.982368750873543,"avgInclusionDelay":1.0361297403314538,"avgUptime":0.9973418171231059,"avgValidatorEffectiveness":95.82688732526924,"clientPercentages":[{"client":"Prysm","percentage":0.3770197486535009},{"client":"Lighthouse","percentage":0.5359066427289049},{"client":"Teku","percentage":0.04039497307001795},{"client":"Nimbus","percentage":0.0466786355475763}],"networkPenetration":0.004818455905033881},{"id":"OKex","idType":"entity","timeWindow":"1d","validatorCount":1528,"avgCorrectness":0.9829561821848094,"avgInclusionDelay":1.0258094176731951,"avgUptime":0.9996305991855726,"avgValidatorEffectiveness":96.82106516534125,"clientPercentages":[{"client":"Teku","percentage":0.021134593993325918},{"client":"Prysm","percentage":0.8765294771968855},{"client":"Nimbus","percentage":0.10233592880978866}],"networkPenetration":0.003801032846097971}]}