{"page":{"from":0,"size":15},"total":31,"next":"/v0/eth/operators?window=1d&from=15&size=15&idType=entity","data":[{"id":"Lido","idType":"entity","timeWindow":"1d","validatorCount":128433,"avgCorrectness":0.9866909919174784,"avgInclusionDelay":1.0237845677466755,"avgUptime":0.9992725043964767,"avgValidatorEffectiveness":97.20813556032053,"clientPercentages":[{"client":"Lighthouse","percentage":0.4075468394326738},{"client":"Teku","percentage":0.15570828226230082},{"client":"Prysm","percentage":0.36285239012432147},{"client":"Nimbus","percentage":0.0738924881807039}],"networkPenetration":0.3253268632536489},{"id":"Coinbase","idType":"entity","timeWindow":"1d","validatorCount":55523,"avgCorrectness":0.987430032721094,"avgInclusionDelay":1.0176676392663089,"avgUptime":0.9994772400326227,"avgValidatorEffectiveness":97.72659969681982,"clientPercentages":[{"client":"Teku","percentage":0.1581356136336264},{"client":"Lighthouse","percentage":0.2746597615319764},{"client":"Nimbus","percentage":0.09887992291942671},{"client":"Prysm","percentage":0.4683247019149705}],"networkPenetration":0.1402146383017562},{"id":"Kraken","idType":"entity","timeWindow":"1d","validatorCount":34690,"avgCorrectness":0.9840826743516209,"avgInclusionDelay":1.023330431832159,"avgUptime":0.9990238492018066,"avgValidatorEffectiveness":97.13120633080743,"clientPercentages":[{"client":"Lighthouse","percentage":0.21619094488188975},{"client":"Teku","percentage":0.07898622047244094},{"client":"Nimbus","percentage":0.036122047244094485},{"client":"Prysm","percentage":0.6687007874015748}],"networkPenetration":0.08746269943285391},{"id":"Binance","idType":"entity","timeWindow":"1d","validatorCount":19738,"avgCorrectness":0.987706581141226,"avgInclusionDelay":1.0179780877839801,"avgUptime":0.9999049774265096,"avgValidatorEffectiveness":97.75419658787932,"clientPercentages":[{"client":"Nimbus","percentage":0.06956019473553923},{"client":"Lighthouse","percentage":0.3042330225266111},{"client":"Prysm","percentage":0.6156448551860715},{"client":"Teku","percentage":0.0105619275517782}],"networkPenetration":0.05004170564686853},{"id":"Bitcoin Suisse","idType":"entity","timeWindow":"1d","validatorCount":8487,"avgCorrectness":0.9829046792475813,"avgInclusionDelay":1.0664977206856876,"avgUptime":0.9986331439101972,"avgValidatorEffectiveness":93.59981824574024,"clientPercentages":[{"client":"Nimbus","percentage":0.017020424509411294},{"client":"Prysm","percentage":0.00040048057669203043},{"client":"Teku","percentage":0.9825790949138967}],"networkPenetration":0.02128382404019968},{"id":"Rocketpool","idType":"entity","timeWindow":"1d","validatorCount":5679,"avgCorrectness":0.9848523516359786,"avgInclusionDelay":1.0269453436886988,"avgUptime":0.9933642638938738,"avgValidatorEffectiveness":96.40380179229038,"clientPercentages":[{"client":"Lighthouse","percentage":0.4504112990842775},{"client":"Teku","percentage":0.23389725283253143},{"client":"Nimbus","percentage":0.259506441098867},{"client":"Prysm","percentage":0.05618500698432407}],"networkPenetration":0.014205272912118977},{"id":"Staked.us","idType":"entity","timeWindow":"1d","validatorCount":5263,"avgCorrectness":0.9870010838061786,"avgInclusionDelay":1.0186941782797807,"avgUptime":0.9996757236050411,"avgValidatorEffectiveness":97.63436723996426,"clientPercentages":[{"client":"Nimbus","percentage":0.04672897196261682},{"client":"Prysm","percentage":0.45981308411214955},{"client":"Teku","percentage":0.4884735202492212},{"client":"Lighthouse","percentage":0.004984423676012461}],"networkPenetration":0.013343271700246684},{"id":"f2pool.eth","idType":"entity","timeWindow":"1d","validatorCount":3501,"avgCorrectness":0.9796420352493035,"avgInclusionDelay":1.089212511905754,"avgUptime":0.9976317877431843,"avgValidatorEffectiveness":91.67982579403657,"clientPercentages":[{"client":"Lighthouse","percentage":0.9995590828924162},{"client":"Nimbus","percentage":0.0004409171075837742}],"networkPenetration":0.00887607718460263},{"id":"Bitfinex","idType":"entity","timeWindow":"1d","validatorCount":3214,"avgCorrectness":0.9816987243310084,"avgInclusionDelay":1.0326596883864132,"avgUptime":0.993062296895526,"avgValidatorEffectiveness":95.71331884455917,"clientPercentages":[{"client":"Lighthouse","percentage":0.0031088082901554403},{"client":"Teku","percentage":0.014507772020725389},{"client":"Prysm","percentage":0.8813471502590674},{"client":"Nimbus","percentage":0.10103626943005181}],"networkPenetration":0.008148446749875136},{"id":"Huobi","idType":"entity","timeWindow":"1d","validatorCount":2855,"avgCorrectness":0.9837751367554792,"avgInclusionDelay":1.0290470039994453,"avgUptime":0.9991655964195372,"avgValidatorEffectiveness":96.57995457182564,"clientPercentages":[{"client":"Teku","percentage":0.0182648401826484},{"client":"Nimbus","percentage":0.0867579908675799},{"client":"Prysm","percentage":0.8921232876712328},{"client":"Lighthouse","percentage":0.0028538812785388126}],"networkPenetration":0.007238274882045276},{"id":"wedex.eth","idType":"entity","timeWindow":"1d","validatorCount":2399,"avgCorrectness":0.9876168992686124,"avgInclusionDelay":1.016213737487899,"avgUptime":0.999912000370525,"avgValidatorEffectiveness":97.89263799872381,"clientPercentages":[{"client":"Lighthouse","percentage":0.9993206521739131},{"client":"Nimbus","percentage":0.0006793478260869565}],"networkPenetration":0.006082179139063613},{"id":"Ankr","idType":"entity","timeWindow":"1d","validatorCount":2278,"avgCorrectness":0.847780790785362,"avgInclusionDelay":1.5087854135998553,"avgUptime":0.9450947962765708,"avgValidatorEffectiveness":65.68428824650276,"clientPercentages":[{"client":"Prysm","percentage":0.9069124423963134},{"client":"Teku","percentage":0.004608294930875576},{"client":"Lighthouse","percentage":0.010138248847926268},{"client":"Nimbus","percentage":0.07834101382488479}],"networkPenetration":0.005770337524180402},{"id":"Bloxstaking","idType":"entity","timeWindow":"1d","validatorCount":2276,"avgCorrectness":0.9862902815102678,"avgInclusionDelay":1.018088973854724,"avgUptime":0.9998679959966608,"avgValidatorEffectiveness":97.65735943436565,"clientPercentages":[{"client":"Lighthouse","percentage":0.43134435657800146},{"client":"Teku","percentage":0.012221423436376708},{"client":"Prysm","percentage":0.5197699496764917},{"client":"Nimbus","percentage":0.03666427030913012}],"networkPenetration":0.005747519845042606},{"id":"StakeWise","idType":"entity","timeWindow":"1d","validatorCount":1983,"avgCorrectness":0.9857226948243064,"avgInclusionDelay":1.0249511930708934,"avgUptime":0.9978655470663589,"avgValidatorEffectiveness":96.91239107326521,"clientPercentages":[{"client":"Nimbus","percentage":0.04900181488203267},{"client":"Lighthouse","percentage":0.43920145190562615},{"client":"Teku","percentage":0.04446460980036298},{"client":"Prysm","percentage":0.4673321234119782}],"networkPenetration":0.00494636577753777},{"id":"Stakefish","idType":"entity","timeWindow":"1d","validatorCount":1518,"avgCorrectness":0.9821701413836891,"avgInclusionDelay":1.0682078788927436,"avgUptime":0.9983516322646759,"avgValidatorEffectiveness":93.4140253437505,"clientPercentages":[{"client":"Lighthouse","percentage":0.9599578503688093},{"client":"Teku","percentage":0.03898840885142255},{"client":"Prysm","percentage":0.001053740779768177}],"networkPenetration":0.003848581881241586}]}