{"page":{"from":0,"size":15},"total":31,"next":"/v0/eth/operators?window=1d&from=15&size=15&idType=entity","data":[{"id":"Lido","idType":"entity","timeWindow":"1d","validatorCount":128746,"avgCorrectness":0.9890955074507958,"avgInclusionDelay":1.0135921360568572,"avgUptime":0.9999056634252232,"avgValidatorEffectiveness":98.201583652165,"clientPercentages":[{"client":"Nimbus","percentage":0.07577318817854636},{"client":"Teku","percentage":0.1616713707569852},{"client":"Lighthouse","percentage":0.4034317458895211},{"client":"Prysm","percentage":0.35912369517494735}],"networkPenetration":0.3219856914148489},{"id":"Coinbase","idType":"entity","timeWindow":"1d","validatorCount":55741,"avgCorrectness":0.9888204830865791,"avgInclusionDelay":1.013222792987524,"avgUptime":0.999884625121347,"avgValidatorEffectiveness":98.21424938611139,"clientPercentages":[{"client":"Teku","percentage":0.1585719290423262},{"client":"Prysm","percentage":0.42568234657154685},{"client":"Lighthouse","percentage":0.3142138284658747},{"client":"Nimbus","percentage":0.10153189592025223}],"networkPenetration":0.13943616169701822},{"id":"Kraken","idType":"entity","timeWindow":"1d","validatorCount":35468,"avgCorrectness":0.9851154239337329,"avgInclusionDelay":1.0189343707668546,"avgUptime":0.9995265464196964,"avgValidatorEffectiveness":97.58381884159371,"clientPercentages":[{"client":"Prysm","percentage":0.6349247400817255},{"client":"Nimbus","percentage":0.03791444680080691},{"client":"Teku","percentage":0.08162209693270574},{"client":"Lighthouse","percentage":0.2455387161847618}],"networkPenetration":0.08866820092055233},{"id":"Binance","idType":"entity","timeWindow":"1d","validatorCount":20422,"avgCorrectness":0.9885859617507992,"avgInclusionDelay":1.0145585710231768,"avgUptime":0.9985140208272157,"avgValidatorEffectiveness":97.97525784759438,"clientPercentages":[{"client":"Prysm","percentage":0.6037255074246551},{"client":"Teku","percentage":0.010543888937703189},{"client":"Lighthouse","percentage":0.3111325894033916},{"client":"Nimbus","percentage":0.07459801423425007}],"networkPenetration":0.0510856513908345},{"id":"Bitcoin Suisse","idType":"entity","timeWindow":"1d","validatorCount":8815,"avgCorrectness":0.9861588153559415,"avgInclusionDelay":1.0362460765405248,"avgUptime":0.9995137481039759,"avgValidatorEffectiveness":96.16397832331661,"clientPercentages":[{"client":"Nimbus","percentage":0.007993268826251577},{"client":"Teku","percentage":0.9917963819941102},{"client":"Prysm","percentage":0.00021034917963819942}],"networkPenetration":0.02197318391034621},{"id":"Rocketpool","idType":"entity","timeWindow":"1d","validatorCount":5825,"avgCorrectness":0.9885462427242498,"avgInclusionDelay":1.0156020713521627,"avgUptime":0.9880190507838731,"avgValidatorEffectiveness":96.99913399197396,"clientPercentages":[{"client":"Prysm","percentage":0.060119915734889},{"client":"Nimbus","percentage":0.2550640090747043},{"client":"Teku","percentage":0.24210014584346135},{"client":"Lighthouse","percentage":0.44271592934694537}],"networkPenetration":0.014536221733039823},{"id":"Staked.us","idType":"entity","timeWindow":"1d","validatorCount":5263,"avgCorrectness":0.9883163346993918,"avgInclusionDelay":1.015132959409856,"avgUptime":0.9994937403677673,"avgValidatorEffectiveness":97.99123889847033,"clientPercentages":[{"client":"Lighthouse","percentage":0.0013236267372600927},{"client":"Teku","percentage":0.49503639973527463},{"client":"Prysm","percentage":0.4500330906684315},{"client":"Nimbus","percentage":0.053606882859033755}],"networkPenetration":0.013165399239543726},{"id":"f2pool.eth","idType":"entity","timeWindow":"1d","validatorCount":3501,"avgCorrectness":0.9828550885138597,"avgInclusionDelay":1.071623561482898,"avgUptime":0.9984283855406387,"avgValidatorEffectiveness":93.23330912050963,"clientPercentages":[{"client":"Nimbus","percentage":0.0004723665564478035},{"client":"Lighthouse","percentage":0.9995276334435522}],"networkPenetration":0.008757754652791674},{"id":"Bitfinex","idType":"entity","timeWindow":"1d","validatorCount":3214,"avgCorrectness":0.982459435542824,"avgInclusionDelay":1.0286565723339733,"avgUptime":0.9883945239576851,"avgValidatorEffectiveness":95.70151525587805,"clientPercentages":[{"client":"Prysm","percentage":0.8776741634668129},{"client":"Nimbus","percentage":0.10367526055951728},{"client":"Teku","percentage":0.015907844212835986},{"client":"Lighthouse","percentage":0.0027427317608337905}],"networkPenetration":0.008039823894336603},{"id":"Huobi","idType":"entity","timeWindow":"1d","validatorCount":2855,"avgCorrectness":0.9854814333799727,"avgInclusionDelay":1.0225582233725057,"avgUptime":0.9996660828955056,"avgValidatorEffectiveness":97.23002267735049,"clientPercentages":[{"client":"Nimbus","percentage":0.09644364074743822},{"client":"Lighthouse","percentage":0.0024110910186859553},{"client":"Teku","percentage":0.016877637130801686},{"client":"Prysm","percentage":0.8842676311030742}],"networkPenetration":0.007141785071042625},{"id":"wedex.eth","idType":"entity","timeWindow":"1d","validatorCount":2399,"avgCorrectness":0.988932990158746,"avgInclusionDelay":1.013267440847782,"avgUptime":0.9997999166319289,"avgValidatorEffectiveness":98.2076308131472,"clientPercentages":[{"client":"Lighthouse","percentage":1.0}],"networkPenetration":0.006001100660396237},{"id":"Bloxstaking","idType":"entity","timeWindow":"1d","validatorCount":2292,"avgCorrectness":0.9872383998014151,"avgInclusionDelay":1.0140793583225782,"avgUptime":0.9999311615280202,"avgValidatorEffectiveness":98.05345537027205,"clientPercentages":[{"client":"Prysm","percentage":0.5015060240963856},{"client":"Lighthouse","percentage":0.45180722891566266},{"client":"Teku","percentage":0.010542168674698794},{"client":"Nimbus","percentage":0.03614457831325301}],"networkPenetration":0.005733440064038423},{"id":"Ankr","idType":"entity","timeWindow":"1d","validatorCount":2282,"avgCorrectness":0.872417390572323,"avgInclusionDelay":1.4147368083477312,"avgUptime":0.9716895510760553,"avgValidatorEffectiveness":73.46879850029615,"clientPercentages":[{"client":"Lighthouse","percentage":0.009544008483563097},{"client":"Prysm","percentage":0.887592788971368},{"client":"Teku","percentage":0.006362672322375398},{"client":"Nimbus","percentage":0.09650053022269353}],"networkPenetration":0.005708425055033019},{"id":"StakeWise","idType":"entity","timeWindow":"1d","validatorCount":1933,"avgCorrectness":0.9866155500200292,"avgInclusionDelay":1.0204240202962478,"avgUptime":0.9989136057941026,"avgValidatorEffectiveness":97.43845405882416,"clientPercentages":[{"client":"Lighthouse","percentage":0.5277246653919694},{"client":"Teku","percentage":0.04397705544933078},{"client":"Nimbus","percentage":0.04875717017208413},{"client":"Prysm","percentage":0.3795411089866157}],"networkPenetration":0.0048354012407444465},{"id":"OKex","idType":"entity","timeWindow":"1d","validatorCount":1521,"avgCorrectness":0.9870261937835921,"avgInclusionDelay":1.0157124603635128,"avgUptime":0.9997995116160323,"avgValidatorEffectiveness":97.89778068384665,"clientPercentages":[{"client":"Prysm","percentage":0.8918918918918919},{"client":"Teku","percentage":0.012925969447708578},{"client":"Nimbus","percentage":0.09518213866039953}],"networkPenetration":0.0037922753652191313}]}