{"page":{"from":0,"size":15},"total":31,"next":"/v0/eth/operators?window=1d&from=15&size=15&idType=entity","data":[{"id":"Lido","idType":"entity","timeWindow":"1d","validatorCount":129049,"avgCorrectness":0.986303698070428,"avgInclusionDelay":1.027373292669469,"avgUptime":0.9996459707546277,"avgValidatorEffectiveness":96.8782003937826,"clientPercentages":[{"client":"Lighthouse","percentage":0.37658287404220997},{"client":"Teku","percentage":0.19212259712326926},{"client":"Prysm","percentage":0.35219787605861},{"client":"Nimbus","percentage":0.07909665277591074}],"networkPenetration":0.31698354212724145},{"id":"Coinbase","idType":"entity","timeWindow":"1d","validatorCount":57005,"avgCorrectness":0.9859321721155341,"avgInclusionDelay":1.0276701875668792,"avgUptime":0.9997230652281992,"avgValidatorEffectiveness":96.84013182493197,"clientPercentages":[{"client":"Teku","percentage":0.16704826732673267},{"client":"Prysm","percentage":0.36379950495049507},{"client":"Lighthouse","percentage":0.37688737623762375},{"client":"Nimbus","percentage":0.09226485148514851}],"networkPenetration":0.14002702038811102},{"id":"Kraken","idType":"entity","timeWindow":"1d","validatorCount":35872,"avgCorrectness":0.9789108451820298,"avgInclusionDelay":1.0395256076059094,"avgUptime":0.9988024820476099,"avgValidatorEffectiveness":95.66214291151543,"clientPercentages":[{"client":"Prysm","percentage":0.6030055442077619},{"client":"Nimbus","percentage":0.04148429141134131},{"client":"Lighthouse","percentage":0.26855364264176634},{"client":"Teku","percentage":0.08695652173913043}],"networkPenetration":0.08810857283222795},{"id":"Binance","idType":"entity","timeWindow":"1d","validatorCount":20810,"avgCorrectness":0.9865981776547937,"avgInclusionDelay":1.0259245331719864,"avgUptime":0.9978815740295783,"avgValidatorEffectiveness":96.85299234985902,"clientPercentages":[{"client":"Prysm","percentage":0.5931080741175484},{"client":"Lighthouse","percentage":0.3254800033537352},{"client":"Nimbus","percentage":0.0726083675693804},{"client":"Teku","percentage":0.008803554959335961}],"networkPenetration":0.05111766150822894},{"id":"Bitcoin Suisse","idType":"entity","timeWindow":"1d","validatorCount":9000,"avgCorrectness":0.9832462011246628,"avgInclusionDelay":1.056404637430178,"avgUptime":0.9991911111111096,"avgValidatorEffectiveness":94.39001439074408,"clientPercentages":[{"client":"Teku","percentage":0.9928966061562746},{"client":"Nimbus","percentage":0.006906077348066298},{"client":"Prysm","percentage":0.0001973164956590371}],"networkPenetration":0.02210759027266028},{"id":"Rocketpool","idType":"entity","timeWindow":"1d","validatorCount":6253,"avgCorrectness":0.9853213353952097,"avgInclusionDelay":1.029286254779576,"avgUptime":0.9905072770758927,"avgValidatorEffectiveness":95.90771305617477,"clientPercentages":[{"client":"Nimbus","percentage":0.2553382111393161},{"client":"Lighthouse","percentage":0.41735105271016876},{"client":"Prysm","percentage":0.05987755711512618},{"client":"Teku","percentage":0.267433179035389}],"networkPenetration":0.015352493244902973},{"id":"Staked.us","idType":"entity","timeWindow":"1d","validatorCount":5263,"avgCorrectness":0.9845639882777315,"avgInclusionDelay":1.0285931163388633,"avgUptime":0.9984715097008456,"avgValidatorEffectiveness":96.5855254164496,"clientPercentages":[{"client":"Lighthouse","percentage":0.000967741935483871},{"client":"Nimbus","percentage":0.05838709677419355},{"client":"Prysm","percentage":0.4309677419354839},{"client":"Teku","percentage":0.5096774193548387}],"networkPenetration":0.012928027511667895},{"id":"f2pool.eth","idType":"entity","timeWindow":"1d","validatorCount":3501,"avgCorrectness":0.9874648274426242,"avgInclusionDelay":1.0248862703727895,"avgUptime":0.9999980957821567,"avgValidatorEffectiveness":97.17119914876957,"clientPercentages":[{"client":"Lighthouse","percentage":1.0}],"networkPenetration":0.008599852616064848},{"id":"Bitfinex","idType":"entity","timeWindow":"1d","validatorCount":3214,"avgCorrectness":0.9851432784263775,"avgInclusionDelay":1.0279302073634624,"avgUptime":0.9988003871949115,"avgValidatorEffectiveness":96.75770906626504,"clientPercentages":[{"client":"Prysm","percentage":0.8753358409457281},{"client":"Nimbus","percentage":0.10370768404083826},{"client":"Teku","percentage":0.018807092960773777},{"client":"Lighthouse","percentage":0.0021493820526598604}],"networkPenetration":0.007894866126258905},{"id":"Huobi","idType":"entity","timeWindow":"1d","validatorCount":2855,"avgCorrectness":0.9829621105119153,"avgInclusionDelay":1.0310438101585748,"avgUptime":0.9996606343646623,"avgValidatorEffectiveness":96.3948615500621,"clientPercentages":[{"client":"Lighthouse","percentage":0.0017605633802816902},{"client":"Prysm","percentage":0.886150234741784},{"client":"Teku","percentage":0.014084507042253521},{"client":"Nimbus","percentage":0.09800469483568075}],"networkPenetration":0.007013018914271678},{"id":"wedex.eth","idType":"entity","timeWindow":"1d","validatorCount":2399,"avgCorrectness":0.985678644841884,"avgInclusionDelay":1.0291079481528576,"avgUptime":0.999507202074938,"avgValidatorEffectiveness":96.68622328082239,"clientPercentages":[{"client":"Lighthouse","percentage":1.0}],"networkPenetration":0.005892901007123557},{"id":"Bloxstaking","idType":"entity","timeWindow":"1d","validatorCount":2335,"avgCorrectness":0.9838367035235596,"avgInclusionDelay":1.028995760759026,"avgUptime":0.9998924292253818,"avgValidatorEffectiveness":96.62548341944341,"clientPercentages":[{"client":"Nimbus","percentage":0.05101275318829707},{"client":"Prysm","percentage":0.43810952738184544},{"client":"Lighthouse","percentage":0.5026256564141035},{"client":"Teku","percentage":0.008252063015753939}],"networkPenetration":0.005733235077376566},{"id":"Ankr","idType":"entity","timeWindow":"1d","validatorCount":2288,"avgCorrectness":0.8520310563676988,"avgInclusionDelay":1.5528832831488197,"avgUptime":0.9428428515928524,"avgValidatorEffectiveness":63.16408557487355,"clientPercentages":[{"client":"Prysm","percentage":0.8990731204943357},{"client":"Lighthouse","percentage":0.008238928939237899},{"client":"Nimbus","percentage":0.08341915550978372},{"client":"Teku","percentage":0.009268795056642637}],"networkPenetration":0.00562024072709408},{"id":"StakeWise","idType":"entity","timeWindow":"1d","validatorCount":1976,"avgCorrectness":0.9871186780012552,"avgInclusionDelay":1.026986383646879,"avgUptime":0.9998627980206924,"avgValidatorEffectiveness":96.98234270684895,"clientPercentages":[{"client":"Lighthouse","percentage":0.5461056401074306},{"client":"Teku","percentage":0.049239033124440466},{"client":"Prysm","percentage":0.36436884512085943},{"client":"Nimbus","percentage":0.04028648164726947}],"networkPenetration":0.004853844264308523},{"id":"OKex","idType":"entity","timeWindow":"1d","validatorCount":1555,"avgCorrectness":0.9769698503744572,"avgInclusionDelay":1.049408033131268,"avgUptime":0.9993269024651668,"avgValidatorEffectiveness":94.60464072203101,"clientPercentages":[{"client":"Prysm","percentage":0.8736263736263736},{"client":"Teku","percentage":0.017582417582417582},{"client":"Nimbus","percentage":0.1087912087912088}],"networkPenetration":0.0038197003193318597}]}