{"page":{"from":0,"size":15},"total":30,"next":"/v0/eth/operators?window=1d&from=15&size=15&idType=entity","data":[{"id":"Lido","idType":"entity","timeWindow":"1d","validatorCount":128319,"avgCorrectness":0.9872280376064266,"avgInclusionDelay":1.020145658509236,"avgUptime":0.9995896251925875,"avgValidatorEffectiveness":97.5659079046963,"clientPercentages":[{"client":"Lighthouse","percentage":0.40130566490094116},{"client":"Prysm","percentage":0.3591064457079911},{"client":"Nimbus","percentage":0.08723331875394859},{"client":"Teku","percentage":0.1523545706371191}],"networkPenetration":0.3262572276759254},{"id":"Coinbase","idType":"entity","timeWindow":"1d","validatorCount":55658,"avgCorrectness":0.9877881990577486,"avgInclusionDelay":1.0147694117792814,"avgUptime":0.9998468498632308,"avgValidatorEffectiveness":98.02296845491632,"clientPercentages":[{"client":"Prysm","percentage":0.5763798987878075},{"client":"Teku","percentage":0.1628221725314817},{"client":"Lighthouse","percentage":0.1399023184653407},{"client":"Nimbus","percentage":0.12089561021537013}],"networkPenetration":0.14158486111923727},{"id":"Kraken","idType":"entity","timeWindow":"1d","validatorCount":34498,"avgCorrectness":0.984450735822109,"avgInclusionDelay":1.020222907168706,"avgUptime":0.9991733441582171,"avgValidatorEffectiveness":97.41660362112779,"clientPercentages":[{"client":"Lighthouse","percentage":0.11321028218013143},{"client":"Nimbus","percentage":0.06411867027444917},{"client":"Prysm","percentage":0.750966370313104},{"client":"Teku","percentage":0.07170467723231543}],"networkPenetration":0.08535080779533308},{"id":"Binance","idType":"entity","timeWindow":"1d","validatorCount":19738,"avgCorrectness":0.9879670561052836,"avgInclusionDelay":1.0144030734723843,"avgUptime":0.9998941691717055,"avgValidatorEffectiveness":98.06582299478457,"clientPercentages":[{"client":"Nimbus","percentage":0.08063202475973286},{"client":"Teku","percentage":0.01628929793125916},{"client":"Prysm","percentage":0.6066949014497475},{"client":"Lighthouse","percentage":0.29638377585926046}],"networkPenetration":0.05021024810038997},{"id":"Bitcoin Suisse","idType":"entity","timeWindow":"1d","validatorCount":8395,"avgCorrectness":0.9830617279986299,"avgInclusionDelay":1.0638780960332241,"avgUptime":0.9984737353142057,"avgValidatorEffectiveness":93.79117778363803,"clientPercentages":[{"client":"Nimbus","percentage":0.12438881283004107},{"client":"Teku","percentage":0.8746332876980246},{"client":"Prysm","percentage":0.0009778994719342852}],"networkPenetration":0.02127664986886522},{"id":"Rocketpool","idType":"entity","timeWindow":"1d","validatorCount":5506,"avgCorrectness":0.9852513285876769,"avgInclusionDelay":1.024013854571126,"avgUptime":0.9935554535413436,"avgValidatorEffectiveness":96.68014836004349,"clientPercentages":[{"client":"Teku","percentage":0.2293215245927566},{"client":"Prysm","percentage":0.05962359639411672},{"client":"Lighthouse","percentage":0.4493120354262217},{"client":"Nimbus","percentage":0.26174284358690497}],"networkPenetration":0.013935137252707279},{"id":"Staked.us","idType":"entity","timeWindow":"1d","validatorCount":5263,"avgCorrectness":0.9874467877520283,"avgInclusionDelay":1.016116463602379,"avgUptime":0.9997006354635076,"avgValidatorEffectiveness":97.8800849436455,"clientPercentages":[{"client":"Nimbus","percentage":0.06578947368421052},{"client":"Teku","percentage":0.4967105263157895},{"client":"Lighthouse","percentage":0.00687799043062201},{"client":"Prysm","percentage":0.430622009569378}],"networkPenetration":0.013388212369660169},{"id":"f2pool.eth","idType":"entity","timeWindow":"1d","validatorCount":3501,"avgCorrectness":0.9793671677283675,"avgInclusionDelay":1.0870511958774436,"avgUptime":0.9972160335142324,"avgValidatorEffectiveness":91.79097208720144,"clientPercentages":[{"client":"Lighthouse","percentage":1.0}],"networkPenetration":0.008905972165339207},{"id":"Bitfinex","idType":"entity","timeWindow":"1d","validatorCount":3214,"avgCorrectness":0.9800663248496686,"avgInclusionDelay":1.0344384920952787,"avgUptime":0.9926439881075858,"avgValidatorEffectiveness":95.48312919822398,"clientPercentages":[{"client":"Prysm","percentage":0.841715976331361},{"client":"Lighthouse","percentage":0.0019723865877712033},{"client":"Teku","percentage":0.03796844181459566},{"client":"Nimbus","percentage":0.11834319526627218}],"networkPenetration":0.00817589104238795},{"id":"Huobi","idType":"entity","timeWindow":"1d","validatorCount":2855,"avgCorrectness":0.9847963554240324,"avgInclusionDelay":1.023493497391169,"avgUptime":0.9994940649931892,"avgValidatorEffectiveness":97.11586142074108,"clientPercentages":[{"client":"Teku","percentage":0.02681992337164751},{"client":"Prysm","percentage":0.8620689655172413},{"client":"Nimbus","percentage":0.11056376573617953},{"client":"Lighthouse","percentage":0.0005473453749315818}],"networkPenetration":0.007262653679532545},{"id":"wedex.eth","idType":"entity","timeWindow":"1d","validatorCount":2399,"avgCorrectness":0.9878662700372142,"avgInclusionDelay":1.0134756431409568,"avgUptime":0.9998879162614054,"avgValidatorEffectiveness":98.13616870351383,"clientPercentages":[{"client":"Lighthouse","percentage":1.0}],"networkPenetration":0.006102664160139605},{"id":"Ankr","idType":"entity","timeWindow":"1d","validatorCount":2276,"avgCorrectness":0.8573157010526965,"avgInclusionDelay":1.464175952898383,"avgUptime":0.9517888749353091,"avgValidatorEffectiveness":67.88815819527787,"clientPercentages":[{"client":"Teku","percentage":0.01},{"client":"Nimbus","percentage":0.10916666666666666},{"client":"Lighthouse","percentage":0.004166666666666667},{"client":"Prysm","percentage":0.8766666666666667}],"networkPenetration":0.005779596903642011},{"id":"Bloxstaking","idType":"entity","timeWindow":"1d","validatorCount":2267,"avgCorrectness":0.9868613339139611,"avgInclusionDelay":1.014569639049575,"avgUptime":0.9999205865015011,"avgValidatorEffectiveness":97.98854314157106,"clientPercentages":[{"client":"Teku","percentage":0.01977401129943503},{"client":"Lighthouse","percentage":0.3870056497175141},{"client":"Prysm","percentage":0.528954802259887},{"client":"Nimbus","percentage":0.06426553672316385}],"networkPenetration":0.005764333883649999},{"id":"StakeWise","idType":"entity","timeWindow":"1d","validatorCount":1951,"avgCorrectness":0.9858339447367608,"avgInclusionDelay":1.0229296315669592,"avgUptime":0.9988725010452976,"avgValidatorEffectiveness":97.18294393328549,"clientPercentages":[{"client":"Prysm","percentage":0.5112634671890304},{"client":"Lighthouse","percentage":0.3829578844270323},{"client":"Nimbus","percentage":0.06366307541625857},{"client":"Teku","percentage":0.04211557296767875}],"networkPenetration":0.004947762314077338},{"id":"Stakefish","idType":"entity","timeWindow":"1d","validatorCount":1518,"avgCorrectness":0.9819693454676635,"avgInclusionDelay":1.0632286390525603,"avgUptime":0.9982755087102905,"avgValidatorEffectiveness":93.75964700926,"clientPercentages":[{"client":"Lighthouse","percentage":0.9546827794561934},{"client":"Teku","percentage":0.045317220543806644}],"networkPenetration":0.003861544057979125}]}