{"page":{"from":0,"size":15},"total":31,"next":"/v0/eth/operators?window=1d&from=15&size=15&idType=entity","data":[{"id":"Lido","idType":"entity","timeWindow":"1d","validatorCount":129317,"avgCorrectness":0.9916732787358947,"avgInclusionDelay":1.0134880024717141,"avgUptime":0.9998846911515942,"avgValidatorEffectiveness":98.3575742558948,"clientPercentages":[{"client":"Lighthouse","percentage":0.37658287404220997},{"client":"Nimbus","percentage":0.07909665277591074},{"client":"Teku","percentage":0.19212259712326926},{"client":"Prysm","percentage":0.35219787605861}],"networkPenetration":0.315139433492795},{"id":"Coinbase","idType":"entity","timeWindow":"1d","validatorCount":56137,"avgCorrectness":0.9919809385028802,"avgInclusionDelay":1.0133592681080796,"avgUptime":0.9996622109650648,"avgValidatorEffectiveness":98.36588674923007,"clientPercentages":[{"client":"Prysm","percentage":0.36446909667194927},{"client":"Teku","percentage":0.15974643423137877},{"client":"Lighthouse","percentage":0.38497622820919175},{"client":"Nimbus","percentage":0.09080824088748018}],"networkPenetration":0.13680639666227193},{"id":"Kraken","idType":"entity","timeWindow":"1d","validatorCount":35951,"avgCorrectness":0.9842720408002853,"avgInclusionDelay":1.0262038813861707,"avgUptime":0.9980476315706528,"avgValidatorEffectiveness":96.99732562199448,"clientPercentages":[{"client":"Prysm","percentage":0.6030055442077619},{"client":"Lighthouse","percentage":0.26855364264176634},{"client":"Teku","percentage":0.08695652173913043},{"client":"Nimbus","percentage":0.04148429141134131}],"networkPenetration":0.08760561389485279},{"id":"Binance","idType":"entity","timeWindow":"1d","validatorCount":21153,"avgCorrectness":0.9919455698085127,"avgInclusionDelay":1.012808426978397,"avgUptime":0.999512020884876,"avgValidatorEffectiveness":98.39000100590647,"clientPercentages":[{"client":"Nimbus","percentage":0.0726083675693804},{"client":"Teku","percentage":0.008803554959335961},{"client":"Prysm","percentage":0.5931080741175484},{"client":"Lighthouse","percentage":0.3254800033537352}],"networkPenetration":0.05155005982858076},{"id":"Bitcoin Suisse","idType":"entity","timeWindow":"1d","validatorCount":9000,"avgCorrectness":0.9894801735652806,"avgInclusionDelay":1.035972461528734,"avgUptime":0.999687901234569,"avgValidatorEffectiveness":96.39869836950524,"clientPercentages":[{"client":"Nimbus","percentage":0.006906077348066298},{"client":"Teku","percentage":0.9928966061562746},{"client":"Prysm","percentage":0.0001973164956590371}],"networkPenetration":0.021933084595907287},{"id":"Rocketpool","idType":"entity","timeWindow":"1d","validatorCount":6329,"avgCorrectness":0.9907446429494748,"avgInclusionDelay":1.016346503228786,"avgUptime":0.9943690195294803,"avgValidatorEffectiveness":97.61025943872076,"clientPercentages":[{"client":"Prysm","percentage":0.05987755711512618},{"client":"Nimbus","percentage":0.2553382111393161},{"client":"Lighthouse","percentage":0.41735105271016876},{"client":"Teku","percentage":0.267433179035389}],"networkPenetration":0.015367781273532373},{"id":"Staked.us","idType":"entity","timeWindow":"1d","validatorCount":5263,"avgCorrectness":0.99125777285209,"avgInclusionDelay":1.0136116018254715,"avgUptime":0.9993164017142755,"avgValidatorEffectiveness":98.27686570399263,"clientPercentages":[{"client":"Teku","percentage":0.5096774193548387},{"client":"Nimbus","percentage":0.05838709677419355},{"client":"Prysm","percentage":0.4309677419354839},{"client":"Lighthouse","percentage":0.000967741935483871}],"networkPenetration":0.012825980469806672},{"id":"f2pool.eth","idType":"entity","timeWindow":"1d","validatorCount":3501,"avgCorrectness":0.9925170586181726,"avgInclusionDelay":1.0121565267066552,"avgUptime":1.0,"avgValidatorEffectiveness":98.52479324283556,"clientPercentages":[{"client":"Lighthouse","percentage":1.0}],"networkPenetration":0.008531969907807935},{"id":"Bitfinex","idType":"entity","timeWindow":"1d","validatorCount":3214,"avgCorrectness":0.9906460302165689,"avgInclusionDelay":1.0149626056258398,"avgUptime":0.9966998548019077,"avgValidatorEffectiveness":97.96016540033766,"clientPercentages":[{"client":"Teku","percentage":0.018807092960773777},{"client":"Nimbus","percentage":0.10370768404083826},{"client":"Prysm","percentage":0.8753358409457281},{"client":"Lighthouse","percentage":0.0021493820526598604}],"networkPenetration":0.007832548210138447},{"id":"Huobi","idType":"entity","timeWindow":"1d","validatorCount":2855,"avgCorrectness":0.9913107135045686,"avgInclusionDelay":1.0126398820620155,"avgUptime":0.9999945514691571,"avgValidatorEffectiveness":98.4143367170532,"clientPercentages":[{"client":"Teku","percentage":0.014084507042253521},{"client":"Nimbus","percentage":0.09800469483568075},{"client":"Lighthouse","percentage":0.0017605633802816902},{"client":"Prysm","percentage":0.886150234741784}],"networkPenetration":0.0069576618357017},{"id":"wedex.eth","idType":"entity","timeWindow":"1d","validatorCount":2399,"avgCorrectness":0.9917135388297892,"avgInclusionDelay":1.012855570747324,"avgUptime":0.9999833263859939,"avgValidatorEffectiveness":98.41802250471113,"clientPercentages":[{"client":"Lighthouse","percentage":1.0}],"networkPenetration":0.005846385549509064},{"id":"Bloxstaking","idType":"entity","timeWindow":"1d","validatorCount":2343,"avgCorrectness":0.9908567672442821,"avgInclusionDelay":1.013353226903366,"avgUptime":0.9999781856119887,"avgValidatorEffectiveness":98.32822935789417,"clientPercentages":[{"client":"Teku","percentage":0.008252063015753939},{"client":"Lighthouse","percentage":0.5026256564141035},{"client":"Prysm","percentage":0.43810952738184544},{"client":"Nimbus","percentage":0.05101275318829707}],"networkPenetration":0.00570991302313453},{"id":"Ankr","idType":"entity","timeWindow":"1d","validatorCount":2289,"avgCorrectness":0.8864119424629537,"avgInclusionDelay":1.4294740909987311,"avgUptime":0.9751011149061617,"avgValidatorEffectiveness":73.61532760559109,"clientPercentages":[{"client":"Teku","percentage":0.009268795056642637},{"client":"Lighthouse","percentage":0.008238928939237899},{"client":"Nimbus","percentage":0.08341915550978372},{"client":"Prysm","percentage":0.8990731204943357}],"networkPenetration":0.005575877506159541},{"id":"StakeWise","idType":"entity","timeWindow":"1d","validatorCount":1978,"avgCorrectness":0.9919340069413156,"avgInclusionDelay":1.0148522582870523,"avgUptime":0.9999247275587014,"avgValidatorEffectiveness":98.26833353296388,"clientPercentages":[{"client":"Prysm","percentage":0.36436884512085943},{"client":"Lighthouse","percentage":0.5461056401074306},{"client":"Nimbus","percentage":0.04028648164726947},{"client":"Teku","percentage":0.049239033124440466}],"networkPenetration":0.004820404592300513},{"id":"OKex","idType":"entity","timeWindow":"1d","validatorCount":1613,"avgCorrectness":0.9916609293014028,"avgInclusionDelay":1.012158155360033,"avgUptime":0.999943409247757,"avgValidatorEffectiveness":98.47026046260176,"clientPercentages":[{"client":"Nimbus","percentage":0.1087912087912088},{"client":"Teku","percentage":0.017582417582417582},{"client":"Prysm","percentage":0.8736263736263736}],"networkPenetration":0.003923585133267859}]}