{"page":{"from":0,"size":15},"total":30,"next":"/v0/eth/operators?window=1d&from=15&size=15&idType=entity","data":[{"id":"Lido","idType":"entity","timeWindow":"1d","validatorCount":129932,"avgCorrectness":0.9763246682224372,"avgInclusionDelay":1.073788637230498,"avgUptime":0.987021512713076,"avgValidatorEffectiveness":91.78666617689657,"clientPercentages":[{"client":"Lodestar","percentage":0.00037882375224926605},{"client":"Prysm","percentage":0.40259494270290747},{"client":"Nimbus","percentage":0.02478589693288055},{"client":"Teku","percentage":0.22193660113917715},{"client":"Lighthouse","percentage":0.3503037354727856}],"networkPenetration":0.3079867917953629},{"id":"Coinbase","idType":"entity","timeWindow":"1d","validatorCount":54286,"avgCorrectness":0.9775399651212294,"avgInclusionDelay":1.0669429925289766,"avgUptime":0.9984472362426121,"avgValidatorEffectiveness":93.24687755326386,"clientPercentages":[{"client":"Nimbus","percentage":0.056104188759278896},{"client":"Lighthouse","percentage":0.4231508483563097},{"client":"Teku","percentage":0.1365323435843054},{"client":"Prysm","percentage":0.38421261930010603}],"networkPenetration":0.12868280634050713},{"id":"Kraken","idType":"entity","timeWindow":"1d","validatorCount":36667,"avgCorrectness":0.9765717472340028,"avgInclusionDelay":1.069243652299602,"avgUptime":0.9990167068890239,"avgValidatorEffectiveness":93.06522421004135,"clientPercentages":[{"client":"Teku","percentage":0.0939898624185373},{"client":"Prysm","percentage":0.6236543567463191},{"client":"Nimbus","percentage":0.01955104996379435},{"client":"Lighthouse","percentage":0.26280473087134926}],"networkPenetration":0.08689159174036823},{"id":"Binance","idType":"entity","timeWindow":"1d","validatorCount":22060,"avgCorrectness":0.9739400610914045,"avgInclusionDelay":1.079430178464545,"avgUptime":0.9996286804872664,"avgValidatorEffectiveness":92.22677032228421,"clientPercentages":[{"client":"Lighthouse","percentage":0.35769518583187826},{"client":"Prysm","percentage":0.6109586763116321},{"client":"Nimbus","percentage":0.030764114076660846},{"client":"Teku","percentage":0.0005820237798287187}],"networkPenetration":0.0518609298367464},{"id":"Bitcoin Suisse","idType":"entity","timeWindow":"1d","validatorCount":9031,"avgCorrectness":0.9809926186652761,"avgInclusionDelay":1.0585990969370522,"avgUptime":0.9998495073074765,"avgValidatorEffectiveness":94.17306037554755,"clientPercentages":[{"client":"Nimbus","percentage":0.00641025641025641},{"client":"Teku","percentage":0.9935897435897436}],"networkPenetration":0.021334142450439603},{"id":"Rocketpool","idType":"entity","timeWindow":"1d","validatorCount":6969,"avgCorrectness":0.9767333886777891,"avgInclusionDelay":1.0702867060057553,"avgUptime":0.9887867887886188,"avgValidatorEffectiveness":92.19984176240239,"clientPercentages":[{"client":"Lighthouse","percentage":0.4161237785016287},{"client":"Teku","percentage":0.30442453854505974},{"client":"Prysm","percentage":0.05238870792616721},{"client":"Nimbus","percentage":0.2270629750271444}],"networkPenetration":0.016512626256640253},{"id":"Staked.us","idType":"entity","timeWindow":"1d","validatorCount":5263,"avgCorrectness":0.9693794406728655,"avgInclusionDelay":1.0853489036351673,"avgUptime":0.9933852682247136,"avgValidatorEffectiveness":91.0549428383782,"clientPercentages":[{"client":"Prysm","percentage":0.47178789938817134},{"client":"Nimbus","percentage":0.02821210061182869},{"client":"Lighthouse","percentage":0.005778382053025153},{"client":"Teku","percentage":0.49422161794697483}],"networkPenetration":0.012475732412962626},{"id":"f2pool.eth","idType":"entity","timeWindow":"1d","validatorCount":3501,"avgCorrectness":0.976862382374096,"avgInclusionDelay":1.0817805941619842,"avgUptime":0.999858453140372,"avgValidatorEffectiveness":92.23818333910864,"clientPercentages":[{"client":"Prysm","percentage":0.013612056392805057},{"client":"Lighthouse","percentage":0.986387943607195}],"networkPenetration":0.008298981413221005},{"id":"Bitfinex","idType":"entity","timeWindow":"1d","validatorCount":3214,"avgCorrectness":0.9751118494432183,"avgInclusionDelay":1.0737289583451977,"avgUptime":0.9955624697503966,"avgValidatorEffectiveness":92.37266329751355,"clientPercentages":[{"client":"Prysm","percentage":0.943725379853686},{"client":"Lighthouse","percentage":0.004501969611705121},{"client":"Teku","percentage":0.012380416432189083},{"client":"Nimbus","percentage":0.03939223410241981}],"networkPenetration":0.007618659315079209},{"id":"Huobi","idType":"entity","timeWindow":"1d","validatorCount":2855,"avgCorrectness":0.9743802900879106,"avgInclusionDelay":1.075538991557654,"avgUptime":0.9999719789842386,"avgValidatorEffectiveness":92.5519084130885,"clientPercentages":[{"client":"Prysm","percentage":0.9520048602673147},{"client":"Nimbus","percentage":0.04495747266099635},{"client":"Lighthouse","percentage":0.0006075334143377885},{"client":"Teku","percentage":0.002430133657351154}],"networkPenetration":0.006767664077333896},{"id":"Bloxstaking","idType":"entity","timeWindow":"1d","validatorCount":2418,"avgCorrectness":0.9726914211791888,"avgInclusionDelay":1.083301499775781,"avgUptime":0.9967113637843728,"avgValidatorEffectiveness":91.59282270713351,"clientPercentages":[{"client":"Lighthouse","percentage":0.48758465011286684},{"client":"Prysm","percentage":0.48758465011286684},{"client":"Nimbus","percentage":0.023325808878856283},{"client":"Teku","percentage":0.0015048908954100827}],"networkPenetration":0.005727032017806897},{"id":"wedex.eth","idType":"entity","timeWindow":"1d","validatorCount":2399,"avgCorrectness":0.9759311032292464,"avgInclusionDelay":1.0704694345921135,"avgUptime":0.9989578991246348,"avgValidatorEffectiveness":92.92610302168151,"clientPercentages":[{"client":"Lighthouse","percentage":1.0}],"networkPenetration":0.005686734193178289},{"id":"Ankr","idType":"entity","timeWindow":"1d","validatorCount":2297,"avgCorrectness":0.9763997414730617,"avgInclusionDelay":1.0691240271375881,"avgUptime":0.9999013205630533,"avgValidatorEffectiveness":93.12359785674568,"clientPercentages":[{"client":"Teku","percentage":0.006066734074823054},{"client":"Nimbus","percentage":0.03640040444893832},{"client":"Lighthouse","percentage":0.011122345803842264},{"client":"Prysm","percentage":0.9464105156723963}],"networkPenetration":0.005444947245406641},{"id":"StakeWise","idType":"entity","timeWindow":"1d","validatorCount":1981,"avgCorrectness":0.9760768671809443,"avgInclusionDelay":1.0710731214581548,"avgUptime":0.9972673733804472,"avgValidatorEffectiveness":92.75651778041674,"clientPercentages":[{"client":"Lighthouse","percentage":0.5298245614035088},{"client":"Teku","percentage":0.060526315789473685},{"client":"Prysm","percentage":0.3850877192982456},{"client":"Nimbus","percentage":0.02456140350877193}],"networkPenetration":0.004695881799368983},{"id":"OKex","idType":"entity","timeWindow":"1d","validatorCount":1737,"avgCorrectness":0.9748510471160649,"avgInclusionDelay":1.0742135274934335,"avgUptime":0.999965457685665,"avgValidatorEffectiveness":92.67713934197403,"clientPercentages":[{"client":"Lighthouse","percentage":0.012591815320041973},{"client":"Prysm","percentage":0.9401888772298006},{"client":"Teku","percentage":0.002098635886673662},{"client":"Nimbus","percentage":0.04512067156348373}],"networkPenetration":0.004117489492934843}]}