{"page":{"from":0,"size":15},"total":31,"next":"/v0/eth/operators?window=1d&from=15&size=15&idType=entity","data":[{"id":"Lido","idType":"entity","timeWindow":"1d","validatorCount":128988,"avgCorrectness":0.9874940512217102,"avgInclusionDelay":1.0215712260362049,"avgUptime":0.999792484023449,"avgValidatorEffectiveness":97.43553276312717,"clientPercentages":[{"client":"Prysm","percentage":0.35219787605861},{"client":"Nimbus","percentage":0.07909665277591074},{"client":"Teku","percentage":0.19212259712326926},{"client":"Lighthouse","percentage":0.37658287404220997}],"networkPenetration":0.3180839599213816},{"id":"Coinbase","idType":"entity","timeWindow":"1d","validatorCount":57288,"avgCorrectness":0.9870547466659589,"avgInclusionDelay":1.023371304302078,"avgUptime":0.9997993762509869,"avgValidatorEffectiveness":97.27373527619733,"clientPercentages":[{"client":"Nimbus","percentage":0.09274935590725064},{"client":"Prysm","percentage":0.363513679303153},{"client":"Lighthouse","percentage":0.37403386087596613},{"client":"Teku","percentage":0.16970310391363022}],"networkPenetration":0.14127639006369866},{"id":"Kraken","idType":"entity","timeWindow":"1d","validatorCount":35796,"avgCorrectness":0.9798413192403684,"avgInclusionDelay":1.0355943764579234,"avgUptime":0.9987425021492393,"avgValidatorEffectiveness":96.0584974173625,"clientPercentages":[{"client":"Lighthouse","percentage":0.26855364264176634},{"client":"Prysm","percentage":0.6030055442077619},{"client":"Nimbus","percentage":0.04148429141134131},{"client":"Teku","percentage":0.08695652173913043}],"networkPenetration":0.08826075269480127},{"id":"Binance","idType":"entity","timeWindow":"1d","validatorCount":20810,"avgCorrectness":0.9877679194912254,"avgInclusionDelay":1.0209695554757952,"avgUptime":0.9999623044476488,"avgValidatorEffectiveness":97.50851146480646,"clientPercentages":[{"client":"Nimbus","percentage":0.0726083675693804},{"client":"Prysm","percentage":0.5931080741175484},{"client":"Lighthouse","percentage":0.3254800033537352},{"client":"Teku","percentage":0.008803554959335961}],"networkPenetration":0.051318979144420636},{"id":"Bitcoin Suisse","idType":"entity","timeWindow":"1d","validatorCount":9000,"avgCorrectness":0.9836109974358822,"avgInclusionDelay":1.054431159269869,"avgUptime":0.9991644444444445,"avgValidatorEffectiveness":94.57057886488622,"clientPercentages":[{"client":"Teku","percentage":0.9928966061562746},{"client":"Nimbus","percentage":0.006906077348066298},{"client":"Prysm","percentage":0.0001973164956590371}],"networkPenetration":0.022194657006236698},{"id":"Rocketpool","idType":"entity","timeWindow":"1d","validatorCount":6199,"avgCorrectness":0.9868271918361953,"avgInclusionDelay":1.0235552138965507,"avgUptime":0.9939863746037482,"avgValidatorEffectiveness":96.7517701139219,"clientPercentages":[{"client":"Teku","percentage":0.267433179035389},{"client":"Prysm","percentage":0.05987755711512618},{"client":"Nimbus","percentage":0.2553382111393161},{"client":"Lighthouse","percentage":0.41735105271016876}],"networkPenetration":0.01526252580128877},{"id":"Staked.us","idType":"entity","timeWindow":"1d","validatorCount":5263,"avgCorrectness":0.9864627647324057,"avgInclusionDelay":1.0223039309938857,"avgUptime":0.9991762197310359,"avgValidatorEffectiveness":97.26461621270309,"clientPercentages":[{"client":"Teku","percentage":0.5096774193548387},{"client":"Lighthouse","percentage":0.000967741935483871},{"client":"Nimbus","percentage":0.05838709677419355},{"client":"Prysm","percentage":0.4309677419354839}],"networkPenetration":0.012978942202647083},{"id":"f2pool.eth","idType":"entity","timeWindow":"1d","validatorCount":3501,"avgCorrectness":0.9885619545981958,"avgInclusionDelay":1.020405041372464,"avgUptime":0.999996191564315,"avgValidatorEffectiveness":97.60506115225857,"clientPercentages":[{"client":"Lighthouse","percentage":1.0}],"networkPenetration":0.008633721575426075},{"id":"Bitfinex","idType":"entity","timeWindow":"1d","validatorCount":3214,"avgCorrectness":0.9867168373342985,"avgInclusionDelay":1.022375729488857,"avgUptime":0.9972184194150586,"avgValidatorEffectiveness":97.13391815827472,"clientPercentages":[{"client":"Prysm","percentage":0.8753358409457281},{"client":"Nimbus","percentage":0.10370768404083826},{"client":"Teku","percentage":0.018807092960773777},{"client":"Lighthouse","percentage":0.0021493820526598604}],"networkPenetration":0.007925958624227195},{"id":"Huobi","idType":"entity","timeWindow":"1d","validatorCount":2855,"avgCorrectness":0.9836103479336598,"avgInclusionDelay":1.0295686388694472,"avgUptime":0.9997812804047471,"avgValidatorEffectiveness":96.56145359130312,"clientPercentages":[{"client":"Prysm","percentage":0.886150234741784},{"client":"Nimbus","percentage":0.09800469483568075},{"client":"Teku","percentage":0.014084507042253521},{"client":"Lighthouse","percentage":0.0017605633802816902}],"networkPenetration":0.00704063841697842},{"id":"wedex.eth","idType":"entity","timeWindow":"1d","validatorCount":2399,"avgCorrectness":0.9862419070722945,"avgInclusionDelay":1.027773788134172,"avgUptime":0.9996600435366585,"avgValidatorEffectiveness":96.85322825960955,"clientPercentages":[{"client":"Lighthouse","percentage":1.0}],"networkPenetration":0.005916109128662426},{"id":"Bloxstaking","idType":"entity","timeWindow":"1d","validatorCount":2318,"avgCorrectness":0.9851345028342627,"avgInclusionDelay":1.0256109581265485,"avgUptime":0.9999242642124437,"avgValidatorEffectiveness":96.98176438986683,"clientPercentages":[{"client":"Lighthouse","percentage":0.5064247921390779},{"client":"Teku","percentage":0.008314436885865457},{"client":"Prysm","percentage":0.43386243386243384},{"client":"Nimbus","percentage":0.05139833711262283}],"networkPenetration":0.005716357215606297},{"id":"Ankr","idType":"entity","timeWindow":"1d","validatorCount":2287,"avgCorrectness":0.8219252357253025,"avgInclusionDelay":1.6238613898120027,"avgUptime":0.916644803964437,"avgValidatorEffectiveness":61.40003379691845,"clientPercentages":[{"client":"Prysm","percentage":0.8990731204943357},{"client":"Teku","percentage":0.009268795056642637},{"client":"Nimbus","percentage":0.08341915550978372},{"client":"Lighthouse","percentage":0.008238928939237899}],"networkPenetration":0.005639908952584815},{"id":"StakeWise","idType":"entity","timeWindow":"1d","validatorCount":1975,"avgCorrectness":0.9882343871685101,"avgInclusionDelay":1.0219826596621064,"avgUptime":0.9997907172995787,"avgValidatorEffectiveness":97.44959066338127,"clientPercentages":[{"client":"Lighthouse","percentage":0.5461056401074306},{"client":"Prysm","percentage":0.36436884512085943},{"client":"Teku","percentage":0.049239033124440466},{"client":"Nimbus","percentage":0.04028648164726947}],"networkPenetration":0.0048704941763686085},{"id":"OKex","idType":"entity","timeWindow":"1d","validatorCount":1548,"avgCorrectness":0.9827802731821147,"avgInclusionDelay":1.0335413954530954,"avgUptime":0.9994430089003729,"avgValidatorEffectiveness":96.17340617015779,"clientPercentages":[{"client":"Prysm","percentage":0.8736263736263736},{"client":"Nimbus","percentage":0.1087912087912088},{"client":"Teku","percentage":0.017582417582417582}],"networkPenetration":0.003817481005072712}]}