{"page":{"from":0,"size":15},"total":31,"next":"/v0/eth/operators?window=1d&from=15&size=15&idType=entity","data":[{"id":"Lido","idType":"entity","timeWindow":"1d","validatorCount":129292,"avgCorrectness":0.9886433758098446,"avgInclusionDelay":1.0174194273710326,"avgUptime":0.9986408673960593,"avgValidatorEffectiveness":97.74626639162449,"clientPercentages":[{"client":"Lighthouse","percentage":0.37658287404220997},{"client":"Nimbus","percentage":0.07909665277591074},{"client":"Prysm","percentage":0.35219787605861},{"client":"Teku","percentage":0.19212259712326926}],"networkPenetration":0.3151219274049845},{"id":"Coinbase","idType":"entity","timeWindow":"1d","validatorCount":56699,"avgCorrectness":0.9882058473143208,"avgInclusionDelay":1.0196648111533817,"avgUptime":0.9984597415984187,"avgValidatorEffectiveness":97.54960266373838,"clientPercentages":[{"client":"Lighthouse","percentage":0.37969267287150976},{"client":"Prysm","percentage":0.3645761759010557},{"client":"Nimbus","percentage":0.09138609532138173},{"client":"Teku","percentage":0.16434505590605283}],"networkPenetration":0.13840164034466765},{"id":"Kraken","idType":"entity","timeWindow":"1d","validatorCount":35943,"avgCorrectness":0.9807506491106245,"avgInclusionDelay":1.030470892009742,"avgUptime":0.9990042614939364,"avgValidatorEffectiveness":96.50851755103328,"clientPercentages":[{"client":"Nimbus","percentage":0.04148429141134131},{"client":"Lighthouse","percentage":0.26855364264176634},{"client":"Prysm","percentage":0.6030055442077619},{"client":"Teku","percentage":0.08695652173913043}],"networkPenetration":0.08773402982888666},{"id":"Binance","idType":"entity","timeWindow":"1d","validatorCount":21153,"avgCorrectness":0.988694917080825,"avgInclusionDelay":1.016664502082146,"avgUptime":0.9995458670782775,"avgValidatorEffectiveness":97.8838820569265,"clientPercentages":[{"client":"Teku","percentage":0.008803554959335961},{"client":"Nimbus","percentage":0.0726083675693804},{"client":"Prysm","percentage":0.5931080741175484},{"client":"Lighthouse","percentage":0.3254800033537352}],"networkPenetration":0.05079698293748627},{"id":"Bitcoin Suisse","idType":"entity","timeWindow":"1d","validatorCount":9000,"avgCorrectness":0.986626065290777,"avgInclusionDelay":1.0352320544477824,"avgUptime":0.9969456790123454,"avgValidatorEffectiveness":96.0565667635991,"clientPercentages":[{"client":"Nimbus","percentage":0.006906077348066298},{"client":"Teku","percentage":0.9928966061562746},{"client":"Prysm","percentage":0.0001973164956590371}],"networkPenetration":0.02196890179900896},{"id":"Rocketpool","idType":"entity","timeWindow":"1d","validatorCount":6300,"avgCorrectness":0.9873728736200486,"avgInclusionDelay":1.021989715874117,"avgUptime":0.9946298071673012,"avgValidatorEffectiveness":97.00152824515274,"clientPercentages":[{"client":"Lighthouse","percentage":0.41735105271016876},{"client":"Prysm","percentage":0.05987755711512618},{"client":"Nimbus","percentage":0.2553382111393161},{"client":"Teku","percentage":0.267433179035389}],"networkPenetration":0.015353821368418483},{"id":"Staked.us","idType":"entity","timeWindow":"1d","validatorCount":5263,"avgCorrectness":0.9873188880446458,"avgInclusionDelay":1.018809527230499,"avgUptime":0.9991572191610201,"avgValidatorEffectiveness":97.60256400812548,"clientPercentages":[{"client":"Prysm","percentage":0.4309677419354839},{"client":"Teku","percentage":0.5096774193548387},{"client":"Lighthouse","percentage":0.000967741935483871},{"client":"Nimbus","percentage":0.05838709677419355}],"networkPenetration":0.012846925574242683},{"id":"f2pool.eth","idType":"entity","timeWindow":"1d","validatorCount":3501,"avgCorrectness":0.9895032965247323,"avgInclusionDelay":1.0159643580520321,"avgUptime":0.9999980957821564,"avgValidatorEffectiveness":98.02946548974904,"clientPercentages":[{"client":"Lighthouse","percentage":1.0}],"networkPenetration":0.008545902799814485},{"id":"Bitfinex","idType":"entity","timeWindow":"1d","validatorCount":3214,"avgCorrectness":0.9873131787791184,"avgInclusionDelay":1.020526615396636,"avgUptime":0.9911194081449203,"avgValidatorEffectiveness":96.84939187362447,"clientPercentages":[{"client":"Teku","percentage":0.018807092960773777},{"client":"Nimbus","percentage":0.10370768404083826},{"client":"Lighthouse","percentage":0.0021493820526598604},{"client":"Prysm","percentage":0.8753358409457281}],"networkPenetration":0.007845338931334976},{"id":"Huobi","idType":"entity","timeWindow":"1d","validatorCount":2855,"avgCorrectness":0.986578289031617,"avgInclusionDelay":1.0197868627937994,"avgUptime":0.999678536680288,"avgValidatorEffectiveness":97.51977842760726,"clientPercentages":[{"client":"Lighthouse","percentage":0.0017605633802816902},{"client":"Nimbus","percentage":0.09800469483568075},{"client":"Teku","percentage":0.014084507042253521},{"client":"Prysm","percentage":0.886150234741784}],"networkPenetration":0.006969023848463397},{"id":"wedex.eth","idType":"entity","timeWindow":"1d","validatorCount":2399,"avgCorrectness":0.9878756882812217,"avgInclusionDelay":1.0223279679131008,"avgUptime":0.9997860219535916,"avgValidatorEffectiveness":97.40173200413875,"clientPercentages":[{"client":"Lighthouse","percentage":1.0}],"networkPenetration":0.005855932823980277},{"id":"Bloxstaking","idType":"entity","timeWindow":"1d","validatorCount":2341,"avgCorrectness":0.9859673178471826,"avgInclusionDelay":1.0216491487618138,"avgUptime":0.999881342256396,"avgValidatorEffectiveness":97.35170089467526,"clientPercentages":[{"client":"Prysm","percentage":0.43810952738184544},{"client":"Lighthouse","percentage":0.5026256564141035},{"client":"Nimbus","percentage":0.05101275318829707},{"client":"Teku","percentage":0.008252063015753939}],"networkPenetration":0.005714355456831108},{"id":"Ankr","idType":"entity","timeWindow":"1d","validatorCount":2288,"avgCorrectness":0.8962623102238828,"avgInclusionDelay":1.369681171962438,"avgUptime":0.9337567987567994,"avgValidatorEffectiveness":72.21155205920107,"clientPercentages":[{"client":"Prysm","percentage":0.8990731204943357},{"client":"Nimbus","percentage":0.08341915550978372},{"client":"Lighthouse","percentage":0.008238928939237899},{"client":"Teku","percentage":0.009268795056642637}],"networkPenetration":0.005584983035125833},{"id":"StakeWise","idType":"entity","timeWindow":"1d","validatorCount":1978,"avgCorrectness":0.9888537526244198,"avgInclusionDelay":1.0219758175849365,"avgUptime":0.9969924727558701,"avgValidatorEffectiveness":97.2729340423239,"clientPercentages":[{"client":"Lighthouse","percentage":0.5461056401074306},{"client":"Prysm","percentage":0.36436884512085943},{"client":"Teku","percentage":0.049239033124440466},{"client":"Nimbus","percentage":0.04028648164726947}],"networkPenetration":0.004828276417604413},{"id":"OKex","idType":"entity","timeWindow":"1d","validatorCount":1610,"avgCorrectness":0.9856179012155112,"avgInclusionDelay":1.0226403338656398,"avgUptime":0.990350065553808,"avgValidatorEffectiveness":96.44878134882569,"clientPercentages":[{"client":"Prysm","percentage":0.8736263736263736},{"client":"Nimbus","percentage":0.1087912087912088},{"client":"Teku","percentage":0.017582417582417582}],"networkPenetration":0.003895818585690922}]}