{"page":{"from":0,"size":15},"total":29,"next":"/v0/eth/operators?window=1d&from=15&size=15&idType=entity","data":[{"id":"Lido","idType":"entity","timeWindow":"1d","validatorCount":128254,"avgCorrectness":0.9872179671334731,"avgInclusionDelay":1.019140639149552,"avgUptime":0.999500872073338,"avgValidatorEffectiveness":97.616317502291,"clientPercentages":[{"client":"Lighthouse","percentage":0.40130566490094116},{"client":"Teku","percentage":0.1523545706371191},{"client":"Prysm","percentage":0.3591064457079911},{"client":"Nimbus","percentage":0.08723331875394859}],"networkPenetration":0.32639508957043945},{"id":"Coinbase","idType":"entity","timeWindow":"1d","validatorCount":55658,"avgCorrectness":0.9872168593136125,"avgInclusionDelay":1.0156890318974108,"avgUptime":0.9998405990599382,"avgValidatorEffectiveness":97.90967092467793,"clientPercentages":[{"client":"Prysm","percentage":0.5763798987878075},{"client":"Lighthouse","percentage":0.1399023184653407},{"client":"Nimbus","percentage":0.12089561021537013},{"client":"Teku","percentage":0.1628221725314817}],"networkPenetration":0.14147588409671874},{"id":"Kraken","idType":"entity","timeWindow":"1d","validatorCount":33552,"avgCorrectness":0.9839414839169475,"avgInclusionDelay":1.0212854366623458,"avgUptime":0.9982561904203793,"avgValidatorEffectiveness":97.20406039073612,"clientPercentages":[{"client":"Lighthouse","percentage":0.11321028218013143},{"client":"Teku","percentage":0.07170467723231543},{"client":"Nimbus","percentage":0.06411867027444917},{"client":"Prysm","percentage":0.750966370313104}],"networkPenetration":0.08539932956105127},{"id":"Binance","idType":"entity","timeWindow":"1d","validatorCount":19738,"avgCorrectness":0.9874143320631444,"avgInclusionDelay":1.0151933984709542,"avgUptime":0.9998867384965281,"avgValidatorEffectiveness":97.96531196425093,"clientPercentages":[{"client":"Teku","percentage":0.01628929793125916},{"client":"Prysm","percentage":0.6066949014497475},{"client":"Lighthouse","percentage":0.29638377585926046},{"client":"Nimbus","percentage":0.08063202475973286}],"networkPenetration":0.05035435300600538},{"id":"Bitcoin Suisse","idType":"entity","timeWindow":"1d","validatorCount":8364,"avgCorrectness":0.9827318244956251,"avgInclusionDelay":1.0602799912866008,"avgUptime":0.9988111781942501,"avgValidatorEffectiveness":94.06237060866135,"clientPercentages":[{"client":"Nimbus","percentage":0.12438881283004107},{"client":"Prysm","percentage":0.0009778994719342852},{"client":"Teku","percentage":0.8746332876980246}],"networkPenetration":0.020748401712323526},{"id":"Rocketpool","idType":"entity","timeWindow":"1d","validatorCount":5478,"avgCorrectness":0.9844073163365133,"avgInclusionDelay":1.0258153155223468,"avgUptime":0.994728284871649,"avgValidatorEffectiveness":96.60554608922973,"clientPercentages":[{"client":"Prysm","percentage":0.05962359639411672},{"client":"Lighthouse","percentage":0.4493120354262217},{"client":"Nimbus","percentage":0.26174284358690497},{"client":"Teku","percentage":0.2293215245927566}],"networkPenetration":0.013885841696812609},{"id":"Staked.us","idType":"entity","timeWindow":"1d","validatorCount":5263,"avgCorrectness":0.9866953038074245,"avgInclusionDelay":1.0214879936062775,"avgUptime":0.9995659425338315,"avgValidatorEffectiveness":97.39026970498477,"clientPercentages":[{"client":"Teku","percentage":0.4967105263157895},{"client":"Prysm","percentage":0.430622009569378},{"client":"Lighthouse","percentage":0.00687799043062201},{"client":"Nimbus","percentage":0.06578947368421052}],"networkPenetration":0.013426636937410391},{"id":"f2pool.eth","idType":"entity","timeWindow":"1d","validatorCount":3501,"avgCorrectness":0.9809416056444443,"avgInclusionDelay":1.073559284090721,"avgUptime":0.9980500809292587,"avgValidatorEffectiveness":92.95942712239756,"clientPercentages":[{"client":"Lighthouse","percentage":1.0}],"networkPenetration":0.00893153257037313},{"id":"Bitfinex","idType":"entity","timeWindow":"1d","validatorCount":3214,"avgCorrectness":0.9794536281367977,"avgInclusionDelay":1.0340863035753942,"avgUptime":0.9963078199543673,"avgValidatorEffectiveness":95.77387868489132,"clientPercentages":[{"client":"Teku","percentage":0.03796844181459566},{"client":"Nimbus","percentage":0.11834319526627218},{"client":"Prysm","percentage":0.841715976331361},{"client":"Lighthouse","percentage":0.0019723865877712033}],"networkPenetration":0.008199356092881816},{"id":"Huobi","idType":"entity","timeWindow":"1d","validatorCount":2855,"avgCorrectness":0.9847367654651117,"avgInclusionDelay":1.0224319165984659,"avgUptime":0.999569566063436,"avgValidatorEffectiveness":97.198187585707,"clientPercentages":[{"client":"Lighthouse","percentage":0.0005473453749315818},{"client":"Teku","percentage":0.02681992337164751},{"client":"Prysm","percentage":0.8620689655172413},{"client":"Nimbus","percentage":0.11056376573617953}],"networkPenetration":0.007283497711629615},{"id":"wedex.eth","idType":"entity","timeWindow":"1d","validatorCount":2399,"avgCorrectness":0.9871149302821143,"avgInclusionDelay":1.014984944642609,"avgUptime":0.9998147376221562,"avgValidatorEffectiveness":97.95820218972632,"clientPercentages":[{"client":"Lighthouse","percentage":1.0}],"networkPenetration":0.006120178987810664},{"id":"Ankr","idType":"entity","timeWindow":"1d","validatorCount":2272,"avgCorrectness":0.8653398108650314,"avgInclusionDelay":1.4211321837852033,"avgUptime":0.9623704021783699,"avgValidatorEffectiveness":70.89578157535946,"clientPercentages":[{"client":"Lighthouse","percentage":0.004166666666666667},{"client":"Nimbus","percentage":0.10916666666666666},{"client":"Teku","percentage":0.01},{"client":"Prysm","percentage":0.8766666666666667}],"networkPenetration":0.00578597996846794},{"id":"Bloxstaking","idType":"entity","timeWindow":"1d","validatorCount":2266,"avgCorrectness":0.9862620488547701,"avgInclusionDelay":1.0153779886654422,"avgUptime":0.9998665819774294,"avgValidatorEffectiveness":97.87830980934704,"clientPercentages":[{"client":"Lighthouse","percentage":0.3870056497175141},{"client":"Prysm","percentage":0.528954802259887},{"client":"Teku","percentage":0.01977401129943503},{"client":"Nimbus","percentage":0.06426553672316385}],"networkPenetration":0.005778326555811236},{"id":"Stakewise","idType":"entity","timeWindow":"1d","validatorCount":2264,"avgCorrectness":0.9848379617051588,"avgInclusionDelay":1.0265352959250107,"avgUptime":0.9985561867219667,"avgValidatorEffectiveness":96.81333413169087,"clientPercentages":[{"client":"Teku","percentage":0.03550784475639967},{"client":"Nimbus","percentage":0.053674649050371594},{"client":"Prysm","percentage":0.4310487200660611},{"client":"Lighthouse","percentage":0.4797687861271676}],"networkPenetration":0.005745161767632187},{"id":"Stakefish","idType":"entity","timeWindow":"1d","validatorCount":1518,"avgCorrectness":0.9808719050377225,"avgInclusionDelay":1.0716689517636795,"avgUptime":0.9983238178890348,"avgValidatorEffectiveness":93.0834747848366,"clientPercentages":[{"client":"Teku","percentage":0.045317220543806644},{"client":"Lighthouse","percentage":0.9546827794561934}],"networkPenetration":0.0038726268042920337}]}