{"page":{"from":0,"size":15},"total":36,"next":"/v0/eth/operators?window=1d&from=15&size=15&idType=entity","data":[{"id":"Lido","idType":"entity","timeWindow":"1d","validatorCount":133577,"avgCorrectness":0.9897262527629712,"avgInclusionDelay":1.0261391826556996,"avgUptime":0.9987644342770465,"avgValidatorEffectiveness":96.87983443698538,"clientPercentages":[{"client":"Teku","percentage":0.19303246714277142},{"client":"Lodestar","percentage":0.001155254155914301},{"client":"Lighthouse","percentage":0.3920362479745544},{"client":"Prysm","percentage":0.38788033367340813},{"client":"Nimbus","percentage":0.02589569705335174}],"networkPenetration":0.3006898353448839,"relayerPercentages":[{"relayer":"blocknative","percentage":0.030342557222273983},{"relayer":"flashbots","percentage":0.37904903879002455},{"relayer":"bloxroute_regulated","percentage":0.009487872294170627},{"relayer":"no_mev_boost","percentage":0.4855430292866238},{"relayer":"manifold","percentage":0.01793533960682009},{"relayer":"bloxroute_ethical","percentage":0.034907916394919095},{"relayer":"edennetwork","percentage":0.015978757104257897},{"relayer":"bloxroute_maxprofit","percentage":0.026755489300909967}],"nodeOperatorCount":29},{"id":"Coinbase","idType":"entity","timeWindow":"1d","validatorCount":54230,"avgCorrectness":0.9885703655601139,"avgInclusionDelay":1.025127430191153,"avgUptime":0.9986665437334813,"avgValidatorEffectiveness":96.84249861381497,"clientPercentages":[{"client":"Prysm","percentage":0.3810078101531992},{"client":"Nimbus","percentage":0.02177831180534695},{"client":"Lighthouse","percentage":0.4350405527185341},{"client":"Teku","percentage":0.1621733253229198}],"networkPenetration":0.12213441316700412,"relayerPercentages":[{"relayer":"bloxroute_regulated","percentage":3.886966999650173e-05},{"relayer":"flashbots","percentage":0.00042756636996151904},{"relayer":"manifold","percentage":7.773933999300346e-05},{"relayer":"no_mev_boost","percentage":0.999455824620049}],"nodeOperatorCount":null},{"id":"Kraken","idType":"entity","timeWindow":"1d","validatorCount":37744,"avgCorrectness":0.9897129816019389,"avgInclusionDelay":1.021892641463278,"avgUptime":0.9992458378342473,"avgValidatorEffectiveness":97.23339336785986,"clientPercentages":[{"client":"Prysm","percentage":0.6222139077449356},{"client":"Nimbus","percentage":0.00010690042225666791},{"client":"Lighthouse","percentage":0.2660751509968464},{"client":"Teku","percentage":0.1116040408359613}],"networkPenetration":0.08497158905362158,"relayerPercentages":[{"relayer":"no_mev_boost","percentage":0.5648757815525922},{"relayer":"flashbots","percentage":0.41819288441321306},{"relayer":"bloxroute_ethical","percentage":0.0007746361976428927},{"relayer":"blocknative","percentage":0.008852985115918774},{"relayer":"manifold","percentage":0.0014386100813368007},{"relayer":"bloxroute_maxprofit","percentage":0.0036518563603164943},{"relayer":"edennetwork","percentage":0.0022132462789796934}],"nodeOperatorCount":null},{"id":"Binance","idType":"entity","timeWindow":"1d","validatorCount":23051,"avgCorrectness":0.9909662986643709,"avgInclusionDelay":1.018487849963779,"avgUptime":0.9996217806891958,"avgValidatorEffectiveness":97.64322451585312,"clientPercentages":[{"client":"Nimbus","percentage":0.00026497085320614734},{"client":"Prysm","percentage":0.5616498851792969},{"client":"Lighthouse","percentage":0.42483660130718953},{"client":"Teku","percentage":0.013248542660307366}],"networkPenetration":0.05191444510257444,"relayerPercentages":[{"relayer":"bloxroute_ethical","percentage":8.975854950184004e-05},{"relayer":"edennetwork","percentage":0.003590341980073602},{"relayer":"bloxroute_maxprofit","percentage":0.006911408311641684},{"relayer":"no_mev_boost","percentage":0.6025491428058523},{"relayer":"blocknative","percentage":0.002154205188044161},{"relayer":"flashbots","percentage":0.36792029440804236},{"relayer":"bloxroute_regulated","percentage":0.01678484875684409}],"nodeOperatorCount":null},{"id":"Staked.us","idType":"entity","timeWindow":"1d","validatorCount":12594,"avgCorrectness":0.9889468977926783,"avgInclusionDelay":1.024777435809398,"avgUptime":0.9978246202487545,"avgValidatorEffectiveness":96.8337819536921,"clientPercentages":[{"client":"Lighthouse","percentage":0.055573610659733506},{"client":"Nimbus","percentage":0.0004874878128046799},{"client":"Teku","percentage":0.39681507962300944},{"client":"Prysm","percentage":0.5471238219044524}],"networkPenetration":0.028221765284818894,"relayerPercentages":[{"relayer":"flashbots","percentage":0.5817811864141493},{"relayer":"manifold","percentage":0.00547816559712005},{"relayer":"no_mev_boost","percentage":0.40867115354515576},{"relayer":"bloxroute_maxprofit","percentage":0.004069494443574895}],"nodeOperatorCount":null},{"id":"Bitcoin Suisse","idType":"entity","timeWindow":"1d","validatorCount":9184,"avgCorrectness":0.9907212902535288,"avgInclusionDelay":1.0246010031312436,"avgUptime":0.9993079352548939,"avgValidatorEffectiveness":97.10947281792045,"clientPercentages":[{"client":"Teku","percentage":0.9669882100750268},{"client":"Nimbus","percentage":0.0330117899249732}],"networkPenetration":0.02068379956713564,"relayerPercentages":[{"relayer":"no_mev_boost","percentage":1.0}],"nodeOperatorCount":null},{"id":"Rocketpool","idType":"entity","timeWindow":"1d","validatorCount":8848,"avgCorrectness":0.9864115000004248,"avgInclusionDelay":1.032430276447546,"avgUptime":0.9876944156482406,"avgValidatorEffectiveness":95.32791681914165,"clientPercentages":[{"client":"Prysm","percentage":0.045825576399828157},{"client":"Nimbus","percentage":0.222397250465416},{"client":"Lighthouse","percentage":0.43190605756838035},{"client":"Teku","percentage":0.29987111556637547}],"networkPenetration":0.019870771295822928,"relayerPercentages":[{"relayer":"bloxroute_maxprofit","percentage":0.09288682473722806},{"relayer":"edennetwork","percentage":0.023466145196773404},{"relayer":"bloxroute_regulated","percentage":0.07284282571498411},{"relayer":"blocknative","percentage":0.04839892446834515},{"relayer":"no_mev_boost","percentage":0.24370569542899045},{"relayer":"bloxroute_ethical","percentage":0.03348814470789538},{"relayer":"manifold","percentage":0.001955512099731117},{"relayer":"flashbots","percentage":0.4832559276460523}],"nodeOperatorCount":1549},{"id":"Celsius Network","idType":"entity","timeWindow":"1d","validatorCount":4943,"avgCorrectness":0.9910469533824486,"avgInclusionDelay":1.0182027939946208,"avgUptime":0.9996137816344426,"avgValidatorEffectiveness":97.67287771717967,"clientPercentages":[{"client":"Lighthouse","percentage":0.021056813667063964},{"client":"Prysm","percentage":0.966626936829559},{"client":"Teku","percentage":0.012316249503377036}],"networkPenetration":0.01113240649611841,"relayerPercentages":[{"relayer":"no_mev_boost","percentage":0.03535353535353535},{"relayer":"flashbots","percentage":0.9646464646464646}],"nodeOperatorCount":null},{"id":"Stakefish","idType":"entity","timeWindow":"1d","validatorCount":4558,"avgCorrectness":0.987864000849742,"avgInclusionDelay":1.0413637762348311,"avgUptime":0.9807967697646556,"avgValidatorEffectiveness":94.0423952464522,"clientPercentages":[{"client":"Teku","percentage":0.009365006852444038},{"client":"Nimbus","percentage":0.0009136592051164915},{"client":"Lighthouse","percentage":0.9885792599360439},{"client":"Prysm","percentage":0.0011420740063956144}],"networkPenetration":0.010265326483776595,"relayerPercentages":[{"relayer":"no_mev_boost","percentage":0.13575482406356412},{"relayer":"bloxroute_maxprofit","percentage":0.0009080590238365494},{"relayer":"manifold","percentage":0.09353007945516459},{"relayer":"flashbots","percentage":0.7695800227014756},{"relayer":"bloxroute_regulated","percentage":0.00022701475595913735}],"nodeOperatorCount":null},{"id":"Bitfinex","idType":"entity","timeWindow":"1d","validatorCount":3214,"avgCorrectness":0.9917388891309947,"avgInclusionDelay":1.0181911376827986,"avgUptime":0.9996259019320229,"avgValidatorEffectiveness":97.73318966593303,"clientPercentages":[{"client":"Teku","percentage":0.03431372549019608},{"client":"Lighthouse","percentage":0.009191176470588236},{"client":"Prysm","percentage":0.9564950980392157}],"networkPenetration":0.0072384289861469895,"relayerPercentages":[{"relayer":"no_mev_boost","percentage":0.6600512163892446},{"relayer":"flashbots","percentage":0.3399487836107554}],"nodeOperatorCount":null},{"id":"Huobi","idType":"entity","timeWindow":"1d","validatorCount":2855,"avgCorrectness":0.9907060220066156,"avgInclusionDelay":1.0189069789717389,"avgUptime":0.9995897860895673,"avgValidatorEffectiveness":97.58099660441277,"clientPercentages":[{"client":"Lighthouse","percentage":0.007670850767085077},{"client":"Teku","percentage":0.02301255230125523},{"client":"Prysm","percentage":0.9693165969316597}],"networkPenetration":0.0064299050265867,"relayerPercentages":[{"relayer":"manifold","percentage":0.03571428571428571},{"relayer":"flashbots","percentage":0.4836309523809524},{"relayer":"bloxroute_regulated","percentage":0.04389880952380952},{"relayer":"edennetwork","percentage":0.06547619047619048},{"relayer":"blocknative","percentage":0.03943452380952381},{"relayer":"bloxroute_ethical","percentage":0.07663690476190477},{"relayer":"bloxroute_maxprofit","percentage":0.07589285714285714},{"relayer":"no_mev_boost","percentage":0.1793154761904762}],"nodeOperatorCount":null},{"id":"Abyss","idType":"entity","timeWindow":"1d","validatorCount":2704,"avgCorrectness":0.9909896409688922,"avgInclusionDelay":1.0211259024081782,"avgUptime":0.9986546386306001,"avgValidatorEffectiveness":97.3692295183742,"clientPercentages":[{"client":"Nimbus","percentage":0.026604068857589983},{"client":"Lighthouse","percentage":0.08607198748043818},{"client":"Teku","percentage":0.8615023474178404},{"client":"Prysm","percentage":0.025821596244131457}],"networkPenetration":0.006089829489278612,"relayerPercentages":[{"relayer":"bloxroute_maxprofit","percentage":0.01689933872152829},{"relayer":"bloxroute_ethical","percentage":0.0036737692872887582},{"relayer":"manifold","percentage":0.0029390154298310064},{"relayer":"bloxroute_regulated","percentage":0.016164584864070537},{"relayer":"flashbots","percentage":0.331373989713446},{"relayer":"edennetwork","percentage":0.010286554004408524},{"relayer":"no_mev_boost","percentage":0.6157237325495959},{"relayer":"blocknative","percentage":0.0029390154298310064}],"nodeOperatorCount":null},{"id":"Bloxstaking","idType":"entity","timeWindow":"1d","validatorCount":2558,"avgCorrectness":0.9903679699788109,"avgInclusionDelay":1.0181720010329347,"avgUptime":0.9994585788042913,"avgValidatorEffectiveness":97.59892797369254,"clientPercentages":[{"client":"Lighthouse","percentage":0.5016863406408094},{"client":"Teku","percentage":0.007588532883642495},{"client":"Prysm","percentage":0.49072512647554806}],"networkPenetration":0.005758762575475374,"relayerPercentages":[{"relayer":"flashbots","percentage":0.8391167192429022},{"relayer":"blocknative","percentage":0.06624605678233439},{"relayer":"no_mev_boost","percentage":0.0804416403785489},{"relayer":"bloxroute_ethical","percentage":0.014195583596214511}],"nodeOperatorCount":null},{"id":"wedex.eth","idType":"entity","timeWindow":"1d","validatorCount":2399,"avgCorrectness":0.9902902514210763,"avgInclusionDelay":1.0190991545364314,"avgUptime":0.9996035261054537,"avgValidatorEffectiveness":97.53344899227199,"clientPercentages":[{"client":"Lighthouse","percentage":0.9983935742971888},{"client":"Prysm","percentage":0.001606425702811245}],"networkPenetration":0.005402921947033798,"relayerPercentages":[{"relayer":"flashbots","percentage":0.4432900432900433},{"relayer":"no_mev_boost","percentage":0.15497835497835497},{"relayer":"blocknative","percentage":0.06060606060606061},{"relayer":"manifold","percentage":0.032034632034632034},{"relayer":"bloxroute_ethical","percentage":0.009523809523809525},{"relayer":"bloxroute_maxprofit","percentage":0.22683982683982684},{"relayer":"edennetwork","percentage":0.07272727272727272}],"nodeOperatorCount":null},{"id":"Ankr","idType":"entity","timeWindow":"1d","validatorCount":2299,"avgCorrectness":0.9909653787278813,"avgInclusionDelay":1.0182210605405688,"avgUptime":0.9996703578850712,"avgValidatorEffectiveness":97.66947110052138,"clientPercentages":[{"client":"Teku","percentage":0.005853658536585366},{"client":"Lighthouse","percentage":0.46731707317073173},{"client":"Prysm","percentage":0.526829268292683}],"networkPenetration":0.005177706359412547,"relayerPercentages":[{"relayer":"flashbots","percentage":0.13183000867302688},{"relayer":"no_mev_boost","percentage":0.8681699913269731}],"nodeOperatorCount":null}]}