{"page":{"from":0,"size":15},"total":30,"next":"/v0/eth/operators?window=1d&from=15&size=15&idType=entity","data":[{"id":"Lido","idType":"entity","timeWindow":"1d","validatorCount":129795,"avgCorrectness":0.9909261071896694,"avgInclusionDelay":1.0151356288366262,"avgUptime":0.9997316021088545,"avgValidatorEffectiveness":98.16674204905448,"clientPercentages":[{"client":"Nimbus","percentage":0.02478589693288055},{"client":"Lighthouse","percentage":0.3503037354727856},{"client":"Lodestar","percentage":0.00037882375224926605},{"client":"Prysm","percentage":0.40259494270290747},{"client":"Teku","percentage":0.22193660113917715}],"networkPenetration":0.3107089675513399},{"id":"Coinbase","idType":"entity","timeWindow":"1d","validatorCount":54533,"avgCorrectness":0.9913240893245585,"avgInclusionDelay":1.0141664927798866,"avgUptime":0.9999717901703482,"avgValidatorEffectiveness":98.28946297350532,"clientPercentages":[{"client":"Teku","percentage":0.13761287144967985},{"client":"Nimbus","percentage":0.05641109834181579},{"client":"Prysm","percentage":0.38581513708750614},{"client":"Lighthouse","percentage":0.4201608931209982}],"networkPenetration":0.13045778609835626},{"id":"Kraken","idType":"entity","timeWindow":"1d","validatorCount":36591,"avgCorrectness":0.9912620080606426,"avgInclusionDelay":1.0138052794797316,"avgUptime":0.9999470900392364,"avgValidatorEffectiveness":98.31078022570529,"clientPercentages":[{"client":"Teku","percentage":0.0939898624185373},{"client":"Lighthouse","percentage":0.26280473087134926},{"client":"Nimbus","percentage":0.01955104996379435},{"client":"Prysm","percentage":0.6236543567463191}],"networkPenetration":0.08758792069062929},{"id":"Binance","idType":"entity","timeWindow":"1d","validatorCount":21584,"avgCorrectness":0.9912053344046511,"avgInclusionDelay":1.0137938681815846,"avgUptime":0.9999844535046509,"avgValidatorEffectiveness":98.3118339194417,"clientPercentages":[{"client":"Prysm","percentage":0.6109586763116321},{"client":"Lighthouse","percentage":0.35769518583187826},{"client":"Nimbus","percentage":0.030764114076660846},{"client":"Teku","percentage":0.0005820237798287187}],"networkPenetration":0.05167270759816713},{"id":"Bitcoin Suisse","idType":"entity","timeWindow":"1d","validatorCount":9000,"avgCorrectness":0.9918963133697537,"avgInclusionDelay":1.0136118688373772,"avgUptime":0.9984024691358014,"avgValidatorEffectiveness":98.2319607658402,"clientPercentages":[{"client":"Teku","percentage":0.9935897435897436},{"client":"Nimbus","percentage":0.00641025641025641}],"networkPenetration":0.021546255021474434},{"id":"Rocketpool","idType":"entity","timeWindow":"1d","validatorCount":6848,"avgCorrectness":0.9898359204474284,"avgInclusionDelay":1.016824071767166,"avgUptime":0.992714614003497,"avgValidatorEffectiveness":97.40063880971199,"clientPercentages":[{"client":"Lighthouse","percentage":0.41714285714285715},{"client":"Prysm","percentage":0.05251700680272109},{"client":"Teku","percentage":0.30272108843537415},{"client":"Nimbus","percentage":0.2276190476190476}],"networkPenetration":0.01636797173131341},{"id":"Staked.us","idType":"entity","timeWindow":"1d","validatorCount":5263,"avgCorrectness":0.9891858844399392,"avgInclusionDelay":1.0160580334515965,"avgUptime":0.999683323833048,"avgValidatorEffectiveness":97.9842527060882,"clientPercentages":[{"client":"Nimbus","percentage":0.02821210061182869},{"client":"Teku","percentage":0.49422161794697483},{"client":"Prysm","percentage":0.47178789938817134},{"client":"Lighthouse","percentage":0.005778382053025153}],"networkPenetration":0.012599771130891104},{"id":"f2pool.eth","idType":"entity","timeWindow":"1d","validatorCount":3501,"avgCorrectness":0.9907036084928116,"avgInclusionDelay":1.0150782316163636,"avgUptime":1.0,"avgValidatorEffectiveness":98.17707525082714,"clientPercentages":[{"client":"Lighthouse","percentage":0.986387943607195},{"client":"Prysm","percentage":0.013612056392805057}],"networkPenetration":0.008381493203353555},{"id":"Bitfinex","idType":"entity","timeWindow":"1d","validatorCount":3214,"avgCorrectness":0.9907973672875279,"avgInclusionDelay":1.0171463411081447,"avgUptime":0.9968243103090637,"avgValidatorEffectiveness":97.75176238665127,"clientPercentages":[{"client":"Lighthouse","percentage":0.004501969611705121},{"client":"Nimbus","percentage":0.03939223410241981},{"client":"Teku","percentage":0.012380416432189083},{"client":"Prysm","percentage":0.943725379853686}],"networkPenetration":0.0076944070710020926},{"id":"Huobi","idType":"entity","timeWindow":"1d","validatorCount":2855,"avgCorrectness":0.9903681575155926,"avgInclusionDelay":1.014531243067712,"avgUptime":0.9999992216384512,"avgValidatorEffectiveness":98.20378305089093,"clientPercentages":[{"client":"Teku","percentage":0.002430133657351154},{"client":"Nimbus","percentage":0.04495747266099635},{"client":"Prysm","percentage":0.9520048602673147},{"client":"Lighthouse","percentage":0.0006075334143377885}],"networkPenetration":0.006834950898478834},{"id":"wedex.eth","idType":"entity","timeWindow":"1d","validatorCount":2399,"avgCorrectness":0.9819835386066368,"avgInclusionDelay":1.052581403665458,"avgUptime":0.9998369691074986,"avgValidatorEffectiveness":94.80115039549308,"clientPercentages":[{"client":"Lighthouse","percentage":1.0}],"networkPenetration":0.005743273977390796},{"id":"Bloxstaking","idType":"entity","timeWindow":"1d","validatorCount":2387,"avgCorrectness":0.9911622066256901,"avgInclusionDelay":1.0264276757916937,"avgUptime":0.9997466703921012,"avgValidatorEffectiveness":97.2417150443766,"clientPercentages":[{"client":"Teku","percentage":0.0015082956259426848},{"client":"Lighthouse","percentage":0.4917043740573152},{"client":"Prysm","percentage":0.48265460030165913},{"client":"Nimbus","percentage":0.024132730015082957}],"networkPenetration":0.005712151609026444},{"id":"Ankr","idType":"entity","timeWindow":"1d","validatorCount":2296,"avgCorrectness":0.979925427759231,"avgInclusionDelay":1.0336659488935191,"avgUptime":0.9996360820751056,"avgValidatorEffectiveness":96.054970634185,"clientPercentages":[{"client":"Teku","percentage":0.006066734074823054},{"client":"Nimbus","percentage":0.03640040444893832},{"client":"Lighthouse","percentage":0.011122345803842264},{"client":"Prysm","percentage":0.9464105156723963}],"networkPenetration":0.0054966890588117},{"id":"StakeWise","idType":"entity","timeWindow":"1d","validatorCount":1980,"avgCorrectness":0.9911418560070394,"avgInclusionDelay":1.0148049131974841,"avgUptime":0.9999865319865323,"avgValidatorEffectiveness":98.22576324955124,"clientPercentages":[{"client":"Nimbus","percentage":0.02456140350877193},{"client":"Lighthouse","percentage":0.5298245614035088},{"client":"Prysm","percentage":0.3850877192982456},{"client":"Teku","percentage":0.060526315789473685}],"networkPenetration":0.0047401761047243755},{"id":"OKex","idType":"entity","timeWindow":"1d","validatorCount":1731,"avgCorrectness":0.9909731048205919,"avgInclusionDelay":1.014493869953142,"avgUptime":1.0,"avgValidatorEffectiveness":98.24141050410829,"clientPercentages":[{"client":"Teku","percentage":0.002098635886673662},{"client":"Prysm","percentage":0.9401888772298006},{"client":"Nimbus","percentage":0.04512067156348373},{"client":"Lighthouse","percentage":0.012591815320041973}],"networkPenetration":0.004144063049130249}]}