{"page":{"from":0,"size":15},"total":31,"next":"/v0/eth/operators?window=1d&from=15&size=15&idType=entity","data":[{"id":"Lido","idType":"entity","timeWindow":"1d","validatorCount":129044,"avgCorrectness":0.9867280942773561,"avgInclusionDelay":1.0246848845976249,"avgUptime":0.9997788523466604,"avgValidatorEffectiveness":97.13840993157311,"clientPercentages":[{"client":"Lighthouse","percentage":0.37658287404220997},{"client":"Teku","percentage":0.19212259712326926},{"client":"Prysm","percentage":0.35219787605861},{"client":"Nimbus","percentage":0.07909665277591074}],"networkPenetration":0.3174943719322418},{"id":"Coinbase","idType":"entity","timeWindow":"1d","validatorCount":57005,"avgCorrectness":0.9865075073597399,"avgInclusionDelay":1.023596475310179,"avgUptime":0.9997940141702961,"avgValidatorEffectiveness":97.21303353704945,"clientPercentages":[{"client":"Teku","percentage":0.16704826732673267},{"client":"Prysm","percentage":0.36379950495049507},{"client":"Lighthouse","percentage":0.37688737623762375},{"client":"Nimbus","percentage":0.09226485148514851}],"networkPenetration":0.14025267871421718},{"id":"Kraken","idType":"entity","timeWindow":"1d","validatorCount":35869,"avgCorrectness":0.9796333725469595,"avgInclusionDelay":1.0353186236854561,"avgUptime":0.9989620899103367,"avgValidatorEffectiveness":96.0436299415276,"clientPercentages":[{"client":"Prysm","percentage":0.6030055442077619},{"client":"Nimbus","percentage":0.04148429141134131},{"client":"Lighthouse","percentage":0.26855364264176634},{"client":"Teku","percentage":0.08695652173913043}],"networkPenetration":0.08824810244928588},{"id":"Binance","idType":"entity","timeWindow":"1d","validatorCount":20810,"avgCorrectness":0.987061267111672,"avgInclusionDelay":1.0226341188562231,"avgUptime":0.9999235410326242,"avgValidatorEffectiveness":97.32416570161223,"clientPercentages":[{"client":"Prysm","percentage":0.5931080741175484},{"client":"Lighthouse","percentage":0.3254800033537352},{"client":"Nimbus","percentage":0.0726083675693804},{"client":"Teku","percentage":0.008803554959335961}],"networkPenetration":0.05120003936571984},{"id":"Bitcoin Suisse","idType":"entity","timeWindow":"1d","validatorCount":9000,"avgCorrectness":0.9837724350563832,"avgInclusionDelay":1.0541517610274551,"avgUptime":0.9992903703703706,"avgValidatorEffectiveness":94.60584096016447,"clientPercentages":[{"client":"Teku","percentage":0.9928966061562746},{"client":"Nimbus","percentage":0.006906077348066298},{"client":"Prysm","percentage":0.0001973164956590371}],"networkPenetration":0.022143217409489598},{"id":"Rocketpool","idType":"entity","timeWindow":"1d","validatorCount":6250,"avgCorrectness":0.9857818518506551,"avgInclusionDelay":1.026052094855388,"avgUptime":0.9907598222222205,"avgValidatorEffectiveness":96.22138304082841,"clientPercentages":[{"client":"Nimbus","percentage":0.2553382111393161},{"client":"Lighthouse","percentage":0.41735105271016876},{"client":"Prysm","percentage":0.05987755711512618},{"client":"Teku","percentage":0.267433179035389}],"networkPenetration":0.015377234312145554},{"id":"Staked.us","idType":"entity","timeWindow":"1d","validatorCount":5263,"avgCorrectness":0.9852117983978372,"avgInclusionDelay":1.0250815618399352,"avgUptime":0.9977119091350507,"avgValidatorEffectiveness":96.84492499049203,"clientPercentages":[{"client":"Lighthouse","percentage":0.000967741935483871},{"client":"Nimbus","percentage":0.05838709677419355},{"client":"Prysm","percentage":0.4309677419354839},{"client":"Teku","percentage":0.5096774193548387}],"networkPenetration":0.012948861469571528},{"id":"f2pool.eth","idType":"entity","timeWindow":"1d","validatorCount":3501,"avgCorrectness":0.9881420353311046,"avgInclusionDelay":1.0210576226689831,"avgUptime":0.9999930178679102,"avgValidatorEffectiveness":97.52477264964838,"clientPercentages":[{"client":"Lighthouse","percentage":1.0}],"networkPenetration":0.008613711572291453},{"id":"Bitfinex","idType":"entity","timeWindow":"1d","validatorCount":3214,"avgCorrectness":0.9859902655951576,"avgInclusionDelay":1.0237261407743636,"avgUptime":0.9988017700338812,"avgValidatorEffectiveness":97.12898439084384,"clientPercentages":[{"client":"Prysm","percentage":0.8753358409457281},{"client":"Nimbus","percentage":0.10370768404083826},{"client":"Teku","percentage":0.018807092960773777},{"client":"Lighthouse","percentage":0.0021493820526598604}],"networkPenetration":0.00790758897267773},{"id":"Huobi","idType":"entity","timeWindow":"1d","validatorCount":2855,"avgCorrectness":0.9841694314263045,"avgInclusionDelay":1.0254313764726677,"avgUptime":0.9996645261724066,"avgValidatorEffectiveness":96.91744561772495,"clientPercentages":[{"client":"Lighthouse","percentage":0.0017605633802816902},{"client":"Prysm","percentage":0.886150234741784},{"client":"Teku","percentage":0.014084507042253521},{"client":"Nimbus","percentage":0.09800469483568075}],"networkPenetration":0.007024320633788089},{"id":"wedex.eth","idType":"entity","timeWindow":"1d","validatorCount":2399,"avgCorrectness":0.9852138988609178,"avgInclusionDelay":1.0328701553782682,"avgUptime":0.9993525079894403,"avgValidatorEffectiveness":96.36050313540183,"clientPercentages":[{"client":"Lighthouse","percentage":1.0}],"networkPenetration":0.0059023976183739495},{"id":"Bloxstaking","idType":"entity","timeWindow":"1d","validatorCount":2334,"avgCorrectness":0.9843827372109855,"avgInclusionDelay":1.0249333409515102,"avgUptime":0.9998286203941721,"avgValidatorEffectiveness":96.98171616146459,"clientPercentages":[{"client":"Nimbus","percentage":0.05101275318829707},{"client":"Prysm","percentage":0.43810952738184544},{"client":"Lighthouse","percentage":0.5026256564141035},{"client":"Teku","percentage":0.008252063015753939}],"networkPenetration":0.005742474381527636},{"id":"Ankr","idType":"entity","timeWindow":"1d","validatorCount":2288,"avgCorrectness":0.8591686861858675,"avgInclusionDelay":1.511067931415368,"avgUptime":0.9382177544677548,"avgValidatorEffectiveness":67.75785724930182,"clientPercentages":[{"client":"Prysm","percentage":0.8990731204943357},{"client":"Lighthouse","percentage":0.008238928939237899},{"client":"Nimbus","percentage":0.08341915550978372},{"client":"Teku","percentage":0.009268795056642637}],"networkPenetration":0.005629297936990245},{"id":"StakeWise","idType":"entity","timeWindow":"1d","validatorCount":1976,"avgCorrectness":0.9875879205410356,"avgInclusionDelay":1.022877387220335,"avgUptime":0.9970715249662616,"avgValidatorEffectiveness":97.1030052261184,"clientPercentages":[{"client":"Lighthouse","percentage":0.5461056401074306},{"client":"Teku","percentage":0.049239033124440466},{"client":"Prysm","percentage":0.36436884512085943},{"client":"Nimbus","percentage":0.04028648164726947}],"networkPenetration":0.004861666400127938},{"id":"OKex","idType":"entity","timeWindow":"1d","validatorCount":1555,"avgCorrectness":0.9777659656663414,"avgInclusionDelay":1.046369611936369,"avgUptime":0.9991939978563766,"avgValidatorEffectiveness":94.89042924099029,"clientPercentages":[{"client":"Prysm","percentage":0.8736263736263736},{"client":"Teku","percentage":0.017582417582417582},{"client":"Nimbus","percentage":0.1087912087912088}],"networkPenetration":0.003825855896861814}]}