{"page":{"from":0,"size":15},"total":31,"next":"/v0/eth/operators?window=1d&from=15&size=15&idType=entity","data":[{"id":"Lido","idType":"entity","timeWindow":"1d","validatorCount":128772,"avgCorrectness":0.9881553549056421,"avgInclusionDelay":1.016554178990172,"avgUptime":0.9996150023998365,"avgValidatorEffectiveness":97.8752504445212,"clientPercentages":[{"client":"Lighthouse","percentage":0.4034317458895211},{"client":"Teku","percentage":0.1616713707569852},{"client":"Prysm","percentage":0.35912369517494735},{"client":"Nimbus","percentage":0.07577318817854636}],"networkPenetration":0.3207452227871372},{"id":"Coinbase","idType":"entity","timeWindow":"1d","validatorCount":55741,"avgCorrectness":0.9877955050506501,"avgInclusionDelay":1.0162202832344702,"avgUptime":0.99990742900199,"avgValidatorEffectiveness":97.90583148593043,"clientPercentages":[{"client":"Prysm","percentage":0.42568234657154685},{"client":"Teku","percentage":0.1585719290423262},{"client":"Nimbus","percentage":0.10153189592025223},{"client":"Lighthouse","percentage":0.3142138284658747}],"networkPenetration":0.13885366819700226},{"id":"Kraken","idType":"entity","timeWindow":"1d","validatorCount":35566,"avgCorrectness":0.9836538059973018,"avgInclusionDelay":1.0227959804269562,"avgUptime":0.9991459179542745,"avgValidatorEffectiveness":97.17525918064922,"clientPercentages":[{"client":"Teku","percentage":0.08162209693270574},{"client":"Lighthouse","percentage":0.2455387161847618},{"client":"Nimbus","percentage":0.03791444680080691},{"client":"Prysm","percentage":0.6349247400817255}],"networkPenetration":0.08845472639542444},{"id":"Binance","idType":"entity","timeWindow":"1d","validatorCount":20422,"avgCorrectness":0.9879205354502438,"avgInclusionDelay":1.0168858180780551,"avgUptime":0.9960627427937176,"avgValidatorEffectiveness":97.53076499749488,"clientPercentages":[{"client":"Lighthouse","percentage":0.3111325894033916},{"client":"Teku","percentage":0.010543888937703189},{"client":"Prysm","percentage":0.6037255074246551},{"client":"Nimbus","percentage":0.07459801423425007}],"networkPenetration":0.05087224147251001},{"id":"Bitcoin Suisse","idType":"entity","timeWindow":"1d","validatorCount":8846,"avgCorrectness":0.9855249167098047,"avgInclusionDelay":1.039347667508919,"avgUptime":0.9992956167815045,"avgValidatorEffectiveness":95.86223834027885,"clientPercentages":[{"client":"Nimbus","percentage":0.007993268826251577},{"client":"Teku","percentage":0.9917963819941102},{"client":"Prysm","percentage":0.00021034917963819942}],"networkPenetration":0.02195861368035333},{"id":"Rocketpool","idType":"entity","timeWindow":"1d","validatorCount":5838,"avgCorrectness":0.9869693539975126,"avgInclusionDelay":1.020534179527773,"avgUptime":0.9876682672847321,"avgValidatorEffectiveness":96.49064827435886,"clientPercentages":[{"client":"Nimbus","percentage":0.2550640090747043},{"client":"Teku","percentage":0.24210014584346135},{"client":"Prysm","percentage":0.060119915734889},{"client":"Lighthouse","percentage":0.44271592934694537}],"networkPenetration":0.014530299897617808},{"id":"Staked.us","idType":"entity","timeWindow":"1d","validatorCount":5263,"avgCorrectness":0.9872191789682756,"avgInclusionDelay":1.0187846065324195,"avgUptime":0.9987294952181878,"avgValidatorEffectiveness":97.56543015297073,"clientPercentages":[{"client":"Prysm","percentage":0.4500330906684315},{"client":"Nimbus","percentage":0.053606882859033755},{"client":"Teku","percentage":0.49503639973527463},{"client":"Lighthouse","percentage":0.0013236267372600927}],"networkPenetration":0.01311040088482128},{"id":"f2pool.eth","idType":"entity","timeWindow":"1d","validatorCount":3501,"avgCorrectness":0.9824704431867919,"avgInclusionDelay":1.0791379538491293,"avgUptime":0.9977390586816464,"avgValidatorEffectiveness":92.56380775173895,"clientPercentages":[{"client":"Nimbus","percentage":0.0004723665564478035},{"client":"Lighthouse","percentage":0.9995276334435522}],"networkPenetration":0.008721169199650257},{"id":"Bitfinex","idType":"entity","timeWindow":"1d","validatorCount":3214,"avgCorrectness":0.9830386748827145,"avgInclusionDelay":1.0286706609929712,"avgUptime":0.9892110903685276,"avgValidatorEffectiveness":95.80165868197727,"clientPercentages":[{"client":"Prysm","percentage":0.8776741634668129},{"client":"Nimbus","percentage":0.10367526055951728},{"client":"Lighthouse","percentage":0.0027427317608337905},{"client":"Teku","percentage":0.015907844212835986}],"networkPenetration":0.008006237591452706},{"id":"Huobi","idType":"entity","timeWindow":"1d","validatorCount":2855,"avgCorrectness":0.9848793964840586,"avgInclusionDelay":1.0248441062507008,"avgUptime":0.9995781280404732,"avgValidatorEffectiveness":97.00786898521741,"clientPercentages":[{"client":"Lighthouse","percentage":0.0024110910186859553},{"client":"Teku","percentage":0.016877637130801686},{"client":"Prysm","percentage":0.8842676311030742},{"client":"Nimbus","percentage":0.09644364074743822}],"networkPenetration":0.007111950318480858},{"id":"wedex.eth","idType":"entity","timeWindow":"1d","validatorCount":2399,"avgCorrectness":0.9870374214017135,"avgInclusionDelay":1.0197948151538794,"avgUptime":0.9996961697003388,"avgValidatorEffectiveness":97.55314172081152,"clientPercentages":[{"client":"Lighthouse","percentage":1.0}],"networkPenetration":0.005976031108243635},{"id":"Bloxstaking","idType":"entity","timeWindow":"1d","validatorCount":2292,"avgCorrectness":0.9856317937418049,"avgInclusionDelay":1.0185782895094153,"avgUptime":0.9998768663951887,"avgValidatorEffectiveness":97.58184884290552,"clientPercentages":[{"client":"Teku","percentage":0.010542168674698794},{"client":"Prysm","percentage":0.5015060240963856},{"client":"Lighthouse","percentage":0.45180722891566266},{"client":"Nimbus","percentage":0.03614457831325301}],"networkPenetration":0.00570948866198183},{"id":"Ankr","idType":"entity","timeWindow":"1d","validatorCount":2283,"avgCorrectness":0.8554420334830294,"avgInclusionDelay":1.4830019940290866,"avgUptime":0.9582865890618845,"avgValidatorEffectiveness":67.85715702984993,"clientPercentages":[{"client":"Nimbus","percentage":0.09650053022269353},{"client":"Lighthouse","percentage":0.009544008483563097},{"client":"Teku","percentage":0.006362672322375398},{"client":"Prysm","percentage":0.887592788971368}],"networkPenetration":0.005687069203885043},{"id":"StakeWise","idType":"entity","timeWindow":"1d","validatorCount":1936,"avgCorrectness":0.9852089234514627,"avgInclusionDelay":1.027496091519029,"avgUptime":0.9954219188597266,"avgValidatorEffectiveness":96.48870547400217,"clientPercentages":[{"client":"Lighthouse","percentage":0.5277246653919694},{"client":"Prysm","percentage":0.3795411089866157},{"client":"Teku","percentage":0.04397705544933078},{"client":"Nimbus","percentage":0.04875717017208413}],"networkPenetration":0.004820183490809268},{"id":"OKex","idType":"entity","timeWindow":"1d","validatorCount":1528,"avgCorrectness":0.9857615464924785,"avgInclusionDelay":1.0184531289360146,"avgUptime":0.9998385689354266,"avgValidatorEffectiveness":97.59893850373857,"clientPercentages":[{"client":"Nimbus","percentage":0.09518213866039953},{"client":"Teku","percentage":0.012925969447708578},{"client":"Prysm","percentage":0.8918918918918919}],"networkPenetration":0.0038063257746545533}]}