{"page":{"from":0,"size":15},"total":30,"next":"/v0/eth/operators?window=1d&from=15&size=15&idType=entity","data":[{"id":"Lido","idType":"entity","timeWindow":"1d","validatorCount":129584,"avgCorrectness":0.9902766097803106,"avgInclusionDelay":1.020984757495822,"avgUptime":0.9999196981129008,"avgValidatorEffectiveness":97.68069424115365,"clientPercentages":[{"client":"Prysm","percentage":0.36031478358628444},{"client":"Teku","percentage":0.2215128884606119},{"client":"Lighthouse","percentage":0.3538103268288766},{"client":"Nimbus","percentage":0.06436200112422709}],"networkPenetration":0.31233847014349636},{"id":"Coinbase","idType":"entity","timeWindow":"1d","validatorCount":55805,"avgCorrectness":0.9909012888089234,"avgInclusionDelay":1.019480385707461,"avgUptime":0.9999795065725884,"avgValidatorEffectiveness":97.81046503705645,"clientPercentages":[{"client":"Teku","percentage":0.1384345608161964},{"client":"Prysm","percentage":0.3732185557149689},{"client":"Lighthouse","percentage":0.3988203411445879},{"client":"Nimbus","percentage":0.08952654232424677}],"networkPenetration":0.13440730597130074},{"id":"Kraken","idType":"entity","timeWindow":"1d","validatorCount":36196,"avgCorrectness":0.9869872018665532,"avgInclusionDelay":1.024986908066352,"avgUptime":0.9993436185708046,"avgValidatorEffectiveness":97.18438584607621,"clientPercentages":[{"client":"Lighthouse","percentage":0.2649754027201698},{"client":"Prysm","percentage":0.5996913282531108},{"client":"Teku","percentage":0.09004533616282434},{"client":"Nimbus","percentage":0.04528793286389505}],"networkPenetration":0.08722853340533868},{"id":"Binance","idType":"entity","timeWindow":"1d","validatorCount":21584,"avgCorrectness":0.9905625755869719,"avgInclusionDelay":1.019164093684855,"avgUptime":0.9998656412157167,"avgValidatorEffectiveness":97.80810124956525,"clientPercentages":[{"client":"Teku","percentage":0.003264417845484222},{"client":"Prysm","percentage":0.5864233698836528},{"client":"Lighthouse","percentage":0.34309868586255965},{"client":"Nimbus","percentage":0.06721352640830335}],"networkPenetration":0.05203672272797408},{"id":"Bitcoin Suisse","idType":"entity","timeWindow":"1d","validatorCount":9000,"avgCorrectness":0.9886450204965002,"avgInclusionDelay":1.039607363261677,"avgUptime":0.9986046913580228,"avgValidatorEffectiveness":95.94321987789516,"clientPercentages":[{"client":"Nimbus","percentage":0.0063522617901828685},{"client":"Teku","percentage":0.9934552454282964},{"client":"Prysm","percentage":0.00019249278152069297}],"networkPenetration":0.021698040425860207},{"id":"Rocketpool","idType":"entity","timeWindow":"1d","validatorCount":6640,"avgCorrectness":0.9890169116746274,"avgInclusionDelay":1.023766992755225,"avgUptime":0.9927086038172401,"avgValidatorEffectiveness":96.80217821388702,"clientPercentages":[{"client":"Lighthouse","percentage":0.4055674518201285},{"client":"Nimbus","percentage":0.2328336902212705},{"client":"Prysm","percentage":0.07037830121341898},{"client":"Teku","percentage":0.291220556745182}],"networkPenetration":0.015993866687239622},{"id":"Staked.us","idType":"entity","timeWindow":"1d","validatorCount":5263,"avgCorrectness":0.990185387823045,"avgInclusionDelay":1.0191108313300352,"avgUptime":0.9994004264572378,"avgValidatorEffectiveness":97.75284204937,"clientPercentages":[{"client":"Lighthouse","percentage":0.0019887305270135896},{"client":"Prysm","percentage":0.4461385482267153},{"client":"Nimbus","percentage":0.043752071594298975},{"client":"Teku","percentage":0.5081206496519721}],"networkPenetration":0.012688531862366919},{"id":"f2pool.eth","idType":"entity","timeWindow":"1d","validatorCount":3501,"avgCorrectness":0.9913024850042845,"avgInclusionDelay":1.0185197879970802,"avgUptime":1.0,"avgValidatorEffectiveness":97.91489180118296,"clientPercentages":[{"client":"Lighthouse","percentage":1.0}],"networkPenetration":0.00844053772565962},{"id":"Bitfinex","idType":"entity","timeWindow":"1d","validatorCount":3214,"avgCorrectness":0.9903656567417572,"avgInclusionDelay":1.019274221109769,"avgUptime":0.9994150591163649,"avgValidatorEffectiveness":97.75056233473528,"clientPercentages":[{"client":"Nimbus","percentage":0.09640522875816994},{"client":"Teku","percentage":0.01579520697167756},{"client":"Prysm","percentage":0.8850762527233116},{"client":"Lighthouse","percentage":0.0027233115468409588}],"networkPenetration":0.007748611325412745},{"id":"Huobi","idType":"entity","timeWindow":"1d","validatorCount":2855,"avgCorrectness":0.9894588266836261,"avgInclusionDelay":1.0222327179314517,"avgUptime":0.9986876824284874,"avgValidatorEffectiveness":97.39577912960078,"clientPercentages":[{"client":"Teku","percentage":0.007202881152460984},{"client":"Prysm","percentage":0.9123649459783914},{"client":"Nimbus","percentage":0.07923169267707082},{"client":"Lighthouse","percentage":0.0012004801920768306}],"networkPenetration":0.006883100601758988},{"id":"wedex.eth","idType":"entity","timeWindow":"1d","validatorCount":2399,"avgCorrectness":0.9896567951303427,"avgInclusionDelay":1.0255794112279655,"avgUptime":0.9999546107174286,"avgValidatorEffectiveness":97.25054740818413,"clientPercentages":[{"client":"Lighthouse","percentage":1.0}],"networkPenetration":0.005783733220182071},{"id":"Bloxstaking","idType":"entity","timeWindow":"1d","validatorCount":2357,"avgCorrectness":0.989554980048096,"avgInclusionDelay":1.0227285597254678,"avgUptime":0.9996225813138053,"avgValidatorEffectiveness":97.43788555371768,"clientPercentages":[{"client":"Prysm","percentage":0.4458364038319823},{"client":"Lighthouse","percentage":0.49815770081061167},{"client":"Teku","percentage":0.0014738393515106854},{"client":"Nimbus","percentage":0.054532056005895356}],"networkPenetration":0.0056776539114334204},{"id":"Ankr","idType":"entity","timeWindow":"1d","validatorCount":2290,"avgCorrectness":0.895206042216592,"avgInclusionDelay":1.3249085352984542,"avgUptime":0.9885482775351779,"avgValidatorEffectiveness":78.37359935507739,"clientPercentages":[{"client":"Lighthouse","percentage":0.016198704103671708},{"client":"Nimbus","percentage":0.07235421166306695},{"client":"Prysm","percentage":0.9071274298056156},{"client":"Teku","percentage":0.004319654427645789}],"networkPenetration":0.005520945841691097},{"id":"StakeWise","idType":"entity","timeWindow":"1d","validatorCount":1980,"avgCorrectness":0.9909410794156767,"avgInclusionDelay":1.0199473592646011,"avgUptime":0.9999382716049379,"avgValidatorEffectiveness":97.77717560186522,"clientPercentages":[{"client":"Prysm","percentage":0.36069868995633186},{"client":"Nimbus","percentage":0.04017467248908297},{"client":"Lighthouse","percentage":0.5388646288209606},{"client":"Teku","percentage":0.06026200873362445}],"networkPenetration":0.004773568893689246},{"id":"OKex","idType":"entity","timeWindow":"1d","validatorCount":1725,"avgCorrectness":0.9902638280086997,"avgInclusionDelay":1.0191769371080055,"avgUptime":1.0,"avgValidatorEffectiveness":97.79975458355,"clientPercentages":[{"client":"Lighthouse","percentage":0.0022396416573348264},{"client":"Teku","percentage":0.006718924972004479},{"client":"Prysm","percentage":0.8891377379619261},{"client":"Nimbus","percentage":0.1019036954087346}],"networkPenetration":0.004151558401481253}]}