{"page":{"from":0,"size":15},"total":31,"next":"/v0/eth/operators?window=1d&from=15&size=15&idType=entity","data":[{"id":"Lido","idType":"entity","timeWindow":"1d","validatorCount":129344,"avgCorrectness":0.9898929161601485,"avgInclusionDelay":1.022236299340101,"avgUptime":0.9997890365469957,"avgValidatorEffectiveness":97.52122437610761,"clientPercentages":[{"client":"Nimbus","percentage":0.06436200112422709},{"client":"Prysm","percentage":0.36031478358628444},{"client":"Lighthouse","percentage":0.3538103268288766},{"client":"Teku","percentage":0.2215128884606119}],"networkPenetration":0.3150957921612193},{"id":"Coinbase","idType":"entity","timeWindow":"1d","validatorCount":56137,"avgCorrectness":0.990531817499081,"avgInclusionDelay":1.021401217275239,"avgUptime":0.9996428974354457,"avgValidatorEffectiveness":97.61203305880888,"clientPercentages":[{"client":"Teku","percentage":0.14360857792025897},{"client":"Nimbus","percentage":0.09231535373027483},{"client":"Lighthouse","percentage":0.39064396651000655},{"client":"Prysm","percentage":0.3734321018394597}],"networkPenetration":0.1367620690327233},{"id":"Kraken","idType":"entity","timeWindow":"1d","validatorCount":35967,"avgCorrectness":0.9827147454015714,"avgInclusionDelay":1.0341183017547173,"avgUptime":0.9972943506146293,"avgValidatorEffectiveness":96.19025128123207,"clientPercentages":[{"client":"Nimbus","percentage":0.04528793286389505},{"client":"Prysm","percentage":0.5996913282531108},{"client":"Lighthouse","percentage":0.2649754027201698},{"client":"Teku","percentage":0.09004533616282434}],"networkPenetration":0.08760889902356311},{"id":"Binance","idType":"entity","timeWindow":"1d","validatorCount":21153,"avgCorrectness":0.9904723094351565,"avgInclusionDelay":1.0206140766544078,"avgUptime":0.9998659501935596,"avgValidatorEffectiveness":97.68123133357531,"clientPercentages":[{"client":"Prysm","percentage":0.5864233698836528},{"client":"Teku","percentage":0.003264417845484222},{"client":"Nimbus","percentage":0.06721352640830335},{"client":"Lighthouse","percentage":0.34309868586255965}],"networkPenetration":0.05153335672104309},{"id":"Bitcoin Suisse","idType":"entity","timeWindow":"1d","validatorCount":9000,"avgCorrectness":0.9869920444819552,"avgInclusionDelay":1.0461954475932354,"avgUptime":0.9970251851851866,"avgValidatorEffectiveness":95.20750504170132,"clientPercentages":[{"client":"Nimbus","percentage":0.0063522617901828685},{"client":"Teku","percentage":0.9934552454282964},{"client":"Prysm","percentage":0.00019249278152069297}],"networkPenetration":0.02192597789861428},{"id":"Rocketpool","idType":"entity","timeWindow":"1d","validatorCount":6349,"avgCorrectness":0.9893640287365704,"avgInclusionDelay":1.024885603104645,"avgUptime":0.9974707425787019,"avgValidatorEffectiveness":97.10997413085501,"clientPercentages":[{"client":"Nimbus","percentage":0.2328336902212705},{"client":"Teku","percentage":0.291220556745182},{"client":"Lighthouse","percentage":0.4055674518201285},{"client":"Prysm","percentage":0.07037830121341898}],"networkPenetration":0.015465123077822605},{"id":"Staked.us","idType":"entity","timeWindow":"1d","validatorCount":5263,"avgCorrectness":0.9899552995387806,"avgInclusionDelay":1.0218975570009146,"avgUptime":0.9980509637511337,"avgValidatorEffectiveness":97.40032804557691,"clientPercentages":[{"client":"Prysm","percentage":0.4461385482267153},{"client":"Lighthouse","percentage":0.0019887305270135896},{"client":"Nimbus","percentage":0.043752071594298975},{"client":"Teku","percentage":0.5081206496519721}],"networkPenetration":0.012821824631156328},{"id":"f2pool.eth","idType":"entity","timeWindow":"1d","validatorCount":3501,"avgCorrectness":0.9908615947681885,"avgInclusionDelay":1.0202978344448754,"avgUptime":0.9999930178679103,"avgValidatorEffectiveness":97.7492014232477,"clientPercentages":[{"client":"Lighthouse","percentage":1.0}],"networkPenetration":0.008529205402560955},{"id":"Bitfinex","idType":"entity","timeWindow":"1d","validatorCount":3214,"avgCorrectness":0.9885710095723502,"avgInclusionDelay":1.0237724661080143,"avgUptime":0.9995312175897121,"avgValidatorEffectiveness":97.36061815914027,"clientPercentages":[{"client":"Nimbus","percentage":0.09640522875816994},{"client":"Prysm","percentage":0.8850762527233116},{"client":"Lighthouse","percentage":0.0027233115468409588},{"client":"Teku","percentage":0.01579520697167756}],"networkPenetration":0.00783001032957181},{"id":"Huobi","idType":"entity","timeWindow":"1d","validatorCount":2855,"avgCorrectness":0.9899466587584949,"avgInclusionDelay":1.021295243343631,"avgUptime":0.9999976649153531,"avgValidatorEffectiveness":97.61659714299941,"clientPercentages":[{"client":"Nimbus","percentage":0.07923169267707082},{"client":"Prysm","percentage":0.9123649459783914},{"client":"Lighthouse","percentage":0.0012004801920768306},{"client":"Teku","percentage":0.007202881152460984}],"networkPenetration":0.006955407433393752},{"id":"wedex.eth","idType":"entity","timeWindow":"1d","validatorCount":2399,"avgCorrectness":0.9901124238758076,"avgInclusionDelay":1.0230192888096743,"avgUptime":0.999940716039091,"avgValidatorEffectiveness":97.48070448921374,"clientPercentages":[{"client":"Lighthouse","percentage":1.0}],"networkPenetration":0.0058444912198639615},{"id":"Bloxstaking","idType":"entity","timeWindow":"1d","validatorCount":2343,"avgCorrectness":0.9899133977633393,"avgInclusionDelay":1.0207744368567837,"avgUptime":0.9954104424526965,"avgValidatorEffectiveness":97.26128478546818,"clientPercentages":[{"client":"Lighthouse","percentage":0.4985228951255539},{"client":"Nimbus","percentage":0.05465288035450517},{"client":"Teku","percentage":0.0014771048744460858},{"client":"Prysm","percentage":0.44534711964549484}],"networkPenetration":0.00570806291293925},{"id":"Ankr","idType":"entity","timeWindow":"1d","validatorCount":2289,"avgCorrectness":0.9455829159914471,"avgInclusionDelay":1.1983255530451549,"avgUptime":0.993875054608998,"avgValidatorEffectiveness":88.41035225584446,"clientPercentages":[{"client":"Prysm","percentage":0.9071274298056156},{"client":"Lighthouse","percentage":0.016198704103671708},{"client":"Teku","percentage":0.004319654427645789},{"client":"Nimbus","percentage":0.07235421166306695}],"networkPenetration":0.0055765070455475645},{"id":"StakeWise","idType":"entity","timeWindow":"1d","validatorCount":1978,"avgCorrectness":0.9902594812621833,"avgInclusionDelay":1.023348257672365,"avgUptime":0.9999382091899782,"avgValidatorEffectiveness":97.47182768954167,"clientPercentages":[{"client":"Nimbus","percentage":0.04017467248908297},{"client":"Prysm","percentage":0.36069868995633186},{"client":"Lighthouse","percentage":0.5388646288209606},{"client":"Teku","percentage":0.06026200873362445}],"networkPenetration":0.004818842698162116},{"id":"OKex","idType":"entity","timeWindow":"1d","validatorCount":1627,"avgCorrectness":0.9900605001085758,"avgInclusionDelay":1.0207833403426598,"avgUptime":1.0,"avgValidatorEffectiveness":97.66038818445327,"clientPercentages":[{"client":"Nimbus","percentage":0.1019036954087346},{"client":"Lighthouse","percentage":0.0022396416573348264},{"client":"Prysm","percentage":0.8891377379619261},{"client":"Teku","percentage":0.006718924972004479}],"networkPenetration":0.003934494922918007}]}