{"page":{"from":0,"size":15},"total":30,"next":"/v0/eth/operators?window=1d&from=15&size=15&idType=entity","data":[{"id":"Lido","idType":"entity","timeWindow":"1d","validatorCount":132339,"avgCorrectness":0.9891914355538337,"avgInclusionDelay":1.0329275430426903,"avgUptime":0.9985000295498299,"avgValidatorEffectiveness":96.29918081697912,"clientPercentages":[{"client":"Lighthouse","percentage":0.3503037354727856},{"client":"Lodestar","percentage":0.00037882375224926605},{"client":"Prysm","percentage":0.40259494270290747},{"client":"Teku","percentage":0.22193660113917715},{"client":"Nimbus","percentage":0.02478589693288055}],"networkPenetration":0.3021584706320501,"relayerPercentages":[{"relayer":"blocknative","percentage":0.014274896934683232},{"relayer":"bloxroute_regulated","percentage":0.0060296715932355496},{"relayer":"manifold","percentage":0.0017107440334296212},{"relayer":"edennetwork","percentage":0.0005328546989370951},{"relayer":"bloxroute_maxprofit","percentage":0.014499256807919903},{"relayer":"no_mev_boost","percentage":0.7190733937235325},{"relayer":"flashbots","percentage":0.22321002888633368},{"relayer":"bloxroute_ethical","percentage":0.020669153321928372}]},{"id":"Coinbase","idType":"entity","timeWindow":"1d","validatorCount":54442,"avgCorrectness":0.9884176058315886,"avgInclusionDelay":1.030835849586263,"avgUptime":0.9982644881860114,"avgValidatorEffectiveness":96.36251997008637,"clientPercentages":[{"client":"Teku","percentage":0.13096787451195288},{"client":"Lighthouse","percentage":0.4325638742379615},{"client":"Prysm","percentage":0.38225220905541474},{"client":"Nimbus","percentage":0.05421604219467087}],"networkPenetration":0.12427142762485976,"relayerPercentages":[{"relayer":"flashbots","percentage":0.00020781379883624273},{"relayer":"no_mev_boost","percentage":0.999722914934885},{"relayer":"bloxroute_regulated","percentage":6.927126627874758e-05}]},{"id":"Kraken","idType":"entity","timeWindow":"1d","validatorCount":37470,"avgCorrectness":0.9893031426743609,"avgInclusionDelay":1.0278495871826008,"avgUptime":0.9982675338381313,"avgValidatorEffectiveness":96.6656005079198,"clientPercentages":[{"client":"Nimbus","percentage":0.01955104996379435},{"client":"Prysm","percentage":0.6236543567463191},{"client":"Lighthouse","percentage":0.26280473087134926},{"client":"Teku","percentage":0.0939898624185373}],"networkPenetration":0.08557569498550281,"relayerPercentages":[{"relayer":"flashbots","percentage":0.3848558177051825},{"relayer":"edennetwork","percentage":0.0006049606775559589},{"relayer":"no_mev_boost","percentage":0.6048598507763662},{"relayer":"manifold","percentage":0.00010082677959265981},{"relayer":"blocknative","percentage":0.005847953216374269},{"relayer":"bloxroute_maxprofit","percentage":0.003730590844928413}]},{"id":"Binance","idType":"entity","timeWindow":"1d","validatorCount":23051,"avgCorrectness":0.9910610034914412,"avgInclusionDelay":1.0255090860934308,"avgUptime":0.9993733856244854,"avgValidatorEffectiveness":97.0878190866492,"clientPercentages":[{"client":"Teku","percentage":0.0005820237798287187},{"client":"Lighthouse","percentage":0.35769518583187826},{"client":"Nimbus","percentage":0.030764114076660846},{"client":"Prysm","percentage":0.6109586763116321}],"networkPenetration":0.052655990458586474,"relayerPercentages":[{"relayer":"bloxroute_maxprofit","percentage":0.007354142833796372},{"relayer":"bloxroute_ethical","percentage":0.00016342539630658605},{"relayer":"blocknative","percentage":0.0006537015852263442},{"relayer":"bloxroute_regulated","percentage":0.0021245301519856184},{"relayer":"no_mev_boost","percentage":0.8208857656479817},{"relayer":"edennetwork","percentage":0.0013074031704526884},{"relayer":"flashbots","percentage":0.1675110312142507}]},{"id":"Bitcoin Suisse","idType":"entity","timeWindow":"1d","validatorCount":9184,"avgCorrectness":0.9912394045394842,"avgInclusionDelay":1.0327530445276107,"avgUptime":0.9978063428115169,"avgValidatorEffectiveness":96.4064971750222,"clientPercentages":[{"client":"Teku","percentage":0.9935897435897436},{"client":"Nimbus","percentage":0.00641025641025641}],"networkPenetration":0.020983798332537454,"relayerPercentages":[{"relayer":"no_mev_boost","percentage":1.0}]},{"id":"Rocketpool","idType":"entity","timeWindow":"1d","validatorCount":8772,"avgCorrectness":0.9858376402128043,"avgInclusionDelay":1.0396193654466972,"avgUptime":0.9856493742826582,"avgValidatorEffectiveness":94.54549209658504,"clientPercentages":[{"client":"Prysm","percentage":0.053901091497102815},{"client":"Lighthouse","percentage":0.4175987063738041},{"client":"Nimbus","percentage":0.22571082064411804},{"client":"Teku","percentage":0.3027893814849751}],"networkPenetration":0.01918107436864677,"relayerPercentages":[{"relayer":"bloxroute_ethical","percentage":0.02942595272551857},{"relayer":"flashbots","percentage":0.4081041968162084},{"relayer":"blocknative","percentage":0.020742884708152436},{"relayer":"no_mev_boost","percentage":0.3709599614085866},{"relayer":"manifold","percentage":0.000964785335262904},{"relayer":"bloxroute_maxprofit","percentage":0.09261939218523878},{"relayer":"edennetwork","percentage":0.00241196333815726},{"relayer":"bloxroute_regulated","percentage":0.07477086348287507}]},{"id":"Staked.us","idType":"entity","timeWindow":"1d","validatorCount":5263,"avgCorrectness":0.9886179494214699,"avgInclusionDelay":1.029502099230106,"avgUptime":0.998819350195584,"avgValidatorEffectiveness":96.52726247526792,"clientPercentages":[{"client":"Nimbus","percentage":0.02821210061182869},{"client":"Lighthouse","percentage":0.005778382053025153},{"client":"Prysm","percentage":0.47178789938817134},{"client":"Teku","percentage":0.49422161794697483}],"networkPenetration":0.012025014223012262,"relayerPercentages":[{"relayer":"flashbots","percentage":0.4048109965635739},{"relayer":"bloxroute_maxprofit","percentage":0.019243986254295534},{"relayer":"no_mev_boost","percentage":0.5759450171821305}]},{"id":"f2pool.eth","idType":"entity","timeWindow":"1d","validatorCount":3501,"avgCorrectness":0.9875138136610611,"avgInclusionDelay":1.0501285724875327,"avgUptime":0.9933590402742082,"avgValidatorEffectiveness":94.43184303990915,"clientPercentages":[{"client":"Prysm","percentage":0.013612056392805057},{"client":"Lighthouse","percentage":0.986387943607195}],"networkPenetration":0.007999159185781101,"relayerPercentages":[{"relayer":"manifold","percentage":0.05204872646733112},{"relayer":"flashbots","percentage":0.5714285714285714},{"relayer":"no_mev_boost","percentage":0.37652270210409744}]},{"id":"Bitfinex","idType":"entity","timeWindow":"1d","validatorCount":3214,"avgCorrectness":0.9915093787027416,"avgInclusionDelay":1.024851982582442,"avgUptime":0.9994675514366713,"avgValidatorEffectiveness":97.18542462253629,"clientPercentages":[{"client":"Prysm","percentage":0.943725379853686},{"client":"Nimbus","percentage":0.03939223410241981},{"client":"Teku","percentage":0.012380416432189083},{"client":"Lighthouse","percentage":0.004501969611705121}],"networkPenetration":0.007343415487889305,"relayerPercentages":[{"relayer":"flashbots","percentage":0.11729857819905214},{"relayer":"no_mev_boost","percentage":0.8827014218009479}]},{"id":"Huobi","idType":"entity","timeWindow":"1d","validatorCount":2855,"avgCorrectness":0.9904052384905696,"avgInclusionDelay":1.0241286445686018,"avgUptime":0.9995173671920607,"avgValidatorEffectiveness":97.15750099540016,"clientPercentages":[{"client":"Teku","percentage":0.002430133657351154},{"client":"Lighthouse","percentage":0.0006075334143377885},{"client":"Nimbus","percentage":0.04495747266099635},{"client":"Prysm","percentage":0.9520048602673147}],"networkPenetration":0.006523164660212809,"relayerPercentages":[{"relayer":"edennetwork","percentage":0.005649717514124294},{"relayer":"bloxroute_regulated","percentage":0.009887005649717515},{"relayer":"flashbots","percentage":0.3799435028248588},{"relayer":"no_mev_boost","percentage":0.4915254237288136},{"relayer":"bloxroute_ethical","percentage":0.10875706214689265},{"relayer":"blocknative","percentage":0.00423728813559322}]},{"id":"Bloxstaking","idType":"entity","timeWindow":"1d","validatorCount":2527,"avgCorrectness":0.9900324114107205,"avgInclusionDelay":1.0237624914387864,"avgUptime":0.9991778697884857,"avgValidatorEffectiveness":97.12232278402718,"clientPercentages":[{"client":"Nimbus","percentage":0.02389843166542196},{"client":"Prysm","percentage":0.48618371919342795},{"client":"Lighthouse","percentage":0.4876773711725168},{"client":"Teku","percentage":0.0022404779686333084}],"networkPenetration":0.005766888827452584,"relayerPercentages":[{"relayer":"no_mev_boost","percentage":0.25150602409638556},{"relayer":"bloxroute_ethical","percentage":0.02710843373493976},{"relayer":"blocknative","percentage":0.12048192771084337},{"relayer":"flashbots","percentage":0.6009036144578314}]},{"id":"wedex.eth","idType":"entity","timeWindow":"1d","validatorCount":2399,"avgCorrectness":0.9816192758969151,"avgInclusionDelay":1.065245068024671,"avgUptime":0.9925017533760754,"avgValidatorEffectiveness":92.71697557522728,"clientPercentages":[{"client":"Lighthouse","percentage":1.0}],"networkPenetration":0.005481286171576367,"relayerPercentages":[{"relayer":"manifold","percentage":0.006172839506172839},{"relayer":"no_mev_boost","percentage":0.21604938271604937},{"relayer":"blocknative","percentage":0.05092592592592592},{"relayer":"flashbots","percentage":0.39969135802469136},{"relayer":"edennetwork","percentage":0.020061728395061727},{"relayer":"bloxroute_ethical","percentage":0.016975308641975308},{"relayer":"bloxroute_maxprofit","percentage":0.29012345679012347}]},{"id":"Ankr","idType":"entity","timeWindow":"1d","validatorCount":2299,"avgCorrectness":0.9902285097824524,"avgInclusionDelay":1.023934621582461,"avgUptime":0.9994180527075265,"avgValidatorEffectiveness":97.14355034186532,"clientPercentages":[{"client":"Lighthouse","percentage":0.011122345803842264},{"client":"Teku","percentage":0.006066734074823054},{"client":"Nimbus","percentage":0.03640040444893832},{"client":"Prysm","percentage":0.9464105156723963}],"networkPenetration":0.005252804046875393,"relayerPercentages":[{"relayer":"no_mev_boost","percentage":0.8942457231726283},{"relayer":"flashbots","percentage":0.1057542768273717}]},{"id":"StakeWise","idType":"entity","timeWindow":"1d","validatorCount":1989,"avgCorrectness":0.98941598300293,"avgInclusionDelay":1.0341425436094314,"avgUptime":0.9988536205080316,"avgValidatorEffectiveness":96.25246401133884,"clientPercentages":[{"client":"Prysm","percentage":0.3850877192982456},{"client":"Lighthouse","percentage":0.5298245614035088},{"client":"Nimbus","percentage":0.02456140350877193},{"client":"Teku","percentage":0.060526315789473685}],"networkPenetration":0.004544509460302373,"relayerPercentages":[{"relayer":"bloxroute_maxprofit","percentage":0.3471223021582734},{"relayer":"manifold","percentage":0.0017985611510791368},{"relayer":"bloxroute_regulated","percentage":0.019784172661870502},{"relayer":"no_mev_boost","percentage":0.10971223021582734},{"relayer":"flashbots","percentage":0.4676258992805755},{"relayer":"blocknative","percentage":0.0539568345323741}]},{"id":"OKex","idType":"entity","timeWindow":"1d","validatorCount":1809,"avgCorrectness":0.9902581098724516,"avgInclusionDelay":1.0244258474706545,"avgUptime":0.9995661668936386,"avgValidatorEffectiveness":97.12189582720379,"clientPercentages":[{"client":"Teku","percentage":0.002098635886673662},{"client":"Nimbus","percentage":0.04512067156348373},{"client":"Prysm","percentage":0.9401888772298006},{"client":"Lighthouse","percentage":0.012591815320041973}],"networkPenetration":0.00413095681459361,"relayerPercentages":[{"relayer":"no_mev_boost","percentage":1.0}]}]}