{"page":{"from":0,"size":15},"total":31,"next":"/v0/eth/operators?window=1d&from=15&size=15&idType=entity","data":[{"id":"Lido","idType":"entity","timeWindow":"1d","validatorCount":129332,"avgCorrectness":0.990965217814343,"avgInclusionDelay":1.0165736842538495,"avgUptime":0.9999588459494626,"avgValidatorEffectiveness":98.06352566605418,"clientPercentages":[{"client":"Teku","percentage":0.19212259712326926},{"client":"Nimbus","percentage":0.07909665277591074},{"client":"Lighthouse","percentage":0.37658287404220997},{"client":"Prysm","percentage":0.35219787605861}],"networkPenetration":0.3151129554586813},{"id":"Coinbase","idType":"entity","timeWindow":"1d","validatorCount":56137,"avgCorrectness":0.9912950821853279,"avgInclusionDelay":1.016375688335978,"avgUptime":0.9996835519453395,"avgValidatorEffectiveness":98.07536558602709,"clientPercentages":[{"client":"Teku","percentage":0.15974643423137877},{"client":"Prysm","percentage":0.36446909667194927},{"client":"Lighthouse","percentage":0.38497622820919175},{"client":"Nimbus","percentage":0.09080824088748018}],"networkPenetration":0.13679172870221232},{"id":"Kraken","idType":"entity","timeWindow":"1d","validatorCount":35958,"avgCorrectness":0.9839307349656694,"avgInclusionDelay":1.0283993123303319,"avgUptime":0.9992675155365822,"avgValidatorEffectiveness":96.86372113961801,"clientPercentages":[{"client":"Nimbus","percentage":0.04148429141134131},{"client":"Lighthouse","percentage":0.26855364264176634},{"client":"Teku","percentage":0.08695652173913043},{"client":"Prysm","percentage":0.6030055442077619}],"networkPenetration":0.08760353133536233},{"id":"Binance","idType":"entity","timeWindow":"1d","validatorCount":21153,"avgCorrectness":0.9912761396848423,"avgInclusionDelay":1.015752730679823,"avgUptime":0.9988003802980405,"avgValidatorEffectiveness":98.04648722495561,"clientPercentages":[{"client":"Nimbus","percentage":0.0726083675693804},{"client":"Lighthouse","percentage":0.3254800033537352},{"client":"Teku","percentage":0.008803554959335961},{"client":"Prysm","percentage":0.5931080741175484}],"networkPenetration":0.051544532790100954},{"id":"Bitcoin Suisse","idType":"entity","timeWindow":"1d","validatorCount":9000,"avgCorrectness":0.9882588982280602,"avgInclusionDelay":1.038727593892261,"avgUptime":0.999727407407408,"avgValidatorEffectiveness":96.10455176284574,"clientPercentages":[{"client":"Nimbus","percentage":0.006906077348066298},{"client":"Teku","percentage":0.9928966061562746},{"client":"Prysm","percentage":0.0001973164956590371}],"networkPenetration":0.021930732998199243},{"id":"Rocketpool","idType":"entity","timeWindow":"1d","validatorCount":6337,"avgCorrectness":0.9902634728597368,"avgInclusionDelay":1.019162207197555,"avgUptime":0.9968326538944077,"avgValidatorEffectiveness":97.55886925821913,"clientPercentages":[{"client":"Teku","percentage":0.267433179035389},{"client":"Nimbus","percentage":0.2553382111393161},{"client":"Prysm","percentage":0.05987755711512618},{"client":"Lighthouse","percentage":0.41735105271016876}],"networkPenetration":0.01542217879395589},{"id":"Staked.us","idType":"entity","timeWindow":"1d","validatorCount":5263,"avgCorrectness":0.990587613017139,"avgInclusionDelay":1.0164722585838906,"avgUptime":0.9986395591867736,"avgValidatorEffectiveness":97.94106195632352,"clientPercentages":[{"client":"Prysm","percentage":0.4309677419354839},{"client":"Teku","percentage":0.5096774193548387},{"client":"Lighthouse","percentage":0.000967741935483871},{"client":"Nimbus","percentage":0.05838709677419355}],"networkPenetration":0.012824605307724736},{"id":"f2pool.eth","idType":"entity","timeWindow":"1d","validatorCount":3501,"avgCorrectness":0.9919134215620934,"avgInclusionDelay":1.0151067948840014,"avgUptime":1.0,"avgValidatorEffectiveness":98.24260195698896,"clientPercentages":[{"client":"Lighthouse","percentage":1.0}],"networkPenetration":0.008531055136299506},{"id":"Bitfinex","idType":"entity","timeWindow":"1d","validatorCount":3214,"avgCorrectness":0.9900742211277738,"avgInclusionDelay":1.017339245199491,"avgUptime":0.9995713199197938,"avgValidatorEffectiveness":97.96114706582205,"clientPercentages":[{"client":"Nimbus","percentage":0.10370768404083826},{"client":"Teku","percentage":0.018807092960773777},{"client":"Lighthouse","percentage":0.0021493820526598604},{"client":"Prysm","percentage":0.8753358409457281}],"networkPenetration":0.00783170842846804},{"id":"Huobi","idType":"entity","timeWindow":"1d","validatorCount":2855,"avgCorrectness":0.9905814360770578,"avgInclusionDelay":1.015885580852306,"avgUptime":1.0,"avgValidatorEffectiveness":98.10162861525183,"clientPercentages":[{"client":"Lighthouse","percentage":0.0017605633802816902},{"client":"Prysm","percentage":0.886150234741784},{"client":"Nimbus","percentage":0.09800469483568075},{"client":"Teku","percentage":0.014084507042253521}],"networkPenetration":0.006956915856650982},{"id":"wedex.eth","idType":"entity","timeWindow":"1d","validatorCount":2399,"avgCorrectness":0.9908891834585254,"avgInclusionDelay":1.0170035227934835,"avgUptime":0.9999916631929968,"avgValidatorEffectiveness":98.02724784173841,"clientPercentages":[{"client":"Lighthouse","percentage":1.0}],"networkPenetration":0.005845758718075553},{"id":"Bloxstaking","idType":"entity","timeWindow":"1d","validatorCount":2332,"avgCorrectness":0.9902756402620607,"avgInclusionDelay":1.0162058368076237,"avgUptime":0.9999761768629689,"avgValidatorEffectiveness":98.05595329958304,"clientPercentages":[{"client":"Prysm","percentage":0.43792325056433407},{"client":"Teku","percentage":0.008276899924755455},{"client":"Lighthouse","percentage":0.5026335590669676},{"client":"Nimbus","percentage":0.051166290443942816}],"networkPenetration":0.005682496594644515},{"id":"Ankr","idType":"entity","timeWindow":"1d","validatorCount":2289,"avgCorrectness":0.9000171290357829,"avgInclusionDelay":1.3500643323269204,"avgUptime":0.9863511480025249,"avgValidatorEffectiveness":78.42809967490888,"clientPercentages":[{"client":"Prysm","percentage":0.8990731204943357},{"client":"Lighthouse","percentage":0.008238928939237899},{"client":"Teku","percentage":0.009268795056642637},{"client":"Nimbus","percentage":0.08341915550978372}],"networkPenetration":0.005577716425875341},{"id":"StakeWise","idType":"entity","timeWindow":"1d","validatorCount":1978,"avgCorrectness":0.9912338654585985,"avgInclusionDelay":1.0180390015460397,"avgUptime":0.9999056285810581,"avgValidatorEffectiveness":97.96257421896834,"clientPercentages":[{"client":"Prysm","percentage":0.36436884512085943},{"client":"Nimbus","percentage":0.04028648164726947},{"client":"Teku","percentage":0.049239033124440466},{"client":"Lighthouse","percentage":0.5461056401074306}],"networkPenetration":0.004819887763382011},{"id":"OKex","idType":"entity","timeWindow":"1d","validatorCount":1614,"avgCorrectness":0.9907577883186933,"avgInclusionDelay":1.0158412321295192,"avgUptime":1.0,"avgValidatorEffectiveness":98.11562673548067,"clientPercentages":[{"client":"Nimbus","percentage":0.1087912087912088},{"client":"Prysm","percentage":0.8736263736263736},{"client":"Teku","percentage":0.017582417582417582}],"networkPenetration":0.003930474702899487}]}