{"page":{"from":0,"size":15},"total":31,"next":"/v0/eth/operators?window=1d&from=15&size=15&idType=entity","data":[{"id":"Lido","idType":"entity","timeWindow":"1d","validatorCount":128563,"avgCorrectness":0.9887582297161494,"avgInclusionDelay":1.0180467494321332,"avgUptime":0.9990072651255786,"avgValidatorEffectiveness":97.74956889831532,"clientPercentages":[{"client":"Teku","percentage":0.15570828226230082},{"client":"Nimbus","percentage":0.0738924881807039},{"client":"Lighthouse","percentage":0.4075468394326738},{"client":"Prysm","percentage":0.36285239012432147}],"networkPenetration":0.3236907178074465},{"id":"Coinbase","idType":"entity","timeWindow":"1d","validatorCount":55741,"avgCorrectness":0.9887108006157187,"avgInclusionDelay":1.0157269035215226,"avgUptime":0.9998641292270474,"avgValidatorEffectiveness":98.00161563688678,"clientPercentages":[{"client":"Teku","percentage":0.1581356136336264},{"client":"Lighthouse","percentage":0.2746597615319764},{"client":"Prysm","percentage":0.4683247019149705},{"client":"Nimbus","percentage":0.09887992291942671}],"networkPenetration":0.14036099374002206},{"id":"Kraken","idType":"entity","timeWindow":"1d","validatorCount":35272,"avgCorrectness":0.9854958359134284,"avgInclusionDelay":1.0206241958237974,"avgUptime":0.9992062336435305,"avgValidatorEffectiveness":97.43290712741515,"clientPercentages":[{"client":"Lighthouse","percentage":0.21619094488188975},{"client":"Prysm","percentage":0.6687007874015748},{"client":"Nimbus","percentage":0.036122047244094485},{"client":"Teku","percentage":0.07898622047244094}],"networkPenetration":0.08847821598182945},{"id":"Binance","idType":"entity","timeWindow":"1d","validatorCount":20091,"avgCorrectness":0.9890587590893661,"avgInclusionDelay":1.015708721456843,"avgUptime":0.9987884993482337,"avgValidatorEffectiveness":97.93676573283621,"clientPercentages":[{"client":"Lighthouse","percentage":0.3042330225266111},{"client":"Teku","percentage":0.0105619275517782},{"client":"Nimbus","percentage":0.06956019473553923},{"client":"Prysm","percentage":0.6156448551860715}],"networkPenetration":0.04970210965789195},{"id":"Bitcoin Suisse","idType":"entity","timeWindow":"1d","validatorCount":8611,"avgCorrectness":0.9866566735285294,"avgInclusionDelay":1.035416486398123,"avgUptime":0.9984668189266981,"avgValidatorEffectiveness":96.17630673253561,"clientPercentages":[{"client":"Prysm","percentage":0.00040048057669203043},{"client":"Teku","percentage":0.9825790949138967},{"client":"Nimbus","percentage":0.017020424509411294}],"networkPenetration":0.0216832944707725},{"id":"Rocketpool","idType":"entity","timeWindow":"1d","validatorCount":5748,"avgCorrectness":0.9876656708618757,"avgInclusionDelay":1.0209173763633648,"avgUptime":0.9913392828944585,"avgValidatorEffectiveness":96.82697730367924,"clientPercentages":[{"client":"Lighthouse","percentage":0.4504112990842775},{"client":"Teku","percentage":0.23389725283253143},{"client":"Nimbus","percentage":0.259506441098867},{"client":"Prysm","percentage":0.05618500698432407}],"networkPenetration":0.014416079531433349},{"id":"Staked.us","idType":"entity","timeWindow":"1d","validatorCount":5263,"avgCorrectness":0.9882189712375594,"avgInclusionDelay":1.019785453038331,"avgUptime":0.9994050710410219,"avgValidatorEffectiveness":97.60171921258186,"clientPercentages":[{"client":"Teku","percentage":0.4884735202492212},{"client":"Prysm","percentage":0.45981308411214955},{"client":"Lighthouse","percentage":0.004984423676012461},{"client":"Nimbus","percentage":0.04672897196261682}],"networkPenetration":0.013252720798940387},{"id":"f2pool.eth","idType":"entity","timeWindow":"1d","validatorCount":3501,"avgCorrectness":0.9848425030404634,"avgInclusionDelay":1.0628875279649526,"avgUptime":0.9984137865371782,"avgValidatorEffectiveness":94.03653473607106,"clientPercentages":[{"client":"Lighthouse","percentage":0.9995590828924162},{"client":"Nimbus","percentage":0.0004409171075837742}],"networkPenetration":0.00881584182350186},{"id":"Bitfinex","idType":"entity","timeWindow":"1d","validatorCount":3214,"avgCorrectness":0.9858787026415231,"avgInclusionDelay":1.0218496097860827,"avgUptime":0.9920860125838336,"avgValidatorEffectiveness":96.70446782462277,"clientPercentages":[{"client":"Prysm","percentage":0.8813471502590674},{"client":"Teku","percentage":0.014507772020725389},{"client":"Nimbus","percentage":0.10103626943005181},{"client":"Lighthouse","percentage":0.0031088082901554403}],"networkPenetration":0.008093149277559263},{"id":"Huobi","idType":"entity","timeWindow":"1d","validatorCount":2855,"avgCorrectness":0.985879232025813,"avgInclusionDelay":1.0232116133593498,"avgUptime":0.9996606343646615,"avgValidatorEffectiveness":97.20964695035748,"clientPercentages":[{"client":"Lighthouse","percentage":0.0028538812785388126},{"client":"Teku","percentage":0.0182648401826484},{"client":"Prysm","percentage":0.8921232876712328},{"client":"Nimbus","percentage":0.0867579908675799}],"networkPenetration":0.007189154072007373},{"id":"wedex.eth","idType":"entity","timeWindow":"1d","validatorCount":2399,"avgCorrectness":0.9887264538099111,"avgInclusionDelay":1.0143996057339038,"avgUptime":0.9999296002964193,"avgValidatorEffectiveness":98.11301427530778,"clientPercentages":[{"client":"Lighthouse","percentage":0.9993206521739131},{"client":"Nimbus","percentage":0.0006793478260869565}],"networkPenetration":0.006040903894481852},{"id":"Ankr","idType":"entity","timeWindow":"1d","validatorCount":2281,"avgCorrectness":0.8348300228925746,"avgInclusionDelay":1.5617680557035407,"avgUptime":0.9420433333646689,"avgValidatorEffectiveness":62.89864734185673,"clientPercentages":[{"client":"Lighthouse","percentage":0.010138248847926268},{"client":"Nimbus","percentage":0.07834101382488479},{"client":"Prysm","percentage":0.9069124423963134},{"client":"Teku","percentage":0.004608294930875576}],"networkPenetration":0.005741250887627604},{"id":"Bloxstaking","idType":"entity","timeWindow":"1d","validatorCount":2280,"avgCorrectness":0.9876834373888166,"avgInclusionDelay":1.0158885655939447,"avgUptime":0.9999298245614029,"avgValidatorEffectiveness":97.93284270121896,"clientPercentages":[{"client":"Prysm","percentage":0.5197699496764917},{"client":"Nimbus","percentage":0.03666427030913012},{"client":"Teku","percentage":0.012221423436376708},{"client":"Lighthouse","percentage":0.43134435657800146}],"networkPenetration":0.005741250887627604},{"id":"StakeWise","idType":"entity","timeWindow":"1d","validatorCount":1988,"avgCorrectness":0.9864229332419837,"avgInclusionDelay":1.0265227461766921,"avgUptime":0.998673150011178,"avgValidatorEffectiveness":96.92092479752705,"clientPercentages":[{"client":"Nimbus","percentage":0.04900181488203267},{"client":"Prysm","percentage":0.4673321234119782},{"client":"Teku","percentage":0.04446460980036298},{"client":"Lighthouse","percentage":0.43920145190562615}],"networkPenetration":0.005005967879212139},{"id":"Stakefish","idType":"entity","timeWindow":"1d","validatorCount":1518,"avgCorrectness":0.9831987561696479,"avgInclusionDelay":1.0739477679258982,"avgUptime":0.9980456741326302,"avgValidatorEffectiveness":93.03954689396755,"clientPercentages":[{"client":"Teku","percentage":0.03898840885142255},{"client":"Lighthouse","percentage":0.9599578503688093},{"client":"Prysm","percentage":0.001053740779768177}],"networkPenetration":0.003822464406762589}]}