{"page":{"from":0,"size":15},"total":31,"next":"/v0/eth/operators?window=1d&from=15&size=15&idType=entity","data":[{"id":"Lido","idType":"entity","timeWindow":"1d","validatorCount":128845,"avgCorrectness":0.9846433509270142,"avgInclusionDelay":1.0250108245000835,"avgUptime":0.9998598564290806,"avgValidatorEffectiveness":97.00860768278753,"clientPercentages":[{"client":"Lighthouse","percentage":0.3901341611848853},{"client":"Prysm","percentage":0.3543988731007508},{"client":"Teku","percentage":0.1765840182710849},{"client":"Nimbus","percentage":0.07888294744327895}],"networkPenetration":0.3201552141154361},{"id":"Coinbase","idType":"entity","timeWindow":"1d","validatorCount":56811,"avgCorrectness":0.9843537447784335,"avgInclusionDelay":1.0261244721267593,"avgUptime":0.9996486318514957,"avgValidatorEffectiveness":96.89085204490706,"clientPercentages":[{"client":"Prysm","percentage":0.37485480222534695},{"client":"Nimbus","percentage":0.09720608913614966},{"client":"Lighthouse","percentage":0.36210796600843675},{"client":"Teku","percentage":0.16583114263006662}],"networkPenetration":0.1407367450277541},{"id":"Kraken","idType":"entity","timeWindow":"1d","validatorCount":35643,"avgCorrectness":0.9777117170007525,"avgInclusionDelay":1.0368719689470283,"avgUptime":0.9987577111501243,"avgValidatorEffectiveness":95.81178464198348,"clientPercentages":[{"client":"Teku","percentage":0.08519279702485809},{"client":"Nimbus","percentage":0.038755137991779216},{"client":"Prysm","percentage":0.6030045018594636},{"client":"Lighthouse","percentage":0.273047563123899}],"networkPenetration":0.08856700382566501},{"id":"Binance","idType":"entity","timeWindow":"1d","validatorCount":20641,"avgCorrectness":0.9857788170531118,"avgInclusionDelay":1.021742332193905,"avgUptime":0.9997249730960415,"avgValidatorEffectiveness":97.32237872495743,"clientPercentages":[{"client":"Nimbus","percentage":0.07626127631139325},{"client":"Teku","percentage":0.01110925492816572},{"client":"Lighthouse","percentage":0.3196625459405279},{"client":"Prysm","percentage":0.5929669228199131}],"networkPenetration":0.050765257293994524},{"id":"Bitcoin Suisse","idType":"entity","timeWindow":"1d","validatorCount":8939,"avgCorrectness":0.9841855379269672,"avgInclusionDelay":1.0438405663324009,"avgUptime":0.9992920314031744,"avgValidatorEffectiveness":95.44129491798768,"clientPercentages":[{"client":"Nimbus","percentage":0.00696240302367217},{"client":"Teku","percentage":0.9930375969763279}],"networkPenetration":0.02214361531558629},{"id":"Rocketpool","idType":"entity","timeWindow":"1d","validatorCount":5889,"avgCorrectness":0.9850887361046682,"avgInclusionDelay":1.0239005615881054,"avgUptime":0.9911415428346588,"avgValidatorEffectiveness":96.40593426611912,"clientPercentages":[{"client":"Prysm","percentage":0.056414922656960874},{"client":"Nimbus","percentage":0.25508037609948436},{"client":"Teku","percentage":0.2605398847437064},{"client":"Lighthouse","percentage":0.42796481649984836}],"networkPenetration":0.014624033329770336},{"id":"Staked.us","idType":"entity","timeWindow":"1d","validatorCount":5263,"avgCorrectness":0.9823108679462392,"avgInclusionDelay":1.0296514891853634,"avgUptime":0.9995570756011565,"avgValidatorEffectiveness":96.47556518995334,"clientPercentages":[{"client":"Nimbus","percentage":0.05559125964010283},{"client":"Prysm","percentage":0.43316195372750643},{"client":"Lighthouse","percentage":0.0016066838046272494},{"client":"Teku","percentage":0.5096401028277635}],"networkPenetration":0.013082829749206404},{"id":"f2pool.eth","idType":"entity","timeWindow":"1d","validatorCount":3501,"avgCorrectness":0.9787245335791247,"avgInclusionDelay":1.0700359152019834,"avgUptime":0.9985400996540679,"avgValidatorEffectiveness":93.08559870712457,"clientPercentages":[{"client":"Nimbus","percentage":0.00045024763619990995},{"client":"Lighthouse","percentage":0.9995497523638001}],"networkPenetration":0.008702828605732781},{"id":"Bitfinex","idType":"entity","timeWindow":"1d","validatorCount":3214,"avgCorrectness":0.9826527977650275,"avgInclusionDelay":1.0293437052450005,"avgUptime":0.9988736776602365,"avgValidatorEffectiveness":96.48746186524448,"clientPercentages":[{"client":"Teku","percentage":0.021432305279665446},{"client":"Nimbus","percentage":0.1097752221641401},{"client":"Prysm","percentage":0.865656037637219},{"client":"Lighthouse","percentage":0.0031364349189754314}],"networkPenetration":0.007989400496665282},{"id":"Huobi","idType":"entity","timeWindow":"1d","validatorCount":2855,"avgCorrectness":0.9807397661273999,"avgInclusionDelay":1.0340049514971272,"avgUptime":0.9997742751508067,"avgValidatorEffectiveness":96.04523834721907,"clientPercentages":[{"client":"Prysm","percentage":0.8795110593713621},{"client":"Nimbus","percentage":0.0989522700814901},{"client":"Teku","percentage":0.018044237485448197},{"client":"Lighthouse","percentage":0.0034924330616996507}],"networkPenetration":0.0070969939072742325},{"id":"wedex.eth","idType":"entity","timeWindow":"1d","validatorCount":2399,"avgCorrectness":0.9831467596585808,"avgInclusionDelay":1.0293261761182608,"avgUptime":0.9998397480431662,"avgValidatorEffectiveness":96.56186691668941,"clientPercentages":[{"client":"Lighthouse","percentage":1.0}],"networkPenetration":0.005963463531891728},{"id":"Bloxstaking","idType":"entity","timeWindow":"1d","validatorCount":2301,"avgCorrectness":0.9787919998917441,"avgInclusionDelay":1.0398400906256222,"avgUptime":0.9999159390725371,"avgValidatorEffectiveness":95.47345521456509,"clientPercentages":[{"client":"Lighthouse","percentage":0.49417758369723436},{"client":"Nimbus","percentage":0.04439592430858806},{"client":"Teku","percentage":0.008733624454148471},{"client":"Prysm","percentage":0.45269286754002913}],"networkPenetration":0.005714882309220126},{"id":"Ankr","idType":"entity","timeWindow":"1d","validatorCount":2283,"avgCorrectness":0.8448529943677983,"avgInclusionDelay":1.5337539399576292,"avgUptime":0.941889326909038,"avgValidatorEffectiveness":64.71021636455387,"clientPercentages":[{"client":"Teku","percentage":0.008008008008008008},{"client":"Lighthouse","percentage":0.01001001001001001},{"client":"Prysm","percentage":0.8898898898898899},{"client":"Nimbus","percentage":0.0920920920920921}],"networkPenetration":0.005675109313592669},{"id":"StakeWise","idType":"entity","timeWindow":"1d","validatorCount":1959,"avgCorrectness":0.98398786487037,"avgInclusionDelay":1.029162318738329,"avgUptime":0.9984255005388236,"avgValidatorEffectiveness":96.53286773609439,"clientPercentages":[{"client":"Prysm","percentage":0.3770197486535009},{"client":"Lighthouse","percentage":0.5359066427289049},{"client":"Teku","percentage":0.04039497307001795},{"client":"Nimbus","percentage":0.0466786355475763}],"networkPenetration":0.00486970615213668},{"id":"OKex","idType":"entity","timeWindow":"1d","validatorCount":1528,"avgCorrectness":0.9835463000816175,"avgInclusionDelay":1.0260404770183589,"avgUptime":0.9996407795229784,"avgValidatorEffectiveness":96.83847766948315,"clientPercentages":[{"client":"Teku","percentage":0.021134593993325918},{"client":"Prysm","percentage":0.8765294771968855},{"client":"Nimbus","percentage":0.10233592880978866}],"networkPenetration":0.003798321082422076}]}