{"page":{"from":0,"size":15},"total":31,"next":"/v0/eth/operators?window=1d&from=15&size=15&idType=entity","data":[{"id":"Lido","idType":"entity","timeWindow":"1d","validatorCount":128856,"avgCorrectness":0.9872110334385419,"avgInclusionDelay":1.0183489240622077,"avgUptime":0.9997531985270427,"avgValidatorEffectiveness":97.6768905320069,"clientPercentages":[{"client":"Nimbus","percentage":0.07888294744327895},{"client":"Teku","percentage":0.1765840182710849},{"client":"Prysm","percentage":0.3543988731007508},{"client":"Lighthouse","percentage":0.3901341611848853}],"networkPenetration":0.3196438671522272},{"id":"Coinbase","idType":"entity","timeWindow":"1d","validatorCount":56844,"avgCorrectness":0.9866698638624145,"avgInclusionDelay":1.0195137773003924,"avgUptime":0.9997471442309942,"avgValidatorEffectiveness":97.55601499648586,"clientPercentages":[{"client":"Nimbus","percentage":0.09720608913614966},{"client":"Lighthouse","percentage":0.36210796600843675},{"client":"Teku","percentage":0.16583114263006662},{"client":"Prysm","percentage":0.37485480222534695}],"networkPenetration":0.14101431874336406},{"id":"Kraken","idType":"entity","timeWindow":"1d","validatorCount":35691,"avgCorrectness":0.9802224061286386,"avgInclusionDelay":1.029455518243893,"avgUptime":0.9984843990181456,"avgValidatorEffectiveness":96.49005096465912,"clientPercentages":[{"client":"Nimbus","percentage":0.038755137991779216},{"client":"Lighthouse","percentage":0.273047563123899},{"client":"Prysm","percentage":0.6030045018594636},{"client":"Teku","percentage":0.08519279702485809}],"networkPenetration":0.08847504887027793},{"id":"Binance","idType":"entity","timeWindow":"1d","validatorCount":20641,"avgCorrectness":0.9874670222347436,"avgInclusionDelay":1.017079889629153,"avgUptime":0.9996280326642238,"avgValidatorEffectiveness":97.78371847513262,"clientPercentages":[{"client":"Nimbus","percentage":0.07626127631139325},{"client":"Prysm","percentage":0.5929669228199131},{"client":"Teku","percentage":0.01110925492816572},{"client":"Lighthouse","percentage":0.3196625459405279}],"networkPenetration":0.05120463994760709},{"id":"Bitcoin Suisse","idType":"entity","timeWindow":"1d","validatorCount":8939,"avgCorrectness":0.9854467383226786,"avgInclusionDelay":1.0431565032857375,"avgUptime":0.9965134056755045,"avgValidatorEffectiveness":95.33233306132581,"clientPercentages":[{"client":"Nimbus","percentage":0.00696240302367217},{"client":"Teku","percentage":0.9930375969763279}],"networkPenetration":0.022175198706053962},{"id":"Rocketpool","idType":"entity","timeWindow":"1d","validatorCount":5899,"avgCorrectness":0.9871301441197728,"avgInclusionDelay":1.0196398997592628,"avgUptime":0.9935702906276901,"avgValidatorEffectiveness":97.07355217804107,"clientPercentages":[{"client":"Prysm","percentage":0.056414922656960874},{"client":"Lighthouse","percentage":0.42796481649984836},{"client":"Teku","percentage":0.2605398847437064},{"client":"Nimbus","percentage":0.25508037609948436}],"networkPenetration":0.014623872510592694},{"id":"Staked.us","idType":"entity","timeWindow":"1d","validatorCount":5263,"avgCorrectness":0.9858555455657781,"avgInclusionDelay":1.02038900418444,"avgUptime":0.999326113116727,"avgValidatorEffectiveness":97.39713498436254,"clientPercentages":[{"client":"Lighthouse","percentage":0.0016066838046272494},{"client":"Prysm","percentage":0.43316195372750643},{"client":"Nimbus","percentage":0.05559125964010283},{"client":"Teku","percentage":0.5096401028277635}],"networkPenetration":0.013056054456870119},{"id":"f2pool.eth","idType":"entity","timeWindow":"1d","validatorCount":3501,"avgCorrectness":0.9833883358975777,"avgInclusionDelay":1.057905530315596,"avgUptime":0.9987749531879793,"avgValidatorEffectiveness":94.30456373743169,"clientPercentages":[{"client":"Nimbus","percentage":0.00045024763619990995},{"client":"Lighthouse","percentage":0.9995497523638001}],"networkPenetration":0.008685017414687876},{"id":"Bitfinex","idType":"entity","timeWindow":"1d","validatorCount":3214,"avgCorrectness":0.9838661201334339,"avgInclusionDelay":1.0245565996380914,"avgUptime":0.998362718661411,"avgValidatorEffectiveness":96.8977096540082,"clientPercentages":[{"client":"Teku","percentage":0.021432305279665446},{"client":"Nimbus","percentage":0.1097752221641401},{"client":"Lighthouse","percentage":0.0031364349189754314},{"client":"Prysm","percentage":0.865656037637219}],"networkPenetration":0.00797304940611449},{"id":"Huobi","idType":"entity","timeWindow":"1d","validatorCount":2855,"avgCorrectness":0.983361918560519,"avgInclusionDelay":1.026356539658986,"avgUptime":0.9997306869040663,"avgValidatorEffectiveness":96.79668438765323,"clientPercentages":[{"client":"Teku","percentage":0.018044237485448197},{"client":"Prysm","percentage":0.8795110593713621},{"client":"Nimbus","percentage":0.0989522700814901},{"client":"Lighthouse","percentage":0.0034924330616996507}],"networkPenetration":0.007082469214205622},{"id":"wedex.eth","idType":"entity","timeWindow":"1d","validatorCount":2399,"avgCorrectness":0.9851949464873676,"avgInclusionDelay":1.0270588856732195,"avgUptime":0.99952943356028,"avgValidatorEffectiveness":96.85091495949376,"clientPercentages":[{"client":"Lighthouse","percentage":1.0}],"networkPenetration":0.005951258719747561},{"id":"Bloxstaking","idType":"entity","timeWindow":"1d","validatorCount":2306,"avgCorrectness":0.9831713911720703,"avgInclusionDelay":1.0259248934345662,"avgUptime":0.9998370578496247,"avgValidatorEffectiveness":96.82819669279252,"clientPercentages":[{"client":"Teku","percentage":0.008733624454148471},{"client":"Prysm","percentage":0.45269286754002913},{"client":"Lighthouse","percentage":0.49417758369723436},{"client":"Nimbus","percentage":0.04439592430858806}],"networkPenetration":0.005715589866735466},{"id":"Ankr","idType":"entity","timeWindow":"1d","validatorCount":2284,"avgCorrectness":0.873834596720575,"avgInclusionDelay":1.4170993003318335,"avgUptime":0.9703230200428093,"avgValidatorEffectiveness":72.37866870411881,"clientPercentages":[{"client":"Lighthouse","percentage":0.01001001001001001},{"client":"Prysm","percentage":0.8898898898898899},{"client":"Teku","percentage":0.008008008008008008},{"client":"Nimbus","percentage":0.0920920920920921}],"networkPenetration":0.0056659753713644975},{"id":"StakeWise","idType":"entity","timeWindow":"1d","validatorCount":1968,"avgCorrectness":0.9865002187229069,"avgInclusionDelay":1.0219536759577745,"avgUptime":0.9996769793278347,"avgValidatorEffectiveness":97.36277591784844,"clientPercentages":[{"client":"Nimbus","percentage":0.0466786355475763},{"client":"Prysm","percentage":0.3770197486535009},{"client":"Teku","percentage":0.04039497307001795},{"client":"Lighthouse","percentage":0.5359066427289049}],"networkPenetration":0.004879585619734662},{"id":"OKex","idType":"entity","timeWindow":"1d","validatorCount":1534,"avgCorrectness":0.9848328489952097,"avgInclusionDelay":1.0221727818884114,"avgUptime":0.9996841952774156,"avgValidatorEffectiveness":97.21158356039803,"clientPercentages":[{"client":"Prysm","percentage":0.8765294771968855},{"client":"Teku","percentage":0.021134593993325918},{"client":"Nimbus","percentage":0.10233592880978866}],"networkPenetration":0.0038054317949532137}]}