{"page":{"from":0,"size":15},"total":31,"next":"/v0/eth/operators?window=1d&from=15&size=15&idType=entity","data":[{"id":"Lido","idType":"entity","timeWindow":"1d","validatorCount":128924,"avgCorrectness":0.986644602437914,"avgInclusionDelay":1.0192380618116743,"avgUptime":0.9999388943171209,"avgValidatorEffectiveness":97.59198328422477,"clientPercentages":[{"client":"Nimbus","percentage":0.07888294744327895},{"client":"Lighthouse","percentage":0.3901341611848853},{"client":"Teku","percentage":0.1765840182710849},{"client":"Prysm","percentage":0.3543988731007508}],"networkPenetration":0.31880556414219474},{"id":"Coinbase","idType":"entity","timeWindow":"1d","validatorCount":57073,"avgCorrectness":0.9861687718145551,"avgInclusionDelay":1.020490085344591,"avgUptime":0.9998803481700826,"avgValidatorEffectiveness":97.4607836650062,"clientPercentages":[{"client":"Prysm","percentage":0.37500766260038004},{"client":"Nimbus","percentage":0.09706982161466315},{"client":"Lighthouse","percentage":0.36296205480291793},{"client":"Teku","percentage":0.16496046098203887}],"networkPenetration":0.1411387944358578},{"id":"Kraken","idType":"entity","timeWindow":"1d","validatorCount":35745,"avgCorrectness":0.9796008500494007,"avgInclusionDelay":1.0310509447576832,"avgUptime":0.9989318812713084,"avgValidatorEffectiveness":96.36609939164754,"clientPercentages":[{"client":"Nimbus","percentage":0.038755137991779216},{"client":"Prysm","percentage":0.6030045018594636},{"client":"Lighthouse","percentage":0.273047563123899},{"client":"Teku","percentage":0.08519279702485809}],"networkPenetration":0.08837341576506955},{"id":"Binance","idType":"entity","timeWindow":"1d","validatorCount":20810,"avgCorrectness":0.9864655861511922,"avgInclusionDelay":1.0190536417966782,"avgUptime":0.99645330770463,"avgValidatorEffectiveness":97.3021550186761,"clientPercentages":[{"client":"Nimbus","percentage":0.07626127631139325},{"client":"Prysm","percentage":0.5929669228199131},{"client":"Teku","percentage":0.01110925492816572},{"client":"Lighthouse","percentage":0.3196625459405279}],"networkPenetration":0.05146213292117465},{"id":"Bitcoin Suisse","idType":"entity","timeWindow":"1d","validatorCount":9000,"avgCorrectness":0.983206381204395,"avgInclusionDelay":1.0554771493582857,"avgUptime":0.9989832098765434,"avgValidatorEffectiveness":94.46498071809194,"clientPercentages":[{"client":"Nimbus","percentage":0.00696240302367217},{"client":"Teku","percentage":0.9930375969763279}],"networkPenetration":0.022256568778979906},{"id":"Rocketpool","idType":"entity","timeWindow":"1d","validatorCount":5923,"avgCorrectness":0.9856360082857497,"avgInclusionDelay":1.02239666214735,"avgUptime":0.9943994248979677,"avgValidatorEffectiveness":96.81781654510797,"clientPercentages":[{"client":"Nimbus","percentage":0.25508037609948436},{"client":"Lighthouse","percentage":0.42796481649984836},{"client":"Prysm","percentage":0.056414922656960874},{"client":"Teku","percentage":0.2605398847437064}],"networkPenetration":0.014644822256568778},{"id":"Staked.us","idType":"entity","timeWindow":"1d","validatorCount":5263,"avgCorrectness":0.9857043901367641,"avgInclusionDelay":1.0194950117841848,"avgUptime":0.9996748791352621,"avgValidatorEffectiveness":97.49603364161052,"clientPercentages":[{"client":"Teku","percentage":0.5096401028277635},{"client":"Nimbus","percentage":0.05559125964010283},{"client":"Lighthouse","percentage":0.0016066838046272494},{"client":"Prysm","percentage":0.43316195372750643}],"networkPenetration":0.01301514683153014},{"id":"f2pool.eth","idType":"entity","timeWindow":"1d","validatorCount":3501,"avgCorrectness":0.9874130401665566,"avgInclusionDelay":1.01804829127101,"avgUptime":0.9999936526071913,"avgValidatorEffectiveness":97.7397720112431,"clientPercentages":[{"client":"Nimbus","percentage":0.00045024763619990995},{"client":"Lighthouse","percentage":0.9995497523638001}],"networkPenetration":0.008657805255023184},{"id":"Bitfinex","idType":"entity","timeWindow":"1d","validatorCount":3214,"avgCorrectness":0.984784269986378,"avgInclusionDelay":1.0219050327615904,"avgUptime":0.9943421143607821,"avgValidatorEffectiveness":96.81380791820075,"clientPercentages":[{"client":"Lighthouse","percentage":0.0031364349189754314},{"client":"Nimbus","percentage":0.1097752221641401},{"client":"Prysm","percentage":0.865656037637219},{"client":"Teku","percentage":0.021432305279665446}],"networkPenetration":0.00794806800618238},{"id":"Huobi","idType":"entity","timeWindow":"1d","validatorCount":2855,"avgCorrectness":0.9817930028132954,"avgInclusionDelay":1.0304549160255057,"avgUptime":0.99961782447947,"avgValidatorEffectiveness":96.38986440457151,"clientPercentages":[{"client":"Teku","percentage":0.018044237485448197},{"client":"Prysm","percentage":0.8795110593713621},{"client":"Nimbus","percentage":0.0989522700814901},{"client":"Lighthouse","percentage":0.0034924330616996507}],"networkPenetration":0.007060278207109737},{"id":"wedex.eth","idType":"entity","timeWindow":"1d","validatorCount":2399,"avgCorrectness":0.985399243703166,"avgInclusionDelay":1.0254051954384862,"avgUptime":0.999191329720717,"avgValidatorEffectiveness":96.96848261320643,"clientPercentages":[{"client":"Lighthouse","percentage":1.0}],"networkPenetration":0.005932612055641422},{"id":"Bloxstaking","idType":"entity","timeWindow":"1d","validatorCount":2307,"avgCorrectness":0.9839040640600525,"avgInclusionDelay":1.0228896000678211,"avgUptime":0.9998805567596207,"avgValidatorEffectiveness":97.13582775735034,"clientPercentages":[{"client":"Lighthouse","percentage":0.493809176984705},{"client":"Nimbus","percentage":0.04442825928623452},{"client":"Teku","percentage":0.00873998543335761},{"client":"Prysm","percentage":0.45302257829570286}],"networkPenetration":0.005705100463678516},{"id":"Ankr","idType":"entity","timeWindow":"1d","validatorCount":2284,"avgCorrectness":0.846356836450314,"avgInclusionDelay":1.538274018368642,"avgUptime":0.9167717454757742,"avgValidatorEffectiveness":62.22666271327059,"clientPercentages":[{"client":"Lighthouse","percentage":0.01001001001001001},{"client":"Teku","percentage":0.008008008008008008},{"client":"Nimbus","percentage":0.0920920920920921},{"client":"Prysm","percentage":0.8898898898898899}],"networkPenetration":0.00564822256568779},{"id":"StakeWise","idType":"entity","timeWindow":"1d","validatorCount":1968,"avgCorrectness":0.9870654997176737,"avgInclusionDelay":1.0200214568040655,"avgUptime":0.9998870822041557,"avgValidatorEffectiveness":97.55365633830127,"clientPercentages":[{"client":"Lighthouse","percentage":0.5359066427289049},{"client":"Teku","percentage":0.04039497307001795},{"client":"Prysm","percentage":0.3770197486535009},{"client":"Nimbus","percentage":0.0466786355475763}],"networkPenetration":0.004866769706336939},{"id":"OKex","idType":"entity","timeWindow":"1d","validatorCount":1543,"avgCorrectness":0.9832877171585217,"avgInclusionDelay":1.027009881417213,"avgUptime":0.9996221783238542,"avgValidatorEffectiveness":96.75231374448963,"clientPercentages":[{"client":"Prysm","percentage":0.8765294771968855},{"client":"Teku","percentage":0.021134593993325918},{"client":"Nimbus","percentage":0.10233592880978866}],"networkPenetration":0.003805873261205564}]}