{"page":{"from":0,"size":15},"total":30,"next":"/v0/eth/operators?window=1d&from=15&size=15&idType=entity","data":[{"id":"Lido","idType":"entity","timeWindow":"1d","validatorCount":131999,"avgCorrectness":0.9898746199620854,"avgInclusionDelay":1.0344608046040644,"avgUptime":0.998385989571521,"avgValidatorEffectiveness":96.47033453124708,"clientPercentages":[{"client":"Nimbus","percentage":0.02478589693288055},{"client":"Teku","percentage":0.22193660113917715},{"client":"Lighthouse","percentage":0.3503037354727856},{"client":"Prysm","percentage":0.40259494270290747},{"client":"Lodestar","percentage":0.00037882375224926605}],"networkPenetration":0.3022461678555168},{"id":"Coinbase","idType":"entity","timeWindow":"1d","validatorCount":54602,"avgCorrectness":0.9883246948121778,"avgInclusionDelay":1.033551634841351,"avgUptime":0.999050877838649,"avgValidatorEffectiveness":96.50698153226926,"clientPercentages":[{"client":"Prysm","percentage":0.3843697992731719},{"client":"Lighthouse","percentage":0.4296776823013959},{"client":"Teku","percentage":0.1314743742145841},{"client":"Nimbus","percentage":0.05447814421084808}],"networkPenetration":0.12555820766474887},{"id":"Kraken","idType":"entity","timeWindow":"1d","validatorCount":37373,"avgCorrectness":0.989801055628543,"avgInclusionDelay":1.0313244082136097,"avgUptime":0.998831795144119,"avgValidatorEffectiveness":96.74222371258031,"clientPercentages":[{"client":"Teku","percentage":0.0939898624185373},{"client":"Prysm","percentage":0.6236543567463191},{"client":"Lighthouse","percentage":0.26280473087134926},{"client":"Nimbus","percentage":0.01955104996379435}],"networkPenetration":0.0859122412468899},{"id":"Binance","idType":"entity","timeWindow":"1d","validatorCount":22496,"avgCorrectness":0.9917870934037665,"avgInclusionDelay":1.0271997453653479,"avgUptime":0.9994060288848532,"avgValidatorEffectiveness":97.23120360925762,"clientPercentages":[{"client":"Lighthouse","percentage":0.35769518583187826},{"client":"Nimbus","percentage":0.030764114076660846},{"client":"Prysm","percentage":0.6109586763116321},{"client":"Teku","percentage":0.0005820237798287187}],"networkPenetration":0.05172992636947714},{"id":"Bitcoin Suisse","idType":"entity","timeWindow":"1d","validatorCount":9153,"avgCorrectness":0.9917313350746675,"avgInclusionDelay":1.03270613237249,"avgUptime":0.9994757768725313,"avgValidatorEffectiveness":96.79152867407248,"clientPercentages":[{"client":"Teku","percentage":0.9935897435897436},{"client":"Nimbus","percentage":0.00641025641025641}],"networkPenetration":0.021047475820582515},{"id":"Rocketpool","idType":"entity","timeWindow":"1d","validatorCount":8162,"avgCorrectness":0.9807210391451436,"avgInclusionDelay":1.0491731938385584,"avgUptime":0.9812332224607201,"avgValidatorEffectiveness":93.68286444879838,"clientPercentages":[{"client":"Lighthouse","percentage":0.4175987063738041},{"client":"Nimbus","percentage":0.22571082064411804},{"client":"Teku","percentage":0.3027893814849751},{"client":"Prysm","percentage":0.053901091497102815}],"networkPenetration":0.018637582380183686},{"id":"Staked.us","idType":"entity","timeWindow":"1d","validatorCount":5263,"avgCorrectness":0.9879665271824873,"avgInclusionDelay":1.0376404152024212,"avgUptime":0.9978016114292944,"avgValidatorEffectiveness":96.06242596242194,"clientPercentages":[{"client":"Prysm","percentage":0.47178789938817134},{"client":"Lighthouse","percentage":0.005778382053025153},{"client":"Nimbus","percentage":0.02821210061182869},{"client":"Teku","percentage":0.49422161794697483}],"networkPenetration":0.012102356084750986},{"id":"f2pool.eth","idType":"entity","timeWindow":"1d","validatorCount":3501,"avgCorrectness":0.988683138724811,"avgInclusionDelay":1.0428034595275704,"avgUptime":0.9954581287432618,"avgValidatorEffectiveness":95.49431134705819,"clientPercentages":[{"client":"Lighthouse","percentage":0.986387943607195},{"client":"Prysm","percentage":0.013612056392805057}],"networkPenetration":0.008050607762248375},{"id":"Bitfinex","idType":"entity","timeWindow":"1d","validatorCount":3214,"avgCorrectness":0.9925887759653922,"avgInclusionDelay":1.0268079382259676,"avgUptime":0.9998077637765339,"avgValidatorEffectiveness":97.33909084141713,"clientPercentages":[{"client":"Teku","percentage":0.012380416432189083},{"client":"Prysm","percentage":0.943725379853686},{"client":"Lighthouse","percentage":0.004501969611705121},{"client":"Nimbus","percentage":0.03939223410241981}],"networkPenetration":0.00739064648610862},{"id":"Huobi","idType":"entity","timeWindow":"1d","validatorCount":2855,"avgCorrectness":0.9914273345827108,"avgInclusionDelay":1.027925688254113,"avgUptime":0.9997695841325436,"avgValidatorEffectiveness":97.18811945327325,"clientPercentages":[{"client":"Nimbus","percentage":0.04495747266099635},{"client":"Lighthouse","percentage":0.0006075334143377885},{"client":"Teku","percentage":0.002430133657351154},{"client":"Prysm","percentage":0.9520048602673147}],"networkPenetration":0.0065651200117735255},{"id":"Bloxstaking","idType":"entity","timeWindow":"1d","validatorCount":2512,"avgCorrectness":0.9876636414959682,"avgInclusionDelay":1.0327158718492244,"avgUptime":0.9993575405048767,"avgValidatorEffectiveness":96.55199213649124,"clientPercentages":[{"client":"Nimbus","percentage":0.02389843166542196},{"client":"Teku","percentage":0.0022404779686333084},{"client":"Lighthouse","percentage":0.4876773711725168},{"client":"Prysm","percentage":0.48618371919342795}],"networkPenetration":0.005760289187212848},{"id":"wedex.eth","idType":"entity","timeWindow":"1d","validatorCount":2399,"avgCorrectness":0.976931918407176,"avgInclusionDelay":1.0846234682579894,"avgUptime":0.9873141297299813,"avgValidatorEffectiveness":91.0797224597589,"clientPercentages":[{"client":"Lighthouse","percentage":1.0}],"networkPenetration":0.005516540423203042},{"id":"Ankr","idType":"entity","timeWindow":"1d","validatorCount":2298,"avgCorrectness":0.9913319204134677,"avgInclusionDelay":1.0276515704788096,"avgUptime":0.9997804552267676,"avgValidatorEffectiveness":97.19838361374377,"clientPercentages":[{"client":"Teku","percentage":0.006066734074823054},{"client":"Nimbus","percentage":0.03640040444893832},{"client":"Lighthouse","percentage":0.011122345803842264},{"client":"Prysm","percentage":0.9464105156723963}],"networkPenetration":0.005284289242401248},{"id":"StakeWise","idType":"entity","timeWindow":"1d","validatorCount":1989,"avgCorrectness":0.9882841543984875,"avgInclusionDelay":1.0329991379570589,"avgUptime":0.9993307337179893,"avgValidatorEffectiveness":96.57255486005543,"clientPercentages":[{"client":"Prysm","percentage":0.3850877192982456},{"client":"Teku","percentage":0.060526315789473685},{"client":"Nimbus","percentage":0.02456140350877193},{"client":"Lighthouse","percentage":0.5298245614035088}],"networkPenetration":0.0045737386001462495},{"id":"OKex","idType":"entity","timeWindow":"1d","validatorCount":1798,"avgCorrectness":0.9907311992102499,"avgInclusionDelay":1.0276993951929654,"avgUptime":0.9998206977066234,"avgValidatorEffectiveness":97.16768868822433,"clientPercentages":[{"client":"Teku","percentage":0.002098635886673662},{"client":"Lighthouse","percentage":0.012591815320041973},{"client":"Nimbus","percentage":0.04512067156348373},{"client":"Prysm","percentage":0.9401888772298006}],"networkPenetration":0.004132231404958678}]}