{"page":{"from":0,"size":15},"total":31,"next":"/v0/eth/operators?window=1d&from=15&size=15&idType=entity","data":[{"id":"Lido","idType":"entity","timeWindow":"1d","validatorCount":128786,"avgCorrectness":0.9890053216114401,"avgInclusionDelay":1.0129073776930602,"avgUptime":0.9996126587901561,"avgValidatorEffectiveness":98.23150242295385,"clientPercentages":[{"client":"Prysm","percentage":0.35912369517494735},{"client":"Teku","percentage":0.1616713707569852},{"client":"Lighthouse","percentage":0.4034317458895211},{"client":"Nimbus","percentage":0.07577318817854636}],"networkPenetration":0.3206130817666435},{"id":"Coinbase","idType":"entity","timeWindow":"1d","validatorCount":55741,"avgCorrectness":0.9888525631415429,"avgInclusionDelay":1.012860484143642,"avgUptime":0.9998688378193611,"avgValidatorEffectiveness":98.24905525416219,"clientPercentages":[{"client":"Lighthouse","percentage":0.3142138284658747},{"client":"Prysm","percentage":0.42568234657154685},{"client":"Teku","percentage":0.1585719290423262},{"client":"Nimbus","percentage":0.10153189592025223}],"networkPenetration":0.13878245108217996},{"id":"Kraken","idType":"entity","timeWindow":"1d","validatorCount":35581,"avgCorrectness":0.9841329820917989,"avgInclusionDelay":1.0206878936711778,"avgUptime":0.9989936647022133,"avgValidatorEffectiveness":97.40071836229279,"clientPercentages":[{"client":"Prysm","percentage":0.6349247400817255},{"client":"Teku","percentage":0.08162209693270574},{"client":"Lighthouse","percentage":0.2455387161847618},{"client":"Nimbus","percentage":0.03791444680080691}],"networkPenetration":0.08855127563532789},{"id":"Binance","idType":"entity","timeWindow":"1d","validatorCount":20422,"avgCorrectness":0.9891059820029718,"avgInclusionDelay":1.0124539295173185,"avgUptime":0.9996560354302009,"avgValidatorEffectiveness":98.27753063927935,"clientPercentages":[{"client":"Prysm","percentage":0.6037255074246551},{"client":"Nimbus","percentage":0.07459801423425007},{"client":"Teku","percentage":0.010543888937703189},{"client":"Lighthouse","percentage":0.3111325894033916}],"networkPenetration":0.05084614944117039},{"id":"Bitcoin Suisse","idType":"entity","timeWindow":"1d","validatorCount":8907,"avgCorrectness":0.9868557512897052,"avgInclusionDelay":1.0352497589665453,"avgUptime":0.9988809169790915,"avgValidatorEffectiveness":96.23245237831219,"clientPercentages":[{"client":"Teku","percentage":0.9917963819941102},{"client":"Nimbus","percentage":0.007993268826251577},{"client":"Prysm","percentage":0.00021034917963819942}],"networkPenetration":0.02202453422566807},{"id":"Rocketpool","idType":"entity","timeWindow":"1d","validatorCount":5847,"avgCorrectness":0.9879023734136784,"avgInclusionDelay":1.0166559421293124,"avgUptime":0.9831576152865458,"avgValidatorEffectiveness":96.48100875343997,"clientPercentages":[{"client":"Teku","percentage":0.24210014584346135},{"client":"Prysm","percentage":0.060119915734889},{"client":"Lighthouse","percentage":0.44271592934694537},{"client":"Nimbus","percentage":0.2550640090747043}],"networkPenetration":0.01453529627056864},{"id":"Staked.us","idType":"entity","timeWindow":"1d","validatorCount":5263,"avgCorrectness":0.9887741067023931,"avgInclusionDelay":1.012415002190408,"avgUptime":0.9937057445056684,"avgValidatorEffectiveness":97.75151236927677,"clientPercentages":[{"client":"Teku","percentage":0.49503639973527463},{"client":"Prysm","percentage":0.4500330906684315},{"client":"Nimbus","percentage":0.053606882859033755},{"client":"Lighthouse","percentage":0.0013236267372600927}],"networkPenetration":0.013103676648167651},{"id":"f2pool.eth","idType":"entity","timeWindow":"1d","validatorCount":3501,"avgCorrectness":0.9813311812395856,"avgInclusionDelay":1.0845093837741984,"avgUptime":0.9965051255196926,"avgValidatorEffectiveness":91.99792833407706,"clientPercentages":[{"client":"Lighthouse","percentage":0.9995276334435522},{"client":"Nimbus","percentage":0.0004723665564478035}],"networkPenetration":0.008716696170479755},{"id":"Bitfinex","idType":"entity","timeWindow":"1d","validatorCount":3214,"avgCorrectness":0.9872639176677538,"avgInclusionDelay":1.0165188945855392,"avgUptime":0.9940448039825762,"avgValidatorEffectiveness":97.4090259874572,"clientPercentages":[{"client":"Nimbus","percentage":0.10367526055951728},{"client":"Teku","percentage":0.015907844212835986},{"client":"Prysm","percentage":0.8776741634668129},{"client":"Lighthouse","percentage":0.0027427317608337905}],"networkPenetration":0.008002131245907436},{"id":"Huobi","idType":"entity","timeWindow":"1d","validatorCount":2855,"avgCorrectness":0.9864078002532186,"avgInclusionDelay":1.0205884139267098,"avgUptime":0.9996232730103138,"avgValidatorEffectiveness":97.4477042663097,"clientPercentages":[{"client":"Teku","percentage":0.016877637130801686},{"client":"Prysm","percentage":0.8842676311030742},{"client":"Lighthouse","percentage":0.0024110910186859553},{"client":"Nimbus","percentage":0.09644364074743822}],"networkPenetration":0.007108302646877949},{"id":"wedex.eth","idType":"entity","timeWindow":"1d","validatorCount":2399,"avgCorrectness":0.9883374657638325,"avgInclusionDelay":1.015819055137371,"avgUptime":0.9997387800472419,"avgValidatorEffectiveness":97.9660885813282,"clientPercentages":[{"client":"Lighthouse","percentage":1.0}],"networkPenetration":0.005972966041982557},{"id":"Bloxstaking","idType":"entity","timeWindow":"1d","validatorCount":2293,"avgCorrectness":0.9872354805834045,"avgInclusionDelay":1.0159931035619636,"avgUptime":0.9998313458916395,"avgValidatorEffectiveness":97.89068480309194,"clientPercentages":[{"client":"Lighthouse","percentage":0.45180722891566266},{"client":"Teku","percentage":0.010542168674698794},{"client":"Nimbus","percentage":0.03614457831325301},{"client":"Prysm","percentage":0.5015060240963856}],"networkPenetration":0.005706560303553155},{"id":"Ankr","idType":"entity","timeWindow":"1d","validatorCount":2283,"avgCorrectness":0.8465155293677439,"avgInclusionDelay":1.510633201823187,"avgUptime":0.9469041709251962,"avgValidatorEffectiveness":66.83156063754049,"clientPercentages":[{"client":"Prysm","percentage":0.887592788971368},{"client":"Lighthouse","percentage":0.009544008483563097},{"client":"Nimbus","percentage":0.09650053022269353},{"client":"Teku","percentage":0.006362672322375398}],"networkPenetration":0.00568415234424601},{"id":"StakeWise","idType":"entity","timeWindow":"1d","validatorCount":1937,"avgCorrectness":0.9868536412045369,"avgInclusionDelay":1.025084904528549,"avgUptime":0.9950775703010286,"avgValidatorEffectiveness":96.75549652866688,"clientPercentages":[{"client":"Prysm","percentage":0.3795411089866157},{"client":"Nimbus","percentage":0.04875717017208413},{"client":"Lighthouse","percentage":0.5277246653919694},{"client":"Teku","percentage":0.04397705544933078}],"networkPenetration":0.004820201024292718},{"id":"OKex","idType":"entity","timeWindow":"1d","validatorCount":1528,"avgCorrectness":0.9871479283054003,"avgInclusionDelay":1.0155347998137803,"avgUptime":0.999650959860384,"avgValidatorEffectiveness":97.91444993338033,"clientPercentages":[{"client":"Nimbus","percentage":0.09518213866039953},{"client":"Teku","percentage":0.012925969447708578},{"client":"Prysm","percentage":0.8918918918918919}],"networkPenetration":0.0038043735357021036}]}