{"page":{"from":0,"size":15},"total":31,"next":"/v0/eth/operators?window=1d&from=15&size=15&idType=entity","data":[{"id":"Lido","idType":"entity","timeWindow":"1d","validatorCount":128676,"avgCorrectness":0.9880410322981542,"avgInclusionDelay":1.0170882555039338,"avgUptime":0.9995651156833479,"avgValidatorEffectiveness":97.83144071950726,"clientPercentages":[{"client":"Teku","percentage":0.15570828226230082},{"client":"Prysm","percentage":0.36285239012432147},{"client":"Lighthouse","percentage":0.4075468394326738},{"client":"Nimbus","percentage":0.0738924881807039}],"networkPenetration":0.3223701847792045},{"id":"Coinbase","idType":"entity","timeWindow":"1d","validatorCount":55741,"avgCorrectness":0.9877097823395459,"avgInclusionDelay":1.0162088793917772,"avgUptime":0.9998213961795513,"avgValidatorEffectiveness":97.89990187201585,"clientPercentages":[{"client":"Teku","percentage":0.1581356136336264},{"client":"Nimbus","percentage":0.09887992291942671},{"client":"Lighthouse","percentage":0.2746597615319764},{"client":"Prysm","percentage":0.4683247019149705}],"networkPenetration":0.13965800187911057},{"id":"Kraken","idType":"entity","timeWindow":"1d","validatorCount":35351,"avgCorrectness":0.9846615823322779,"avgInclusionDelay":1.020778572378121,"avgUptime":0.9991101801086792,"avgValidatorEffectiveness":97.35718441734602,"clientPercentages":[{"client":"Teku","percentage":0.07898622047244094},{"client":"Lighthouse","percentage":0.21619094488188975},{"client":"Nimbus","percentage":0.036122047244094485},{"client":"Prysm","percentage":0.6687007874015748}],"networkPenetration":0.0885211399937363},{"id":"Binance","idType":"entity","timeWindow":"1d","validatorCount":20422,"avgCorrectness":0.9878450208739505,"avgInclusionDelay":1.015415731354367,"avgUptime":0.9999503803088188,"avgValidatorEffectiveness":97.98075798865389,"clientPercentages":[{"client":"Nimbus","percentage":0.06956019473553923},{"client":"Lighthouse","percentage":0.3042330225266111},{"client":"Teku","percentage":0.0105619275517782},{"client":"Prysm","percentage":0.6156448551860715}],"networkPenetration":0.05116692765424366},{"id":"Bitcoin Suisse","idType":"entity","timeWindow":"1d","validatorCount":8691,"avgCorrectness":0.98465208676309,"avgInclusionDelay":1.048037955334175,"avgUptime":0.9994515399071833,"avgValidatorEffectiveness":95.16332729173561,"clientPercentages":[{"client":"Prysm","percentage":0.00040048057669203043},{"client":"Nimbus","percentage":0.017020424509411294},{"client":"Teku","percentage":0.9825790949138967}],"networkPenetration":0.021775133103664267},{"id":"Rocketpool","idType":"entity","timeWindow":"1d","validatorCount":5793,"avgCorrectness":0.9872914987324393,"avgInclusionDelay":1.020309222138333,"avgUptime":0.9925331850809348,"avgValidatorEffectiveness":96.94005399426564,"clientPercentages":[{"client":"Prysm","percentage":0.05618500698432407},{"client":"Lighthouse","percentage":0.4504112990842775},{"client":"Teku","percentage":0.23389725283253143},{"client":"Nimbus","percentage":0.259506441098867}],"networkPenetration":0.01449671155652991},{"id":"Staked.us","idType":"entity","timeWindow":"1d","validatorCount":5263,"avgCorrectness":0.986767072598938,"avgInclusionDelay":1.0236589662032871,"avgUptime":0.9995946545063021,"avgValidatorEffectiveness":97.22667845024918,"clientPercentages":[{"client":"Nimbus","percentage":0.04672897196261682},{"client":"Teku","percentage":0.4884735202492212},{"client":"Prysm","percentage":0.45981308411214955},{"client":"Lighthouse","percentage":0.004984423676012461}],"networkPenetration":0.013186345129971813},{"id":"f2pool.eth","idType":"entity","timeWindow":"1d","validatorCount":3501,"avgCorrectness":0.9855724240805199,"avgInclusionDelay":1.0518668495472563,"avgUptime":0.9991234250531595,"avgValidatorEffectiveness":94.91218985971517,"clientPercentages":[{"client":"Lighthouse","percentage":0.9995590828924162},{"client":"Nimbus","percentage":0.0004409171075837742}],"networkPenetration":0.00877168806764798},{"id":"Bitfinex","idType":"entity","timeWindow":"1d","validatorCount":3214,"avgCorrectness":0.9831413966486287,"avgInclusionDelay":1.026508517807427,"avgUptime":0.9921420175620559,"avgValidatorEffectiveness":96.21896855384205,"clientPercentages":[{"client":"Lighthouse","percentage":0.0031088082901554403},{"client":"Prysm","percentage":0.8813471502590674},{"client":"Teku","percentage":0.014507772020725389},{"client":"Nimbus","percentage":0.10103626943005181}],"networkPenetration":0.008052615095521453},{"id":"Huobi","idType":"entity","timeWindow":"1d","validatorCount":2855,"avgCorrectness":0.9848346124920004,"avgInclusionDelay":1.0241296193354603,"avgUptime":0.9997571511967307,"avgValidatorEffectiveness":97.07948009921586,"clientPercentages":[{"client":"Teku","percentage":0.0182648401826484},{"client":"Prysm","percentage":0.8921232876712328},{"client":"Lighthouse","percentage":0.0028538812785388126},{"client":"Nimbus","percentage":0.0867579908675799}],"networkPenetration":0.007153147510178515},{"id":"wedex.eth","idType":"entity","timeWindow":"1d","validatorCount":2399,"avgCorrectness":0.9878745687850391,"avgInclusionDelay":1.0151096610678199,"avgUptime":0.9999610949006521,"avgValidatorEffectiveness":98.00936663102581,"clientPercentages":[{"client":"Nimbus","percentage":0.0006793478260869565},{"client":"Lighthouse","percentage":0.9993206521739131}],"networkPenetration":0.006010648293141247},{"id":"Bloxstaking","idType":"entity","timeWindow":"1d","validatorCount":2288,"avgCorrectness":0.9861760688311108,"avgInclusionDelay":1.0169522647386287,"avgUptime":0.9998426573426575,"avgValidatorEffectiveness":97.74516904287704,"clientPercentages":[{"client":"Prysm","percentage":0.5197699496764917},{"client":"Teku","percentage":0.012221423436376708},{"client":"Lighthouse","percentage":0.43134435657800146},{"client":"Nimbus","percentage":0.03666427030913012}],"networkPenetration":0.005732539931099279},{"id":"Ankr","idType":"entity","timeWindow":"1d","validatorCount":2281,"avgCorrectness":0.8489089200781061,"avgInclusionDelay":1.497227109174457,"avgUptime":0.9674187734424482,"avgValidatorEffectiveness":67.62161572985201,"clientPercentages":[{"client":"Nimbus","percentage":0.07834101382488479},{"client":"Prysm","percentage":0.9069124423963134},{"client":"Lighthouse","percentage":0.010138248847926268},{"client":"Teku","percentage":0.004608294930875576}],"networkPenetration":0.005715001565925462},{"id":"StakeWise","idType":"entity","timeWindow":"1d","validatorCount":1992,"avgCorrectness":0.9858000466945717,"avgInclusionDelay":1.0231853070726638,"avgUptime":0.9988953357937591,"avgValidatorEffectiveness":97.15487909575829,"clientPercentages":[{"client":"Nimbus","percentage":0.04900181488203267},{"client":"Lighthouse","percentage":0.43920145190562615},{"client":"Prysm","percentage":0.4673321234119782},{"client":"Teku","percentage":0.04446460980036298}],"networkPenetration":0.004988412151581584},{"id":"Stakefish","idType":"entity","timeWindow":"1d","validatorCount":1518,"avgCorrectness":0.9836807952708239,"avgInclusionDelay":1.0632892281669166,"avgUptime":0.9987307861220893,"avgValidatorEffectiveness":93.90805998367807,"clientPercentages":[{"client":"Teku","percentage":0.03898840885142255},{"client":"Lighthouse","percentage":0.9599578503688093},{"client":"Prysm","percentage":0.001053740779768177}],"networkPenetration":0.0038033197619793298}]}