{"page":{"from":0,"size":15},"total":31,"next":"/v0/eth/operators?window=1d&from=15&size=15&idType=entity","data":[{"id":"Lido","idType":"entity","timeWindow":"1d","validatorCount":128666,"avgCorrectness":0.9885625556567239,"avgInclusionDelay":1.017166282581531,"avgUptime":0.999794161621324,"avgValidatorEffectiveness":97.87341658384867,"clientPercentages":[{"client":"Prysm","percentage":0.36285239012432147},{"client":"Nimbus","percentage":0.0738924881807039},{"client":"Teku","percentage":0.15570828226230082},{"client":"Lighthouse","percentage":0.4075468394326738}],"networkPenetration":0.3225448974935628},{"id":"Coinbase","idType":"entity","timeWindow":"1d","validatorCount":55741,"avgCorrectness":0.9881982806547827,"avgInclusionDelay":1.0168832992519967,"avgUptime":0.999909342614354,"avgValidatorEffectiveness":97.87967456303215,"clientPercentages":[{"client":"Prysm","percentage":0.4683247019149705},{"client":"Nimbus","percentage":0.09887992291942671},{"client":"Lighthouse","percentage":0.2746597615319764},{"client":"Teku","percentage":0.1581356136336264}],"networkPenetration":0.13975324242264694},{"id":"Kraken","idType":"entity","timeWindow":"1d","validatorCount":35326,"avgCorrectness":0.983977443309302,"avgInclusionDelay":1.024118708845019,"avgUptime":0.9991034447740026,"avgValidatorEffectiveness":97.09634737554529,"clientPercentages":[{"client":"Nimbus","percentage":0.036122047244094485},{"client":"Lighthouse","percentage":0.21619094488188975},{"client":"Teku","percentage":0.07898622047244094},{"client":"Prysm","percentage":0.6687007874015748}],"networkPenetration":0.08855392838965734},{"id":"Binance","idType":"entity","timeWindow":"1d","validatorCount":20422,"avgCorrectness":0.9884670636540431,"avgInclusionDelay":1.0162263448327347,"avgUptime":0.9999430896962969,"avgValidatorEffectiveness":97.95171208205912,"clientPercentages":[{"client":"Teku","percentage":0.0105619275517782},{"client":"Nimbus","percentage":0.06956019473553923},{"client":"Prysm","percentage":0.6156448551860715},{"client":"Lighthouse","percentage":0.3042330225266111}],"networkPenetration":0.0512018212223551},{"id":"Bitcoin Suisse","idType":"entity","timeWindow":"1d","validatorCount":8691,"avgCorrectness":0.9861418553912212,"avgInclusionDelay":1.0403330747221984,"avgUptime":0.9987690033767402,"avgValidatorEffectiveness":95.80234974150622,"clientPercentages":[{"client":"Nimbus","percentage":0.017020424509411294},{"client":"Teku","percentage":0.9825790949138967},{"client":"Prysm","percentage":0.00040048057669203043}],"networkPenetration":0.02178998277560906},{"id":"Rocketpool","idType":"entity","timeWindow":"1d","validatorCount":5781,"avgCorrectness":0.9875172308465796,"avgInclusionDelay":1.0195807137645112,"avgUptime":0.9754269937880632,"avgValidatorEffectiveness":95.55850604577655,"clientPercentages":[{"client":"Nimbus","percentage":0.259506441098867},{"client":"Prysm","percentage":0.05618500698432407},{"client":"Lighthouse","percentage":0.4504112990842775},{"client":"Teku","percentage":0.23389725283253143}],"networkPenetration":0.014471497017698249},{"id":"Staked.us","idType":"entity","timeWindow":"1d","validatorCount":5263,"avgCorrectness":0.9875287800632845,"avgInclusionDelay":1.0235415636921283,"avgUptime":0.9994679840395224,"avgValidatorEffectiveness":97.26886638778234,"clientPercentages":[{"client":"Nimbus","percentage":0.04672897196261682},{"client":"Teku","percentage":0.4884735202492212},{"client":"Prysm","percentage":0.45981308411214955},{"client":"Lighthouse","percentage":0.004984423676012461}],"networkPenetration":0.013195337630655906},{"id":"f2pool.eth","idType":"entity","timeWindow":"1d","validatorCount":3501,"avgCorrectness":0.9807152564922768,"avgInclusionDelay":1.0917483870762394,"avgUptime":0.9971151099685817,"avgValidatorEffectiveness":91.56095149170673,"clientPercentages":[{"client":"Nimbus","percentage":0.0004409171075837742},{"client":"Lighthouse","percentage":0.9995590828924162}],"networkPenetration":0.008777669968635061},{"id":"Bitfinex","idType":"entity","timeWindow":"1d","validatorCount":3214,"avgCorrectness":0.9852184658975802,"avgInclusionDelay":1.0228378701234107,"avgUptime":0.9897545460831083,"avgValidatorEffectiveness":96.4366343020649,"clientPercentages":[{"client":"Nimbus","percentage":0.10103626943005181},{"client":"Teku","percentage":0.014507772020725389},{"client":"Prysm","percentage":0.8813471502590674},{"client":"Lighthouse","percentage":0.0031088082901554403}],"networkPenetration":0.008058106620734957},{"id":"Huobi","idType":"entity","timeWindow":"1d","validatorCount":2855,"avgCorrectness":0.985922900425182,"avgInclusionDelay":1.0216951068638755,"avgUptime":0.9997205682039301,"avgValidatorEffectiveness":97.33470749514055,"clientPercentages":[{"client":"Lighthouse","percentage":0.0028538812785388126},{"client":"Prysm","percentage":0.8921232876712328},{"client":"Teku","percentage":0.0182648401826484},{"client":"Nimbus","percentage":0.0867579908675799}],"networkPenetration":0.007158025638518452},{"id":"wedex.eth","idType":"entity","timeWindow":"1d","validatorCount":2399,"avgCorrectness":0.9885422321364057,"avgInclusionDelay":1.0154156700503758,"avgUptime":0.9999407160390898,"avgValidatorEffectiveness":98.02065578228462,"clientPercentages":[{"client":"Lighthouse","percentage":0.9993206521739131},{"client":"Nimbus","percentage":0.0006793478260869565}],"networkPenetration":0.0060147472878479035},{"id":"Bloxstaking","idType":"entity","timeWindow":"1d","validatorCount":2284,"avgCorrectness":0.9874152076378818,"avgInclusionDelay":1.015999844283754,"avgUptime":0.9999396578021924,"avgValidatorEffectiveness":97.90680642716654,"clientPercentages":[{"client":"Teku","percentage":0.012221423436376708},{"client":"Nimbus","percentage":0.03666427030913012},{"client":"Prysm","percentage":0.5197699496764917},{"client":"Lighthouse","percentage":0.43134435657800146}],"networkPenetration":0.005723913321449256},{"id":"Ankr","idType":"entity","timeWindow":"1d","validatorCount":2281,"avgCorrectness":0.8431324552760573,"avgInclusionDelay":1.5305348771672882,"avgUptime":0.9472434117589754,"avgValidatorEffectiveness":64.78597305950467,"clientPercentages":[{"client":"Nimbus","percentage":0.07834101382488479},{"client":"Lighthouse","percentage":0.010138248847926268},{"client":"Prysm","percentage":0.9069124423963134},{"client":"Teku","percentage":0.004608294930875576}],"networkPenetration":0.005718898942718245},{"id":"StakeWise","idType":"entity","timeWindow":"1d","validatorCount":1991,"avgCorrectness":0.9866559156499984,"avgInclusionDelay":1.0239795387724382,"avgUptime":0.9989332013061694,"avgValidatorEffectiveness":97.15188401231009,"clientPercentages":[{"client":"Nimbus","percentage":0.04900181488203267},{"client":"Prysm","percentage":0.4673321234119782},{"client":"Lighthouse","percentage":0.43920145190562615},{"client":"Teku","percentage":0.04446460980036298}],"networkPenetration":0.004984292458625108},{"id":"Stakefish","idType":"entity","timeWindow":"1d","validatorCount":1518,"avgCorrectness":0.9805243989977056,"avgInclusionDelay":1.089619324845832,"avgUptime":0.9972727272727273,"avgValidatorEffectiveness":91.67593081382219,"clientPercentages":[{"client":"Teku","percentage":0.03898840885142255},{"client":"Lighthouse","percentage":0.9599578503688093},{"client":"Prysm","percentage":0.001053740779768177}],"networkPenetration":0.0038059134568374817}]}