{"page":{"from":0,"size":15},"total":29,"next":"/v0/eth/operators?window=1d&from=15&size=15&idType=entity","data":[{"id":"Lido","idType":"entity","timeWindow":"1d","validatorCount":125108,"avgCorrectness":0.9852714697263208,"avgInclusionDelay":1.024500794182737,"avgUptime":0.9998548979306174,"avgValidatorEffectiveness":97.09402935711888,"clientPercentages":[{"client":"Prysm","percentage":0.3591064457079911},{"client":"Nimbus","percentage":0.08723331875394859},{"client":"Lighthouse","percentage":0.40130566490094116},{"client":"Teku","percentage":0.1523545706371191}],"networkPenetration":0.3206652179972231},{"id":"Coinbase","idType":"entity","timeWindow":"1d","validatorCount":55226,"avgCorrectness":0.9847186569675163,"avgInclusionDelay":1.022658562582039,"avgUptime":0.999917861856804,"avgValidatorEffectiveness":97.20501929147497,"clientPercentages":[{"client":"Nimbus","percentage":0.12089561021537013},{"client":"Teku","percentage":0.1628221725314817},{"client":"Lighthouse","percentage":0.1399023184653407},{"client":"Prysm","percentage":0.5763798987878075}],"networkPenetration":0.1422001538135965},{"id":"Kraken","idType":"entity","timeWindow":"1d","validatorCount":33416,"avgCorrectness":0.9809861359627239,"avgInclusionDelay":1.0278527154606527,"avgUptime":0.9993874680396246,"avgValidatorEffectiveness":96.59115340352137,"clientPercentages":[{"client":"Prysm","percentage":0.750966370313104},{"client":"Lighthouse","percentage":0.11321028218013143},{"client":"Nimbus","percentage":0.06411867027444917},{"client":"Teku","percentage":0.07170467723231543}],"networkPenetration":0.08618206781218224},{"id":"Binance","idType":"entity","timeWindow":"1d","validatorCount":19738,"avgCorrectness":0.9853165496737462,"avgInclusionDelay":1.0219344555916672,"avgUptime":0.9999587935285569,"avgValidatorEffectiveness":97.30121606275445,"clientPercentages":[{"client":"Prysm","percentage":0.6066949014497475},{"client":"Lighthouse","percentage":0.29638377585926046},{"client":"Nimbus","percentage":0.08063202475973286},{"client":"Teku","percentage":0.01628929793125916}],"networkPenetration":0.050939140398779816},{"id":"Bitcoin Suisse","idType":"entity","timeWindow":"1d","validatorCount":8102,"avgCorrectness":0.9816134466467442,"avgInclusionDelay":1.0609614256355009,"avgUptime":0.7194840780054317,"avgValidatorEffectiveness":71.13559108550547,"clientPercentages":[{"client":"Prysm","percentage":0.0009778994719342852},{"client":"Teku","percentage":0.8746332876980246},{"client":"Nimbus","percentage":0.12438881283004107}],"networkPenetration":0.02090935837019526},{"id":"Rocketpool","idType":"entity","timeWindow":"1d","validatorCount":5426,"avgCorrectness":0.9833614689082626,"avgInclusionDelay":1.028495941539671,"avgUptime":0.9951171838262378,"avgValidatorEffectiveness":96.30467665074333,"clientPercentages":[{"client":"Prysm","percentage":0.05962359639411672},{"client":"Teku","percentage":0.2293215245927566},{"client":"Nimbus","percentage":0.26174284358690497},{"client":"Lighthouse","percentage":0.4493120354262217}],"networkPenetration":0.0139490350519508},{"id":"Staked.us","idType":"entity","timeWindow":"1d","validatorCount":5263,"avgCorrectness":0.9846666692006827,"avgInclusionDelay":1.0263550333793257,"avgUptime":0.9997605928177847,"avgValidatorEffectiveness":96.89333313377507,"clientPercentages":[{"client":"Prysm","percentage":0.430622009569378},{"client":"Teku","percentage":0.4967105263157895},{"client":"Lighthouse","percentage":0.00687799043062201},{"client":"Nimbus","percentage":0.06578947368421052}],"networkPenetration":0.013582566415988356},{"id":"f2pool.eth","idType":"entity","timeWindow":"1d","validatorCount":3501,"avgCorrectness":0.9819455203504984,"avgInclusionDelay":1.0465140643850404,"avgUptime":0.9996508933955366,"avgValidatorEffectiveness":95.1439700882676,"clientPercentages":[{"client":"Lighthouse","percentage":1.0}],"networkPenetration":0.009035258412003654},{"id":"Bitfinex","idType":"entity","timeWindow":"1d","validatorCount":3214,"avgCorrectness":0.9825845478448616,"avgInclusionDelay":1.026296243532095,"avgUptime":0.9997828942819614,"avgValidatorEffectiveness":96.80633939212225,"clientPercentages":[{"client":"Nimbus","percentage":0.11834319526627218},{"client":"Lighthouse","percentage":0.0019723865877712033},{"client":"Prysm","percentage":0.841715976331361},{"client":"Teku","percentage":0.03796844181459566}],"networkPenetration":0.008294578844952797},{"id":"Huobi","idType":"entity","timeWindow":"1d","validatorCount":2855,"avgCorrectness":0.9839219535585375,"avgInclusionDelay":1.0229879868075173,"avgUptime":0.9999385094376337,"avgValidatorEffectiveness":97.13426576605825,"clientPercentages":[{"client":"Lighthouse","percentage":0.0005473453749315818},{"client":"Nimbus","percentage":0.11056376573617953},{"client":"Teku","percentage":0.02681992337164751},{"client":"Prysm","percentage":0.8620689655172413}],"networkPenetration":0.00736808419487873},{"id":"wedex.eth","idType":"entity","timeWindow":"1d","validatorCount":2399,"avgCorrectness":0.9844232935804976,"avgInclusionDelay":1.0265246410756244,"avgUptime":0.9998017692557086,"avgValidatorEffectiveness":96.8711095405071,"clientPercentages":[{"client":"Lighthouse","percentage":1.0}],"networkPenetration":0.006191255335731724},{"id":"Ankr","idType":"entity","timeWindow":"1d","validatorCount":2267,"avgCorrectness":0.9293171218891048,"avgInclusionDelay":1.2046332618451845,"avgUptime":0.9927036076667561,"avgValidatorEffectiveness":84.27357423824951,"clientPercentages":[{"client":"Teku","percentage":0.01},{"client":"Lighthouse","percentage":0.004166666666666667},{"client":"Prysm","percentage":0.8766666666666667},{"client":"Nimbus","percentage":0.10916666666666666}],"networkPenetration":0.005848013585147181},{"id":"Bloxstaking","idType":"entity","timeWindow":"1d","validatorCount":2265,"avgCorrectness":0.9800790728870933,"avgInclusionDelay":1.0298644506879597,"avgUptime":0.9994709470779369,"avgValidatorEffectiveness":96.33545552932837,"clientPercentages":[{"client":"Nimbus","percentage":0.06426553672316385},{"client":"Teku","percentage":0.01977401129943503},{"client":"Prysm","percentage":0.528954802259887},{"client":"Lighthouse","percentage":0.3870056497175141}],"networkPenetration":0.005842852055063203},{"id":"Stakewise","idType":"entity","timeWindow":"1d","validatorCount":2238,"avgCorrectness":0.9822224481334417,"avgInclusionDelay":1.0323866988789487,"avgUptime":0.9978065279932352,"avgValidatorEffectiveness":96.1346322980072,"clientPercentages":[{"client":"Prysm","percentage":0.4310487200660611},{"client":"Nimbus","percentage":0.053674649050371594},{"client":"Lighthouse","percentage":0.4797687861271676},{"client":"Teku","percentage":0.03550784475639967}],"networkPenetration":0.005765429103803532},{"id":"Stakefish","idType":"entity","timeWindow":"1d","validatorCount":1518,"avgCorrectness":0.981803197040129,"avgInclusionDelay":1.0456980480979035,"avgUptime":0.9875918606353384,"avgValidatorEffectiveness":94.18955159773134,"clientPercentages":[{"client":"Teku","percentage":0.045317220543806644},{"client":"Lighthouse","percentage":0.9546827794561934}],"networkPenetration":0.0039176013337393735}]}