{"page":{"from":0,"size":15},"total":30,"next":"/v0/eth/operators?window=1d&from=15&size=15&idType=entity","data":[{"id":"Lido","idType":"entity","timeWindow":"1d","validatorCount":131115,"avgCorrectness":0.9897321009809636,"avgInclusionDelay":1.0296565126623631,"avgUptime":0.9987317863240974,"avgValidatorEffectiveness":96.8821180505627,"clientPercentages":[{"client":"Lighthouse","percentage":0.3503037354727856},{"client":"Prysm","percentage":0.40259494270290747},{"client":"Nimbus","percentage":0.02478589693288055},{"client":"Teku","percentage":0.22193660113917715},{"client":"Lodestar","percentage":0.00037882375224926605}],"networkPenetration":0.30317126202812733},{"id":"Coinbase","idType":"entity","timeWindow":"1d","validatorCount":54500,"avgCorrectness":0.9886016363779185,"avgInclusionDelay":1.0271038324351105,"avgUptime":0.998930072726655,"avgValidatorEffectiveness":97.02147539354627,"clientPercentages":[{"client":"Teku","percentage":0.1314743742145841},{"client":"Lighthouse","percentage":0.4296776823013959},{"client":"Prysm","percentage":0.3843697992731719},{"client":"Nimbus","percentage":0.05447814421084808}],"networkPenetration":0.1259090488527017},{"id":"Kraken","idType":"entity","timeWindow":"1d","validatorCount":37323,"avgCorrectness":0.9902275014334408,"avgInclusionDelay":1.0239655649083643,"avgUptime":0.9992825226281514,"avgValidatorEffectiveness":97.3892444086017,"clientPercentages":[{"client":"Nimbus","percentage":0.01955104996379435},{"client":"Prysm","percentage":0.6236543567463191},{"client":"Lighthouse","percentage":0.26280473087134926},{"client":"Teku","percentage":0.0939898624185373}],"networkPenetration":0.08607512953367875},{"id":"Binance","idType":"entity","timeWindow":"1d","validatorCount":22496,"avgCorrectness":0.9919040325224239,"avgInclusionDelay":1.0209404215103308,"avgUptime":0.9996305277904785,"avgValidatorEffectiveness":97.75625859445876,"clientPercentages":[{"client":"Lighthouse","percentage":0.35769518583187826},{"client":"Prysm","percentage":0.6109586763116321},{"client":"Nimbus","percentage":0.030764114076660846},{"client":"Teku","percentage":0.0005820237798287187}],"networkPenetration":0.052035529237601776},{"id":"Bitcoin Suisse","idType":"entity","timeWindow":"1d","validatorCount":9153,"avgCorrectness":0.9925674160320173,"avgInclusionDelay":1.0250706653121215,"avgUptime":0.9994303248846632,"avgValidatorEffectiveness":97.44637520496082,"clientPercentages":[{"client":"Nimbus","percentage":0.00641025641025641},{"client":"Teku","percentage":0.9935897435897436}],"networkPenetration":0.02117181717246484},{"id":"Rocketpool","idType":"entity","timeWindow":"1d","validatorCount":7901,"avgCorrectness":0.9819267363334951,"avgInclusionDelay":1.0402424633197511,"avgUptime":0.9847511107075847,"avgValidatorEffectiveness":94.69637760830526,"clientPercentages":[{"client":"Lighthouse","percentage":0.4175987063738041},{"client":"Prysm","percentage":0.053901091497102815},{"client":"Teku","percentage":0.3027893814849751},{"client":"Nimbus","percentage":0.22571082064411804}],"networkPenetration":0.018178663952627683},{"id":"Staked.us","idType":"entity","timeWindow":"1d","validatorCount":5263,"avgCorrectness":0.9890398125273443,"avgInclusionDelay":1.027332703398556,"avgUptime":0.9970044281884016,"avgValidatorEffectiveness":96.862862794839,"clientPercentages":[{"client":"Prysm","percentage":0.47178789938817134},{"client":"Teku","percentage":0.49422161794697483},{"client":"Nimbus","percentage":0.02821210061182869},{"client":"Lighthouse","percentage":0.005778382053025153}],"networkPenetration":0.012173852701702443},{"id":"f2pool.eth","idType":"entity","timeWindow":"1d","validatorCount":3501,"avgCorrectness":0.9893004096889267,"avgInclusionDelay":1.034932410238913,"avgUptime":0.9972108677566054,"avgValidatorEffectiveness":96.29770236021906,"clientPercentages":[{"client":"Lighthouse","percentage":0.986387943607195},{"client":"Prysm","percentage":0.013612056392805057}],"networkPenetration":0.008098168023686158},{"id":"Bitfinex","idType":"entity","timeWindow":"1d","validatorCount":3214,"avgCorrectness":0.9928857619611223,"avgInclusionDelay":1.0208974895571454,"avgUptime":0.9978514911201976,"avgValidatorEffectiveness":97.66126799868738,"clientPercentages":[{"client":"Prysm","percentage":0.943725379853686},{"client":"Nimbus","percentage":0.03939223410241981},{"client":"Lighthouse","percentage":0.004501969611705121},{"client":"Teku","percentage":0.012380416432189083}],"networkPenetration":0.007434307920059216},{"id":"Huobi","idType":"entity","timeWindow":"1d","validatorCount":2855,"avgCorrectness":0.9911740887535722,"avgInclusionDelay":1.0206505065292042,"avgUptime":0.9996621632891334,"avgValidatorEffectiveness":97.74091096745623,"clientPercentages":[{"client":"Prysm","percentage":0.9520048602673147},{"client":"Lighthouse","percentage":0.0006075334143377885},{"client":"Teku","percentage":0.002430133657351154},{"client":"Nimbus","percentage":0.04495747266099635}],"networkPenetration":0.006603904515173945},{"id":"Bloxstaking","idType":"entity","timeWindow":"1d","validatorCount":2505,"avgCorrectness":0.987931506411054,"avgInclusionDelay":1.0256442158322996,"avgUptime":0.9992148599626143,"avgValidatorEffectiveness":97.11223274321287,"clientPercentages":[{"client":"Teku","percentage":0.0022404779686333084},{"client":"Nimbus","percentage":0.02389843166542196},{"client":"Lighthouse","percentage":0.4876773711725168},{"client":"Prysm","percentage":0.48618371919342795}],"networkPenetration":0.005794319022945966},{"id":"wedex.eth","idType":"entity","timeWindow":"1d","validatorCount":2399,"avgCorrectness":0.9754845085355216,"avgInclusionDelay":1.0796801388196775,"avgUptime":0.9908489400345384,"avgValidatorEffectiveness":91.60943991415388,"clientPercentages":[{"client":"Lighthouse","percentage":1.0}],"networkPenetration":0.005549130273871206},{"id":"Ankr","idType":"entity","timeWindow":"1d","validatorCount":2298,"avgCorrectness":0.9913853815584285,"avgInclusionDelay":1.0201797799765504,"avgUptime":0.9996895721952834,"avgValidatorEffectiveness":97.78986800237666,"clientPercentages":[{"client":"Teku","percentage":0.006066734074823054},{"client":"Prysm","percentage":0.9464105156723963},{"client":"Nimbus","percentage":0.03640040444893832},{"client":"Lighthouse","percentage":0.011122345803842264}],"networkPenetration":0.005315507031828275},{"id":"StakeWise","idType":"entity","timeWindow":"1d","validatorCount":1987,"avgCorrectness":0.9905623638237562,"avgInclusionDelay":1.0240554250601217,"avgUptime":0.9994709710339428,"avgValidatorEffectiveness":97.42304704818173,"clientPercentages":[{"client":"Nimbus","percentage":0.02456140350877193},{"client":"Prysm","percentage":0.3850877192982456},{"client":"Lighthouse","percentage":0.5298245614035088},{"client":"Teku","percentage":0.060526315789473685}],"networkPenetration":0.004596132494448557},{"id":"OKex","idType":"entity","timeWindow":"1d","validatorCount":1782,"avgCorrectness":0.99111286270875,"avgInclusionDelay":1.020407500446574,"avgUptime":0.9998004516060071,"avgValidatorEffectiveness":97.77313997513991,"clientPercentages":[{"client":"Lighthouse","percentage":0.012591815320041973},{"client":"Nimbus","percentage":0.04512067156348373},{"client":"Teku","percentage":0.002098635886673662},{"client":"Prysm","percentage":0.9401888772298006}],"networkPenetration":0.004121946706143597}]}