{"page":{"from":0,"size":15},"total":30,"next":"/v0/eth/operators?window=1d&from=15&size=15&idType=entity","data":[{"id":"Lido","idType":"entity","timeWindow":"1d","validatorCount":129627,"avgCorrectness":0.9896155100385011,"avgInclusionDelay":1.0248619782816817,"avgUptime":0.9986963726207783,"avgValidatorEffectiveness":97.19444674605143,"clientPercentages":[{"client":"Teku","percentage":0.2215128884606119},{"client":"Lighthouse","percentage":0.3538103268288766},{"client":"Nimbus","percentage":0.06436200112422709},{"client":"Prysm","percentage":0.36031478358628444}],"networkPenetration":0.3120659931233085},{"id":"Coinbase","idType":"entity","timeWindow":"1d","validatorCount":55805,"avgCorrectness":0.9898632486448089,"avgInclusionDelay":1.0247091080535,"avgUptime":0.9998560861730899,"avgValidatorEffectiveness":97.31359081367864,"clientPercentages":[{"client":"Nimbus","percentage":0.08952654232424677},{"client":"Prysm","percentage":0.3732185557149689},{"client":"Teku","percentage":0.1384345608161964},{"client":"Lighthouse","percentage":0.3988203411445879}],"networkPenetration":0.1343675659016267},{"id":"Kraken","idType":"entity","timeWindow":"1d","validatorCount":36242,"avgCorrectness":0.9832674653884721,"avgInclusionDelay":1.0352480868603653,"avgUptime":0.9963707938099919,"avgValidatorEffectiveness":96.06556950549948,"clientPercentages":[{"client":"Teku","percentage":0.09004533616282434},{"client":"Lighthouse","percentage":0.2649754027201698},{"client":"Prysm","percentage":0.5996913282531108},{"client":"Nimbus","percentage":0.04528793286389505}],"networkPenetration":0.08723718806884397},{"id":"Binance","idType":"entity","timeWindow":"1d","validatorCount":21584,"avgCorrectness":0.9895905369698441,"avgInclusionDelay":1.0242455467226448,"avgUptime":0.9989759904456001,"avgValidatorEffectiveness":97.26274866120377,"clientPercentages":[{"client":"Nimbus","percentage":0.06721352640830335},{"client":"Lighthouse","percentage":0.34309868586255965},{"client":"Prysm","percentage":0.5864233698836528},{"client":"Teku","percentage":0.003264417845484222}],"networkPenetration":0.05197006616648528},{"id":"Bitcoin Suisse","idType":"entity","timeWindow":"1d","validatorCount":9000,"avgCorrectness":0.9881560948668383,"avgInclusionDelay":1.0384173249701498,"avgUptime":0.9996390123456764,"avgValidatorEffectiveness":96.10085393704286,"clientPercentages":[{"client":"Nimbus","percentage":0.0063522617901828685},{"client":"Teku","percentage":0.9934552454282964},{"client":"Prysm","percentage":0.00019249278152069297}],"networkPenetration":0.021670246270309838},{"id":"Rocketpool","idType":"entity","timeWindow":"1d","validatorCount":6660,"avgCorrectness":0.9881352244585772,"avgInclusionDelay":1.0282537156044103,"avgUptime":0.9918234767238591,"avgValidatorEffectiveness":96.29151590122217,"clientPercentages":[{"client":"Prysm","percentage":0.07037830121341898},{"client":"Teku","percentage":0.291220556745182},{"client":"Lighthouse","percentage":0.4055674518201285},{"client":"Nimbus","percentage":0.2328336902212705}],"networkPenetration":0.016011904188617823},{"id":"Staked.us","idType":"entity","timeWindow":"1d","validatorCount":5263,"avgCorrectness":0.9890999522107493,"avgInclusionDelay":1.0250692859626787,"avgUptime":0.9992784005742404,"avgValidatorEffectiveness":97.19510534944915,"clientPercentages":[{"client":"Nimbus","percentage":0.043752071594298975},{"client":"Teku","percentage":0.5081206496519721},{"client":"Lighthouse","percentage":0.0019887305270135896},{"client":"Prysm","percentage":0.4461385482267153}],"networkPenetration":0.012672278457848964},{"id":"f2pool.eth","idType":"entity","timeWindow":"1d","validatorCount":3501,"avgCorrectness":0.9901307562918531,"avgInclusionDelay":1.0238820654416199,"avgUptime":1.0,"avgValidatorEffectiveness":97.40977201577505,"clientPercentages":[{"client":"Lighthouse","percentage":1.0}],"networkPenetration":0.008429725799150526},{"id":"Bitfinex","idType":"entity","timeWindow":"1d","validatorCount":3214,"avgCorrectness":0.9876914249853066,"avgInclusionDelay":1.028383975825225,"avgUptime":0.9893611283965986,"avgValidatorEffectiveness":96.06256658294664,"clientPercentages":[{"client":"Teku","percentage":0.01579520697167756},{"client":"Nimbus","percentage":0.09640522875816994},{"client":"Lighthouse","percentage":0.0027233115468409588},{"client":"Prysm","percentage":0.8850762527233116}],"networkPenetration":0.007738685723641757},{"id":"Huobi","idType":"entity","timeWindow":"1d","validatorCount":2855,"avgCorrectness":0.9886817301906927,"avgInclusionDelay":1.0252440771924527,"avgUptime":0.9999898812998629,"avgValidatorEffectiveness":97.21426267058789,"clientPercentages":[{"client":"Nimbus","percentage":0.07923169267707082},{"client":"Prysm","percentage":0.9123649459783914},{"client":"Lighthouse","percentage":0.0012004801920768306},{"client":"Teku","percentage":0.007202881152460984}],"networkPenetration":0.006874283677970509},{"id":"wedex.eth","idType":"entity","timeWindow":"1d","validatorCount":2399,"avgCorrectness":0.9890561572666615,"avgInclusionDelay":1.0267281421967556,"avgUptime":0.999710064378677,"avgValidatorEffectiveness":97.09349184538307,"clientPercentages":[{"client":"Lighthouse","percentage":1.0}],"networkPenetration":0.005776324533608144},{"id":"Bloxstaking","idType":"entity","timeWindow":"1d","validatorCount":2360,"avgCorrectness":0.9872966603437374,"avgInclusionDelay":1.0270302869252943,"avgUptime":0.9995083604163728,"avgValidatorEffectiveness":96.95147985138033,"clientPercentages":[{"client":"Nimbus","percentage":0.054532056005895356},{"client":"Prysm","percentage":0.4458364038319823},{"client":"Lighthouse","percentage":0.49815770081061167},{"client":"Teku","percentage":0.0014738393515106854}],"networkPenetration":0.005680012327962323},{"id":"Ankr","idType":"entity","timeWindow":"1d","validatorCount":2294,"avgCorrectness":0.8594968241635654,"avgInclusionDelay":1.4253907694664212,"avgUptime":0.9617025426533665,"avgValidatorEffectiveness":68.89709815196039,"clientPercentages":[{"client":"Lighthouse","percentage":0.016198704103671708},{"client":"Nimbus","percentage":0.07235421166306695},{"client":"Prysm","percentage":0.9071274298056156},{"client":"Teku","percentage":0.004319654427645789}],"networkPenetration":0.005521097188646717},{"id":"StakeWise","idType":"entity","timeWindow":"1d","validatorCount":1980,"avgCorrectness":0.9897526446236462,"avgInclusionDelay":1.0250924944772715,"avgUptime":0.9998473625140276,"avgValidatorEffectiveness":97.2761400571001,"clientPercentages":[{"client":"Lighthouse","percentage":0.5388646288209606},{"client":"Teku","percentage":0.06026200873362445},{"client":"Prysm","percentage":0.36069868995633186},{"client":"Nimbus","percentage":0.04017467248908297}],"networkPenetration":0.004767454179468164},{"id":"OKex","idType":"entity","timeWindow":"1d","validatorCount":1730,"avgCorrectness":0.988864440068491,"avgInclusionDelay":1.0254631681303845,"avgUptime":0.9999961464354533,"avgValidatorEffectiveness":97.20905086240714,"clientPercentages":[{"client":"Nimbus","percentage":0.1019036954087346},{"client":"Prysm","percentage":0.8891377379619261},{"client":"Teku","percentage":0.006718924972004479},{"client":"Lighthouse","percentage":0.0022396416573348264}],"networkPenetration":0.00416550289418178}]}