{"page":{"from":0,"size":15},"total":36,"next":"/v0/eth/operators?window=1d&from=15&size=15&idType=entity","data":[{"id":"Lido","idType":"entity","timeWindow":"1d","validatorCount":134024,"avgCorrectness":0.9892697785112073,"avgInclusionDelay":1.0251784608187737,"avgUptime":0.9987143066361363,"avgValidatorEffectiveness":96.51147535276716,"clientPercentages":[{"client":"Prysm","percentage":0.38788033367340813},{"client":"Teku","percentage":0.19303246714277142},{"client":"Lighthouse","percentage":0.3920362479745544},{"client":"Lodestar","percentage":0.001155254155914301},{"client":"Nimbus","percentage":0.02589569705335174}],"networkPenetration":0.2991449363114961,"relayerPercentages":[{"relayer":"no_mev_boost","percentage":0.3782315678065028},{"relayer":"manifold","percentage":0.018739591277685257},{"relayer":"bloxroute_maxprofit","percentage":0.03472427586421579},{"relayer":"edennetwork","percentage":0.027097698018646206},{"relayer":"blocknative","percentage":0.03584491587417703},{"relayer":"flashbots","percentage":0.4498902706656913},{"relayer":"bloxroute_ethical","percentage":0.04361157372099177},{"relayer":"bloxroute_regulated","percentage":0.011860106772089839}],"nodeOperatorCount":29},{"id":"Coinbase","idType":"entity","timeWindow":"1d","validatorCount":54438,"avgCorrectness":0.9885302963087862,"avgInclusionDelay":1.021951888361487,"avgUptime":0.997683554390915,"avgValidatorEffectiveness":96.59601887532054,"clientPercentages":[{"client":"Teku","percentage":0.1621733253229198},{"client":"Nimbus","percentage":0.02177831180534695},{"client":"Lighthouse","percentage":0.4350405527185341},{"client":"Prysm","percentage":0.3810078101531992}],"networkPenetration":0.1215566761773045,"relayerPercentages":[{"relayer":"bloxroute_regulated","percentage":3.883344336142286e-05},{"relayer":"manifold","percentage":7.766688672284571e-05},{"relayer":"no_mev_boost","percentage":0.9994951652363016},{"relayer":"flashbots","percentage":0.00038833443361422856}],"nodeOperatorCount":null},{"id":"Kraken","idType":"entity","timeWindow":"1d","validatorCount":37828,"avgCorrectness":0.9897274790803352,"avgInclusionDelay":1.019020575727882,"avgUptime":0.9976511690122354,"avgValidatorEffectiveness":96.96522804885922,"clientPercentages":[{"client":"Nimbus","percentage":0.00010690042225666791},{"client":"Teku","percentage":0.1116040408359613},{"client":"Lighthouse","percentage":0.2660751509968464},{"client":"Prysm","percentage":0.6222139077449356}],"networkPenetration":0.08449646870091539,"relayerPercentages":[{"relayer":"flashbots","percentage":0.43671935448214877},{"relayer":"manifold","percentage":0.0025975461478943297},{"relayer":"bloxroute_maxprofit","percentage":0.004974024538521056},{"relayer":"no_mev_boost","percentage":0.543937216756936},{"relayer":"edennetwork","percentage":0.002100143694042224},{"relayer":"bloxroute_ethical","percentage":0.0013264065436056152},{"relayer":"blocknative","percentage":0.008345307836851995}],"nodeOperatorCount":null},{"id":"Binance","idType":"entity","timeWindow":"1d","validatorCount":23826,"avgCorrectness":0.9909080268386385,"avgInclusionDelay":1.0157901581376048,"avgUptime":0.999773543374652,"avgValidatorEffectiveness":97.58177571579962,"clientPercentages":[{"client":"Teku","percentage":0.013248542660307366},{"client":"Nimbus","percentage":0.00026497085320614734},{"client":"Prysm","percentage":0.5616498851792969},{"client":"Lighthouse","percentage":0.42483660130718953}],"networkPenetration":0.05323424991453832,"relayerPercentages":[{"relayer":"flashbots","percentage":0.500089221984297},{"relayer":"bloxroute_maxprofit","percentage":0.007316202712348323},{"relayer":"edennetwork","percentage":0.004014989293361884},{"relayer":"blocknative","percentage":0.0022305496074232693},{"relayer":"no_mev_boost","percentage":0.4577980014275517},{"relayer":"bloxroute_regulated","percentage":0.028461812990720915},{"relayer":"bloxroute_ethical","percentage":8.922198429693076e-05}],"nodeOperatorCount":null},{"id":"Staked.us","idType":"entity","timeWindow":"1d","validatorCount":12703,"avgCorrectness":0.9889310754235042,"avgInclusionDelay":1.0205636709356791,"avgUptime":0.9988552579435235,"avgValidatorEffectiveness":96.86948178346296,"clientPercentages":[{"client":"Prysm","percentage":0.5471238219044524},{"client":"Lighthouse","percentage":0.055573610659733506},{"client":"Nimbus","percentage":0.0004874878128046799},{"client":"Teku","percentage":0.39681507962300944}],"networkPenetration":0.028335295786794886,"relayerPercentages":[{"relayer":"manifold","percentage":0.005640864932623002},{"relayer":"no_mev_boost","percentage":0.4025383892196803},{"relayer":"bloxroute_maxprofit","percentage":0.00407395800689439},{"relayer":"flashbots","percentage":0.5877467878408023}],"nodeOperatorCount":null},{"id":"Bitcoin Suisse","idType":"entity","timeWindow":"1d","validatorCount":9214,"avgCorrectness":0.9903143962135428,"avgInclusionDelay":1.0251345527107283,"avgUptime":0.9992201151958044,"avgValidatorEffectiveness":96.62995402195335,"clientPercentages":[{"client":"Nimbus","percentage":0.0330117899249732},{"client":"Teku","percentage":0.9669882100750268}],"networkPenetration":0.020586769861183414,"relayerPercentages":[{"relayer":"no_mev_boost","percentage":1.0}],"nodeOperatorCount":null},{"id":"Rocketpool","idType":"entity","timeWindow":"1d","validatorCount":8959,"avgCorrectness":0.9881845488801344,"avgInclusionDelay":1.0238194057649979,"avgUptime":0.9903549642918769,"avgValidatorEffectiveness":95.76565434891805,"clientPercentages":[{"client":"Lighthouse","percentage":0.43190605756838035},{"client":"Teku","percentage":0.29987111556637547},{"client":"Prysm","percentage":0.045825576399828157},{"client":"Nimbus","percentage":0.222397250465416}],"networkPenetration":0.019999150968900883,"relayerPercentages":[{"relayer":"flashbots","percentage":0.518993467215098},{"relayer":"blocknative","percentage":0.054923784176143235},{"relayer":"manifold","percentage":0.0019356399709654004},{"relayer":"no_mev_boost","percentage":0.19743527703847086},{"relayer":"edennetwork","percentage":0.033631744495523835},{"relayer":"bloxroute_regulated","percentage":0.06774739898378901},{"relayer":"bloxroute_maxprofit","percentage":0.08903943866440842},{"relayer":"bloxroute_ethical","percentage":0.03629324945560126}],"nodeOperatorCount":1557},{"id":"Stakefish","idType":"entity","timeWindow":"1d","validatorCount":8059,"avgCorrectness":0.9887063135414118,"avgInclusionDelay":1.0327865342261573,"avgUptime":0.9915980753057307,"avgValidatorEffectiveness":95.07974264557288,"clientPercentages":[{"client":"Teku","percentage":0.009365006852444038},{"client":"Nimbus","percentage":0.0009136592051164915},{"client":"Lighthouse","percentage":0.9885792599360439},{"client":"Prysm","percentage":0.0011420740063956144}],"networkPenetration":0.018006162178345685,"relayerPercentages":[{"relayer":"manifold","percentage":0.09907470097043557},{"relayer":"flashbots","percentage":0.8790340780862108},{"relayer":"bloxroute_maxprofit","percentage":0.0009027307605506658},{"relayer":"no_mev_boost","percentage":0.020537124802527645},{"relayer":"bloxroute_regulated","percentage":0.00022568269013766644},{"relayer":"bloxroute_ethical","percentage":0.00022568269013766644}],"nodeOperatorCount":null},{"id":"Celsius Network","idType":"entity","timeWindow":"1d","validatorCount":4943,"avgCorrectness":0.9909654848334274,"avgInclusionDelay":1.0158467131785387,"avgUptime":0.9997549846022438,"avgValidatorEffectiveness":97.57741064101631,"clientPercentages":[{"client":"Lighthouse","percentage":0.021056813667063964},{"client":"Teku","percentage":0.012316249503377036},{"client":"Prysm","percentage":0.966626936829559}],"networkPenetration":0.011044107165599048,"relayerPercentages":[{"relayer":"flashbots","percentage":0.9580564784053156},{"relayer":"no_mev_boost","percentage":0.04194352159468438}],"nodeOperatorCount":null},{"id":"Bitfinex","idType":"entity","timeWindow":"1d","validatorCount":3214,"avgCorrectness":0.9916278754541009,"avgInclusionDelay":1.0161840788553715,"avgUptime":0.9997849685404135,"avgValidatorEffectiveness":97.61681233011294,"clientPercentages":[{"client":"Prysm","percentage":0.9564950980392157},{"client":"Teku","percentage":0.03431372549019608},{"client":"Lighthouse","percentage":0.009191176470588236}],"networkPenetration":0.0071810156646237785,"relayerPercentages":[{"relayer":"flashbots","percentage":0.4846547314578005},{"relayer":"no_mev_boost","percentage":0.5153452685421995}],"nodeOperatorCount":null},{"id":"Huobi","idType":"entity","timeWindow":"1d","validatorCount":2855,"avgCorrectness":0.990553316849258,"avgInclusionDelay":1.0171011902166804,"avgUptime":0.9997836154893949,"avgValidatorEffectiveness":97.42916783478995,"clientPercentages":[{"client":"Prysm","percentage":0.9693165969316597},{"client":"Lighthouse","percentage":0.007670850767085077},{"client":"Teku","percentage":0.02301255230125523}],"networkPenetration":0.006378904705196294,"relayerPercentages":[{"relayer":"bloxroute_maxprofit","percentage":0.08980755523877405},{"relayer":"flashbots","percentage":0.571632216678546},{"relayer":"manifold","percentage":0.044191019244476125},{"relayer":"bloxroute_ethical","percentage":0.06557377049180328},{"relayer":"edennetwork","percentage":0.08339272986457591},{"relayer":"no_mev_boost","percentage":0.047042052744119746},{"relayer":"blocknative","percentage":0.04918032786885246},{"relayer":"bloxroute_regulated","percentage":0.04918032786885246}],"nodeOperatorCount":null},{"id":"Abyss","idType":"entity","timeWindow":"1d","validatorCount":2817,"avgCorrectness":0.9909581690160514,"avgInclusionDelay":1.0176652440986085,"avgUptime":0.998864118812937,"avgValidatorEffectiveness":97.33321249790777,"clientPercentages":[{"client":"Lighthouse","percentage":0.08607198748043818},{"client":"Teku","percentage":0.8615023474178404},{"client":"Prysm","percentage":0.025821596244131457},{"client":"Nimbus","percentage":0.026604068857589983}],"networkPenetration":0.00628729871818647,"relayerPercentages":[{"relayer":"edennetwork","percentage":0.011510791366906475},{"relayer":"flashbots","percentage":0.3381294964028777},{"relayer":"blocknative","percentage":0.0057553956834532375},{"relayer":"bloxroute_maxprofit","percentage":0.022302158273381296},{"relayer":"bloxroute_regulated","percentage":0.014388489208633094},{"relayer":"no_mev_boost","percentage":0.5992805755395684},{"relayer":"bloxroute_ethical","percentage":0.0057553956834532375},{"relayer":"manifold","percentage":0.0028776978417266188}],"nodeOperatorCount":null},{"id":"Bloxstaking","idType":"entity","timeWindow":"1d","validatorCount":2580,"avgCorrectness":0.9902221738271246,"avgInclusionDelay":1.0151951964408863,"avgUptime":0.9997805533118203,"avgValidatorEffectiveness":97.56929218723342,"clientPercentages":[{"client":"Prysm","percentage":0.49072512647554806},{"client":"Teku","percentage":0.007588532883642495},{"client":"Lighthouse","percentage":0.5016863406408094}],"networkPenetration":0.005746599965591898,"relayerPercentages":[{"relayer":"bloxroute_ethical","percentage":0.003179650238473768},{"relayer":"blocknative","percentage":0.06597774244833068},{"relayer":"no_mev_boost","percentage":0.016693163751987282},{"relayer":"flashbots","percentage":0.9141494435612083}],"nodeOperatorCount":null},{"id":"wedex.eth","idType":"entity","timeWindow":"1d","validatorCount":2399,"avgCorrectness":0.989854854938323,"avgInclusionDelay":1.016560212130814,"avgUptime":0.9997999166319298,"avgValidatorEffectiveness":97.41035248040419,"clientPercentages":[{"client":"Prysm","percentage":0.001606425702811245},{"client":"Lighthouse","percentage":0.9983935742971888}],"networkPenetration":0.0053600673862577615,"relayerPercentages":[{"relayer":"manifold","percentage":0.042440318302387266},{"relayer":"flashbots","percentage":0.47038019451812557},{"relayer":"bloxroute_ethical","percentage":0.009725906277630416},{"relayer":"edennetwork","percentage":0.09725906277630415},{"relayer":"no_mev_boost","percentage":0.16976127320954906},{"relayer":"blocknative","percentage":0.05747126436781609},{"relayer":"bloxroute_maxprofit","percentage":0.15296198054818744}],"nodeOperatorCount":null},{"id":"Ankr","idType":"entity","timeWindow":"1d","validatorCount":2300,"avgCorrectness":0.9904685509214293,"avgInclusionDelay":1.0164924641084743,"avgUptime":0.9997246376811596,"avgValidatorEffectiveness":97.46883653472693,"clientPercentages":[{"client":"Teku","percentage":0.005853658536585366},{"client":"Lighthouse","percentage":0.46731707317073173},{"client":"Prysm","percentage":0.526829268292683}],"networkPenetration":0.0051388724420145275,"relayerPercentages":[{"relayer":"no_mev_boost","percentage":0.8571428571428571},{"relayer":"flashbots","percentage":0.14285714285714285}],"nodeOperatorCount":null}]}