{"page":{"from":0,"size":15},"total":30,"next":"/v0/eth/operators?window=1d&from=15&size=15&idType=entity","data":[{"id":"Lido","idType":"entity","timeWindow":"1d","validatorCount":129747,"avgCorrectness":0.9865484358301236,"avgInclusionDelay":1.0319310385725482,"avgUptime":0.9993157919207438,"avgValidatorEffectiveness":96.49641353801968,"clientPercentages":[{"client":"Teku","percentage":0.22193660113917715},{"client":"Lighthouse","percentage":0.3503037354727856},{"client":"Nimbus","percentage":0.02478589693288055},{"client":"Prysm","percentage":0.40259494270290747},{"client":"Lodestar","percentage":0.00037882375224926605}],"networkPenetration":0.3111333414898032},{"id":"Coinbase","idType":"entity","timeWindow":"1d","validatorCount":55062,"avgCorrectness":0.9868906426643356,"avgInclusionDelay":1.0308551238078278,"avgUptime":0.9999696907324658,"avgValidatorEffectiveness":96.66119963433039,"clientPercentages":[{"client":"Prysm","percentage":0.38777885548011637},{"client":"Lighthouse","percentage":0.4148399612027158},{"client":"Teku","percentage":0.13970255415454252},{"client":"Nimbus","percentage":0.05767862916262528}],"networkPenetration":0.13209163074221478},{"id":"Kraken","idType":"entity","timeWindow":"1d","validatorCount":36379,"avgCorrectness":0.9861641252363958,"avgInclusionDelay":1.0316254168600503,"avgUptime":0.9992109313898732,"avgValidatorEffectiveness":96.49091817655584,"clientPercentages":[{"client":"Prysm","percentage":0.6236543567463191},{"client":"Teku","percentage":0.0939898624185373},{"client":"Lighthouse","percentage":0.26280473087134926},{"client":"Nimbus","percentage":0.01955104996379435}],"networkPenetration":0.08706311908206128},{"id":"Binance","idType":"entity","timeWindow":"1d","validatorCount":21584,"avgCorrectness":0.9862071734723399,"avgInclusionDelay":1.0311954517421982,"avgUptime":0.9999927930154036,"avgValidatorEffectiveness":96.58756257479293,"clientPercentages":[{"client":"Prysm","percentage":0.6109586763116321},{"client":"Lighthouse","percentage":0.35769518583187826},{"client":"Nimbus","percentage":0.030764114076660846},{"client":"Teku","percentage":0.0005820237798287187}],"networkPenetration":0.05177918996658246},{"id":"Bitcoin Suisse","idType":"entity","timeWindow":"1d","validatorCount":9000,"avgCorrectness":0.9853560556464206,"avgInclusionDelay":1.0520176927030072,"avgUptime":0.9998402469135794,"avgValidatorEffectiveness":94.8984943317451,"clientPercentages":[{"client":"Teku","percentage":0.9935897435897436},{"client":"Nimbus","percentage":0.00641025641025641}],"networkPenetration":0.021590655564271782},{"id":"Rocketpool","idType":"entity","timeWindow":"1d","validatorCount":6826,"avgCorrectness":0.9851658725752348,"avgInclusionDelay":1.0358684169285919,"avgUptime":0.9962837142421981,"avgValidatorEffectiveness":95.96186931398304,"clientPercentages":[{"client":"Prysm","percentage":0.05251700680272109},{"client":"Teku","percentage":0.30272108843537415},{"client":"Nimbus","percentage":0.2276190476190476},{"client":"Lighthouse","percentage":0.41714285714285715}],"networkPenetration":0.01635132314734183},{"id":"Staked.us","idType":"entity","timeWindow":"1d","validatorCount":5263,"avgCorrectness":0.9844564793670249,"avgInclusionDelay":1.0354460521197648,"avgUptime":0.9997420144826572,"avgValidatorEffectiveness":96.14291253128269,"clientPercentages":[{"client":"Prysm","percentage":0.47178789938817134},{"client":"Nimbus","percentage":0.02821210061182869},{"client":"Lighthouse","percentage":0.005778382053025153},{"client":"Teku","percentage":0.49422161794697483}],"networkPenetration":0.012625735581640266},{"id":"f2pool.eth","idType":"entity","timeWindow":"1d","validatorCount":3501,"avgCorrectness":0.9850766447681615,"avgInclusionDelay":1.0356951981973403,"avgUptime":1.0,"avgValidatorEffectiveness":96.16070019705222,"clientPercentages":[{"client":"Prysm","percentage":0.013612056392805057},{"client":"Lighthouse","percentage":0.986387943607195}],"networkPenetration":0.008398765014501723},{"id":"Bitfinex","idType":"entity","timeWindow":"1d","validatorCount":3214,"avgCorrectness":0.9858153696876413,"avgInclusionDelay":1.0327723060760228,"avgUptime":0.9990382354974778,"avgValidatorEffectiveness":96.36230563763694,"clientPercentages":[{"client":"Nimbus","percentage":0.03939223410241981},{"client":"Prysm","percentage":0.943725379853686},{"client":"Lighthouse","percentage":0.004501969611705121},{"client":"Teku","percentage":0.012380416432189083}],"networkPenetration":0.00771026299817439},{"id":"Huobi","idType":"entity","timeWindow":"1d","validatorCount":2855,"avgCorrectness":0.9851266507565107,"avgInclusionDelay":1.0339024872461886,"avgUptime":0.9999719789842384,"avgValidatorEffectiveness":96.30638281993114,"clientPercentages":[{"client":"Nimbus","percentage":0.04495747266099635},{"client":"Teku","percentage":0.002430133657351154},{"client":"Lighthouse","percentage":0.0006075334143377885},{"client":"Prysm","percentage":0.9520048602673147}],"networkPenetration":0.006849035737332882},{"id":"wedex.eth","idType":"entity","timeWindow":"1d","validatorCount":2399,"avgCorrectness":0.9787930589900511,"avgInclusionDelay":1.0776661837245411,"avgUptime":0.9986698161270904,"avgValidatorEffectiveness":92.72422050039144,"clientPercentages":[{"client":"Lighthouse","percentage":1.0}],"networkPenetration":0.005755109188743112},{"id":"Bloxstaking","idType":"entity","timeWindow":"1d","validatorCount":2380,"avgCorrectness":0.9828612280814956,"avgInclusionDelay":1.0389672691771425,"avgUptime":0.9995532980826605,"avgValidatorEffectiveness":95.739087217367,"clientPercentages":[{"client":"Prysm","percentage":0.48148148148148145},{"client":"Lighthouse","percentage":0.4928193499622071},{"client":"Nimbus","percentage":0.02418745275888133},{"client":"Teku","percentage":0.0015117157974300832}],"networkPenetration":0.005702332030697114},{"id":"Ankr","idType":"entity","timeWindow":"1d","validatorCount":2296,"avgCorrectness":0.8622795529215664,"avgInclusionDelay":1.425572697476205,"avgUptime":0.9837744386372445,"avgValidatorEffectiveness":71.60924474433759,"clientPercentages":[{"client":"Prysm","percentage":0.9464105156723963},{"client":"Teku","percentage":0.006066734074823054},{"client":"Lighthouse","percentage":0.011122345803842264},{"client":"Nimbus","percentage":0.03640040444893832}],"networkPenetration":0.005508016130618668},{"id":"StakeWise","idType":"entity","timeWindow":"1d","validatorCount":1980,"avgCorrectness":0.9852549324198433,"avgInclusionDelay":1.0354456294573608,"avgUptime":0.9999349046015709,"avgValidatorEffectiveness":96.0455731388395,"clientPercentages":[{"client":"Teku","percentage":0.060526315789473685},{"client":"Lighthouse","percentage":0.5298245614035088},{"client":"Nimbus","percentage":0.02456140350877193},{"client":"Prysm","percentage":0.3850877192982456}],"networkPenetration":0.0047499442241397925},{"id":"OKex","idType":"entity","timeWindow":"1d","validatorCount":1731,"avgCorrectness":0.984772450093074,"avgInclusionDelay":1.0348109634764748,"avgUptime":1.0,"avgValidatorEffectiveness":96.21509110341857,"clientPercentages":[{"client":"Prysm","percentage":0.9401888772298006},{"client":"Lighthouse","percentage":0.012591815320041973},{"client":"Nimbus","percentage":0.04512067156348373},{"client":"Teku","percentage":0.002098635886673662}],"networkPenetration":0.004152602753528273}]}