{"page":{"from":0,"size":15},"total":31,"next":"/v0/eth/operators?window=1d&from=15&size=15&idType=entity","data":[{"id":"Lido","idType":"entity","timeWindow":"1d","validatorCount":128666,"avgCorrectness":0.9870124812598177,"avgInclusionDelay":1.0187031393960715,"avgUptime":0.9999183826737541,"avgValidatorEffectiveness":97.66229971629207,"clientPercentages":[{"client":"Prysm","percentage":0.36285239012432147},{"client":"Nimbus","percentage":0.0738924881807039},{"client":"Teku","percentage":0.15570828226230082},{"client":"Lighthouse","percentage":0.4075468394326738}],"networkPenetration":0.3224259251834329},{"id":"Coinbase","idType":"entity","timeWindow":"1d","validatorCount":55741,"avgCorrectness":0.9865173652175099,"avgInclusionDelay":1.0184946729240176,"avgUptime":0.9999068708650547,"avgValidatorEffectiveness":97.64591931156346,"clientPercentages":[{"client":"Prysm","percentage":0.4683247019149705},{"client":"Nimbus","percentage":0.09887992291942671},{"client":"Lighthouse","percentage":0.2746597615319764},{"client":"Teku","percentage":0.1581356136336264}],"networkPenetration":0.13968214987370195},{"id":"Kraken","idType":"entity","timeWindow":"1d","validatorCount":35331,"avgCorrectness":0.9823198521199771,"avgInclusionDelay":1.0253224141582455,"avgUptime":0.999222504781611,"avgValidatorEffectiveness":96.89923840448108,"clientPercentages":[{"client":"Nimbus","percentage":0.036122047244094485},{"client":"Lighthouse","percentage":0.21619094488188975},{"client":"Teku","percentage":0.07898622047244094},{"client":"Prysm","percentage":0.6687007874015748}],"networkPenetration":0.08852391644280502},{"id":"Binance","idType":"entity","timeWindow":"1d","validatorCount":20422,"avgCorrectness":0.9868210340242832,"avgInclusionDelay":1.017481487865664,"avgUptime":0.9999431985114104,"avgValidatorEffectiveness":97.74888697944561,"clientPercentages":[{"client":"Teku","percentage":0.0105619275517782},{"client":"Nimbus","percentage":0.06956019473553923},{"client":"Prysm","percentage":0.6156448551860715},{"client":"Lighthouse","percentage":0.3042330225266111}],"networkPenetration":0.051175774828595484},{"id":"Bitcoin Suisse","idType":"entity","timeWindow":"1d","validatorCount":8691,"avgCorrectness":0.9838253391504483,"avgInclusionDelay":1.0480057853834621,"avgUptime":0.9991891995550946,"avgValidatorEffectiveness":95.08983020798472,"clientPercentages":[{"client":"Nimbus","percentage":0.017020424509411294},{"client":"Teku","percentage":0.9825790949138967},{"client":"Prysm","percentage":0.00040048057669203043}],"networkPenetration":0.021778898199751415},{"id":"Rocketpool","idType":"entity","timeWindow":"1d","validatorCount":5786,"avgCorrectness":0.985931544094107,"avgInclusionDelay":1.021123284344262,"avgUptime":0.9751804799194654,"avgValidatorEffectiveness":95.31536076013361,"clientPercentages":[{"client":"Nimbus","percentage":0.259506441098867},{"client":"Prysm","percentage":0.05618500698432407},{"client":"Lighthouse","percentage":0.4504112990842775},{"client":"Teku","percentage":0.23389725283253143}],"networkPenetration":0.014486688585060744},{"id":"Staked.us","idType":"entity","timeWindow":"1d","validatorCount":5263,"avgCorrectness":0.9858467493607024,"avgInclusionDelay":1.0244736724278778,"avgUptime":0.9996166107205454,"avgValidatorEffectiveness":97.10431997037327,"clientPercentages":[{"client":"Nimbus","percentage":0.04672897196261682},{"client":"Teku","percentage":0.4884735202492212},{"client":"Prysm","percentage":0.45981308411214955},{"client":"Lighthouse","percentage":0.004984423676012461}],"networkPenetration":0.013188625155366665},{"id":"f2pool.eth","idType":"entity","timeWindow":"1d","validatorCount":3501,"avgCorrectness":0.9822714360842633,"avgInclusionDelay":1.069232906870192,"avgUptime":0.9981573518677203,"avgValidatorEffectiveness":93.37394841087121,"clientPercentages":[{"client":"Nimbus","percentage":0.0004409171075837742},{"client":"Lighthouse","percentage":0.9995590828924162}],"networkPenetration":0.00877320476324125},{"id":"Bitfinex","idType":"entity","timeWindow":"1d","validatorCount":3214,"avgCorrectness":0.9829616277264124,"avgInclusionDelay":1.0261690819836797,"avgUptime":0.988471271520432,"avgValidatorEffectiveness":95.93577287406978,"clientPercentages":[{"client":"Nimbus","percentage":0.10103626943005181},{"client":"Teku","percentage":0.014507772020725389},{"client":"Prysm","percentage":0.8813471502590674},{"client":"Lighthouse","percentage":0.0031088082901554403}],"networkPenetration":0.008054007457599936},{"id":"Huobi","idType":"entity","timeWindow":"1d","validatorCount":2855,"avgCorrectness":0.9839900681974433,"avgInclusionDelay":1.0239294465176791,"avgUptime":0.9996956606343637,"avgValidatorEffectiveness":97.03379782525056,"clientPercentages":[{"client":"Lighthouse","percentage":0.0028538812785388126},{"client":"Prysm","percentage":0.8921232876712328},{"client":"Teku","percentage":0.0182648401826484},{"client":"Nimbus","percentage":0.0867579908675799}],"networkPenetration":0.007154384347059059},{"id":"wedex.eth","idType":"entity","timeWindow":"1d","validatorCount":2399,"avgCorrectness":0.9868635216193057,"avgInclusionDelay":1.017250052108664,"avgUptime":0.9999305266083092,"avgValidatorEffectiveness":97.7683122094958,"clientPercentages":[{"client":"Lighthouse","percentage":0.9993206521739131},{"client":"Nimbus","percentage":0.0006793478260869565}],"networkPenetration":0.00601168758269516},{"id":"Bloxstaking","idType":"entity","timeWindow":"1d","validatorCount":2288,"avgCorrectness":0.9853524588888716,"avgInclusionDelay":1.0185175101513761,"avgUptime":0.9998746797083051,"avgValidatorEffectiveness":97.56816735925443,"clientPercentages":[{"client":"Teku","percentage":0.012221423436376708},{"client":"Nimbus","percentage":0.03666427030913012},{"client":"Prysm","percentage":0.5197699496764917},{"client":"Lighthouse","percentage":0.43134435657800146}],"networkPenetration":0.005723507477647247},{"id":"Ankr","idType":"entity","timeWindow":"1d","validatorCount":2281,"avgCorrectness":0.8441883716526197,"avgInclusionDelay":1.5210550751079734,"avgUptime":0.9568766135710456,"avgValidatorEffectiveness":66.07081083747025,"clientPercentages":[{"client":"Nimbus","percentage":0.07834101382488479},{"client":"Lighthouse","percentage":0.010138248847926268},{"client":"Prysm","percentage":0.9069124423963134},{"client":"Teku","percentage":0.004608294930875576}],"networkPenetration":0.005715989735776432},{"id":"StakeWise","idType":"entity","timeWindow":"1d","validatorCount":1991,"avgCorrectness":0.9848135579584398,"avgInclusionDelay":1.0250373487473503,"avgUptime":0.9990334282046989,"avgValidatorEffectiveness":96.95820140948771,"clientPercentages":[{"client":"Nimbus","percentage":0.04900181488203267},{"client":"Prysm","percentage":0.4673321234119782},{"client":"Lighthouse","percentage":0.43920145190562615},{"client":"Teku","percentage":0.04446460980036298}],"networkPenetration":0.004989274688264303},{"id":"Stakefish","idType":"entity","timeWindow":"1d","validatorCount":1518,"avgCorrectness":0.9811684492880514,"avgInclusionDelay":1.0722023990226748,"avgUptime":0.9981862099253406,"avgValidatorEffectiveness":93.06319013303425,"clientPercentages":[{"client":"Teku","percentage":0.03898840885142255},{"client":"Lighthouse","percentage":0.9599578503688093},{"client":"Prysm","percentage":0.001053740779768177}],"networkPenetration":0.0038039773866324527}]}