{"page":{"from":0,"size":15},"total":35,"next":"/v0/eth/operators?window=1d&from=15&size=15&idType=entity","data":[{"id":"Lido","idType":"entity","timeWindow":"1d","validatorCount":133249,"avgCorrectness":0.9906793498718827,"avgInclusionDelay":1.0272862715126945,"avgUptime":0.9986212543742993,"avgValidatorEffectiveness":96.8804795216068,"clientPercentages":[{"client":"Nimbus","percentage":0.02589569705335174},{"client":"Lighthouse","percentage":0.3920362479745544},{"client":"Teku","percentage":0.19303246714277142},{"client":"Lodestar","percentage":0.001155254155914301},{"client":"Prysm","percentage":0.38788033367340813}],"networkPenetration":0.30134069971584226,"relayerPercentages":[{"relayer":"bloxroute_regulated","percentage":0.008125098499308316},{"relayer":"bloxroute_ethical","percentage":0.02645910308718721},{"relayer":"no_mev_boost","percentage":0.5765317736879892},{"relayer":"bloxroute_maxprofit","percentage":0.021100740714798536},{"relayer":"flashbots","percentage":0.3279983189451381},{"relayer":"blocknative","percentage":0.026336526170171782},{"relayer":"edennetwork","percentage":0.006566620554397885},{"relayer":"manifold","percentage":0.006881818341008983}],"nodeOperatorCount":29},{"id":"Coinbase","idType":"entity","timeWindow":"1d","validatorCount":54040,"avgCorrectness":0.9902572842429072,"avgInclusionDelay":1.0232972979582269,"avgUptime":0.9989241989325954,"avgValidatorEffectiveness":97.15241500042191,"clientPercentages":[{"client":"Teku","percentage":0.1621733253229198},{"client":"Nimbus","percentage":0.02177831180534695},{"client":"Lighthouse","percentage":0.4350405527185341},{"client":"Prysm","percentage":0.3810078101531992}],"networkPenetration":0.12226023058406182,"relayerPercentages":[{"relayer":"flashbots","percentage":0.00043946385409800046},{"relayer":"bloxroute_regulated","percentage":4.3946385409800044e-05},{"relayer":"no_mev_boost","percentage":0.9995165897604922}],"nodeOperatorCount":null},{"id":"Kraken","idType":"entity","timeWindow":"1d","validatorCount":37641,"avgCorrectness":0.9909506989234376,"avgInclusionDelay":1.021072726830952,"avgUptime":0.9990634400597822,"avgValidatorEffectiveness":97.39369447082237,"clientPercentages":[{"client":"Teku","percentage":0.1116040408359613},{"client":"Lighthouse","percentage":0.2660751509968464},{"client":"Prysm","percentage":0.6222139077449356},{"client":"Nimbus","percentage":0.00010690042225666791}],"networkPenetration":0.08513420571573366,"relayerPercentages":[{"relayer":"blocknative","percentage":0.007674070376840529},{"relayer":"flashbots","percentage":0.3994260044921388},{"relayer":"edennetwork","percentage":0.002246069378587472},{"relayer":"manifold","percentage":0.00043673571250311955},{"relayer":"no_mev_boost","percentage":0.586785625155977},{"relayer":"bloxroute_ethical","percentage":0.0002495632642874969},{"relayer":"bloxroute_maxprofit","percentage":0.003181931619665585}],"nodeOperatorCount":null},{"id":"Binance","idType":"entity","timeWindow":"1d","validatorCount":23051,"avgCorrectness":0.9922249531922164,"avgInclusionDelay":1.0189560065531702,"avgUptime":0.9991910088258396,"avgValidatorEffectiveness":97.68167473058432,"clientPercentages":[{"client":"Lighthouse","percentage":0.42483660130718953},{"client":"Prysm","percentage":0.5616498851792969},{"client":"Nimbus","percentage":0.00026497085320614734},{"client":"Teku","percentage":0.013248542660307366}],"networkPenetration":0.0521506398074243,"relayerPercentages":[{"relayer":"blocknative","percentage":0.0018213093190326823},{"relayer":"flashbots","percentage":0.22108671456035617},{"relayer":"edennetwork","percentage":0.0026307801274916523},{"relayer":"bloxroute_regulated","percentage":0.002529596276434281},{"relayer":"bloxroute_ethical","percentage":0.00010118385105737125},{"relayer":"no_mev_boost","percentage":0.7641404431852676},{"relayer":"bloxroute_maxprofit","percentage":0.007689972680360214}],"nodeOperatorCount":null},{"id":"Staked.us","idType":"entity","timeWindow":"1d","validatorCount":13487,"avgCorrectness":0.9906505311714378,"avgInclusionDelay":1.0235910435627769,"avgUptime":0.9923183641908233,"avgValidatorEffectiveness":96.60270936014766,"clientPercentages":[{"client":"Unknown","percentage":1.0}],"networkPenetration":0.030445150314021466,"relayerPercentages":[{"relayer":"bloxroute_maxprofit","percentage":0.0070921985815602835},{"relayer":"no_mev_boost","percentage":0.4226950354609929},{"relayer":"manifold","percentage":0.002304964539007092},{"relayer":"flashbots","percentage":0.5679078014184397}],"nodeOperatorCount":null},{"id":"Bitcoin Suisse","idType":"entity","timeWindow":"1d","validatorCount":9184,"avgCorrectness":0.9925387802691292,"avgInclusionDelay":1.0214058028677488,"avgUptime":0.9992568802800599,"avgValidatorEffectiveness":97.51824987281425,"clientPercentages":[{"client":"Teku","percentage":0.9669882100750268},{"client":"Nimbus","percentage":0.0330117899249732}],"networkPenetration":0.020777904472317244,"relayerPercentages":[{"relayer":"no_mev_boost","percentage":1.0}],"nodeOperatorCount":null},{"id":"Rocketpool","idType":"entity","timeWindow":"1d","validatorCount":8715,"avgCorrectness":0.9881508220722147,"avgInclusionDelay":1.0304885946997873,"avgUptime":0.989060492075188,"avgValidatorEffectiveness":95.7832093141921,"clientPercentages":[{"client":"Nimbus","percentage":0.222397250465416},{"client":"Teku","percentage":0.29987111556637547},{"client":"Prysm","percentage":0.045825576399828157},{"client":"Lighthouse","percentage":0.43190605756838035}],"networkPenetration":0.019658015239543174,"relayerPercentages":[{"relayer":"bloxroute_maxprofit","percentage":0.09447674418604651},{"relayer":"no_mev_boost","percentage":0.3005813953488372},{"relayer":"bloxroute_regulated","percentage":0.07180232558139535},{"relayer":"bloxroute_ethical","percentage":0.031395348837209305},{"relayer":"edennetwork","percentage":0.010465116279069767},{"relayer":"flashbots","percentage":0.4508720930232558},{"relayer":"manifold","percentage":0.0008720930232558139},{"relayer":"blocknative","percentage":0.03953488372093023}],"nodeOperatorCount":1529},{"id":"f2pool.eth","idType":"entity","timeWindow":"1d","validatorCount":3501,"avgCorrectness":0.9891161972472298,"avgInclusionDelay":1.0433215804376963,"avgUptime":0.9875060838626608,"avgValidatorEffectiveness":94.56684760197071,"clientPercentages":[{"client":"Prysm","percentage":0.0010940919037199124},{"client":"Teku","percentage":0.014223194748358862},{"client":"Nimbus","percentage":0.0010940919037199124},{"client":"Lighthouse","percentage":0.9835886214442013}],"networkPenetration":0.007920671119074768,"relayerPercentages":[{"relayer":"flashbots","percentage":0.6919889502762431},{"relayer":"manifold","percentage":0.04696132596685083},{"relayer":"no_mev_boost","percentage":0.2610497237569061}],"nodeOperatorCount":null},{"id":"Bitfinex","idType":"entity","timeWindow":"1d","validatorCount":3214,"avgCorrectness":0.9927952623968404,"avgInclusionDelay":1.018760240590832,"avgUptime":0.9938509287245278,"avgValidatorEffectiveness":97.28388396526347,"clientPercentages":[{"client":"Lighthouse","percentage":0.009191176470588236},{"client":"Prysm","percentage":0.9564950980392157},{"client":"Teku","percentage":0.03431372549019608}],"networkPenetration":0.007271361604314854,"relayerPercentages":[{"relayer":"no_mev_boost","percentage":0.8178545716342692},{"relayer":"flashbots","percentage":0.18214542836573075}],"nodeOperatorCount":null},{"id":"Huobi","idType":"entity","timeWindow":"1d","validatorCount":2855,"avgCorrectness":0.9918646202209024,"avgInclusionDelay":1.0180470728205384,"avgUptime":0.9997174408584218,"avgValidatorEffectiveness":97.76658813017565,"clientPercentages":[{"client":"Prysm","percentage":0.9693165969316597},{"client":"Teku","percentage":0.02301255230125523},{"client":"Lighthouse","percentage":0.007670850767085077}],"networkPenetration":0.006459159110242348,"relayerPercentages":[{"relayer":"manifold","percentage":0.014285714285714285},{"relayer":"edennetwork","percentage":0.05378151260504202},{"relayer":"blocknative","percentage":0.03529411764705882},{"relayer":"flashbots","percentage":0.43445378151260505},{"relayer":"no_mev_boost","percentage":0.3025210084033613},{"relayer":"bloxroute_ethical","percentage":0.07815126050420168},{"relayer":"bloxroute_maxprofit","percentage":0.04789915966386555},{"relayer":"bloxroute_regulated","percentage":0.03361344537815126}],"nodeOperatorCount":null},{"id":"Abyss","idType":"entity","timeWindow":"1d","validatorCount":2698,"avgCorrectness":0.9921466285870433,"avgInclusionDelay":1.0207231492377464,"avgUptime":0.9985978921776272,"avgValidatorEffectiveness":97.49823228023325,"clientPercentages":[{"client":"Unknown","percentage":1.0}],"networkPenetration":0.006103961919241281,"relayerPercentages":[{"relayer":"blocknative","percentage":0.0017035775127768314},{"relayer":"edennetwork","percentage":0.010221465076660987},{"relayer":"flashbots","percentage":0.3151618398637138},{"relayer":"no_mev_boost","percentage":0.6396933560477002},{"relayer":"bloxroute_maxprofit","percentage":0.014480408858603067},{"relayer":"bloxroute_regulated","percentage":0.016183986371379896},{"relayer":"bloxroute_ethical","percentage":0.002555366269165247}],"nodeOperatorCount":null},{"id":"Bloxstaking","idType":"entity","timeWindow":"1d","validatorCount":2552,"avgCorrectness":0.9919006380442046,"avgInclusionDelay":1.0179263781711145,"avgUptime":0.9998179617272532,"avgValidatorEffectiveness":97.79122398463915,"clientPercentages":[{"client":"Lighthouse","percentage":0.5021097046413502},{"client":"Teku","percentage":0.006751054852320675},{"client":"Prysm","percentage":0.4911392405063291}],"networkPenetration":0.00577138875314474,"relayerPercentages":[{"relayer":"blocknative","percentage":0.07266121707538602},{"relayer":"flashbots","percentage":0.7502270663033606},{"relayer":"no_mev_boost","percentage":0.16076294277929154},{"relayer":"bloxroute_ethical","percentage":0.01634877384196185}],"nodeOperatorCount":null},{"id":"wedex.eth","idType":"entity","timeWindow":"1d","validatorCount":2399,"avgCorrectness":0.9828507050088232,"avgInclusionDelay":1.0598501092796564,"avgUptime":0.9858789128406676,"avgValidatorEffectiveness":92.66230974466465,"clientPercentages":[{"client":"Lighthouse","percentage":0.9983935742971888},{"client":"Prysm","percentage":0.001606425702811245}],"networkPenetration":0.005427503574595935,"relayerPercentages":[{"relayer":"blocknative","percentage":0.05238095238095238},{"relayer":"flashbots","percentage":0.4095238095238095},{"relayer":"edennetwork","percentage":0.05904761904761905},{"relayer":"manifold","percentage":0.009523809523809525},{"relayer":"no_mev_boost","percentage":0.25333333333333335},{"relayer":"bloxroute_ethical","percentage":0.010476190476190476},{"relayer":"bloxroute_maxprofit","percentage":0.2057142857142857}],"nodeOperatorCount":null},{"id":"Ankr","idType":"entity","timeWindow":"1d","validatorCount":2299,"avgCorrectness":0.9921151985478351,"avgInclusionDelay":1.017939019131215,"avgUptime":0.9997757220185444,"avgValidatorEffectiveness":97.80263745380879,"clientPercentages":[{"client":"Teku","percentage":0.005853658536585366},{"client":"Lighthouse","percentage":0.46731707317073173},{"client":"Prysm","percentage":0.526829268292683}],"networkPenetration":0.005201263325550669,"relayerPercentages":[{"relayer":"no_mev_boost","percentage":0.8760975609756098},{"relayer":"flashbots","percentage":0.12390243902439024}],"nodeOperatorCount":null},{"id":"StakeWise","idType":"entity","timeWindow":"1d","validatorCount":2011,"avgCorrectness":0.9912829887780369,"avgInclusionDelay":1.021194215054263,"avgUptime":0.9994992671324272,"avgValidatorEffectiveness":97.45420134214326,"clientPercentages":[{"client":"Teku","percentage":0.340625},{"client":"Nimbus","percentage":0.009375},{"client":"Prysm","percentage":0.10833333333333334},{"client":"Lighthouse","percentage":0.5416666666666666}],"networkPenetration":0.0045474290058098495,"relayerPercentages":[{"relayer":"blocknative","percentage":0.08936651583710407},{"relayer":"edennetwork","percentage":0.0011312217194570137},{"relayer":"flashbots","percentage":0.5373303167420814},{"relayer":"manifold","percentage":0.0011312217194570137},{"relayer":"bloxroute_regulated","percentage":0.02262443438914027},{"relayer":"no_mev_boost","percentage":0.07352941176470588},{"relayer":"bloxroute_maxprofit","percentage":0.2748868778280543}],"nodeOperatorCount":4}]}