{"page":{"from":0,"size":15},"total":31,"next":"/v0/eth/operators?window=1d&from=15&size=15&idType=entity","data":[{"id":"Lido","idType":"entity","timeWindow":"1d","validatorCount":128946,"avgCorrectness":0.986424052306856,"avgInclusionDelay":1.0183036202895,"avgUptime":0.9995721723305302,"avgValidatorEffectiveness":97.62991896044132,"clientPercentages":[{"client":"Nimbus","percentage":0.07909665277591074},{"client":"Prysm","percentage":0.35219787605861},{"client":"Lighthouse","percentage":0.37658287404220997},{"client":"Teku","percentage":0.19212259712326926}],"networkPenetration":0.3184496614129281},{"id":"Coinbase","idType":"entity","timeWindow":"1d","validatorCount":57073,"avgCorrectness":0.9863178506786625,"avgInclusionDelay":1.0183333904466991,"avgUptime":0.9998859160879741,"avgValidatorEffectiveness":97.64906189845277,"clientPercentages":[{"client":"Nimbus","percentage":0.0928185943824359},{"client":"Prysm","percentage":0.3634551698761192},{"client":"Lighthouse","percentage":0.37394210719980375},{"client":"Teku","percentage":0.16978412854164113}],"networkPenetration":0.14094952558295754},{"id":"Kraken","idType":"entity","timeWindow":"1d","validatorCount":35770,"avgCorrectness":0.9794001028941836,"avgInclusionDelay":1.0295628216648687,"avgUptime":0.9987618830123418,"avgValidatorEffectiveness":96.47540015384197,"clientPercentages":[{"client":"Nimbus","percentage":0.04148429141134131},{"client":"Prysm","percentage":0.6030055442077619},{"client":"Teku","percentage":0.08695652173913043},{"client":"Lighthouse","percentage":0.26855364264176634}],"networkPenetration":0.08831170755560384},{"id":"Binance","idType":"entity","timeWindow":"1d","validatorCount":20810,"avgCorrectness":0.9868373612609819,"avgInclusionDelay":1.0166746336674775,"avgUptime":0.999906455229855,"avgValidatorEffectiveness":97.80891781204565,"clientPercentages":[{"client":"Teku","percentage":0.008803554959335961},{"client":"Nimbus","percentage":0.0726083675693804},{"client":"Lighthouse","percentage":0.3254800033537352},{"client":"Prysm","percentage":0.5931080741175484}],"networkPenetration":0.05139312157029324},{"id":"Bitcoin Suisse","idType":"entity","timeWindow":"1d","validatorCount":9000,"avgCorrectness":0.9824825087101123,"avgInclusionDelay":1.0529053276596587,"avgUptime":0.9989098765432098,"avgValidatorEffectiveness":94.59717800219227,"clientPercentages":[{"client":"Nimbus","percentage":0.006906077348066298},{"client":"Teku","percentage":0.9928966061562746},{"client":"Prysm","percentage":0.0001973164956590371}],"networkPenetration":0.02222672244750789},{"id":"Rocketpool","idType":"entity","timeWindow":"1d","validatorCount":6170,"avgCorrectness":0.9855732926824723,"avgInclusionDelay":1.0202224367408246,"avgUptime":0.9910138201262504,"avgValidatorEffectiveness":96.7233393700577,"clientPercentages":[{"client":"Lighthouse","percentage":0.41735105271016876},{"client":"Teku","percentage":0.267433179035389},{"client":"Prysm","percentage":0.05987755711512618},{"client":"Nimbus","percentage":0.2553382111393161}],"networkPenetration":0.014669636815355208},{"id":"Staked.us","idType":"entity","timeWindow":"1d","validatorCount":5263,"avgCorrectness":0.9857047828813856,"avgInclusionDelay":1.0167798911608872,"avgUptime":0.9997318808453146,"avgValidatorEffectiveness":97.72342256903877,"clientPercentages":[{"client":"Prysm","percentage":0.4309677419354839},{"client":"Lighthouse","percentage":0.000967741935483871},{"client":"Teku","percentage":0.5096774193548387},{"client":"Nimbus","percentage":0.05838709677419355}],"networkPenetration":0.012997693360137114},{"id":"f2pool.eth","idType":"entity","timeWindow":"1d","validatorCount":3501,"avgCorrectness":0.9874807118478605,"avgInclusionDelay":1.0156317341913321,"avgUptime":0.9999993652607186,"avgValidatorEffectiveness":97.94216704024375,"clientPercentages":[{"client":"Lighthouse","percentage":1.0}],"networkPenetration":0.00864619503208057},{"id":"Bitfinex","idType":"entity","timeWindow":"1d","validatorCount":3214,"avgCorrectness":0.9855549738183684,"avgInclusionDelay":1.0178855367148019,"avgUptime":0.9996964668464361,"avgValidatorEffectiveness":97.64565068518856,"clientPercentages":[{"client":"Teku","percentage":0.018807092960773777},{"client":"Nimbus","percentage":0.10370768404083826},{"client":"Lighthouse","percentage":0.0021493820526598604},{"client":"Prysm","percentage":0.8753358409457281}],"networkPenetration":0.007937409549587817},{"id":"Huobi","idType":"entity","timeWindow":"1d","validatorCount":2855,"avgCorrectness":0.9820545758885126,"avgInclusionDelay":1.0251376075362997,"avgUptime":0.9997664915353168,"avgValidatorEffectiveness":96.83814097125946,"clientPercentages":[{"client":"Prysm","percentage":0.886150234741784},{"client":"Teku","percentage":0.014084507042253521},{"client":"Nimbus","percentage":0.09800469483568075},{"client":"Lighthouse","percentage":0.0017605633802816902}],"networkPenetration":0.007050810287515003},{"id":"wedex.eth","idType":"entity","timeWindow":"1d","validatorCount":2399,"avgCorrectness":0.9845268590807993,"avgInclusionDelay":1.0298142703903446,"avgUptime":0.9991301931360292,"avgValidatorEffectiveness":96.58471923033369,"clientPercentages":[{"client":"Lighthouse","percentage":1.0}],"networkPenetration":0.005924656350174603},{"id":"Bloxstaking","idType":"entity","timeWindow":"1d","validatorCount":2317,"avgCorrectness":0.9838948007578465,"avgInclusionDelay":1.0198944318264793,"avgUptime":0.9996374622356489,"avgValidatorEffectiveness":97.35689698475028,"clientPercentages":[{"client":"Lighthouse","percentage":0.5064247921390779},{"client":"Teku","percentage":0.008314436885865457},{"client":"Nimbus","percentage":0.05139833711262283},{"client":"Prysm","percentage":0.43386243386243384}],"networkPenetration":0.005722146212319532},{"id":"Ankr","idType":"entity","timeWindow":"1d","validatorCount":2287,"avgCorrectness":0.858519120476548,"avgInclusionDelay":1.4611903052084136,"avgUptime":0.8943817713647185,"avgValidatorEffectiveness":65.84816550246157,"clientPercentages":[{"client":"Prysm","percentage":0.8990731204943357},{"client":"Teku","percentage":0.009268795056642637},{"client":"Lighthouse","percentage":0.008238928939237899},{"client":"Nimbus","percentage":0.08341915550978372}],"networkPenetration":0.005648057137494505},{"id":"StakeWise","idType":"entity","timeWindow":"1d","validatorCount":1975,"avgCorrectness":0.9874097362142324,"avgInclusionDelay":1.0173077945600195,"avgUptime":0.9964035247504377,"avgValidatorEffectiveness":97.49183709163904,"clientPercentages":[{"client":"Lighthouse","percentage":0.5461056401074306},{"client":"Prysm","percentage":0.36436884512085943},{"client":"Nimbus","percentage":0.04028648164726947},{"client":"Teku","percentage":0.049239033124440466}],"networkPenetration":0.004860243308521726},{"id":"OKex","idType":"entity","timeWindow":"1d","validatorCount":1543,"avgCorrectness":0.9830710799957928,"avgInclusionDelay":1.025016965660926,"avgUptime":0.9995665010441417,"avgValidatorEffectiveness":96.89240526287037,"clientPercentages":[{"client":"Teku","percentage":0.017582417582417582},{"client":"Nimbus","percentage":0.1087912087912088},{"client":"Prysm","percentage":0.8736263736263736}],"networkPenetration":0.003810648081833853}]}