{"page":{"from":0,"size":15},"total":30,"next":"/v0/eth/operators?window=1d&from=15&size=15&idType=entity","data":[{"id":"Lido","idType":"entity","timeWindow":"1d","validatorCount":129813,"avgCorrectness":0.9886408901913545,"avgInclusionDelay":1.0271060749828498,"avgUptime":0.9993232572796062,"avgValidatorEffectiveness":97.03862963759455,"clientPercentages":[{"client":"Lighthouse","percentage":0.3503037354727856},{"client":"Prysm","percentage":0.40259494270290747},{"client":"Nimbus","percentage":0.02478589693288055},{"client":"Lodestar","percentage":0.00037882375224926605},{"client":"Teku","percentage":0.22193660113917715}],"networkPenetration":0.31060647754872517},{"id":"Coinbase","idType":"entity","timeWindow":"1d","validatorCount":54533,"avgCorrectness":0.9894296227224845,"avgInclusionDelay":1.024541004377787,"avgUptime":0.9999326401750557,"avgValidatorEffectiveness":97.31654075428443,"clientPercentages":[{"client":"Teku","percentage":0.13761287144967985},{"client":"Nimbus","percentage":0.05641109834181579},{"client":"Prysm","percentage":0.38581513708750614},{"client":"Lighthouse","percentage":0.4201608931209982}],"networkPenetration":0.13049137961977003},{"id":"Kraken","idType":"entity","timeWindow":"1d","validatorCount":36598,"avgCorrectness":0.9893152476462532,"avgInclusionDelay":1.024257247707113,"avgUptime":0.9997747774731516,"avgValidatorEffectiveness":97.31870650959732,"clientPercentages":[{"client":"Prysm","percentage":0.6236543567463191},{"client":"Lighthouse","percentage":0.26280473087134926},{"client":"Nimbus","percentage":0.01955104996379435},{"client":"Teku","percentage":0.0939898624185373}],"networkPenetration":0.0875677486510092},{"id":"Binance","idType":"entity","timeWindow":"1d","validatorCount":21584,"avgCorrectness":0.9893089044254705,"avgInclusionDelay":1.0236874017339719,"avgUptime":0.9952188864179246,"avgValidatorEffectiveness":96.9737991223226,"clientPercentages":[{"client":"Nimbus","percentage":0.030764114076660846},{"client":"Prysm","percentage":0.6109586763116321},{"client":"Teku","percentage":0.0005820237798287187},{"client":"Lighthouse","percentage":0.35769518583187826}],"networkPenetration":0.05164810184132757},{"id":"Bitcoin Suisse","idType":"entity","timeWindow":"1d","validatorCount":9000,"avgCorrectness":0.9907262348848224,"avgInclusionDelay":1.0203793575295141,"avgUptime":0.9962392592592606,"avgValidatorEffectiveness":97.4140258350575,"clientPercentages":[{"client":"Nimbus","percentage":0.00641025641025641},{"client":"Teku","percentage":0.9935897435897436}],"networkPenetration":0.02153599502279226},{"id":"Rocketpool","idType":"entity","timeWindow":"1d","validatorCount":6877,"avgCorrectness":0.9882618605918507,"avgInclusionDelay":1.0263485676898503,"avgUptime":0.9920758136089711,"avgValidatorEffectiveness":96.47829656231094,"clientPercentages":[{"client":"Nimbus","percentage":0.2276190476190476},{"client":"Teku","percentage":0.30272108843537415},{"client":"Lighthouse","percentage":0.41714285714285715},{"client":"Prysm","percentage":0.05251700680272109}],"networkPenetration":0.016436749979062228},{"id":"Staked.us","idType":"entity","timeWindow":"1d","validatorCount":5263,"avgCorrectness":0.9870032712696085,"avgInclusionDelay":1.032134291549785,"avgUptime":0.9964490045812491,"avgValidatorEffectiveness":96.29453483580687,"clientPercentages":[{"client":"Prysm","percentage":0.47178789938817134},{"client":"Lighthouse","percentage":0.005778382053025153},{"client":"Nimbus","percentage":0.02821210061182869},{"client":"Teku","percentage":0.49422161794697483}],"networkPenetration":0.012593771311661742},{"id":"f2pool.eth","idType":"entity","timeWindow":"1d","validatorCount":3501,"avgCorrectness":0.9894684403030228,"avgInclusionDelay":1.0268435897867776,"avgUptime":0.9798127519121511,"avgValidatorEffectiveness":95.42302175584231,"clientPercentages":[{"client":"Lighthouse","percentage":0.986387943607195},{"client":"Prysm","percentage":0.013612056392805057}],"networkPenetration":0.00837750206386619},{"id":"Bitfinex","idType":"entity","timeWindow":"1d","validatorCount":3214,"avgCorrectness":0.9891409824587238,"avgInclusionDelay":1.024295080760166,"avgUptime":0.9953903062988315,"avgValidatorEffectiveness":96.92797342198205,"clientPercentages":[{"client":"Prysm","percentage":0.943725379853686},{"client":"Lighthouse","percentage":0.004501969611705121},{"client":"Nimbus","percentage":0.03939223410241981},{"client":"Teku","percentage":0.012380416432189083}],"networkPenetration":0.007690743111472703},{"id":"Huobi","idType":"entity","timeWindow":"1d","validatorCount":2855,"avgCorrectness":0.9881932758065094,"avgInclusionDelay":1.0256714619524352,"avgUptime":0.9999875462152168,"avgValidatorEffectiveness":97.15279334098838,"clientPercentages":[{"client":"Prysm","percentage":0.9520048602673147},{"client":"Nimbus","percentage":0.04495747266099635},{"client":"Lighthouse","percentage":0.0006075334143377885},{"client":"Teku","percentage":0.002430133657351154}],"networkPenetration":0.006831696198896878},{"id":"wedex.eth","idType":"entity","timeWindow":"1d","validatorCount":2399,"avgCorrectness":0.9749420516988746,"avgInclusionDelay":1.1031716094567179,"avgUptime":0.9994710759112593,"avgValidatorEffectiveness":90.86756140457419,"clientPercentages":[{"client":"Lighthouse","percentage":1.0}],"networkPenetration":0.005740539117742071},{"id":"Bloxstaking","idType":"entity","timeWindow":"1d","validatorCount":2388,"avgCorrectness":0.9888244069513846,"avgInclusionDelay":1.0370216546321767,"avgUptime":0.9996882471286741,"avgValidatorEffectiveness":96.2588279596947,"clientPercentages":[{"client":"Nimbus","percentage":0.024132730015082957},{"client":"Prysm","percentage":0.48265460030165913},{"client":"Lighthouse","percentage":0.4917043740573152},{"client":"Teku","percentage":0.0015082956259426848}],"networkPenetration":0.005711824457711681},{"id":"Ankr","idType":"entity","timeWindow":"1d","validatorCount":2296,"avgCorrectness":0.9285286956047265,"avgInclusionDelay":1.2008658227996107,"avgUptime":0.9933284939992246,"avgValidatorEffectiveness":84.28753070866313,"clientPercentages":[{"client":"Nimbus","percentage":0.03640040444893832},{"client":"Teku","percentage":0.006066734074823054},{"client":"Prysm","percentage":0.9464105156723963},{"client":"Lighthouse","percentage":0.011122345803842264}],"networkPenetration":0.005494071619147892},{"id":"StakeWise","idType":"entity","timeWindow":"1d","validatorCount":1981,"avgCorrectness":0.9891827759531437,"avgInclusionDelay":1.025291448814337,"avgUptime":0.9997498236614841,"avgValidatorEffectiveness":97.22532685378809,"clientPercentages":[{"client":"Prysm","percentage":0.3850877192982456},{"client":"Teku","percentage":0.060526315789473685},{"client":"Nimbus","percentage":0.02456140350877193},{"client":"Lighthouse","percentage":0.5298245614035088}],"networkPenetration":0.004737918905014298},{"id":"OKex","idType":"entity","timeWindow":"1d","validatorCount":1733,"avgCorrectness":0.9890143934729064,"avgInclusionDelay":1.0250397680623973,"avgUptime":0.999938449701866,"avgValidatorEffectiveness":97.24672763583955,"clientPercentages":[{"client":"Prysm","percentage":0.9401888772298006},{"client":"Lighthouse","percentage":0.012591815320041973},{"client":"Nimbus","percentage":0.04512067156348373},{"client":"Teku","percentage":0.002098635886673662}],"networkPenetration":0.004146875486055443}]}