{"page":{"from":0,"size":15},"total":36,"next":"/v0/eth/operators?window=1d&from=15&size=15&idType=entity","data":[{"id":"Lido","idType":"entity","timeWindow":"1d","validatorCount":138922,"avgCorrectness":0.989266592695403,"avgInclusionDelay":1.0257265841154326,"avgUptime":0.9993944550565977,"avgValidatorEffectiveness":96.49161414208027,"clientPercentages":[{"client":"Nimbus","percentage":0.01863293804721268},{"client":"Teku","percentage":0.1635681037348997},{"client":"Lighthouse","percentage":0.45778842956887955},{"client":"Prysm","percentage":0.3560207248143633},{"client":"Lodestar","percentage":0.003989803834644797}],"networkPenetration":0.30330445786547094,"relayerPercentages":[{"relayer":"blocknative","percentage":0.036858875208810246},{"relayer":"bloxroute_ethical","percentage":0.04847491183567407},{"relayer":"bloxroute_maxprofit","percentage":0.037570376786487655},{"relayer":"bloxroute_regulated","percentage":0.012389407906947968},{"relayer":"edennetwork","percentage":0.047314854915547856},{"relayer":"flashbots","percentage":0.5816834746024871},{"relayer":"manifold","percentage":0.01857637814762111},{"relayer":"no_mev_boost","percentage":0.21713172059642394}],"nodeOperatorCount":29},{"id":"Coinbase","idType":"entity","timeWindow":"1d","validatorCount":54645,"avgCorrectness":0.9877021960419443,"avgInclusionDelay":1.0260675736540081,"avgUptime":0.9992447006435496,"avgValidatorEffectiveness":96.28401736817328,"clientPercentages":[{"client":"Teku","percentage":0.20679341286485373},{"client":"Prysm","percentage":0.3576168047581394},{"client":"Nimbus","percentage":0.0068415443325196825},{"client":"Lighthouse","percentage":0.42874823804448725}],"networkPenetration":0.12005325447686924,"relayerPercentages":[{"relayer":"bloxroute_ethical","percentage":0.00011503067484662577},{"relayer":"bloxroute_maxprofit","percentage":0.006671779141104294},{"relayer":"bloxroute_regulated","percentage":3.834355828220859e-05},{"relayer":"flashbots","percentage":0.043558282208588955},{"relayer":"manifold","percentage":7.668711656441718e-05},{"relayer":"no_mev_boost","percentage":0.9495398773006135}],"nodeOperatorCount":null},{"id":"Kraken","idType":"entity","timeWindow":"1d","validatorCount":37983,"avgCorrectness":0.9891317546664281,"avgInclusionDelay":1.0227671470705262,"avgUptime":0.9996971226842106,"avgValidatorEffectiveness":96.75456766430108,"clientPercentages":[{"client":"Lighthouse","percentage":0.25358074518875817},{"client":"Nimbus","percentage":9.843973027513905e-05},{"client":"Prysm","percentage":0.6941969779002806},{"client":"Teku","percentage":0.052123837180686125}],"networkPenetration":0.08341663499372766,"relayerPercentages":[{"relayer":"blocknative","percentage":0.007798440311937612},{"relayer":"bloxroute_ethical","percentage":0.002726727381796368},{"relayer":"bloxroute_maxprofit","percentage":0.009052734907563942},{"relayer":"edennetwork","percentage":0.006216938430495719},{"relayer":"flashbots","percentage":0.43643998473032664},{"relayer":"manifold","percentage":0.004908109287233463},{"relayer":"no_mev_boost","percentage":0.5328570649506462}],"nodeOperatorCount":null},{"id":"Binance","idType":"entity","timeWindow":"1d","validatorCount":23826,"avgCorrectness":0.9906020685926651,"avgInclusionDelay":1.019412421834565,"avgUptime":0.9999655838159984,"avgValidatorEffectiveness":97.22524543058907,"clientPercentages":[{"client":"Prysm","percentage":0.5314272023001357},{"client":"Teku","percentage":0.006069802731411229},{"client":"Nimbus","percentage":0.0011181215557862791},{"client":"Lighthouse","percentage":0.4613848734126667}],"networkPenetration":0.05234493258607167,"relayerPercentages":[{"relayer":"blocknative","percentage":0.0018485915492957746},{"relayer":"bloxroute_ethical","percentage":8.802816901408451e-05},{"relayer":"bloxroute_maxprofit","percentage":0.003345070422535211},{"relayer":"bloxroute_regulated","percentage":0.0414612676056338},{"relayer":"edennetwork","percentage":0.0044014084507042256},{"relayer":"flashbots","percentage":0.7007922535211267},{"relayer":"no_mev_boost","percentage":0.24806338028169014}],"nodeOperatorCount":null},{"id":"Staked.us","idType":"entity","timeWindow":"1d","validatorCount":12822,"avgCorrectness":0.9888992129158494,"avgInclusionDelay":1.0227640456651665,"avgUptime":0.9991920034217354,"avgValidatorEffectiveness":96.6846618780895,"clientPercentages":[{"client":"Nimbus","percentage":0.00029184298847220193},{"client":"Prysm","percentage":0.6296512476287757},{"client":"Teku","percentage":0.25857288778637094},{"client":"Lighthouse","percentage":0.11148402159638114}],"networkPenetration":0.028156327374426866,"relayerPercentages":[{"relayer":"blocknative","percentage":0.006740196078431373},{"relayer":"bloxroute_ethical","percentage":0.0010723039215686275},{"relayer":"bloxroute_maxprofit","percentage":0.009037990196078432},{"relayer":"edennetwork","percentage":0.018075980392156864},{"relayer":"flashbots","percentage":0.5477941176470589},{"relayer":"manifold","percentage":0.004595588235294118},{"relayer":"no_mev_boost","percentage":0.41268382352941174}],"nodeOperatorCount":null},{"id":"Bitcoin Suisse","idType":"entity","timeWindow":"1d","validatorCount":9214,"avgCorrectness":0.9909849848372214,"avgInclusionDelay":1.0211259418345555,"avgUptime":0.999903046089285,"avgValidatorEffectiveness":97.10202065032216,"clientPercentages":[{"client":"Prysm","percentage":0.0005914826498422713},{"client":"Nimbus","percentage":0.024842271293375396},{"client":"Lighthouse","percentage":0.0001971608832807571},{"client":"Teku","percentage":0.9743690851735016}],"networkPenetration":0.020242852717538166,"relayerPercentages":[{"relayer":"no_mev_boost","percentage":1.0}],"nodeOperatorCount":null},{"id":"Rocketpool","idType":"entity","timeWindow":"1d","validatorCount":9108,"avgCorrectness":0.9875029551135849,"avgInclusionDelay":1.0284903598272208,"avgUptime":0.9831312105134624,"avgValidatorEffectiveness":94.59957044014998,"clientPercentages":[{"client":"Prysm","percentage":0.05160706201901313},{"client":"Teku","percentage":0.3408782254413762},{"client":"Nimbus","percentage":0.1949977365323676},{"client":"Lighthouse","percentage":0.4125169760072431}],"networkPenetration":0.01997482275969796,"relayerPercentages":[{"relayer":"blocknative","percentage":0.05112190608373814},{"relayer":"bloxroute_ethical","percentage":0.03631737219523479},{"relayer":"bloxroute_maxprofit","percentage":0.08605135322692574},{"relayer":"bloxroute_regulated","percentage":0.055517002081887576},{"relayer":"edennetwork","percentage":0.049271339347675226},{"relayer":"flashbots","percentage":0.5588711542910016},{"relayer":"manifold","percentage":0.0018505667360629193},{"relayer":"no_mev_boost","percentage":0.16030534351145037},{"relayer":"relayooor","percentage":0.0006939625260235947}],"nodeOperatorCount":1584},{"id":"Stakefish","idType":"entity","timeWindow":"1d","validatorCount":8065,"avgCorrectness":0.9871515248599609,"avgInclusionDelay":1.0451076651987246,"avgUptime":0.9983659147800263,"avgValidatorEffectiveness":94.51695267441684,"clientPercentages":[{"client":"Prysm","percentage":0.000847816871555744},{"client":"Lighthouse","percentage":0.6877914370495973},{"client":"Nimbus","percentage":0.006570580754557015},{"client":"Teku","percentage":0.30479016532428993}],"networkPenetration":0.01770535598552638,"relayerPercentages":[{"relayer":"bloxroute_ethical","percentage":0.00044802867383512545},{"relayer":"bloxroute_maxprofit","percentage":0.0029121863799283156},{"relayer":"bloxroute_regulated","percentage":0.00022401433691756272},{"relayer":"edennetwork","percentage":0.0006720430107526882},{"relayer":"flashbots","percentage":0.8947132616487455},{"relayer":"manifold","percentage":0.0817652329749104},{"relayer":"no_mev_boost","percentage":0.019265232974910396}],"nodeOperatorCount":null},{"id":"Celsius Network","idType":"entity","timeWindow":"1d","validatorCount":4943,"avgCorrectness":0.9906175728008821,"avgInclusionDelay":1.0193365880941216,"avgUptime":0.9999456020860025,"avgValidatorEffectiveness":97.23151983322724,"clientPercentages":[{"client":"Lighthouse","percentage":0.004900113079532605},{"client":"Prysm","percentage":0.9890689785148888},{"client":"Teku","percentage":0.00603090840557859}],"networkPenetration":0.010859607226263421,"relayerPercentages":[{"relayer":"flashbots","percentage":0.9444901315789473},{"relayer":"no_mev_boost","percentage":0.055509868421052634}],"nodeOperatorCount":null},{"id":"Bitfinex","idType":"entity","timeWindow":"1d","validatorCount":3214,"avgCorrectness":0.9912071996325231,"avgInclusionDelay":1.0192959905521763,"avgUptime":0.9999716518011484,"avgValidatorEffectiveness":97.29780564105485,"clientPercentages":[{"client":"Lighthouse","percentage":0.0034602076124567475},{"client":"Nimbus","percentage":0.0005767012687427913},{"client":"Teku","percentage":0.016724336793540944},{"client":"Prysm","percentage":0.9792387543252595}],"networkPenetration":0.007061051512282143,"relayerPercentages":[{"relayer":"blocknative","percentage":0.0012674271229404308},{"relayer":"bloxroute_maxprofit","percentage":0.0012674271229404308},{"relayer":"edennetwork","percentage":0.0038022813688212928},{"relayer":"flashbots","percentage":0.7509505703422054},{"relayer":"no_mev_boost","percentage":0.24271229404309252}],"nodeOperatorCount":null},{"id":"Abyss","idType":"entity","timeWindow":"1d","validatorCount":2987,"avgCorrectness":0.9904838101487111,"avgInclusionDelay":1.0211344218558738,"avgUptime":0.9987824655350598,"avgValidatorEffectiveness":96.89600168963659,"clientPercentages":[{"client":"Lighthouse","percentage":0.08098833218943034},{"client":"Nimbus","percentage":0.04461221688400824},{"client":"Prysm","percentage":0.033630748112560054},{"client":"Teku","percentage":0.8407687028140014}],"networkPenetration":0.006283325241172038,"relayerPercentages":[{"relayer":"blocknative","percentage":0.007127583749109052},{"relayer":"bloxroute_ethical","percentage":0.004989308624376337},{"relayer":"bloxroute_maxprofit","percentage":0.022095509622238062},{"relayer":"bloxroute_regulated","percentage":0.01496792587312901},{"relayer":"edennetwork","percentage":0.014255167498218105},{"relayer":"flashbots","percentage":0.37277263007840344},{"relayer":"manifold","percentage":0.0042765502494654314},{"relayer":"no_mev_boost","percentage":0.5588025659301497},{"relayer":"relayooor","percentage":0.0007127583749109052}],"nodeOperatorCount":null},{"id":"Huobi","idType":"entity","timeWindow":"1d","validatorCount":2855,"avgCorrectness":0.9904480273207072,"avgInclusionDelay":1.0191275567432168,"avgUptime":0.9999540766686124,"avgValidatorEffectiveness":97.23644102118568,"clientPercentages":[{"client":"Teku","percentage":0.010876519513755598},{"client":"Prysm","percentage":0.981445937300064},{"client":"Lighthouse","percentage":0.007677543186180422}],"networkPenetration":0.006272340406834324,"relayerPercentages":[{"relayer":"blocknative","percentage":0.05614783226723525},{"relayer":"bloxroute_ethical","percentage":0.02203269367448472},{"relayer":"bloxroute_maxprofit","percentage":0.10376687988628287},{"relayer":"bloxroute_regulated","percentage":0.058990760483297794},{"relayer":"edennetwork","percentage":0.10163468372423597},{"relayer":"flashbots","percentage":0.5927505330490405},{"relayer":"manifold","percentage":0.06112295664534471},{"relayer":"no_mev_boost","percentage":0.0035536602700781805}],"nodeOperatorCount":null},{"id":"Bloxstaking","idType":"entity","timeWindow":"1d","validatorCount":2639,"avgCorrectness":0.9895045664588287,"avgInclusionDelay":1.0195239602879815,"avgUptime":0.9999620053025009,"avgValidatorEffectiveness":97.12116936566154,"clientPercentages":[{"client":"Prysm","percentage":0.6855631141345427},{"client":"Lighthouse","percentage":0.30839002267573695},{"client":"Teku","percentage":0.006046863189720333}],"networkPenetration":0.005683553286332889,"relayerPercentages":[{"relayer":"blocknative","percentage":0.043478260869565216},{"relayer":"bloxroute_ethical","percentage":0.003281378178835111},{"relayer":"flashbots","percentage":0.9368334700574241},{"relayer":"no_mev_boost","percentage":0.016406890894175553}],"nodeOperatorCount":null},{"id":"wedex.eth","idType":"entity","timeWindow":"1d","validatorCount":2399,"avgCorrectness":0.9903008373868737,"avgInclusionDelay":1.0187900239831256,"avgUptime":0.9999620212125422,"avgValidatorEffectiveness":97.25100627727417,"clientPercentages":[{"client":"Lighthouse","percentage":0.993841416474211},{"client":"Nimbus","percentage":0.006158583525789068}],"networkPenetration":0.005270523515234867,"relayerPercentages":[{"relayer":"blocknative","percentage":0.044673539518900345},{"relayer":"bloxroute_ethical","percentage":0.009450171821305841},{"relayer":"bloxroute_maxprofit","percentage":0.10395189003436427},{"relayer":"edennetwork","percentage":0.12027491408934708},{"relayer":"flashbots","percentage":0.4853951890034364},{"relayer":"manifold","percentage":0.0506872852233677},{"relayer":"no_mev_boost","percentage":0.18556701030927836}],"nodeOperatorCount":null},{"id":"Ankr","idType":"entity","timeWindow":"1d","validatorCount":2301,"avgCorrectness":0.9902928534534836,"avgInclusionDelay":1.0197314780108737,"avgUptime":0.999959428267903,"avgValidatorEffectiveness":97.16465101293696,"clientPercentages":[{"client":"Prysm","percentage":0.162291169451074},{"client":"Lighthouse","percentage":0.8369132856006364},{"client":"Teku","percentage":0.0007955449482895784}],"networkPenetration":0.005053023795348143,"relayerPercentages":[{"relayer":"flashbots","percentage":0.1493624772313297},{"relayer":"no_mev_boost","percentage":0.8506375227686703}],"nodeOperatorCount":null}]}