{"page":{"from":0,"size":15},"total":30,"next":"/v0/eth/operators?window=1d&from=15&size=15&idType=entity","data":[{"id":"Lido","idType":"entity","timeWindow":"1d","validatorCount":129423,"avgCorrectness":0.9912232862642418,"avgInclusionDelay":1.0202705880985112,"avgUptime":0.9999135404708754,"avgValidatorEffectiveness":97.76769737850901,"clientPercentages":[{"client":"Teku","percentage":0.2215128884606119},{"client":"Prysm","percentage":0.36031478358628444},{"client":"Nimbus","percentage":0.06436200112422709},{"client":"Lighthouse","percentage":0.3538103268288766}],"networkPenetration":0.31439275223941515},{"id":"Coinbase","idType":"entity","timeWindow":"1d","validatorCount":56396,"avgCorrectness":0.991856599010783,"avgInclusionDelay":1.0193555978109199,"avgUptime":0.9996595503227231,"avgValidatorEffectiveness":97.85255937626101,"clientPercentages":[{"client":"Lighthouse","percentage":0.39151326053042124},{"client":"Nimbus","percentage":0.09198127925117004},{"client":"Teku","percentage":0.1432449297971919},{"client":"Prysm","percentage":0.3732605304212169}],"networkPenetration":0.137015522238662},{"id":"Kraken","idType":"entity","timeWindow":"1d","validatorCount":36032,"avgCorrectness":0.9853801079333113,"avgInclusionDelay":1.0306276127896312,"avgUptime":0.9991027716063647,"avgValidatorEffectiveness":96.71968069922825,"clientPercentages":[{"client":"Nimbus","percentage":0.04528793286389505},{"client":"Prysm","percentage":0.5996913282531108},{"client":"Teku","percentage":0.09004533616282434},{"client":"Lighthouse","percentage":0.2649754027201698}],"networkPenetration":0.08753094608153973},{"id":"Binance","idType":"entity","timeWindow":"1d","validatorCount":21153,"avgCorrectness":0.9918549404276992,"avgInclusionDelay":1.0189537237472026,"avgUptime":0.9991538893878981,"avgValidatorEffectiveness":97.84250840525257,"clientPercentages":[{"client":"Teku","percentage":0.003264417845484222},{"client":"Lighthouse","percentage":0.34309868586255965},{"client":"Nimbus","percentage":0.06721352640830335},{"client":"Prysm","percentage":0.5864233698836528}],"networkPenetration":0.05139175370441906},{"id":"Bitcoin Suisse","idType":"entity","timeWindow":"1d","validatorCount":9000,"avgCorrectness":0.9906313561121906,"avgInclusionDelay":1.031951333233891,"avgUptime":0.9998153086419752,"avgValidatorEffectiveness":96.77296645186286,"clientPercentages":[{"client":"Nimbus","percentage":0.0063522617901828685},{"client":"Teku","percentage":0.9934552454282964},{"client":"Prysm","percentage":0.00019249278152069297}],"networkPenetration":0.02186572984161923},{"id":"Rocketpool","idType":"entity","timeWindow":"1d","validatorCount":6532,"avgCorrectness":0.9897438486193083,"avgInclusionDelay":1.0253892580354256,"avgUptime":0.9946483000732442,"avgValidatorEffectiveness":96.88008533531637,"clientPercentages":[{"client":"Teku","percentage":0.291220556745182},{"client":"Lighthouse","percentage":0.4055674518201285},{"client":"Nimbus","percentage":0.2328336902212705},{"client":"Prysm","percentage":0.07037830121341898}],"networkPenetration":0.015859942711787815},{"id":"Staked.us","idType":"entity","timeWindow":"1d","validatorCount":5263,"avgCorrectness":0.9914849109149746,"avgInclusionDelay":1.0192977432469301,"avgUptime":0.9997415922477658,"avgValidatorEffectiveness":97.8437486305976,"clientPercentages":[{"client":"Lighthouse","percentage":0.0019887305270135896},{"client":"Teku","percentage":0.5081206496519721},{"client":"Nimbus","percentage":0.043752071594298975},{"client":"Prysm","percentage":0.4461385482267153}],"networkPenetration":0.012786592906271333},{"id":"f2pool.eth","idType":"entity","timeWindow":"1d","validatorCount":3501,"avgCorrectness":0.9921562093370149,"avgInclusionDelay":1.0184772604652639,"avgUptime":1.0,"avgValidatorEffectiveness":97.9697533413503,"clientPercentages":[{"client":"Lighthouse","percentage":1.0}],"networkPenetration":0.008505768908389881},{"id":"Bitfinex","idType":"entity","timeWindow":"1d","validatorCount":3214,"avgCorrectness":0.9904101071744349,"avgInclusionDelay":1.020869899970989,"avgUptime":0.9986040240613989,"avgValidatorEffectiveness":97.61730065562882,"clientPercentages":[{"client":"Prysm","percentage":0.8850762527233116},{"client":"Teku","percentage":0.01579520697167756},{"client":"Nimbus","percentage":0.09640522875816994},{"client":"Lighthouse","percentage":0.0027233115468409588}],"networkPenetration":0.007808495078996023},{"id":"Huobi","idType":"entity","timeWindow":"1d","validatorCount":2855,"avgCorrectness":0.9913106531975628,"avgInclusionDelay":1.0196525195408133,"avgUptime":0.9998980346370889,"avgValidatorEffectiveness":97.81838593366535,"clientPercentages":[{"client":"Lighthouse","percentage":0.0012004801920768306},{"client":"Nimbus","percentage":0.07923169267707082},{"client":"Teku","percentage":0.007202881152460984},{"client":"Prysm","percentage":0.9123649459783914}],"networkPenetration":0.006936295410869211},{"id":"wedex.eth","idType":"entity","timeWindow":"1d","validatorCount":2399,"avgCorrectness":0.9915734839451475,"avgInclusionDelay":1.0192841676927653,"avgUptime":0.9997971376962631,"avgValidatorEffectiveness":97.85361474711141,"clientPercentages":[{"client":"Lighthouse","percentage":1.0}],"networkPenetration":0.005828431765560504},{"id":"Bloxstaking","idType":"entity","timeWindow":"1d","validatorCount":2347,"avgCorrectness":0.9909089272789969,"avgInclusionDelay":1.0197784000697236,"avgUptime":0.9999791659931668,"avgValidatorEffectiveness":97.79152971650086,"clientPercentages":[{"client":"Prysm","percentage":0.44550810014727543},{"client":"Teku","percentage":0.0014727540500736377},{"client":"Nimbus","percentage":0.054491899852724596},{"client":"Lighthouse","percentage":0.49852724594992637}],"networkPenetration":0.005699666912048746},{"id":"Ankr","idType":"entity","timeWindow":"1d","validatorCount":2289,"avgCorrectness":0.8521427831397014,"avgInclusionDelay":1.5841755424503867,"avgUptime":0.9557924372603266,"avgValidatorEffectiveness":64.56812175477188,"clientPercentages":[{"client":"Nimbus","percentage":0.07235421166306695},{"client":"Prysm","percentage":0.9071274298056156},{"client":"Teku","percentage":0.004319654427645789},{"client":"Lighthouse","percentage":0.016198704103671708}],"networkPenetration":0.005561183956385158},{"id":"StakeWise","idType":"entity","timeWindow":"1d","validatorCount":1979,"avgCorrectness":0.9907289906101965,"avgInclusionDelay":1.0264567482386378,"avgUptime":0.9972566654819794,"avgValidatorEffectiveness":97.10213130845777,"clientPercentages":[{"client":"Lighthouse","percentage":0.5388646288209606},{"client":"Prysm","percentage":0.36069868995633186},{"client":"Nimbus","percentage":0.04017467248908297},{"client":"Teku","percentage":0.06026200873362445}],"networkPenetration":0.004808031039618273},{"id":"OKex","idType":"entity","timeWindow":"1d","validatorCount":1702,"avgCorrectness":0.9912816963935968,"avgInclusionDelay":1.0193716867312563,"avgUptime":0.9999477738608176,"avgValidatorEffectiveness":97.84439439564736,"clientPercentages":[{"client":"Nimbus","percentage":0.1019036954087346},{"client":"Prysm","percentage":0.8891377379619261},{"client":"Lighthouse","percentage":0.0022396416573348264},{"client":"Teku","percentage":0.006718924972004479}],"networkPenetration":0.004135052465603992}]}