{"page":{"from":0,"size":15},"total":36,"next":"/v0/eth/operators?window=1d&from=15&size=15&idType=entity","data":[{"id":"Lido","idType":"entity","timeWindow":"1d","validatorCount":134535,"avgCorrectness":0.9899188709451082,"avgInclusionDelay":1.0256566287425057,"avgUptime":0.9990970529001473,"avgValidatorEffectiveness":96.55581215416242,"clientPercentages":[{"client":"Prysm","percentage":0.38788033367340813},{"client":"Lodestar","percentage":0.001155254155914301},{"client":"Teku","percentage":0.19303246714277142},{"client":"Lighthouse","percentage":0.3920362479745544},{"client":"Nimbus","percentage":0.02589569705335174}],"networkPenetration":0.2990699252012782,"relayerPercentages":[{"relayer":"blocknative","percentage":0.03569220305447351},{"relayer":"edennetwork","percentage":0.02853521300933655},{"relayer":"bloxroute_ethical","percentage":0.04493600445186422},{"relayer":"bloxroute_regulated","percentage":0.011948927224386324},{"relayer":"manifold","percentage":0.018657639275335435},{"relayer":"flashbots","percentage":0.4688987819204848},{"relayer":"no_mev_boost","percentage":0.35571631731898845},{"relayer":"bloxroute_maxprofit","percentage":0.035614913745130775}],"nodeOperatorCount":29},{"id":"Coinbase","idType":"entity","timeWindow":"1d","validatorCount":54468,"avgCorrectness":0.9890885538296457,"avgInclusionDelay":1.023036556952531,"avgUptime":0.9979170262891138,"avgValidatorEffectiveness":96.56704569258929,"clientPercentages":[{"client":"Teku","percentage":0.1621733253229198},{"client":"Lighthouse","percentage":0.4350405527185341},{"client":"Nimbus","percentage":0.02177831180534695},{"client":"Prysm","percentage":0.3810078101531992}],"networkPenetration":0.12147651605762537,"relayerPercentages":[{"relayer":"flashbots","percentage":0.0003847929813760197},{"relayer":"bloxroute_regulated","percentage":3.847929813760197e-05},{"relayer":"no_mev_boost","percentage":0.9994997691242111},{"relayer":"manifold","percentage":7.695859627520394e-05}],"nodeOperatorCount":null},{"id":"Kraken","idType":"entity","timeWindow":"1d","validatorCount":37857,"avgCorrectness":0.9902264044478379,"avgInclusionDelay":1.020103353293688,"avgUptime":0.9981010114799724,"avgValidatorEffectiveness":96.95328524718002,"clientPercentages":[{"client":"Lighthouse","percentage":0.2660751509968464},{"client":"Teku","percentage":0.1116040408359613},{"client":"Prysm","percentage":0.6222139077449356},{"client":"Nimbus","percentage":0.00010690042225666791}],"networkPenetration":0.08441187496652802,"relayerPercentages":[{"relayer":"no_mev_boost","percentage":0.543200436919716},{"relayer":"manifold","percentage":0.002894593118514473},{"relayer":"flashbots","percentage":0.4369197160021846},{"relayer":"blocknative","percentage":0.00780993992353905},{"relayer":"bloxroute_ethical","percentage":0.001474604041507373},{"relayer":"edennetwork","percentage":0.002075368651010377},{"relayer":"bloxroute_maxprofit","percentage":0.005625341343528127}],"nodeOperatorCount":null},{"id":"Binance","idType":"entity","timeWindow":"1d","validatorCount":23826,"avgCorrectness":0.991327858617068,"avgInclusionDelay":1.0170878468893094,"avgUptime":0.9997928446015358,"avgValidatorEffectiveness":97.4996869544773,"clientPercentages":[{"client":"Teku","percentage":0.013248542660307366},{"client":"Prysm","percentage":0.5616498851792969},{"client":"Nimbus","percentage":0.00026497085320614734},{"client":"Lighthouse","percentage":0.42483660130718953}],"networkPenetration":0.05316689576378599,"relayerPercentages":[{"relayer":"blocknative","percentage":0.0022141528651138075},{"relayer":"bloxroute_regulated","percentage":0.030201045080152335},{"relayer":"flashbots","percentage":0.5249313612611815},{"relayer":"edennetwork","percentage":0.004162607386413958},{"relayer":"bloxroute_ethical","percentage":8.85661146045523e-05},{"relayer":"bloxroute_maxprofit","percentage":0.007262421397573288},{"relayer":"no_mev_boost","percentage":0.43113984589496057}],"nodeOperatorCount":null},{"id":"Staked.us","idType":"entity","timeWindow":"1d","validatorCount":12711,"avgCorrectness":0.9896304238351611,"avgInclusionDelay":1.0217742716275124,"avgUptime":0.99914454791211,"avgValidatorEffectiveness":96.85314606116006,"clientPercentages":[{"client":"Prysm","percentage":0.5471238219044524},{"client":"Nimbus","percentage":0.0004874878128046799},{"client":"Teku","percentage":0.39681507962300944},{"client":"Lighthouse","percentage":0.055573610659733506}],"networkPenetration":0.02834630558580431,"relayerPercentages":[{"relayer":"bloxroute_maxprofit","percentage":0.004026014245896562},{"relayer":"manifold","percentage":0.005574481263549086},{"relayer":"no_mev_boost","percentage":0.40817590585320535},{"relayer":"flashbots","percentage":0.5822235986373491}],"nodeOperatorCount":null},{"id":"Bitcoin Suisse","idType":"entity","timeWindow":"1d","validatorCount":9214,"avgCorrectness":0.9908888800922488,"avgInclusionDelay":1.0251149168379599,"avgUptime":0.9992706266085767,"avgValidatorEffectiveness":96.68272914904504,"clientPercentages":[{"client":"Teku","percentage":0.9669882100750268},{"client":"Nimbus","percentage":0.0330117899249732}],"networkPenetration":0.020560722637770677,"relayerPercentages":[{"relayer":"no_mev_boost","percentage":1.0}],"nodeOperatorCount":null},{"id":"Rocketpool","idType":"entity","timeWindow":"1d","validatorCount":8972,"avgCorrectness":0.9887561909530452,"avgInclusionDelay":1.025087753634756,"avgUptime":0.9898794898268857,"avgValidatorEffectiveness":95.66285289365825,"clientPercentages":[{"client":"Nimbus","percentage":0.222397250465416},{"client":"Lighthouse","percentage":0.43190605756838035},{"client":"Prysm","percentage":0.045825576399828157},{"client":"Teku","percentage":0.29987111556637547}],"networkPenetration":0.01999169894853348,"relayerPercentages":[{"relayer":"bloxroute_ethical","percentage":0.03601240162175054},{"relayer":"edennetwork","percentage":0.035058430717863104},{"relayer":"manifold","percentage":0.002146434533746721},{"relayer":"no_mev_boost","percentage":0.19270212258526115},{"relayer":"bloxroute_maxprofit","percentage":0.08967326496541855},{"relayer":"blocknative","percentage":0.05437634152158359},{"relayer":"bloxroute_regulated","percentage":0.06653947054614834},{"relayer":"flashbots","percentage":0.523491533508228}],"nodeOperatorCount":1558},{"id":"Stakefish","idType":"entity","timeWindow":"1d","validatorCount":8059,"avgCorrectness":0.9893608183311422,"avgInclusionDelay":1.0331200412916004,"avgUptime":0.9980165045192496,"avgValidatorEffectiveness":95.72711826290512,"clientPercentages":[{"client":"Nimbus","percentage":0.0009136592051164915},{"client":"Prysm","percentage":0.0011420740063956144},{"client":"Teku","percentage":0.009365006852444038},{"client":"Lighthouse","percentage":0.9885792599360439}],"networkPenetration":0.01798338004534338,"relayerPercentages":[{"relayer":"bloxroute_ethical","percentage":0.00022192632046160674},{"relayer":"flashbots","percentage":0.8828229027962716},{"relayer":"bloxroute_maxprofit","percentage":0.000887705281846427},{"relayer":"manifold","percentage":0.09609409675987572},{"relayer":"no_mev_boost","percentage":0.019751442521083},{"relayer":"bloxroute_regulated","percentage":0.00022192632046160674}],"nodeOperatorCount":null},{"id":"Celsius Network","idType":"entity","timeWindow":"1d","validatorCount":4943,"avgCorrectness":0.991387681449443,"avgInclusionDelay":1.0167948756000098,"avgUptime":0.9997891518870681,"avgValidatorEffectiveness":97.53068125042971,"clientPercentages":[{"client":"Lighthouse","percentage":0.021056813667063964},{"client":"Teku","percentage":0.012316249503377036},{"client":"Prysm","percentage":0.966626936829559}],"networkPenetration":0.011030133709409643,"relayerPercentages":[{"relayer":"no_mev_boost","percentage":0.041700735895339326},{"relayer":"flashbots","percentage":0.9582992641046607}],"nodeOperatorCount":null},{"id":"Bitfinex","idType":"entity","timeWindow":"1d","validatorCount":3214,"avgCorrectness":0.9920571195802895,"avgInclusionDelay":1.016831160711754,"avgUptime":0.9998388992601814,"avgValidatorEffectiveness":97.60092892645464,"clientPercentages":[{"client":"Teku","percentage":0.03431372549019608},{"client":"Lighthouse","percentage":0.009191176470588236},{"client":"Prysm","percentage":0.9564950980392157}],"networkPenetration":0.007171929949836657,"relayerPercentages":[{"relayer":"flashbots","percentage":0.5129337539432177},{"relayer":"no_mev_boost","percentage":0.48706624605678234}],"nodeOperatorCount":null},{"id":"Huobi","idType":"entity","timeWindow":"1d","validatorCount":2855,"avgCorrectness":0.9908362594498641,"avgInclusionDelay":1.0184699589694879,"avgUptime":0.9997921739916054,"avgValidatorEffectiveness":97.32490754898258,"clientPercentages":[{"client":"Teku","percentage":0.02301255230125523},{"client":"Prysm","percentage":0.9693165969316597},{"client":"Lighthouse","percentage":0.007670850767085077}],"networkPenetration":0.0063708338540086045,"relayerPercentages":[{"relayer":"edennetwork","percentage":0.08581560283687943},{"relayer":"bloxroute_maxprofit","percentage":0.09078014184397164},{"relayer":"blocknative","percentage":0.04893617021276596},{"relayer":"flashbots","percentage":0.5893617021276596},{"relayer":"bloxroute_regulated","percentage":0.05106382978723404},{"relayer":"bloxroute_ethical","percentage":0.062411347517730496},{"relayer":"no_mev_boost","percentage":0.024822695035460994},{"relayer":"manifold","percentage":0.04680851063829787}],"nodeOperatorCount":null},{"id":"Abyss","idType":"entity","timeWindow":"1d","validatorCount":2817,"avgCorrectness":0.991371907068463,"avgInclusionDelay":1.0191862683675832,"avgUptime":0.9989247715119649,"avgValidatorEffectiveness":97.2370682812974,"clientPercentages":[{"client":"Nimbus","percentage":0.026604068857589983},{"client":"Lighthouse","percentage":0.08607198748043818},{"client":"Teku","percentage":0.8615023474178404},{"client":"Prysm","percentage":0.025821596244131457}],"networkPenetration":0.006286038166985022,"relayerPercentages":[{"relayer":"bloxroute_maxprofit","percentage":0.0220014194464159},{"relayer":"edennetwork","percentage":0.0113555713271824},{"relayer":"bloxroute_ethical","percentage":0.0056777856635912},{"relayer":"flashbots","percentage":0.34137686302342085},{"relayer":"manifold","percentage":0.0028388928317956},{"relayer":"blocknative","percentage":0.0056777856635912},{"relayer":"no_mev_boost","percentage":0.5968772178850248},{"relayer":"bloxroute_regulated","percentage":0.014194464158977998}],"nodeOperatorCount":null},{"id":"Bloxstaking","idType":"entity","timeWindow":"1d","validatorCount":2583,"avgCorrectness":0.991048171333296,"avgInclusionDelay":1.0172763658453572,"avgUptime":0.9997909214333798,"avgValidatorEffectiveness":97.45686277750669,"clientPercentages":[{"client":"Teku","percentage":0.007588532883642495},{"client":"Prysm","percentage":0.49072512647554806},{"client":"Lighthouse","percentage":0.5016863406408094}],"networkPenetration":0.005759412321259617,"relayerPercentages":[{"relayer":"bloxroute_ethical","percentage":0.003147128245476003},{"relayer":"flashbots","percentage":0.9189614476789929},{"relayer":"blocknative","percentage":0.06058221872541306},{"relayer":"no_mev_boost","percentage":0.01730920535011802}],"nodeOperatorCount":null},{"id":"wedex.eth","idType":"entity","timeWindow":"1d","validatorCount":2399,"avgCorrectness":0.9906169653497913,"avgInclusionDelay":1.0170153440286396,"avgUptime":0.9993710259565818,"avgValidatorEffectiveness":97.39412472578205,"clientPercentages":[{"client":"Lighthouse","percentage":0.9983935742971888},{"client":"Prysm","percentage":0.001606425702811245}],"networkPenetration":0.005353285609725619,"relayerPercentages":[{"relayer":"bloxroute_maxprofit","percentage":0.1494661921708185},{"relayer":"edennetwork","percentage":0.09608540925266904},{"relayer":"manifold","percentage":0.04359430604982206},{"relayer":"flashbots","percentage":0.45640569395017794},{"relayer":"blocknative","percentage":0.05604982206405694},{"relayer":"bloxroute_ethical","percentage":0.009786476868327402},{"relayer":"no_mev_boost","percentage":0.18861209964412812}],"nodeOperatorCount":null},{"id":"Ankr","idType":"entity","timeWindow":"1d","validatorCount":2300,"avgCorrectness":0.9910423172068626,"avgInclusionDelay":1.0172800872122523,"avgUptime":0.9997970971359558,"avgValidatorEffectiveness":97.4540586049888,"clientPercentages":[{"client":"Prysm","percentage":0.526829268292683},{"client":"Lighthouse","percentage":0.46731707317073173},{"client":"Teku","percentage":0.005853658536585366}],"networkPenetration":0.0051323705303747075,"relayerPercentages":[{"relayer":"flashbots","percentage":0.14610673665791776},{"relayer":"no_mev_boost","percentage":0.8538932633420823}],"nodeOperatorCount":null}]}