{"page":{"from":0,"size":15},"total":36,"next":"/v0/eth/operators?window=1d&from=15&size=15&idType=entity","data":[{"id":"Lido","idType":"entity","timeWindow":"1d","validatorCount":133462,"avgCorrectness":0.9893706190467518,"avgInclusionDelay":1.029277607898209,"avgUptime":0.9988107772295229,"avgValidatorEffectiveness":96.60916376314847,"clientPercentages":[{"client":"Prysm","percentage":0.38788033367340813},{"client":"Teku","percentage":0.19303246714277142},{"client":"Lodestar","percentage":0.001155254155914301},{"client":"Nimbus","percentage":0.02589569705335174},{"client":"Lighthouse","percentage":0.3920362479745544}],"networkPenetration":0.30074304857319345,"relayerPercentages":[{"relayer":"bloxroute_regulated","percentage":0.008676251859196828},{"relayer":"bloxroute_ethical","percentage":0.03143591968269707},{"relayer":"no_mev_boost","percentage":0.5244329449677739},{"relayer":"bloxroute_maxprofit","percentage":0.024417451660882498},{"relayer":"blocknative","percentage":0.029018963807635103},{"relayer":"manifold","percentage":0.01557077342588002},{"relayer":"edennetwork","percentage":0.012441125433812593},{"relayer":"flashbots","percentage":0.354006569162122}],"nodeOperatorCount":29},{"id":"Coinbase","idType":"entity","timeWindow":"1d","validatorCount":54230,"avgCorrectness":0.9881972775109112,"avgInclusionDelay":1.0281990549638171,"avgUptime":0.9984675278892885,"avgValidatorEffectiveness":96.55359422540064,"clientPercentages":[{"client":"Nimbus","percentage":0.02177831180534695},{"client":"Teku","percentage":0.1621733253229198},{"client":"Lighthouse","percentage":0.4350405527185341},{"client":"Prysm","percentage":0.3810078101531992}],"networkPenetration":0.12219947788213122,"relayerPercentages":[{"relayer":"bloxroute_regulated","percentage":3.87131740931439e-05},{"relayer":"no_mev_boost","percentage":0.999458015562696},{"relayer":"flashbots","percentage":0.0004258449150245829},{"relayer":"manifold","percentage":7.74263481862878e-05}],"nodeOperatorCount":null},{"id":"Kraken","idType":"entity","timeWindow":"1d","validatorCount":37725,"avgCorrectness":0.9894407059841759,"avgInclusionDelay":1.0249326557665979,"avgUptime":0.9981844602634207,"avgValidatorEffectiveness":96.8823965664204,"clientPercentages":[{"client":"Teku","percentage":0.1116040408359613},{"client":"Prysm","percentage":0.6222139077449356},{"client":"Nimbus","percentage":0.00010690042225666791},{"client":"Lighthouse","percentage":0.2660751509968464}],"networkPenetration":0.08503126845785859,"relayerPercentages":[{"relayer":"blocknative","percentage":0.008810087550245031},{"relayer":"edennetwork","percentage":0.002202521887561258},{"relayer":"flashbots","percentage":0.4103298276526623},{"relayer":"manifold","percentage":0.000991134849402566},{"relayer":"no_mev_boost","percentage":0.574362645228787},{"relayer":"bloxroute_ethical","percentage":0.00033037828313418866},{"relayer":"bloxroute_maxprofit","percentage":0.002973404548207698}],"nodeOperatorCount":null},{"id":"Binance","idType":"entity","timeWindow":"1d","validatorCount":23051,"avgCorrectness":0.9906423733308974,"avgInclusionDelay":1.0217597495467161,"avgUptime":0.9995094314676998,"avgValidatorEffectiveness":97.3477291084593,"clientPercentages":[{"client":"Lighthouse","percentage":0.42483660130718953},{"client":"Teku","percentage":0.013248542660307366},{"client":"Prysm","percentage":0.5616498851792969},{"client":"Nimbus","percentage":0.00026497085320614734}],"networkPenetration":0.05196605782973908,"relayerPercentages":[{"relayer":"blocknative","percentage":0.002061855670103093},{"relayer":"edennetwork","percentage":0.0029583146571044374},{"relayer":"flashbots","percentage":0.312684894666069},{"relayer":"bloxroute_maxprofit","percentage":0.006813088301210219},{"relayer":"bloxroute_ethical","percentage":8.964589870013447e-05},{"relayer":"no_mev_boost","percentage":0.6631107126848946},{"relayer":"bloxroute_regulated","percentage":0.012281488121918422}],"nodeOperatorCount":null},{"id":"Staked.us","idType":"entity","timeWindow":"1d","validatorCount":12519,"avgCorrectness":0.9886158911976455,"avgInclusionDelay":1.027488987788391,"avgUptime":0.9981682738566008,"avgValidatorEffectiveness":96.61634320201608,"clientPercentages":[{"client":"Teku","percentage":0.39681507962300944},{"client":"Nimbus","percentage":0.0004874878128046799},{"client":"Prysm","percentage":0.5471238219044524},{"client":"Lighthouse","percentage":0.055573610659733506}],"networkPenetration":0.028204735131138154,"relayerPercentages":[{"relayer":"no_mev_boost","percentage":0.4147068046409533},{"relayer":"bloxroute_maxprofit","percentage":0.006271558482282847},{"relayer":"flashbots","percentage":0.5741611790529947},{"relayer":"manifold","percentage":0.004860457823769207}],"nodeOperatorCount":null},{"id":"Bitcoin Suisse","idType":"entity","timeWindow":"1d","validatorCount":9184,"avgCorrectness":0.9906168120548342,"avgInclusionDelay":1.0280110796993152,"avgUptime":0.9994947357118656,"avgValidatorEffectiveness":96.85166808161071,"clientPercentages":[{"client":"Teku","percentage":0.9669882100750268},{"client":"Nimbus","percentage":0.0330117899249732}],"networkPenetration":0.020704363155972568,"relayerPercentages":[{"relayer":"no_mev_boost","percentage":1.0}],"nodeOperatorCount":null},{"id":"Rocketpool","idType":"entity","timeWindow":"1d","validatorCount":8814,"avgCorrectness":0.9857810080129428,"avgInclusionDelay":1.0359501925185337,"avgUptime":0.9863199572307253,"avgValidatorEffectiveness":94.89631436492053,"clientPercentages":[{"client":"Prysm","percentage":0.045825576399828157},{"client":"Nimbus","percentage":0.222397250465416},{"client":"Teku","percentage":0.29987111556637547},{"client":"Lighthouse","percentage":0.43190605756838035}],"networkPenetration":0.019840929892826063,"relayerPercentages":[{"relayer":"no_mev_boost","percentage":0.272366790582404},{"relayer":"bloxroute_maxprofit","percentage":0.09368029739776952},{"relayer":"bloxroute_regulated","percentage":0.07038413878562577},{"relayer":"bloxroute_ethical","percentage":0.0332094175960347},{"relayer":"flashbots","percentage":0.4636926889714994},{"relayer":"edennetwork","percentage":0.019578686493184633},{"relayer":"blocknative","percentage":0.04584882280049566},{"relayer":"manifold","percentage":0.0012391573729863693}],"nodeOperatorCount":1543},{"id":"Celsius Network","idType":"entity","timeWindow":"1d","validatorCount":4943,"avgCorrectness":0.9907705968515474,"avgInclusionDelay":1.0223397754990573,"avgUptime":0.9984867328818366,"avgValidatorEffectiveness":97.22572501461619,"clientPercentages":[{"client":"Prysm","percentage":0.966626936829559},{"client":"Teku","percentage":0.012316249503377036},{"client":"Lighthouse","percentage":0.021056813667063964}],"networkPenetration":0.011143474202958668,"relayerPercentages":[{"relayer":"flashbots","percentage":0.9654008438818565},{"relayer":"no_mev_boost","percentage":0.03459915611814346}],"nodeOperatorCount":null},{"id":"Stakefish","idType":"entity","timeWindow":"1d","validatorCount":4558,"avgCorrectness":0.9884069974961707,"avgInclusionDelay":1.0370138549630625,"avgUptime":0.9830751748190862,"avgValidatorEffectiveness":94.60197142352106,"clientPercentages":[{"client":"Teku","percentage":0.009365006852444038},{"client":"Prysm","percentage":0.0011420740063956144},{"client":"Lighthouse","percentage":0.9885792599360439},{"client":"Nimbus","percentage":0.0009136592051164915}],"networkPenetration":0.010275532149926282,"relayerPercentages":[{"relayer":"bloxroute_regulated","percentage":0.00022670596236681024},{"relayer":"bloxroute_maxprofit","percentage":0.000906823849467241},{"relayer":"no_mev_boost","percentage":0.19383359782362275},{"relayer":"flashbots","percentage":0.7222851961006574},{"relayer":"manifold","percentage":0.08274767626388574}],"nodeOperatorCount":null},{"id":"Bitfinex","idType":"entity","timeWindow":"1d","validatorCount":3214,"avgCorrectness":0.9913773614772541,"avgInclusionDelay":1.0215417416940664,"avgUptime":0.99304955193548,"avgValidatorEffectiveness":96.87663527038514,"clientPercentages":[{"client":"Teku","percentage":0.03431372549019608},{"client":"Lighthouse","percentage":0.009191176470588236},{"client":"Prysm","percentage":0.9564950980392157}],"networkPenetration":0.007245625346613223,"relayerPercentages":[{"relayer":"no_mev_boost","percentage":0.708893154190659},{"relayer":"flashbots","percentage":0.291106845809341}],"nodeOperatorCount":null},{"id":"Huobi","idType":"entity","timeWindow":"1d","validatorCount":2855,"avgCorrectness":0.9900202988849239,"avgInclusionDelay":1.0224876139427723,"avgUptime":0.9997135421010204,"avgValidatorEffectiveness":97.25152690383663,"clientPercentages":[{"client":"Lighthouse","percentage":0.007670850767085077},{"client":"Prysm","percentage":0.9693165969316597},{"client":"Teku","percentage":0.02301255230125523}],"networkPenetration":0.0064362975620973085,"relayerPercentages":[{"relayer":"edennetwork","percentage":0.05939123979213066},{"relayer":"manifold","percentage":0.030438010393466965},{"relayer":"blocknative","percentage":0.03934669636228656},{"relayer":"flashbots","percentage":0.451373422420193},{"relayer":"bloxroute_regulated","percentage":0.0378619153674833},{"relayer":"bloxroute_maxprofit","percentage":0.066815144766147},{"relayer":"no_mev_boost","percentage":0.23904974016332592},{"relayer":"bloxroute_ethical","percentage":0.0757238307349666}],"nodeOperatorCount":null},{"id":"Abyss","idType":"entity","timeWindow":"1d","validatorCount":2701,"avgCorrectness":0.9906636577980897,"avgInclusionDelay":1.0242616825203918,"avgUptime":0.9981748940830366,"avgValidatorEffectiveness":97.05322640517039,"clientPercentages":[{"client":"Nimbus","percentage":0.026604068857589983},{"client":"Prysm","percentage":0.025821596244131457},{"client":"Lighthouse","percentage":0.08607198748043818},{"client":"Teku","percentage":0.8615023474178404}],"networkPenetration":0.0060868663459414125,"relayerPercentages":[{"relayer":"manifold","percentage":0.0022404779686333084},{"relayer":"blocknative","percentage":0.002987303958177745},{"relayer":"flashbots","percentage":0.32337565347274083},{"relayer":"edennetwork","percentage":0.009708737864077669},{"relayer":"bloxroute_regulated","percentage":0.01568334578043316},{"relayer":"bloxroute_ethical","percentage":0.002987303958177745},{"relayer":"bloxroute_maxprofit","percentage":0.014936519790888723},{"relayer":"no_mev_boost","percentage":0.6280806572068708}],"nodeOperatorCount":null},{"id":"Bloxstaking","idType":"entity","timeWindow":"1d","validatorCount":2555,"avgCorrectness":0.9901881292458417,"avgInclusionDelay":1.0219268559616794,"avgUptime":0.9998199375640671,"avgValidatorEffectiveness":97.32481298757158,"clientPercentages":[{"client":"Teku","percentage":0.006751054852320675},{"client":"Lighthouse","percentage":0.5021097046413502},{"client":"Prysm","percentage":0.4911392405063291}],"networkPenetration":0.00575997907921493,"relayerPercentages":[{"relayer":"no_mev_boost","percentage":0.12806324110671938},{"relayer":"bloxroute_ethical","percentage":0.014229249011857707},{"relayer":"blocknative","percentage":0.06324110671936758},{"relayer":"flashbots","percentage":0.7944664031620553}],"nodeOperatorCount":null},{"id":"wedex.eth","idType":"entity","timeWindow":"1d","validatorCount":2399,"avgCorrectness":0.9903567278664341,"avgInclusionDelay":1.0219783580028874,"avgUptime":0.9997563427552488,"avgValidatorEffectiveness":97.3245414249441,"clientPercentages":[{"client":"Prysm","percentage":0.001606425702811245},{"client":"Lighthouse","percentage":0.9983935742971888}],"networkPenetration":0.0054082934681160925,"relayerPercentages":[{"relayer":"edennetwork","percentage":0.06591500433651344},{"relayer":"manifold","percentage":0.026886383347788378},{"relayer":"blocknative","percentage":0.058109280138768434},{"relayer":"flashbots","percentage":0.42584562012142235},{"relayer":"no_mev_boost","percentage":0.19601040763226366},{"relayer":"bloxroute_ethical","percentage":0.009540329575021683},{"relayer":"bloxroute_maxprofit","percentage":0.21769297484822203}],"nodeOperatorCount":null},{"id":"Ankr","idType":"entity","timeWindow":"1d","validatorCount":2299,"avgCorrectness":0.9907199971121861,"avgInclusionDelay":1.0215474105881568,"avgUptime":0.9997641270876916,"avgValidatorEffectiveness":97.39190890049547,"clientPercentages":[{"client":"Prysm","percentage":0.526829268292683},{"client":"Teku","percentage":0.005853658536585366},{"client":"Lighthouse","percentage":0.46731707317073173}],"networkPenetration":0.005182853973821966,"relayerPercentages":[{"relayer":"no_mev_boost","percentage":0.8735930735930736},{"relayer":"flashbots","percentage":0.1264069264069264}],"nodeOperatorCount":null}]}