{"page":{"from":0,"size":15},"total":30,"next":"/v0/eth/operators?window=1d&from=15&size=15&idType=entity","data":[{"id":"Lido","idType":"entity","timeWindow":"1d","validatorCount":131334,"avgCorrectness":0.9905269243094338,"avgInclusionDelay":1.0271844101589298,"avgUptime":0.9989117604559772,"avgValidatorEffectiveness":97.14597760124518,"clientPercentages":[{"client":"Nimbus","percentage":0.02478589693288055},{"client":"Teku","percentage":0.22193660113917715},{"client":"Lodestar","percentage":0.00037882375224926605},{"client":"Lighthouse","percentage":0.3503037354727856},{"client":"Prysm","percentage":0.40259494270290747}],"networkPenetration":0.3023521272915946},{"id":"Coinbase","idType":"entity","timeWindow":"1d","validatorCount":54602,"avgCorrectness":0.9893444368088563,"avgInclusionDelay":1.0244519608667744,"avgUptime":0.9990362131790493,"avgValidatorEffectiveness":97.2890109402652,"clientPercentages":[{"client":"Prysm","percentage":0.3843697992731719},{"client":"Teku","percentage":0.1314743742145841},{"client":"Lighthouse","percentage":0.4296776823013959},{"client":"Nimbus","percentage":0.05447814421084808}],"networkPenetration":0.12567738959990776},{"id":"Kraken","idType":"entity","timeWindow":"1d","validatorCount":37346,"avgCorrectness":0.9909552401492794,"avgInclusionDelay":1.0215157846873246,"avgUptime":0.9994221567435688,"avgValidatorEffectiveness":97.64479045707347,"clientPercentages":[{"client":"Nimbus","percentage":0.01955104996379435},{"client":"Prysm","percentage":0.6236543567463191},{"client":"Teku","percentage":0.0939898624185373},{"client":"Lighthouse","percentage":0.26280473087134926}],"networkPenetration":0.0860671048080249},{"id":"Binance","idType":"entity","timeWindow":"1d","validatorCount":22496,"avgCorrectness":0.9927561779670303,"avgInclusionDelay":1.0179719353586991,"avgUptime":0.9997810801285301,"avgValidatorEffectiveness":98.06444626714784,"clientPercentages":[{"client":"Lighthouse","percentage":0.35769518583187826},{"client":"Teku","percentage":0.0005820237798287187},{"client":"Nimbus","percentage":0.030764114076660846},{"client":"Prysm","percentage":0.6109586763116321}],"networkPenetration":0.05187593681540413},{"id":"Bitcoin Suisse","idType":"entity","timeWindow":"1d","validatorCount":9153,"avgCorrectness":0.9930209655258192,"avgInclusionDelay":1.0217547939109024,"avgUptime":0.9994964245394427,"avgValidatorEffectiveness":97.74774586398829,"clientPercentages":[{"client":"Nimbus","percentage":0.00641025641025641},{"client":"Teku","percentage":0.9935897435897436}],"networkPenetration":0.02110688343133864},{"id":"Rocketpool","idType":"entity","timeWindow":"1d","validatorCount":8067,"avgCorrectness":0.9832143115844131,"avgInclusionDelay":1.0372475219292445,"avgUptime":0.9743361071635632,"avgValidatorEffectiveness":94.11562607837479,"clientPercentages":[{"client":"Prysm","percentage":0.053901091497102815},{"client":"Lighthouse","percentage":0.4175987063738041},{"client":"Nimbus","percentage":0.22571082064411804},{"client":"Teku","percentage":0.3027893814849751}],"networkPenetration":0.018219762481263693},{"id":"Staked.us","idType":"entity","timeWindow":"1d","validatorCount":5263,"avgCorrectness":0.98925051786491,"avgInclusionDelay":1.0278992705632921,"avgUptime":0.9970217963681771,"avgValidatorEffectiveness":96.84288959493702,"clientPercentages":[{"client":"Nimbus","percentage":0.02821210061182869},{"client":"Prysm","percentage":0.47178789938817134},{"client":"Lighthouse","percentage":0.005778382053025153},{"client":"Teku","percentage":0.49422161794697483}],"networkPenetration":0.012136515623198433},{"id":"f2pool.eth","idType":"entity","timeWindow":"1d","validatorCount":3501,"avgCorrectness":0.9895972673190347,"avgInclusionDelay":1.032734815872237,"avgUptime":0.9960833667704927,"avgValidatorEffectiveness":96.38755037081148,"clientPercentages":[{"client":"Prysm","percentage":0.013612056392805057},{"client":"Lighthouse","percentage":0.986387943607195}],"networkPenetration":0.008073331027326184},{"id":"Bitfinex","idType":"entity","timeWindow":"1d","validatorCount":3214,"avgCorrectness":0.9936259344790882,"avgInclusionDelay":1.0181947202320558,"avgUptime":0.999769044285417,"avgValidatorEffectiveness":98.09355614694024,"clientPercentages":[{"client":"Prysm","percentage":0.943725379853686},{"client":"Teku","percentage":0.012380416432189083},{"client":"Lighthouse","percentage":0.004501969611705121},{"client":"Nimbus","percentage":0.03939223410241981}],"networkPenetration":0.007411506975671624},{"id":"Huobi","idType":"entity","timeWindow":"1d","validatorCount":2855,"avgCorrectness":0.9916710916222744,"avgInclusionDelay":1.0189016974700673,"avgUptime":0.9997703694437499,"avgValidatorEffectiveness":97.92758151434434,"clientPercentages":[{"client":"Lighthouse","percentage":0.0006075334143377885},{"client":"Prysm","percentage":0.9520048602673147},{"client":"Teku","percentage":0.002430133657351154},{"client":"Nimbus","percentage":0.04495747266099635}],"networkPenetration":0.006583650409316269},{"id":"Bloxstaking","idType":"entity","timeWindow":"1d","validatorCount":2505,"avgCorrectness":0.9883090754602899,"avgInclusionDelay":1.0231385748569877,"avgUptime":0.9992210658048989,"avgValidatorEffectiveness":97.34396186099963,"clientPercentages":[{"client":"Lighthouse","percentage":0.4876773711725168},{"client":"Teku","percentage":0.0022404779686333084},{"client":"Nimbus","percentage":0.02389843166542196},{"client":"Prysm","percentage":0.48618371919342795}],"networkPenetration":0.005776547907298512},{"id":"wedex.eth","idType":"entity","timeWindow":"1d","validatorCount":2399,"avgCorrectness":0.9795462369393091,"avgInclusionDelay":1.0623070553317393,"avgUptime":0.9956597904550174,"avgValidatorEffectiveness":93.49094859511885,"clientPercentages":[{"client":"Lighthouse","percentage":1.0}],"networkPenetration":0.0055321111495445635},{"id":"Ankr","idType":"entity","timeWindow":"1d","validatorCount":2298,"avgCorrectness":0.9924050069691702,"avgInclusionDelay":1.0175491541719746,"avgUptime":0.9998065821556359,"avgValidatorEffectiveness":98.0782672525224,"clientPercentages":[{"client":"Lighthouse","percentage":0.011122345803842264},{"client":"Teku","percentage":0.006066734074823054},{"client":"Nimbus","percentage":0.03640040444893832},{"client":"Prysm","percentage":0.9464105156723963}],"networkPenetration":0.0052992044275337255},{"id":"StakeWise","idType":"entity","timeWindow":"1d","validatorCount":1988,"avgCorrectness":0.9915340795947546,"avgInclusionDelay":1.0192744423735678,"avgUptime":0.999512478820507,"avgValidatorEffectiveness":97.8651891185389,"clientPercentages":[{"client":"Teku","percentage":0.060526315789473685},{"client":"Lighthouse","percentage":0.5298245614035088},{"client":"Prysm","percentage":0.3850877192982456},{"client":"Nimbus","percentage":0.02456140350877193}],"networkPenetration":0.004582036204312233},{"id":"OKex","idType":"entity","timeWindow":"1d","validatorCount":1795,"avgCorrectness":0.9919089002097693,"avgInclusionDelay":1.0182935700190372,"avgUptime":0.9998295558293593,"avgValidatorEffectiveness":97.99679771411552,"clientPercentages":[{"client":"Nimbus","percentage":0.04512067156348373},{"client":"Prysm","percentage":0.9401888772298006},{"client":"Teku","percentage":0.002098635886673662},{"client":"Lighthouse","percentage":0.012591815320041973}],"networkPenetration":0.0041093047388446905}]}