{"page":{"from":0,"size":15},"total":30,"next":"/v0/eth/operators?window=1d&from=15&size=15&idType=entity","data":[{"id":"Lido","idType":"entity","timeWindow":"1d","validatorCount":130161,"avgCorrectness":0.9812490645163906,"avgInclusionDelay":1.0531366915004616,"avgUptime":0.9920983390907672,"avgValidatorEffectiveness":94.07106800590293,"clientPercentages":[{"client":"Prysm","percentage":0.40259494270290747},{"client":"Nimbus","percentage":0.02478589693288055},{"client":"Teku","percentage":0.22193660113917715},{"client":"Lodestar","percentage":0.00037882375224926605},{"client":"Lighthouse","percentage":0.3503037354727856}],"networkPenetration":0.3039393004692203},{"id":"Coinbase","idType":"entity","timeWindow":"1d","validatorCount":54479,"avgCorrectness":0.983362710815996,"avgInclusionDelay":1.03996914883371,"avgUptime":0.9985923959513023,"avgValidatorEffectiveness":95.65451390255609,"clientPercentages":[{"client":"Nimbus","percentage":0.055733120255693165},{"client":"Lighthouse","percentage":0.42492342522306564},{"client":"Teku","percentage":0.13553735517379145},{"client":"Prysm","percentage":0.38380609934744975}],"networkPenetration":0.12688809750808516},{"id":"Kraken","idType":"entity","timeWindow":"1d","validatorCount":36864,"avgCorrectness":0.9857406953970405,"avgInclusionDelay":1.0360073281248723,"avgUptime":0.9989274369879552,"avgValidatorEffectiveness":96.09977819655998,"clientPercentages":[{"client":"Teku","percentage":0.0939898624185373},{"client":"Prysm","percentage":0.6236543567463191},{"client":"Nimbus","percentage":0.01955104996379435},{"client":"Lighthouse","percentage":0.26280473087134926}],"networkPenetration":0.0858056194268409},{"id":"Binance","idType":"entity","timeWindow":"1d","validatorCount":22496,"avgCorrectness":0.9861530975552569,"avgInclusionDelay":1.0350874982226699,"avgUptime":0.9995099375691474,"avgValidatorEffectiveness":96.25095978194406,"clientPercentages":[{"client":"Lighthouse","percentage":0.35769518583187826},{"client":"Teku","percentage":0.0005820237798287187},{"client":"Prysm","percentage":0.6109586763116321},{"client":"Nimbus","percentage":0.030764114076660846}],"networkPenetration":0.052567625670648495},{"id":"Bitcoin Suisse","idType":"entity","timeWindow":"1d","validatorCount":9062,"avgCorrectness":0.9882192988848673,"avgInclusionDelay":1.0352515618409517,"avgUptime":0.9994063120723894,"avgValidatorEffectiveness":96.33951629832148,"clientPercentages":[{"client":"Teku","percentage":0.9935897435897436},{"client":"Nimbus","percentage":0.00641025641025641}],"networkPenetration":0.021175667844390855},{"id":"Rocketpool","idType":"entity","timeWindow":"1d","validatorCount":7220,"avgCorrectness":0.977936026521382,"avgInclusionDelay":1.0535035406286863,"avgUptime":0.9701499193376775,"avgValidatorEffectiveness":92.12504909855757,"clientPercentages":[{"client":"Lighthouse","percentage":0.4175987063738041},{"client":"Teku","percentage":0.3027893814849751},{"client":"Prysm","percentage":0.053901091497102815},{"client":"Nimbus","percentage":0.22571082064411804}],"networkPenetration":0.016808273979773053},{"id":"Staked.us","idType":"entity","timeWindow":"1d","validatorCount":5263,"avgCorrectness":0.9805708590207044,"avgInclusionDelay":1.0463207156345546,"avgUptime":0.9967943927206694,"avgValidatorEffectiveness":94.86720988289505,"clientPercentages":[{"client":"Prysm","percentage":0.47178789938817134},{"client":"Teku","percentage":0.49422161794697483},{"client":"Lighthouse","percentage":0.005778382053025153},{"client":"Nimbus","percentage":0.02821210061182869}],"networkPenetration":0.01229833810031219},{"id":"f2pool.eth","idType":"entity","timeWindow":"1d","validatorCount":3501,"avgCorrectness":0.9815538334052016,"avgInclusionDelay":1.0569496452550031,"avgUptime":0.9965413056587011,"avgValidatorEffectiveness":94.09079601956029,"clientPercentages":[{"client":"Prysm","percentage":0.013612056392805057},{"client":"Lighthouse","percentage":0.986387943607195}],"networkPenetration":0.008180976950255174},{"id":"Bitfinex","idType":"entity","timeWindow":"1d","validatorCount":3214,"avgCorrectness":0.9882327514661945,"avgInclusionDelay":1.0318897311054553,"avgUptime":0.9997372605960044,"avgValidatorEffectiveness":96.63025214844284,"clientPercentages":[{"client":"Teku","percentage":0.012380416432189083},{"client":"Nimbus","percentage":0.03939223410241981},{"client":"Lighthouse","percentage":0.004501969611705121},{"client":"Prysm","percentage":0.943725379853686}],"networkPenetration":0.007510328454190268},{"id":"Huobi","idType":"entity","timeWindow":"1d","validatorCount":2855,"avgCorrectness":0.9843500865741548,"avgInclusionDelay":1.0337491280300954,"avgUptime":0.9997649348122202,"avgValidatorEffectiveness":96.26404395488665,"clientPercentages":[{"client":"Teku","percentage":0.002430133657351154},{"client":"Lighthouse","percentage":0.0006075334143377885},{"client":"Nimbus","percentage":0.04495747266099635},{"client":"Prysm","percentage":0.9520048602673147}],"networkPenetration":0.0066714336455237135},{"id":"Bloxstaking","idType":"entity","timeWindow":"1d","validatorCount":2450,"avgCorrectness":0.9835853050360334,"avgInclusionDelay":1.035452505884548,"avgUptime":0.9922477133083916,"avgValidatorEffectiveness":95.45071461667978,"clientPercentages":[{"client":"Teku","percentage":0.0022404779686333084},{"client":"Prysm","percentage":0.48618371919342795},{"client":"Nimbus","percentage":0.02389843166542196},{"client":"Lighthouse","percentage":0.4876773711725168}],"networkPenetration":0.005687660067672406},{"id":"wedex.eth","idType":"entity","timeWindow":"1d","validatorCount":2399,"avgCorrectness":0.9723561638937996,"avgInclusionDelay":1.0777384394355225,"avgUptime":0.9845389282571442,"avgValidatorEffectiveness":91.05197901832267,"clientPercentages":[{"client":"Lighthouse","percentage":1.0}],"networkPenetration":0.005605873665713271},{"id":"Ankr","idType":"entity","timeWindow":"1d","validatorCount":2298,"avgCorrectness":0.9872443971190848,"avgInclusionDelay":1.0320548716267384,"avgUptime":0.999881055990717,"avgValidatorEffectiveness":96.5757321236828,"clientPercentages":[{"client":"Nimbus","percentage":0.03640040444893832},{"client":"Lighthouse","percentage":0.011122345803842264},{"client":"Teku","percentage":0.006066734074823054},{"client":"Prysm","percentage":0.9464105156723963}],"networkPenetration":0.005369861477202625},{"id":"StakeWise","idType":"entity","timeWindow":"1d","validatorCount":1983,"avgCorrectness":0.9854904047821147,"avgInclusionDelay":1.0368213398723631,"avgUptime":0.9988516649188178,"avgValidatorEffectiveness":96.01461272308333,"clientPercentages":[{"client":"Teku","percentage":0.060526315789473685},{"client":"Lighthouse","percentage":0.5298245614035088},{"client":"Nimbus","percentage":0.02456140350877193},{"client":"Prysm","percentage":0.3850877192982456}],"networkPenetration":0.004629110350887032},{"id":"OKex","idType":"entity","timeWindow":"1d","validatorCount":1737,"avgCorrectness":0.985573176895076,"avgInclusionDelay":1.0319461593085668,"avgUptime":0.9998912556770936,"avgValidatorEffectiveness":96.48636636435987,"clientPercentages":[{"client":"Prysm","percentage":0.9401888772298006},{"client":"Lighthouse","percentage":0.012591815320041973},{"client":"Nimbus","percentage":0.04512067156348373},{"client":"Teku","percentage":0.002098635886673662}],"networkPenetration":0.004058942291514778}]}