{"page":{"from":0,"size":15},"total":36,"next":"/v0/eth/operators?window=1d&from=15&size=15&idType=entity","data":[{"id":"Lido","idType":"entity","timeWindow":"1d","validatorCount":141296,"avgCorrectness":0.9895583913201821,"avgInclusionDelay":1.017642739666282,"avgUptime":0.9989560242526203,"avgValidatorEffectiveness":97.22612406182353,"clientPercentages":[{"client":"Lodestar","percentage":0.003989803834644797},{"client":"Teku","percentage":0.1635681037348997},{"client":"Lighthouse","percentage":0.45778842956887955},{"client":"Nimbus","percentage":0.01863293804721268},{"client":"Prysm","percentage":0.3560207248143633}],"networkPenetration":0.30626943746828195,"relayerPercentages":[{"relayer":"bloxroute_maxprofit","percentage":0.12452350698856417},{"relayer":"manifold","percentage":0.0025412960609911056},{"relayer":"no_mev_boost","percentage":0.020330368487928845},{"relayer":"edennetwork","percentage":0.05590851334180432},{"relayer":"flashbots","percentage":0.6709021601016518},{"relayer":"bloxroute_ethical","percentage":0.03939008894536213},{"relayer":"blocknative","percentage":0.062261753494282084},{"relayer":"bloxroute_regulated","percentage":0.0241423125794155}],"nodeOperatorCount":29},{"id":"Coinbase","idType":"entity","timeWindow":"1d","validatorCount":54683,"avgCorrectness":0.9884993902173794,"avgInclusionDelay":1.0157950268032085,"avgUptime":0.999108748975705,"avgValidatorEffectiveness":97.28128872955747,"clientPercentages":[{"client":"Teku","percentage":0.20679341286485373},{"client":"Prysm","percentage":0.3576168047581394},{"client":"Nimbus","percentage":0.0068415443325196825},{"client":"Lighthouse","percentage":0.42874823804448725}],"networkPenetration":0.11859403939326905,"relayerPercentages":[{"relayer":"blocknative","percentage":0.003115264797507788},{"relayer":"no_mev_boost","percentage":0.010903426791277258},{"relayer":"bloxroute_ethical","percentage":0.009345794392523364},{"relayer":"bloxroute_regulated","percentage":0.001557632398753894},{"relayer":"flashbots","percentage":0.6947040498442367},{"relayer":"bloxroute_maxprofit","percentage":0.278816199376947},{"relayer":"edennetwork","percentage":0.001557632398753894}],"nodeOperatorCount":null},{"id":"Kraken","idType":"entity","timeWindow":"1d","validatorCount":38153,"avgCorrectness":0.9892743985264354,"avgInclusionDelay":1.013074133857074,"avgUptime":0.9992728574530116,"avgValidatorEffectiveness":97.61367749255118,"clientPercentages":[{"client":"Nimbus","percentage":9.843973027513905e-05},{"client":"Teku","percentage":0.052123837180686125},{"client":"Lighthouse","percentage":0.25358074518875817},{"client":"Prysm","percentage":0.6941969779002806}],"networkPenetration":0.08271849124039783,"relayerPercentages":[{"relayer":"blocknative","percentage":0.013513513513513514},{"relayer":"flashbots","percentage":0.8027027027027027},{"relayer":"bloxroute_maxprofit","percentage":0.13243243243243244},{"relayer":"edennetwork","percentage":0.021621621621621623},{"relayer":"manifold","percentage":0.021621621621621623},{"relayer":"no_mev_boost","percentage":0.005405405405405406},{"relayer":"bloxroute_ethical","percentage":0.002702702702702703}],"nodeOperatorCount":null},{"id":"Binance","idType":"entity","timeWindow":"1d","validatorCount":23826,"avgCorrectness":0.9913483102675711,"avgInclusionDelay":1.0090407676411057,"avgUptime":0.9999306992061503,"avgValidatorEffectiveness":98.25464339917525,"clientPercentages":[{"client":"Teku","percentage":0.006069802731411229},{"client":"Lighthouse","percentage":0.4613848734126667},{"client":"Nimbus","percentage":0.0011181215557862791},{"client":"Prysm","percentage":0.5314272023001357}],"networkPenetration":0.051672760868716576,"relayerPercentages":[{"relayer":"bloxroute_maxprofit","percentage":0.008264462809917356},{"relayer":"no_mev_boost","percentage":0.03305785123966942},{"relayer":"flashbots","percentage":0.9049586776859504},{"relayer":"edennetwork","percentage":0.008264462809917356},{"relayer":"bloxroute_regulated","percentage":0.045454545454545456}],"nodeOperatorCount":null},{"id":"Staked.us","idType":"entity","timeWindow":"1d","validatorCount":12895,"avgCorrectness":0.988813153754785,"avgInclusionDelay":1.0134475112380394,"avgUptime":0.9990198712756996,"avgValidatorEffectiveness":97.51100068923847,"clientPercentages":[{"client":"Nimbus","percentage":0.00029184298847220193},{"client":"Prysm","percentage":0.6296512476287757},{"client":"Teku","percentage":0.25857288778637094},{"client":"Lighthouse","percentage":0.11148402159638114}],"networkPenetration":0.0279530854879916,"relayerPercentages":[{"relayer":"blocknative","percentage":0.03614457831325301},{"relayer":"bloxroute_ethical","percentage":0.04819277108433735},{"relayer":"manifold","percentage":0.024096385542168676},{"relayer":"bloxroute_maxprofit","percentage":0.30120481927710846},{"relayer":"edennetwork","percentage":0.06626506024096386},{"relayer":"flashbots","percentage":0.42168674698795183},{"relayer":"no_mev_boost","percentage":0.10240963855421686}],"nodeOperatorCount":null},{"id":"Bitcoin Suisse","idType":"entity","timeWindow":"1d","validatorCount":9214,"avgCorrectness":0.991528461945631,"avgInclusionDelay":1.011005713475087,"avgUptime":0.9997409674201784,"avgValidatorEffectiveness":98.07209849336044,"clientPercentages":[{"client":"Lighthouse","percentage":0.0001971608832807571},{"client":"Nimbus","percentage":0.024842271293375396},{"client":"Prysm","percentage":0.0005914826498422713},{"client":"Teku","percentage":0.9743690851735016}],"networkPenetration":0.019982910209198124,"relayerPercentages":[{"relayer":"no_mev_boost","percentage":1.0}],"nodeOperatorCount":null},{"id":"Rocketpool","idType":"entity","timeWindow":"1d","validatorCount":9200,"avgCorrectness":0.9882887486463201,"avgInclusionDelay":1.0177856843684039,"avgUptime":0.9910659594829476,"avgValidatorEffectiveness":96.37347423168242,"clientPercentages":[{"client":"Teku","percentage":0.3408782254413762},{"client":"Lighthouse","percentage":0.4125169760072431},{"client":"Prysm","percentage":0.05160706201901313},{"client":"Nimbus","percentage":0.1949977365323676}],"networkPenetration":0.01995037888152958,"relayerPercentages":[{"relayer":"edennetwork","percentage":0.038834951456310676},{"relayer":"flashbots","percentage":0.5825242718446602},{"relayer":"bloxroute_ethical","percentage":0.05825242718446602},{"relayer":"bloxroute_regulated","percentage":0.05825242718446602},{"relayer":"blocknative","percentage":0.019417475728155338},{"relayer":"bloxroute_maxprofit","percentage":0.11650485436893204},{"relayer":"no_mev_boost","percentage":0.11650485436893204},{"relayer":"relayooor","percentage":0.009708737864077669}],"nodeOperatorCount":1601},{"id":"Stakefish","idType":"entity","timeWindow":"1d","validatorCount":8078,"avgCorrectness":0.9876872919903725,"avgInclusionDelay":1.0348676935332561,"avgUptime":0.9973864358712861,"avgValidatorEffectiveness":95.37619664985738,"clientPercentages":[{"client":"Prysm","percentage":0.000847816871555744},{"client":"Lighthouse","percentage":0.6877914370495973},{"client":"Teku","percentage":0.30479016532428993},{"client":"Nimbus","percentage":0.006570580754557015}],"networkPenetration":0.01751920432710033,"relayerPercentages":[{"relayer":"no_mev_boost","percentage":0.02459016393442623},{"relayer":"flashbots","percentage":0.9344262295081968},{"relayer":"bloxroute_maxprofit","percentage":0.02459016393442623},{"relayer":"edennetwork","percentage":0.00819672131147541},{"relayer":"blocknative","percentage":0.00819672131147541}],"nodeOperatorCount":null},{"id":"Celsius Network","idType":"entity","timeWindow":"1d","validatorCount":4943,"avgCorrectness":0.991172440544333,"avgInclusionDelay":1.0092788520770402,"avgUptime":0.9999024393964209,"avgValidatorEffectiveness":98.21300331674405,"clientPercentages":[{"client":"Lighthouse","percentage":0.004900113079532605},{"client":"Teku","percentage":0.00603090840557859},{"client":"Prysm","percentage":0.9890689785148888}],"networkPenetration":0.010720156844374466,"relayerPercentages":[{"relayer":"no_mev_boost","percentage":0.0784313725490196},{"relayer":"flashbots","percentage":0.9215686274509803}],"nodeOperatorCount":null},{"id":"Bitfinex","idType":"entity","timeWindow":"1d","validatorCount":3214,"avgCorrectness":0.9916352646197304,"avgInclusionDelay":1.0096042201031652,"avgUptime":0.9998755383194565,"avgValidatorEffectiveness":98.2242044625404,"clientPercentages":[{"client":"Nimbus","percentage":0.0005767012687427913},{"client":"Teku","percentage":0.016724336793540944},{"client":"Lighthouse","percentage":0.0034602076124567475},{"client":"Prysm","percentage":0.9792387543252595}],"networkPenetration":0.006970379141780201,"relayerPercentages":[{"relayer":"flashbots","percentage":0.9473684210526315},{"relayer":"no_mev_boost","percentage":0.02631578947368421},{"relayer":"edennetwork","percentage":0.02631578947368421}],"nodeOperatorCount":null},{"id":"Abyss","idType":"entity","timeWindow":"1d","validatorCount":3059,"avgCorrectness":0.9909137412216957,"avgInclusionDelay":1.011824124729709,"avgUptime":0.996206580199789,"avgValidatorEffectiveness":97.59692279386957,"clientPercentages":[{"client":"Nimbus","percentage":0.04461221688400824},{"client":"Prysm","percentage":0.033630748112560054},{"client":"Lighthouse","percentage":0.08098833218943034},{"client":"Teku","percentage":0.8407687028140014}],"networkPenetration":0.00649759051299735,"relayerPercentages":[{"relayer":"manifold","percentage":0.022727272727272728},{"relayer":"bloxroute_ethical","percentage":0.022727272727272728},{"relayer":"relayooor","percentage":0.022727272727272728},{"relayer":"blocknative","percentage":0.022727272727272728},{"relayer":"bloxroute_regulated","percentage":0.022727272727272728},{"relayer":"bloxroute_maxprofit","percentage":0.045454545454545456},{"relayer":"no_mev_boost","percentage":0.3409090909090909},{"relayer":"flashbots","percentage":0.5}],"nodeOperatorCount":null},{"id":"Huobi","idType":"entity","timeWindow":"1d","validatorCount":2855,"avgCorrectness":0.9908188626817817,"avgInclusionDelay":1.0092966118979818,"avgUptime":0.9999135914435826,"avgValidatorEffectiveness":98.1780539378918,"clientPercentages":[{"client":"Lighthouse","percentage":0.007677543186180422},{"client":"Teku","percentage":0.010876519513755598},{"client":"Prysm","percentage":0.981445937300064}],"networkPenetration":0.0061917960329130285,"relayerPercentages":[{"relayer":"bloxroute_regulated","percentage":0.12},{"relayer":"flashbots","percentage":0.56},{"relayer":"bloxroute_maxprofit","percentage":0.24},{"relayer":"blocknative","percentage":0.04},{"relayer":"edennetwork","percentage":0.04}],"nodeOperatorCount":null},{"id":"Bloxstaking","idType":"entity","timeWindow":"1d","validatorCount":2683,"avgCorrectness":0.9905690455400845,"avgInclusionDelay":1.0090632477720973,"avgUptime":0.9941945797762516,"avgValidatorEffectiveness":97.61054226478902,"clientPercentages":[{"client":"Lighthouse","percentage":0.3089802130898021},{"client":"Prysm","percentage":0.684931506849315},{"client":"Teku","percentage":0.0060882800608828}],"networkPenetration":0.005818770142313715,"relayerPercentages":[{"relayer":"blocknative","percentage":0.05714285714285714},{"relayer":"flashbots","percentage":0.9428571428571428}],"nodeOperatorCount":null},{"id":"wedex.eth","idType":"entity","timeWindow":"1d","validatorCount":2399,"avgCorrectness":0.9899347194662526,"avgInclusionDelay":1.0105857065595016,"avgUptime":0.9986130423059878,"avgValidatorEffectiveness":97.83956856269845,"clientPercentages":[{"client":"Nimbus","percentage":0.006158583525789068},{"client":"Lighthouse","percentage":0.993841416474211}],"networkPenetration":0.005202843671789266,"relayerPercentages":[{"relayer":"edennetwork","percentage":0.03125},{"relayer":"manifold","percentage":0.03125},{"relayer":"flashbots","percentage":0.59375},{"relayer":"blocknative","percentage":0.0625},{"relayer":"no_mev_boost","percentage":0.09375},{"relayer":"bloxroute_maxprofit","percentage":0.1875}],"nodeOperatorCount":null},{"id":"Ankr","idType":"entity","timeWindow":"1d","validatorCount":2304,"avgCorrectness":0.9911260992296188,"avgInclusionDelay":1.008938209059173,"avgUptime":0.9999440543361443,"avgValidatorEffectiveness":98.24394525205012,"clientPercentages":[{"client":"Lighthouse","percentage":0.8369132856006364},{"client":"Prysm","percentage":0.162291169451074},{"client":"Teku","percentage":0.0007955449482895784}],"networkPenetration":0.0049968119298884825,"relayerPercentages":[{"relayer":"no_mev_boost","percentage":0.9354838709677419},{"relayer":"flashbots","percentage":0.06451612903225806}],"nodeOperatorCount":null}]}