{"page":{"from":0,"size":15},"total":30,"next":"/v0/eth/operators?window=1d&from=15&size=15&idType=entity","data":[{"id":"Lido","idType":"entity","timeWindow":"1d","validatorCount":129357,"avgCorrectness":0.9904992079268791,"avgInclusionDelay":1.0211570984787548,"avgUptime":0.9987247729077925,"avgValidatorEffectiveness":97.55406021669884,"clientPercentages":[{"client":"Teku","percentage":0.2215128884606119},{"client":"Prysm","percentage":0.36031478358628444},{"client":"Lighthouse","percentage":0.3538103268288766},{"client":"Nimbus","percentage":0.06436200112422709}],"networkPenetration":0.3148836518635907},{"id":"Coinbase","idType":"entity","timeWindow":"1d","validatorCount":56138,"avgCorrectness":0.9908426614196961,"avgInclusionDelay":1.0211874347553354,"avgUptime":0.9984013175908504,"avgValidatorEffectiveness":97.54500791755663,"clientPercentages":[{"client":"Nimbus","percentage":0.09231535373027483},{"client":"Teku","percentage":0.14360857792025897},{"client":"Prysm","percentage":0.3734321018394597},{"client":"Lighthouse","percentage":0.39064396651000655}],"networkPenetration":0.13665520103799236},{"id":"Kraken","idType":"entity","timeWindow":"1d","validatorCount":36001,"avgCorrectness":0.9840565245077627,"avgInclusionDelay":1.030105484999331,"avgUptime":0.9911144731962686,"avgValidatorEffectiveness":95.97346373025374,"clientPercentages":[{"client":"Teku","percentage":0.09004533616282434},{"client":"Nimbus","percentage":0.04528793286389505},{"client":"Prysm","percentage":0.5996913282531108},{"client":"Lighthouse","percentage":0.2649754027201698}],"networkPenetration":0.0875696518684593},{"id":"Binance","idType":"entity","timeWindow":"1d","validatorCount":21153,"avgCorrectness":0.9907139921347714,"avgInclusionDelay":1.0210410262020504,"avgUptime":0.9996536346302345,"avgValidatorEffectiveness":97.65030608953067,"clientPercentages":[{"client":"Prysm","percentage":0.5864233698836528},{"client":"Nimbus","percentage":0.06721352640830335},{"client":"Teku","percentage":0.003264417845484222},{"client":"Lighthouse","percentage":0.34309868586255965}],"networkPenetration":0.05149308775952852},{"id":"Bitcoin Suisse","idType":"entity","timeWindow":"1d","validatorCount":9000,"avgCorrectness":0.9890500421679382,"avgInclusionDelay":1.0355482511109986,"avgUptime":0.9998234567901245,"avgValidatorEffectiveness":96.40034579478072,"clientPercentages":[{"client":"Teku","percentage":0.9934552454282964},{"client":"Nimbus","percentage":0.0063522617901828685},{"client":"Prysm","percentage":0.00019249278152069297}],"networkPenetration":0.021908844600565247},{"id":"Rocketpool","idType":"entity","timeWindow":"1d","validatorCount":6473,"avgCorrectness":0.9896913080300112,"avgInclusionDelay":1.0244226877763032,"avgUptime":0.995873414246369,"avgValidatorEffectiveness":97.04128631581777,"clientPercentages":[{"client":"Prysm","percentage":0.07037830121341898},{"client":"Nimbus","percentage":0.2328336902212705},{"client":"Teku","percentage":0.291220556745182},{"client":"Lighthouse","percentage":0.4055674518201285}],"networkPenetration":0.015460341339798877},{"id":"Staked.us","idType":"entity","timeWindow":"1d","validatorCount":5263,"avgCorrectness":0.9911036870489017,"avgInclusionDelay":1.0194507703316595,"avgUptime":0.9635691515189895,"avgValidatorEffectiveness":94.72011246819197,"clientPercentages":[{"client":"Lighthouse","percentage":0.0019887305270135896},{"client":"Nimbus","percentage":0.043752071594298975},{"client":"Teku","percentage":0.5081206496519721},{"client":"Prysm","percentage":0.4461385482267153}],"networkPenetration":0.01281180545919721},{"id":"f2pool.eth","idType":"entity","timeWindow":"1d","validatorCount":3501,"avgCorrectness":0.9910082833476149,"avgInclusionDelay":1.019896537497223,"avgUptime":1.0,"avgValidatorEffectiveness":97.79369635971841,"clientPercentages":[{"client":"Lighthouse","percentage":1.0}],"networkPenetration":0.008522540549619881},{"id":"Bitfinex","idType":"entity","timeWindow":"1d","validatorCount":3214,"avgCorrectness":0.988602159392506,"avgInclusionDelay":1.0237796975789708,"avgUptime":0.9907370531701589,"avgValidatorEffectiveness":96.60588546440471,"clientPercentages":[{"client":"Lighthouse","percentage":0.0027233115468409588},{"client":"Teku","percentage":0.01579520697167756},{"client":"Nimbus","percentage":0.09640522875816994},{"client":"Prysm","percentage":0.8850762527233116}],"networkPenetration":0.007823891838468523},{"id":"Huobi","idType":"entity","timeWindow":"1d","validatorCount":2855,"avgCorrectness":0.9900782021674306,"avgInclusionDelay":1.0225024849250475,"avgUptime":0.9999976649153519,"avgValidatorEffectiveness":97.52976415827644,"clientPercentages":[{"client":"Teku","percentage":0.007202881152460984},{"client":"Lighthouse","percentage":0.0012004801920768306},{"client":"Prysm","percentage":0.9123649459783914},{"client":"Nimbus","percentage":0.07923169267707082}],"networkPenetration":0.006949972370512643},{"id":"wedex.eth","idType":"entity","timeWindow":"1d","validatorCount":2399,"avgCorrectness":0.9900910306087759,"avgInclusionDelay":1.02465061086939,"avgUptime":0.9999786948265484,"avgValidatorEffectiveness":97.35305496245729,"clientPercentages":[{"client":"Lighthouse","percentage":1.0}],"networkPenetration":0.005839924244084004},{"id":"Bloxstaking","idType":"entity","timeWindow":"1d","validatorCount":2344,"avgCorrectness":0.9901325460487507,"avgInclusionDelay":1.0220091310343258,"avgUptime":0.9999971558589303,"avgValidatorEffectiveness":97.5710096999631,"clientPercentages":[{"client":"Nimbus","percentage":0.054491899852724596},{"client":"Prysm","percentage":0.44550810014727543},{"client":"Lighthouse","percentage":0.49852724594992637},{"client":"Teku","percentage":0.0014727540500736377}],"networkPenetration":0.005703602544347153},{"id":"Ankr","idType":"entity","timeWindow":"1d","validatorCount":2289,"avgCorrectness":0.9728085860659326,"avgInclusionDelay":1.1076060075999759,"avgUptime":0.997910781030046,"avgValidatorEffectiveness":93.59302574706486,"clientPercentages":[{"client":"Nimbus","percentage":0.07235421166306695},{"client":"Lighthouse","percentage":0.016198704103671708},{"client":"Prysm","percentage":0.9071274298056156},{"client":"Teku","percentage":0.004319654427645789}],"networkPenetration":0.005572149476743762},{"id":"StakeWise","idType":"entity","timeWindow":"1d","validatorCount":1978,"avgCorrectness":0.9905024461608646,"avgInclusionDelay":1.0226637871559139,"avgUptime":0.9998494551174028,"avgValidatorEffectiveness":97.53483250501739,"clientPercentages":[{"client":"Nimbus","percentage":0.04017467248908297},{"client":"Lighthouse","percentage":0.5388646288209606},{"client":"Teku","percentage":0.06026200873362445},{"client":"Prysm","percentage":0.36069868995633186}],"networkPenetration":0.0048150771799908955},{"id":"OKex","idType":"entity","timeWindow":"1d","validatorCount":1667,"avgCorrectness":0.9903931942866285,"avgInclusionDelay":1.0203471738228442,"avgUptime":1.0,"avgValidatorEffectiveness":97.71661023106617,"clientPercentages":[{"client":"Teku","percentage":0.006718924972004479},{"client":"Prysm","percentage":0.8891377379619261},{"client":"Nimbus","percentage":0.1019036954087346},{"client":"Lighthouse","percentage":0.0022396416573348264}],"networkPenetration":0.003980106769102687}]}