{"page":{"from":0,"size":15},"total":31,"next":"/v0/eth/operators?window=1d&from=15&size=15&idType=entity","data":[{"id":"Lido","idType":"entity","timeWindow":"1d","validatorCount":129034,"avgCorrectness":0.9871031584474201,"avgInclusionDelay":1.0200721678846039,"avgUptime":0.9994031980784341,"avgValidatorEffectiveness":97.50204781478013,"clientPercentages":[{"client":"Teku","percentage":0.19212259712326926},{"client":"Lighthouse","percentage":0.37658287404220997},{"client":"Nimbus","percentage":0.07909665277591074},{"client":"Prysm","percentage":0.35219787605861}],"networkPenetration":0.31757400338174596},{"id":"Coinbase","idType":"entity","timeWindow":"1d","validatorCount":57005,"avgCorrectness":0.9867933514985568,"avgInclusionDelay":1.0206852516154803,"avgUptime":0.9999166155015671,"avgValidatorEffectiveness":97.4812210670417,"clientPercentages":[{"client":"Prysm","percentage":0.36379950495049507},{"client":"Teku","percentage":0.16704826732673267},{"client":"Lighthouse","percentage":0.37688737623762375},{"client":"Nimbus","percentage":0.09226485148514851}],"networkPenetration":0.1403030772903699},{"id":"Kraken","idType":"entity","timeWindow":"1d","validatorCount":35857,"avgCorrectness":0.9803134673839862,"avgInclusionDelay":1.0302909578372026,"avgUptime":0.9992114223443204,"avgValidatorEffectiveness":96.45803907602141,"clientPercentages":[{"client":"Lighthouse","percentage":0.26855364264176634},{"client":"Nimbus","percentage":0.04148429141134131},{"client":"Prysm","percentage":0.6030055442077619},{"client":"Teku","percentage":0.08695652173913043}],"networkPenetration":0.08824289501081715},{"id":"Binance","idType":"entity","timeWindow":"1d","validatorCount":20810,"avgCorrectness":0.9875766358676203,"avgInclusionDelay":1.019414046035289,"avgUptime":0.9999734102194442,"avgValidatorEffectiveness":97.62585940417713,"clientPercentages":[{"client":"Prysm","percentage":0.5931080741175484},{"client":"Lighthouse","percentage":0.3254800033537352},{"client":"Nimbus","percentage":0.0726083675693804},{"client":"Teku","percentage":0.008803554959335961}],"networkPenetration":0.05121843765305846},{"id":"Bitcoin Suisse","idType":"entity","timeWindow":"1d","validatorCount":9000,"avgCorrectness":0.9832624515384429,"avgInclusionDelay":1.0526339322548564,"avgUptime":0.9995195061728379,"avgValidatorEffectiveness":94.72309496210818,"clientPercentages":[{"client":"Teku","percentage":0.9928966061562746},{"client":"Nimbus","percentage":0.006906077348066298},{"client":"Prysm","percentage":0.0001973164956590371}],"networkPenetration":0.022151174381428454},{"id":"Rocketpool","idType":"entity","timeWindow":"1d","validatorCount":6234,"avgCorrectness":0.9859500482867296,"avgInclusionDelay":1.0248554609886906,"avgUptime":0.9716504775317432,"avgValidatorEffectiveness":94.78004515341225,"clientPercentages":[{"client":"Prysm","percentage":0.05987755711512618},{"client":"Nimbus","percentage":0.2553382111393161},{"client":"Teku","percentage":0.267433179035389},{"client":"Lighthouse","percentage":0.41735105271016876}],"networkPenetration":0.015331073913546428},{"id":"Staked.us","idType":"entity","timeWindow":"1d","validatorCount":5263,"avgCorrectness":0.9849011281622441,"avgInclusionDelay":1.022098573059699,"avgUptime":0.997723309477061,"avgValidatorEffectiveness":97.0737997403119,"clientPercentages":[{"client":"Nimbus","percentage":0.05838709677419355},{"client":"Prysm","percentage":0.4309677419354839},{"client":"Teku","percentage":0.5096774193548387},{"client":"Lighthouse","percentage":0.000967741935483871}],"networkPenetration":0.012953514529939774},{"id":"f2pool.eth","idType":"entity","timeWindow":"1d","validatorCount":3501,"avgCorrectness":0.988507078621446,"avgInclusionDelay":1.0182449690500734,"avgUptime":0.999998730521438,"avgValidatorEffectiveness":97.77977799580518,"clientPercentages":[{"client":"Lighthouse","percentage":1.0}],"networkPenetration":0.008616806834375669},{"id":"Bitfinex","idType":"entity","timeWindow":"1d","validatorCount":3214,"avgCorrectness":0.986484261715856,"avgInclusionDelay":1.0218800106659687,"avgUptime":0.9827442439327945,"avgValidatorEffectiveness":95.91705807550021,"clientPercentages":[{"client":"Teku","percentage":0.018807092960773777},{"client":"Prysm","percentage":0.8753358409457281},{"client":"Nimbus","percentage":0.10370768404083826},{"client":"Lighthouse","percentage":0.0021493820526598604}],"networkPenetration":0.007910430495767895},{"id":"Huobi","idType":"entity","timeWindow":"1d","validatorCount":2855,"avgCorrectness":0.985681338063799,"avgInclusionDelay":1.021184349610266,"avgUptime":0.9999782058766307,"avgValidatorEffectiveness":97.3747339382071,"clientPercentages":[{"client":"Prysm","percentage":0.886150234741784},{"client":"Nimbus","percentage":0.09800469483568075},{"client":"Lighthouse","percentage":0.0017605633802816902},{"client":"Teku","percentage":0.014084507042253521}],"networkPenetration":0.007026844762108693},{"id":"wedex.eth","idType":"entity","timeWindow":"1d","validatorCount":2399,"avgCorrectness":0.9858094554214635,"avgInclusionDelay":1.025472655254685,"avgUptime":0.9997452642304661,"avgValidatorEffectiveness":97.01902425854615,"clientPercentages":[{"client":"Lighthouse","percentage":1.0}],"networkPenetration":0.0059045185934496515},{"id":"Bloxstaking","idType":"entity","timeWindow":"1d","validatorCount":2322,"avgCorrectness":0.9840808833733884,"avgInclusionDelay":1.0230653715066715,"avgUptime":0.9999167384438701,"avgValidatorEffectiveness":97.1295330800427,"clientPercentages":[{"client":"Lighthouse","percentage":0.5064247921390779},{"client":"Teku","percentage":0.008314436885865457},{"client":"Nimbus","percentage":0.05139833711262283},{"client":"Prysm","percentage":0.43386243386243384}],"networkPenetration":0.005715002990408542},{"id":"Ankr","idType":"entity","timeWindow":"1d","validatorCount":2288,"avgCorrectness":0.919438453550603,"avgInclusionDelay":1.2750339483984343,"avgUptime":0.9730001844073806,"avgValidatorEffectiveness":81.22904182164592,"clientPercentages":[{"client":"Nimbus","percentage":0.08341915550978372},{"client":"Teku","percentage":0.009268795056642637},{"client":"Prysm","percentage":0.8990731204943357},{"client":"Lighthouse","percentage":0.008238928939237899}],"networkPenetration":0.005628859534480764},{"id":"StakeWise","idType":"entity","timeWindow":"1d","validatorCount":1976,"avgCorrectness":0.9879461699818355,"avgInclusionDelay":1.0207064486922095,"avgUptime":0.9998819163292854,"avgValidatorEffectiveness":97.54660568725944,"clientPercentages":[{"client":"Nimbus","percentage":0.04028648164726947},{"client":"Prysm","percentage":0.36436884512085943},{"client":"Teku","percentage":0.049239033124440466},{"client":"Lighthouse","percentage":0.5461056401074306}],"networkPenetration":0.0048634133975225145},{"id":"OKex","idType":"entity","timeWindow":"1d","validatorCount":1552,"avgCorrectness":0.9778319014763919,"avgInclusionDelay":1.0453253323279514,"avgUptime":0.99932273768614,"avgValidatorEffectiveness":94.98322232125771,"clientPercentages":[{"client":"Teku","percentage":0.017582417582417582},{"client":"Prysm","percentage":0.8736263736263736},{"client":"Nimbus","percentage":0.1087912087912088}],"networkPenetration":0.0038198469599974405}]}