{"page":{"from":0,"size":15},"total":30,"next":"/v0/eth/operators?window=1d&from=15&size=15&idType=entity","data":[{"id":"Lido","idType":"entity","timeWindow":"1d","validatorCount":129593,"avgCorrectness":0.9906217917982035,"avgInclusionDelay":1.0199790352816331,"avgUptime":0.9998729673681949,"avgValidatorEffectiveness":97.78751804056749,"clientPercentages":[{"client":"Teku","percentage":0.2215128884606119},{"client":"Nimbus","percentage":0.06436200112422709},{"client":"Prysm","percentage":0.36031478358628444},{"client":"Lighthouse","percentage":0.3538103268288766}],"networkPenetration":0.3122340502431196},{"id":"Coinbase","idType":"entity","timeWindow":"1d","validatorCount":55805,"avgCorrectness":0.9913787212297155,"avgInclusionDelay":1.0179588253908152,"avgUptime":0.9999902836265204,"avgValidatorEffectiveness":97.96943152257637,"clientPercentages":[{"client":"Prysm","percentage":0.3732185557149689},{"client":"Nimbus","percentage":0.08952654232424677},{"client":"Lighthouse","percentage":0.3988203411445879},{"client":"Teku","percentage":0.1384345608161964}],"networkPenetration":0.13446275137221642},{"id":"Kraken","idType":"entity","timeWindow":"1d","validatorCount":36219,"avgCorrectness":0.9878225763414529,"avgInclusionDelay":1.0224999341369183,"avgUptime":0.9996882155589237,"avgValidatorEffectiveness":97.46265622056131,"clientPercentages":[{"client":"Prysm","percentage":0.5996913282531108},{"client":"Lighthouse","percentage":0.2649754027201698},{"client":"Nimbus","percentage":0.04528793286389505},{"client":"Teku","percentage":0.09004533616282434}],"networkPenetration":0.08721465368100968},{"id":"Binance","idType":"entity","timeWindow":"1d","validatorCount":21584,"avgCorrectness":0.9908265227659154,"avgInclusionDelay":1.0182544797954682,"avgUptime":0.9997906885759008,"avgValidatorEffectiveness":97.89823855405166,"clientPercentages":[{"client":"Lighthouse","percentage":0.34309868586255965},{"client":"Teku","percentage":0.003264417845484222},{"client":"Nimbus","percentage":0.06721352640830335},{"client":"Prysm","percentage":0.5864233698836528}],"networkPenetration":0.0520068815629051},{"id":"Bitcoin Suisse","idType":"entity","timeWindow":"1d","validatorCount":9000,"avgCorrectness":0.9887832805291534,"avgInclusionDelay":1.0366699399082258,"avgUptime":0.999500000000002,"avgValidatorEffectiveness":96.25494741993701,"clientPercentages":[{"client":"Teku","percentage":0.9934552454282964},{"client":"Nimbus","percentage":0.0063522617901828685},{"client":"Prysm","percentage":0.00019249278152069297}],"networkPenetration":0.02168559739001788},{"id":"Rocketpool","idType":"entity","timeWindow":"1d","validatorCount":6644,"avgCorrectness":0.9893707045622494,"avgInclusionDelay":1.0225827417207687,"avgUptime":0.9924108866199249,"avgValidatorEffectiveness":96.9011211003558,"clientPercentages":[{"client":"Nimbus","percentage":0.2328336902212705},{"client":"Prysm","percentage":0.07037830121341898},{"client":"Teku","percentage":0.291220556745182},{"client":"Lighthouse","percentage":0.4055674518201285}],"networkPenetration":0.015999151852190967},{"id":"Staked.us","idType":"entity","timeWindow":"1d","validatorCount":5263,"avgCorrectness":0.9905252572521367,"avgInclusionDelay":1.0178458903010328,"avgUptime":0.999732303080203,"avgValidatorEffectiveness":97.91031482071085,"clientPercentages":[{"client":"Prysm","percentage":0.4461385482267153},{"client":"Nimbus","percentage":0.043752071594298975},{"client":"Teku","percentage":0.5081206496519721},{"client":"Lighthouse","percentage":0.0019887305270135896}],"networkPenetration":0.012681255451518233},{"id":"f2pool.eth","idType":"entity","timeWindow":"1d","validatorCount":3501,"avgCorrectness":0.9916357125084421,"avgInclusionDelay":1.0174889936068978,"avgUptime":0.9999987305214378,"avgValidatorEffectiveness":98.02426566731882,"clientPercentages":[{"client":"Lighthouse","percentage":1.0}],"networkPenetration":0.008435697384716955},{"id":"Bitfinex","idType":"entity","timeWindow":"1d","validatorCount":3214,"avgCorrectness":0.9906510921876687,"avgInclusionDelay":1.0182944547917607,"avgUptime":0.9993473000069145,"avgValidatorEffectiveness":97.8467566895693,"clientPercentages":[{"client":"Teku","percentage":0.01579520697167756},{"client":"Prysm","percentage":0.8850762527233116},{"client":"Nimbus","percentage":0.09640522875816994},{"client":"Lighthouse","percentage":0.0027233115468409588}],"networkPenetration":0.007744167779057495},{"id":"Huobi","idType":"entity","timeWindow":"1d","validatorCount":2855,"avgCorrectness":0.9901051368181499,"avgInclusionDelay":1.019788167626589,"avgUptime":0.9987079198287603,"avgValidatorEffectiveness":97.6371477543127,"clientPercentages":[{"client":"Nimbus","percentage":0.07923169267707082},{"client":"Teku","percentage":0.007202881152460984},{"client":"Lighthouse","percentage":0.0012004801920768306},{"client":"Prysm","percentage":0.9123649459783914}],"networkPenetration":0.006879153394277894},{"id":"wedex.eth","idType":"entity","timeWindow":"1d","validatorCount":2399,"avgCorrectness":0.9901520863941129,"avgInclusionDelay":1.022449834092623,"avgUptime":0.9999703580195459,"avgValidatorEffectiveness":97.53688130268503,"clientPercentages":[{"client":"Lighthouse","percentage":1.0}],"networkPenetration":0.005780416459850321},{"id":"Bloxstaking","idType":"entity","timeWindow":"1d","validatorCount":2358,"avgCorrectness":0.9900228493723731,"avgInclusionDelay":1.0187085719566626,"avgUptime":0.9999575767847965,"avgValidatorEffectiveness":97.8257769642188,"clientPercentages":[{"client":"Nimbus","percentage":0.054532056005895356},{"client":"Teku","percentage":0.0014738393515106854},{"client":"Lighthouse","percentage":0.49815770081061167},{"client":"Prysm","percentage":0.4458364038319823}],"networkPenetration":0.005679217005363571},{"id":"Ankr","idType":"entity","timeWindow":"1d","validatorCount":2292,"avgCorrectness":0.9244768171438815,"avgInclusionDelay":1.2100529084979805,"avgUptime":0.9903580739008278,"avgValidatorEffectiveness":83.81018985582458,"clientPercentages":[{"client":"Teku","percentage":0.004319654427645789},{"client":"Nimbus","percentage":0.07235421166306695},{"client":"Prysm","percentage":0.9071274298056156},{"client":"Lighthouse","percentage":0.016198704103671708}],"networkPenetration":0.005517779780348993},{"id":"StakeWise","idType":"entity","timeWindow":"1d","validatorCount":1980,"avgCorrectness":0.9913301529079515,"avgInclusionDelay":1.018555981862574,"avgUptime":0.9974971941638608,"avgValidatorEffectiveness":97.70722040274362,"clientPercentages":[{"client":"Nimbus","percentage":0.04017467248908297},{"client":"Lighthouse","percentage":0.5388646288209606},{"client":"Prysm","percentage":0.36069868995633186},{"client":"Teku","percentage":0.06026200873362445}],"networkPenetration":0.0047708314258039335},{"id":"OKex","idType":"entity","timeWindow":"1d","validatorCount":1730,"avgCorrectness":0.9905214399221163,"avgInclusionDelay":1.0178831280214078,"avgUptime":1.0,"avgValidatorEffectiveness":97.92669065175903,"clientPercentages":[{"client":"Teku","percentage":0.006718924972004479},{"client":"Lighthouse","percentage":0.0022396416573348264},{"client":"Prysm","percentage":0.8891377379619261},{"client":"Nimbus","percentage":0.1019036954087346}],"networkPenetration":0.0041564061664200935}]}