{"page":{"from":0,"size":15},"total":30,"next":"/v0/eth/operators?window=1d&from=15&size=15&idType=entity","data":[{"id":"Lido","idType":"entity","timeWindow":"1d","validatorCount":132623,"avgCorrectness":0.9906268971615207,"avgInclusionDelay":1.0273204535425793,"avgUptime":0.9974887170517865,"avgValidatorEffectiveness":96.77348987446042,"clientPercentages":[{"client":"Prysm","percentage":0.38788033367340813},{"client":"Teku","percentage":0.19303246714277142},{"client":"Nimbus","percentage":0.02589569705335174},{"client":"Lodestar","percentage":0.001155254155914301},{"client":"Lighthouse","percentage":0.3920362479745544}],"networkPenetration":0.3016847106366131,"relayerPercentages":[{"relayer":"flashbots","percentage":0.2665100495954059},{"relayer":"blocknative","percentage":0.012197147670914312},{"relayer":"edennetwork","percentage":0.001186492964096723},{"relayer":"manifold","percentage":0.0014475214161980019},{"relayer":"bloxroute_regulated","percentage":0.00676300989535132},{"relayer":"bloxroute_ethical","percentage":0.020834816449538454},{"relayer":"no_mev_boost","percentage":0.6733347571248902},{"relayer":"bloxroute_maxprofit","percentage":0.01772620488360504}]},{"id":"Coinbase","idType":"entity","timeWindow":"1d","validatorCount":54486,"avgCorrectness":0.9899319011632705,"avgInclusionDelay":1.0241828145753122,"avgUptime":0.9931069004765466,"avgValidatorEffectiveness":96.56457737405714,"clientPercentages":[{"client":"Teku","percentage":0.1649178747543658},{"client":"Prysm","percentage":0.38200289199510584},{"client":"Lighthouse","percentage":0.43064773274999074},{"client":"Nimbus","percentage":0.022431500500537615}],"networkPenetration":0.12397777383374063,"relayerPercentages":[{"relayer":"flashbots","percentage":0.00023431550582859821},{"relayer":"bloxroute_regulated","percentage":5.8578876457149553e-05},{"relayer":"no_mev_boost","percentage":0.9997071056177143}]},{"id":"Kraken","idType":"entity","timeWindow":"1d","validatorCount":37553,"avgCorrectness":0.9908032359947263,"avgInclusionDelay":1.0214856540054245,"avgUptime":0.9950581842626833,"avgValidatorEffectiveness":97.01345177341412,"clientPercentages":[{"client":"Teku","percentage":0.1116040408359613},{"client":"Lighthouse","percentage":0.2660751509968464},{"client":"Prysm","percentage":0.6222139077449356},{"client":"Nimbus","percentage":0.00010690042225666791}],"networkPenetration":0.0853618578235286,"relayerPercentages":[{"relayer":"flashbots","percentage":0.39174819225861335},{"relayer":"blocknative","percentage":0.004934070608251808},{"relayer":"edennetwork","percentage":0.0015312632922160783},{"relayer":"manifold","percentage":8.507018290089324e-05},{"relayer":"no_mev_boost","percentage":0.5981284559761804},{"relayer":"bloxroute_maxprofit","percentage":0.003572947681837516}]},{"id":"Binance","idType":"entity","timeWindow":"1d","validatorCount":23051,"avgCorrectness":0.9923552366540448,"avgInclusionDelay":1.018743142031998,"avgUptime":0.9989304285080777,"avgValidatorEffectiveness":97.6926276818529,"clientPercentages":[{"client":"Prysm","percentage":0.5616498851792969},{"client":"Nimbus","percentage":0.00026497085320614734},{"client":"Teku","percentage":0.013248542660307366},{"client":"Lighthouse","percentage":0.42483660130718953}],"networkPenetration":0.052450384771162414,"relayerPercentages":[{"relayer":"blocknative","percentage":0.0005511919525974921},{"relayer":"edennetwork","percentage":0.0022047678103899685},{"relayer":"flashbots","percentage":0.18354692021496485},{"relayer":"bloxroute_maxprofit","percentage":0.007441091360066143},{"relayer":"bloxroute_regulated","percentage":0.002066969822240595},{"relayer":"no_mev_boost","percentage":0.8040512608515916},{"relayer":"bloxroute_ethical","percentage":0.00013779798814937303}]},{"id":"Bitcoin Suisse","idType":"entity","timeWindow":"1d","validatorCount":9184,"avgCorrectness":0.9926132841413721,"avgInclusionDelay":1.0226247778395614,"avgUptime":0.9978681858287011,"avgValidatorEffectiveness":97.31136616969769,"clientPercentages":[{"client":"Teku","percentage":0.9669882100750268},{"client":"Nimbus","percentage":0.0330117899249732}],"networkPenetration":0.02089732912838296,"relayerPercentages":[{"relayer":"no_mev_boost","percentage":1.0}]},{"id":"Rocketpool","idType":"entity","timeWindow":"1d","validatorCount":8863,"avgCorrectness":0.9876847683810619,"avgInclusionDelay":1.0312429314058529,"avgUptime":0.9869619540666249,"avgValidatorEffectiveness":95.4126242852534,"clientPercentages":[{"client":"Prysm","percentage":0.045825576399828157},{"client":"Nimbus","percentage":0.222397250465416},{"client":"Lighthouse","percentage":0.43190605756838035},{"client":"Teku","percentage":0.29987111556637547}],"networkPenetration":0.020130517290810546,"relayerPercentages":[{"relayer":"manifold","percentage":0.0008116883116883117},{"relayer":"flashbots","percentage":0.4318181818181818},{"relayer":"edennetwork","percentage":0.00487012987012987},{"relayer":"blocknative","percentage":0.017857142857142856},{"relayer":"bloxroute_maxprofit","percentage":0.09212662337662338},{"relayer":"no_mev_boost","percentage":0.3482142857142857},{"relayer":"bloxroute_regulated","percentage":0.07508116883116883},{"relayer":"bloxroute_ethical","percentage":0.02922077922077922}]},{"id":"Staked.us","idType":"entity","timeWindow":"1d","validatorCount":5263,"avgCorrectness":0.9905551154713302,"avgInclusionDelay":1.0235614323725957,"avgUptime":0.9978845070709264,"avgValidatorEffectiveness":97.06987663009875,"clientPercentages":[{"client":"Teku","percentage":0.4700886262924668},{"client":"Lighthouse","percentage":0.05243722304283604},{"client":"Prysm","percentage":0.4771048744460857},{"client":"Nimbus","percentage":0.00036927621861152144}],"networkPenetration":0.011975462021197683,"relayerPercentages":[{"relayer":"flashbots","percentage":0.4014125956444968},{"relayer":"bloxroute_maxprofit","percentage":0.0164802825191289},{"relayer":"no_mev_boost","percentage":0.5821071218363744}]},{"id":"f2pool.eth","idType":"entity","timeWindow":"1d","validatorCount":3501,"avgCorrectness":0.9890497557148233,"avgInclusionDelay":1.0405275664335216,"avgUptime":0.9924274385323011,"avgValidatorEffectiveness":95.18796978635848,"clientPercentages":[{"client":"Teku","percentage":0.014223194748358862},{"client":"Nimbus","percentage":0.0010940919037199124},{"client":"Prysm","percentage":0.0010940919037199124},{"client":"Lighthouse","percentage":0.9835886214442013}],"networkPenetration":0.00796619656777752,"relayerPercentages":[{"relayer":"manifold","percentage":0.04450757575757576},{"relayer":"flashbots","percentage":0.6278409090909091},{"relayer":"no_mev_boost","percentage":0.32765151515151514}]},{"id":"Bitfinex","idType":"entity","timeWindow":"1d","validatorCount":3214,"avgCorrectness":0.9926163112104155,"avgInclusionDelay":1.0192003134180005,"avgUptime":0.998984928289922,"avgValidatorEffectiveness":97.68278239778428,"clientPercentages":[{"client":"Prysm","percentage":0.9564950980392157},{"client":"Lighthouse","percentage":0.009191176470588236},{"client":"Teku","percentage":0.03431372549019608}],"networkPenetration":0.007313155032515553,"relayerPercentages":[{"relayer":"no_mev_boost","percentage":0.8823529411764706},{"relayer":"flashbots","percentage":0.11764705882352941}]},{"id":"Huobi","idType":"entity","timeWindow":"1d","validatorCount":2855,"avgCorrectness":0.9919401419058601,"avgInclusionDelay":1.0185316483310998,"avgUptime":0.9990682664776356,"avgValidatorEffectiveness":97.68199206367751,"clientPercentages":[{"client":"Lighthouse","percentage":0.007670850767085077},{"client":"Prysm","percentage":0.9693165969316597},{"client":"Teku","percentage":0.02301255230125523}],"networkPenetration":0.006496284261926541,"relayerPercentages":[{"relayer":"edennetwork","percentage":0.03236994219653179},{"relayer":"blocknative","percentage":0.004624277456647399},{"relayer":"flashbots","percentage":0.4161849710982659},{"relayer":"bloxroute_regulated","percentage":0.017341040462427744},{"relayer":"bloxroute_maxprofit","percentage":0.012716763005780347},{"relayer":"bloxroute_ethical","percentage":0.09710982658959537},{"relayer":"no_mev_boost","percentage":0.41965317919075146}]},{"id":"Bloxstaking","idType":"entity","timeWindow":"1d","validatorCount":2533,"avgCorrectness":0.9917916765532131,"avgInclusionDelay":1.0184698262604248,"avgUptime":0.9990891990609612,"avgValidatorEffectiveness":97.67720997693726,"clientPercentages":[{"client":"Lighthouse","percentage":0.5021097046413502},{"client":"Prysm","percentage":0.4911392405063291},{"client":"Teku","percentage":0.006751054852320675}],"networkPenetration":0.005761328109001051,"relayerPercentages":[{"relayer":"blocknative","percentage":0.1011378002528445},{"relayer":"flashbots","percentage":0.661188369152971},{"relayer":"bloxroute_ethical","percentage":0.022756005056890013},{"relayer":"no_mev_boost","percentage":0.21491782553729458}]},{"id":"wedex.eth","idType":"entity","timeWindow":"1d","validatorCount":2399,"avgCorrectness":0.9845448030011178,"avgInclusionDelay":1.0573595324823117,"avgUptime":0.9931107083308526,"avgValidatorEffectiveness":93.56585095309501,"clientPercentages":[{"client":"Lighthouse","percentage":0.9983935742971888},{"client":"Prysm","percentage":0.001606425702811245}],"networkPenetration":0.005458699104855262,"relayerPercentages":[{"relayer":"flashbots","percentage":0.4005270092226614},{"relayer":"edennetwork","percentage":0.03162055335968379},{"relayer":"manifold","percentage":0.005270092226613966},{"relayer":"blocknative","percentage":0.043478260869565216},{"relayer":"bloxroute_maxprofit","percentage":0.25823451910408435},{"relayer":"bloxroute_ethical","percentage":0.014492753623188406},{"relayer":"no_mev_boost","percentage":0.2463768115942029}]},{"id":"Ankr","idType":"entity","timeWindow":"1d","validatorCount":2299,"avgCorrectness":0.9918238385089562,"avgInclusionDelay":1.0189370699749363,"avgUptime":0.9989318725532839,"avgValidatorEffectiveness":97.63253654896246,"clientPercentages":[{"client":"Prysm","percentage":0.526829268292683},{"client":"Teku","percentage":0.005853658536585366},{"client":"Lighthouse","percentage":0.46731707317073173}],"networkPenetration":0.005231158500234367,"relayerPercentages":[{"relayer":"no_mev_boost","percentage":0.8920676202860858},{"relayer":"flashbots","percentage":0.10793237971391417}]},{"id":"StakeWise","idType":"entity","timeWindow":"1d","validatorCount":1993,"avgCorrectness":0.9913581184967998,"avgInclusionDelay":1.0254317588586548,"avgUptime":0.9980731767535577,"avgValidatorEffectiveness":97.01392921363141,"clientPercentages":[{"client":"Lighthouse","percentage":0.5416666666666666},{"client":"Teku","percentage":0.340625},{"client":"Prysm","percentage":0.10833333333333334},{"client":"Nimbus","percentage":0.009375}],"networkPenetration":0.004534884250094429,"relayerPercentages":[{"relayer":"bloxroute_maxprofit","percentage":0.32326283987915405},{"relayer":"bloxroute_regulated","percentage":0.021148036253776436},{"relayer":"no_mev_boost","percentage":0.1042296072507553},{"relayer":"flashbots","percentage":0.5045317220543807},{"relayer":"blocknative","percentage":0.045317220543806644},{"relayer":"manifold","percentage":0.0015105740181268882}]},{"id":"OKex","idType":"entity","timeWindow":"1d","validatorCount":1813,"avgCorrectness":0.9918991114679315,"avgInclusionDelay":1.0177767793351846,"avgUptime":0.9990952064630515,"avgValidatorEffectiveness":97.74247032541692,"clientPercentages":[{"client":"Teku","percentage":0.024943310657596373},{"client":"Lighthouse","percentage":0.02040816326530612},{"client":"Prysm","percentage":0.9546485260770975}],"networkPenetration":0.00412303575573061,"relayerPercentages":[{"relayer":"no_mev_boost","percentage":1.0}]}]}