{"page":{"from":0,"size":15},"total":31,"next":"/v0/eth/operators?window=1d&from=15&size=15&idType=entity","data":[{"id":"Lido","idType":"entity","timeWindow":"1d","validatorCount":129003,"avgCorrectness":0.9877767937310368,"avgInclusionDelay":1.0220807084971117,"avgUptime":0.9997222803604043,"avgValidatorEffectiveness":97.40765793975217,"clientPercentages":[{"client":"Prysm","percentage":0.35219787605861},{"client":"Teku","percentage":0.19212259712326926},{"client":"Lighthouse","percentage":0.37658287404220997},{"client":"Nimbus","percentage":0.07909665277591074}],"networkPenetration":0.3179120808710096},{"id":"Coinbase","idType":"entity","timeWindow":"1d","validatorCount":57289,"avgCorrectness":0.987326113504426,"avgInclusionDelay":1.0225460193868592,"avgUptime":0.9997875101095621,"avgValidatorEffectiveness":97.35208385281209,"clientPercentages":[{"client":"Nimbus","percentage":0.09274935590725064},{"client":"Teku","percentage":0.16970310391363022},{"client":"Prysm","percentage":0.363513679303153},{"client":"Lighthouse","percentage":0.37403386087596613}],"networkPenetration":0.14118171826251535},{"id":"Kraken","idType":"entity","timeWindow":"1d","validatorCount":35818,"avgCorrectness":0.9806125971173691,"avgInclusionDelay":1.0338828896648509,"avgUptime":0.9987791345468151,"avgValidatorEffectiveness":96.20726035768439,"clientPercentages":[{"client":"Prysm","percentage":0.6030055442077619},{"client":"Nimbus","percentage":0.04148429141134131},{"client":"Teku","percentage":0.08695652173913043},{"client":"Lighthouse","percentage":0.26855364264176634}],"networkPenetration":0.08823456930075756},{"id":"Binance","idType":"entity","timeWindow":"1d","validatorCount":20810,"avgCorrectness":0.9879967667152364,"avgInclusionDelay":1.0207065425638935,"avgUptime":0.9999308024987948,"avgValidatorEffectiveness":97.542283256671,"clientPercentages":[{"client":"Prysm","percentage":0.5931080741175484},{"client":"Teku","percentage":0.008803554959335961},{"client":"Nimbus","percentage":0.0726083675693804},{"client":"Lighthouse","percentage":0.3254800033537352}],"networkPenetration":0.05128369420033417},{"id":"Bitcoin Suisse","idType":"entity","timeWindow":"1d","validatorCount":9000,"avgCorrectness":0.9846914661826243,"avgInclusionDelay":1.0487432116828357,"avgUptime":0.9994022222222214,"avgValidatorEffectiveness":95.09086511637,"clientPercentages":[{"client":"Nimbus","percentage":0.006906077348066298},{"client":"Teku","percentage":0.9928966061562746},{"client":"Prysm","percentage":0.0001973164956590371}],"networkPenetration":0.02217939681898162},{"id":"Rocketpool","idType":"entity","timeWindow":"1d","validatorCount":6210,"avgCorrectness":0.9871240494179786,"avgInclusionDelay":1.0240646677642657,"avgUptime":0.9910560362134141,"avgValidatorEffectiveness":96.4908120847522,"clientPercentages":[{"client":"Lighthouse","percentage":0.41735105271016876},{"client":"Nimbus","percentage":0.2553382111393161},{"client":"Teku","percentage":0.267433179035389},{"client":"Prysm","percentage":0.05987755711512618}],"networkPenetration":0.015286533163127},{"id":"Staked.us","idType":"entity","timeWindow":"1d","validatorCount":5263,"avgCorrectness":0.9867003651609413,"avgInclusionDelay":1.0218496416012983,"avgUptime":0.9990415268013599,"avgValidatorEffectiveness":97.30502536897842,"clientPercentages":[{"client":"Lighthouse","percentage":0.000967741935483871},{"client":"Nimbus","percentage":0.05838709677419355},{"client":"Teku","percentage":0.5096774193548387},{"client":"Prysm","percentage":0.4309677419354839}],"networkPenetration":0.012970018384255586},{"id":"f2pool.eth","idType":"entity","timeWindow":"1d","validatorCount":3501,"avgCorrectness":0.9888628645783745,"avgInclusionDelay":1.0198038655622204,"avgUptime":1.0,"avgValidatorEffectiveness":97.6745982140815,"clientPercentages":[{"client":"Lighthouse","percentage":1.0}],"networkPenetration":0.00862778536258385},{"id":"Bitfinex","idType":"entity","timeWindow":"1d","validatorCount":3214,"avgCorrectness":0.9871061590367318,"avgInclusionDelay":1.0217193680404726,"avgUptime":0.9986399778745765,"avgValidatorEffectiveness":97.3267042377336,"clientPercentages":[{"client":"Lighthouse","percentage":0.0021493820526598604},{"client":"Nimbus","percentage":0.10370768404083826},{"client":"Teku","percentage":0.018807092960773777},{"client":"Prysm","percentage":0.8753358409457281}],"networkPenetration":0.00792050904180077},{"id":"Huobi","idType":"entity","timeWindow":"1d","validatorCount":2855,"avgCorrectness":0.985498079981442,"avgInclusionDelay":1.0238505771732251,"avgUptime":0.9999011480832842,"avgValidatorEffectiveness":97.14565569428032,"clientPercentages":[{"client":"Lighthouse","percentage":0.0017605633802816902},{"client":"Nimbus","percentage":0.09800469483568075},{"client":"Prysm","percentage":0.886150234741784},{"client":"Teku","percentage":0.014084507042253521}],"networkPenetration":0.007035797546465836},{"id":"wedex.eth","idType":"entity","timeWindow":"1d","validatorCount":2399,"avgCorrectness":0.9863836522280622,"avgInclusionDelay":1.0287162788284048,"avgUptime":0.9996239173729791,"avgValidatorEffectiveness":96.7847487825154,"clientPercentages":[{"client":"Lighthouse","percentage":1.0}],"networkPenetration":0.0059120414409707675},{"id":"Bloxstaking","idType":"entity","timeWindow":"1d","validatorCount":2319,"avgCorrectness":0.9850506572936052,"avgInclusionDelay":1.0234757988818675,"avgUptime":0.9998629322016674,"avgValidatorEffectiveness":97.14557644947948,"clientPercentages":[{"client":"Prysm","percentage":0.43386243386243384},{"client":"Lighthouse","percentage":0.5064247921390779},{"client":"Nimbus","percentage":0.05139833711262283},{"client":"Teku","percentage":0.008314436885865457}],"networkPenetration":0.005712426869599933},{"id":"Ankr","idType":"entity","timeWindow":"1d","validatorCount":2287,"avgCorrectness":0.848346588272971,"avgInclusionDelay":1.516772254544111,"avgUptime":0.946633629694408,"avgValidatorEffectiveness":68.1315038387011,"clientPercentages":[{"client":"Lighthouse","percentage":0.008238928939237899},{"client":"Prysm","percentage":0.8990731204943357},{"client":"Teku","percentage":0.009268795056642637},{"client":"Nimbus","percentage":0.08341915550978372}],"networkPenetration":0.005636031169445663},{"id":"StakeWise","idType":"entity","timeWindow":"1d","validatorCount":1976,"avgCorrectness":0.9882852836301054,"avgInclusionDelay":1.0229300007873927,"avgUptime":0.9998301844354475,"avgValidatorEffectiveness":97.38640888772142,"clientPercentages":[{"client":"Lighthouse","percentage":0.5461056401074306},{"client":"Prysm","percentage":0.36436884512085943},{"client":"Teku","percentage":0.049239033124440466},{"client":"Nimbus","percentage":0.04028648164726947}],"networkPenetration":0.004869609790478632},{"id":"OKex","idType":"entity","timeWindow":"1d","validatorCount":1548,"avgCorrectness":0.9816451295958998,"avgInclusionDelay":1.0355347303221654,"avgUptime":0.9993741027849556,"avgValidatorEffectiveness":95.9566166639985,"clientPercentages":[{"client":"Prysm","percentage":0.8736263736263736},{"client":"Nimbus","percentage":0.1087912087912088},{"client":"Teku","percentage":0.017582417582417582}],"networkPenetration":0.0038148562528648386}]}