{"page":{"from":0,"size":15},"total":30,"next":"/v0/eth/operators?window=1d&from=15&size=15&idType=entity","data":[{"id":"Lido","idType":"entity","timeWindow":"1d","validatorCount":129665,"avgCorrectness":0.9902787844539946,"avgInclusionDelay":1.021062713672419,"avgUptime":0.9999143064076388,"avgValidatorEffectiveness":97.64488587546725,"clientPercentages":[{"client":"Prysm","percentage":0.36031478358628444},{"client":"Nimbus","percentage":0.06436200112422709},{"client":"Lighthouse","percentage":0.3538103268288766},{"client":"Teku","percentage":0.2215128884606119}],"networkPenetration":0.31153918237694084},{"id":"Coinbase","idType":"entity","timeWindow":"1d","validatorCount":55062,"avgCorrectness":0.9905265138903548,"avgInclusionDelay":1.0209845424232824,"avgUptime":0.9999689936640638,"avgValidatorEffectiveness":97.67346309253116,"clientPercentages":[{"client":"Prysm","percentage":0.37354566135846606},{"client":"Teku","percentage":0.13366915827104323},{"client":"Lighthouse","percentage":0.405622359441014},{"client":"Nimbus","percentage":0.08716282092947676}],"networkPenetration":0.13220658269699315},{"id":"Kraken","idType":"entity","timeWindow":"1d","validatorCount":36274,"avgCorrectness":0.9902859101953924,"avgInclusionDelay":1.0206219363558133,"avgUptime":0.9998790680059161,"avgValidatorEffectiveness":97.67538116143663,"clientPercentages":[{"client":"Lighthouse","percentage":0.2649754027201698},{"client":"Prysm","percentage":0.5996913282531108},{"client":"Nimbus","percentage":0.04528793286389505},{"client":"Teku","percentage":0.09004533616282434}],"networkPenetration":0.0871373581750292},{"id":"Binance","idType":"entity","timeWindow":"1d","validatorCount":21584,"avgCorrectness":0.9901097992564872,"avgInclusionDelay":1.0210223007506891,"avgUptime":0.9999735400708312,"avgValidatorEffectiveness":97.64168693629269,"clientPercentages":[{"client":"Teku","percentage":0.003264417845484222},{"client":"Prysm","percentage":0.5864233698836528},{"client":"Lighthouse","percentage":0.34309868586255965},{"client":"Nimbus","percentage":0.06721352640830335}],"networkPenetration":0.05186192579208135},{"id":"Bitcoin Suisse","idType":"entity","timeWindow":"1d","validatorCount":9000,"avgCorrectness":0.9887909024464923,"avgInclusionDelay":1.0309048663170266,"avgUptime":0.9999703703703715,"avgValidatorEffectiveness":96.75582525019824,"clientPercentages":[{"client":"Teku","percentage":0.9934552454282964},{"client":"Nimbus","percentage":0.0063522617901828685},{"client":"Prysm","percentage":0.00019249278152069297}],"networkPenetration":0.02162515437957432},{"id":"Rocketpool","idType":"entity","timeWindow":"1d","validatorCount":6773,"avgCorrectness":0.9889278261355036,"avgInclusionDelay":1.0253748398215714,"avgUptime":0.9954950271677473,"avgValidatorEffectiveness":96.89473984975157,"clientPercentages":[{"client":"Prysm","percentage":0.07037830121341898},{"client":"Nimbus","percentage":0.2328336902212705},{"client":"Lighthouse","percentage":0.4055674518201285},{"client":"Teku","percentage":0.291220556745182}],"networkPenetration":0.016233282554267123},{"id":"Staked.us","idType":"entity","timeWindow":"1d","validatorCount":5263,"avgCorrectness":0.9888823808128216,"avgInclusionDelay":1.0227956273611718,"avgUptime":0.9998513733189761,"avgValidatorEffectiveness":97.42335018821146,"clientPercentages":[{"client":"Lighthouse","percentage":0.0019887305270135896},{"client":"Nimbus","percentage":0.043752071594298975},{"client":"Prysm","percentage":0.4461385482267153},{"client":"Teku","percentage":0.5081206496519721}],"networkPenetration":0.01264590972218885},{"id":"f2pool.eth","idType":"entity","timeWindow":"1d","validatorCount":3501,"avgCorrectness":0.9903326033831603,"avgInclusionDelay":1.020663937287759,"avgUptime":1.0,"avgValidatorEffectiveness":97.68552431776685,"clientPercentages":[{"client":"Lighthouse","percentage":1.0}],"networkPenetration":0.008412185053654412},{"id":"Bitfinex","idType":"entity","timeWindow":"1d","validatorCount":3214,"avgCorrectness":0.9896978836253965,"avgInclusionDelay":1.022259199556272,"avgUptime":0.9972516075503012,"avgValidatorEffectiveness":97.28649032516284,"clientPercentages":[{"client":"Nimbus","percentage":0.09640522875816994},{"client":"Prysm","percentage":0.8850762527233116},{"client":"Teku","percentage":0.01579520697167756},{"client":"Lighthouse","percentage":0.0027233115468409588}],"networkPenetration":0.007722582908439096},{"id":"Huobi","idType":"entity","timeWindow":"1d","validatorCount":2855,"avgCorrectness":0.9890593330365177,"avgInclusionDelay":1.0240358420484017,"avgUptime":0.9999984432769019,"avgValidatorEffectiveness":97.33954170075103,"clientPercentages":[{"client":"Nimbus","percentage":0.07923169267707082},{"client":"Prysm","percentage":0.9123649459783914},{"client":"Lighthouse","percentage":0.0012004801920768306},{"client":"Teku","percentage":0.007202881152460984}],"networkPenetration":0.006859979528187187},{"id":"wedex.eth","idType":"entity","timeWindow":"1d","validatorCount":2399,"avgCorrectness":0.9893663751520976,"avgInclusionDelay":1.0243068844948044,"avgUptime":0.9995618544764024,"avgValidatorEffectiveness":97.29347560087177,"clientPercentages":[{"client":"Lighthouse","percentage":1.0}],"networkPenetration":0.0057643050396220885},{"id":"Bloxstaking","idType":"entity","timeWindow":"1d","validatorCount":2369,"avgCorrectness":0.9883348936262114,"avgInclusionDelay":1.023966849801544,"avgUptime":0.9997504014866647,"avgValidatorEffectiveness":97.28076289111821,"clientPercentages":[{"client":"Lighthouse","percentage":0.49742836149889785},{"client":"Prysm","percentage":0.44452608376193975},{"client":"Nimbus","percentage":0.05437178545187362},{"client":"Teku","percentage":0.0036737692872887582}],"networkPenetration":0.005687415601828046},{"id":"Ankr","idType":"entity","timeWindow":"1d","validatorCount":2295,"avgCorrectness":0.8423992915458132,"avgInclusionDelay":1.4598225879473237,"avgUptime":0.9731384619766013,"avgValidatorEffectiveness":68.7284559013466,"clientPercentages":[{"client":"Nimbus","percentage":0.07235421166306695},{"client":"Lighthouse","percentage":0.016198704103671708},{"client":"Teku","percentage":0.004319654427645789},{"client":"Prysm","percentage":0.9071274298056156}],"networkPenetration":0.005514414366791452},{"id":"StakeWise","idType":"entity","timeWindow":"1d","validatorCount":1980,"avgCorrectness":0.9903550673074549,"avgInclusionDelay":1.0212517368398606,"avgUptime":0.9999842873176206,"avgValidatorEffectiveness":97.64039368854742,"clientPercentages":[{"client":"Prysm","percentage":0.36069868995633186},{"client":"Nimbus","percentage":0.04017467248908297},{"client":"Lighthouse","percentage":0.5388646288209606},{"client":"Teku","percentage":0.06026200873362445}],"networkPenetration":0.004757533963506351},{"id":"OKex","idType":"entity","timeWindow":"1d","validatorCount":1730,"avgCorrectness":0.9897013090609212,"avgInclusionDelay":1.0215659148333263,"avgUptime":0.9999961464354532,"avgValidatorEffectiveness":97.57633381165788,"clientPercentages":[{"client":"Teku","percentage":0.006718924972004479},{"client":"Lighthouse","percentage":0.0022396416573348264},{"client":"Nimbus","percentage":0.1019036954087346},{"client":"Prysm","percentage":0.8891377379619261}],"networkPenetration":0.0041568352307403975}]}