{"page":{"from":0,"size":15},"total":31,"next":"/v0/eth/operators?window=1d&from=15&size=15&idType=entity","data":[{"id":"Lido","idType":"entity","timeWindow":"1d","validatorCount":128532,"avgCorrectness":0.9876259290314211,"avgInclusionDelay":1.022046474681427,"avgUptime":0.9993049398378979,"avgValidatorEffectiveness":97.40685426355341,"clientPercentages":[{"client":"Lighthouse","percentage":0.4075468394326738},{"client":"Teku","percentage":0.15570828226230082},{"client":"Prysm","percentage":0.36285239012432147},{"client":"Nimbus","percentage":0.0738924881807039}],"networkPenetration":0.3245052187952428},{"id":"Coinbase","idType":"entity","timeWindow":"1d","validatorCount":55710,"avgCorrectness":0.9878713108956035,"avgInclusionDelay":1.0165997034886334,"avgUptime":0.9994816591129747,"avgValidatorEffectiveness":97.84168126688368,"clientPercentages":[{"client":"Teku","percentage":0.1581356136336264},{"client":"Lighthouse","percentage":0.2746597615319764},{"client":"Nimbus","percentage":0.09887992291942671},{"client":"Prysm","percentage":0.4683247019149705}],"networkPenetration":0.14028717902072105},{"id":"Kraken","idType":"entity","timeWindow":"1d","validatorCount":34980,"avgCorrectness":0.9846222123186957,"avgInclusionDelay":1.022080863475893,"avgUptime":0.9989628773541276,"avgValidatorEffectiveness":97.24201029045756,"clientPercentages":[{"client":"Lighthouse","percentage":0.21619094488188975},{"client":"Teku","percentage":0.07898622047244094},{"client":"Nimbus","percentage":0.036122047244094485},{"client":"Prysm","percentage":0.6687007874015748}],"networkPenetration":0.08764948292111041},{"id":"Binance","idType":"entity","timeWindow":"1d","validatorCount":19738,"avgCorrectness":0.9882012464852591,"avgInclusionDelay":1.017253379224037,"avgUptime":0.9998548766620522,"avgValidatorEffectiveness":97.84244197987324,"clientPercentages":[{"client":"Nimbus","percentage":0.06956019473553923},{"client":"Lighthouse","percentage":0.3042330225266111},{"client":"Prysm","percentage":0.6156448551860715},{"client":"Teku","percentage":0.0105619275517782}],"networkPenetration":0.049871014525709925},{"id":"Bitcoin Suisse","idType":"entity","timeWindow":"1d","validatorCount":8550,"avgCorrectness":0.983098244963003,"avgInclusionDelay":1.0702133231218263,"avgUptime":0.9978453267978331,"avgValidatorEffectiveness":93.26194045022635,"clientPercentages":[{"client":"Nimbus","percentage":0.017020424509411294},{"client":"Prysm","percentage":0.00040048057669203043},{"client":"Teku","percentage":0.9825790949138967}],"networkPenetration":0.021443677185109946},{"id":"Rocketpool","idType":"entity","timeWindow":"1d","validatorCount":5714,"avgCorrectness":0.9856696719113758,"avgInclusionDelay":1.0247392311408394,"avgUptime":0.9943945446912472,"avgValidatorEffectiveness":96.70139641688137,"clientPercentages":[{"client":"Lighthouse","percentage":0.4504112990842775},{"client":"Teku","percentage":0.23389725283253143},{"client":"Nimbus","percentage":0.259506441098867},{"client":"Prysm","percentage":0.05618500698432407}],"networkPenetration":0.014348844436696052},{"id":"Staked.us","idType":"entity","timeWindow":"1d","validatorCount":5263,"avgCorrectness":0.9874801023356732,"avgInclusionDelay":1.0196471480859377,"avgUptime":0.999477273207086,"avgValidatorEffectiveness":97.56777155688278,"clientPercentages":[{"client":"Nimbus","percentage":0.04672897196261682},{"client":"Prysm","percentage":0.45981308411214955},{"client":"Teku","percentage":0.4884735202492212},{"client":"Lighthouse","percentage":0.004984423676012461}],"networkPenetration":0.013297758103597696},{"id":"f2pool.eth","idType":"entity","timeWindow":"1d","validatorCount":3501,"avgCorrectness":0.9827981228419359,"avgInclusionDelay":1.070812481320624,"avgUptime":0.9981846456567965,"avgValidatorEffectiveness":93.27891983034591,"clientPercentages":[{"client":"Lighthouse","percentage":0.9995590828924162},{"client":"Nimbus","percentage":0.0004409171075837742}],"networkPenetration":0.00884580108696476},{"id":"Bitfinex","idType":"entity","timeWindow":"1d","validatorCount":3214,"avgCorrectness":0.9829932162444912,"avgInclusionDelay":1.028101043316924,"avgUptime":0.9920147963769606,"avgValidatorEffectiveness":96.04221244513607,"clientPercentages":[{"client":"Lighthouse","percentage":0.0031088082901554403},{"client":"Teku","percentage":0.014507772020725389},{"client":"Prysm","percentage":0.8813471502590674},{"client":"Nimbus","percentage":0.10103626943005181}],"networkPenetration":0.008120652583120462},{"id":"Huobi","idType":"entity","timeWindow":"1d","validatorCount":2855,"avgCorrectness":0.9821264198046626,"avgInclusionDelay":1.0360160590984802,"avgUptime":0.9986464292663951,"avgValidatorEffectiveness":95.90005542900911,"clientPercentages":[{"client":"Teku","percentage":0.0182648401826484},{"client":"Nimbus","percentage":0.0867579908675799},{"client":"Prysm","percentage":0.8921232876712328},{"client":"Lighthouse","percentage":0.0028538812785388126}],"networkPenetration":0.007213585290855296},{"id":"wedex.eth","idType":"entity","timeWindow":"1d","validatorCount":2399,"avgCorrectness":0.9881965560626528,"avgInclusionDelay":1.0149961180196156,"avgUptime":0.9998110323746003,"avgValidatorEffectiveness":98.01973836981703,"clientPercentages":[{"client":"Lighthouse","percentage":0.9993206521739131},{"client":"Nimbus","percentage":0.0006793478260869565}],"networkPenetration":0.006061432964189792},{"id":"Ankr","idType":"entity","timeWindow":"1d","validatorCount":2280,"avgCorrectness":0.84540739639595,"avgInclusionDelay":1.5228081694002609,"avgUptime":0.944825931306357,"avgValidatorEffectiveness":64.78939636116604,"clientPercentages":[{"client":"Prysm","percentage":0.9069124423963134},{"client":"Teku","percentage":0.004608294930875576},{"client":"Lighthouse","percentage":0.010138248847926268},{"client":"Nimbus","percentage":0.07834101382488479}],"networkPenetration":0.005755708333649165},{"id":"Bloxstaking","idType":"entity","timeWindow":"1d","validatorCount":2277,"avgCorrectness":0.9869856528523787,"avgInclusionDelay":1.0169023332802427,"avgUptime":0.9998769947335955,"avgValidatorEffectiveness":97.79737036264413,"clientPercentages":[{"client":"Lighthouse","percentage":0.43134435657800146},{"client":"Teku","percentage":0.012221423436376708},{"client":"Prysm","percentage":0.5197699496764917},{"client":"Nimbus","percentage":0.03666427030913012}],"networkPenetration":0.005750655033970807},{"id":"StakeWise","idType":"entity","timeWindow":"1d","validatorCount":1987,"avgCorrectness":0.9863126142163702,"avgInclusionDelay":1.0236905723007217,"avgUptime":0.9978043768197586,"avgValidatorEffectiveness":97.04423345377424,"clientPercentages":[{"client":"Nimbus","percentage":0.04900181488203267},{"client":"Lighthouse","percentage":0.43920145190562615},{"client":"Teku","percentage":0.04446460980036298},{"client":"Prysm","percentage":0.4673321234119782}],"networkPenetration":0.005010346631091437},{"id":"Stakefish","idType":"entity","timeWindow":"1d","validatorCount":1518,"avgCorrectness":0.9836191057154965,"avgInclusionDelay":1.0650279418083064,"avgUptime":0.9983208900600197,"avgValidatorEffectiveness":93.73715862087653,"clientPercentages":[{"client":"Lighthouse","percentage":0.9599578503688093},{"client":"Teku","percentage":0.03898840885142255},{"client":"Prysm","percentage":0.001053740779768177}],"networkPenetration":0.0038354544558733238}]}