{"page":{"from":0,"size":15},"total":31,"next":"/v0/eth/operators?window=1d&from=15&size=15&idType=entity","data":[{"id":"Lido","idType":"entity","timeWindow":"1d","validatorCount":128688,"avgCorrectness":0.9883826927759217,"avgInclusionDelay":1.015212255128978,"avgUptime":0.999503965740143,"avgValidatorEffectiveness":98.00077193081933,"clientPercentages":[{"client":"Teku","percentage":0.1616713707569852},{"client":"Lighthouse","percentage":0.4034317458895211},{"client":"Nimbus","percentage":0.07577318817854636},{"client":"Prysm","percentage":0.35912369517494735}],"networkPenetration":0.3221990745377697},{"id":"Coinbase","idType":"entity","timeWindow":"1d","validatorCount":55741,"avgCorrectness":0.9879955062439025,"avgInclusionDelay":1.0152013037300696,"avgUptime":0.9996193506076727,"avgValidatorEffectiveness":97.98611685455336,"clientPercentages":[{"client":"Lighthouse","percentage":0.3142138284658747},{"client":"Nimbus","percentage":0.10153189592025223},{"client":"Prysm","percentage":0.42568234657154685},{"client":"Teku","percentage":0.1585719290423262}],"networkPenetration":0.13957302538010055},{"id":"Kraken","idType":"entity","timeWindow":"1d","validatorCount":35361,"avgCorrectness":0.986062601134767,"avgInclusionDelay":1.0184447288922849,"avgUptime":0.9990749587688321,"avgValidatorEffectiveness":97.59873769437482,"clientPercentages":[{"client":"Nimbus","percentage":0.03791444680080691},{"client":"Prysm","percentage":0.6349247400817255},{"client":"Teku","percentage":0.08162209693270574},{"client":"Lighthouse","percentage":0.2455387161847618}],"networkPenetration":0.08851735742473107},{"id":"Binance","idType":"entity","timeWindow":"1d","validatorCount":20422,"avgCorrectness":0.9880050739410864,"avgInclusionDelay":1.0147991036995418,"avgUptime":0.9995493966202009,"avgValidatorEffectiveness":98.0120752990563,"clientPercentages":[{"client":"Teku","percentage":0.010543888937703189},{"client":"Nimbus","percentage":0.07459801423425007},{"client":"Prysm","percentage":0.6037255074246551},{"client":"Lighthouse","percentage":0.3111325894033916}],"networkPenetration":0.051135794555397525},{"id":"Bitcoin Suisse","idType":"entity","timeWindow":"1d","validatorCount":8753,"avgCorrectness":0.9853586769473963,"avgInclusionDelay":1.0447226564936387,"avgUptime":0.9993570450276201,"avgValidatorEffectiveness":95.4728866194722,"clientPercentages":[{"client":"Teku","percentage":0.9917963819941102},{"client":"Nimbus","percentage":0.007993268826251577},{"client":"Prysm","percentage":0.00021034917963819942}],"networkPenetration":0.021761883776366658},{"id":"Rocketpool","idType":"entity","timeWindow":"1d","validatorCount":5803,"avgCorrectness":0.987788863006736,"avgInclusionDelay":1.018668416097341,"avgUptime":0.9915944333635497,"avgValidatorEffectiveness":97.02779607681454,"clientPercentages":[{"client":"Prysm","percentage":0.060119915734889},{"client":"Lighthouse","percentage":0.44271592934694537},{"client":"Nimbus","percentage":0.2550640090747043},{"client":"Teku","percentage":0.24210014584346135}],"networkPenetration":0.014505418561326897},{"id":"Staked.us","idType":"entity","timeWindow":"1d","validatorCount":5263,"avgCorrectness":0.9868129198016434,"avgInclusionDelay":1.0243394627806688,"avgUptime":0.9991956425359432,"avgValidatorEffectiveness":97.14920808926752,"clientPercentages":[{"client":"Prysm","percentage":0.4500330906684315},{"client":"Nimbus","percentage":0.053606882859033755},{"client":"Teku","percentage":0.49503639973527463},{"client":"Lighthouse","percentage":0.0013236267372600927}],"networkPenetration":0.013178321748362412},{"id":"f2pool.eth","idType":"entity","timeWindow":"1d","validatorCount":3501,"avgCorrectness":0.9844626108837659,"avgInclusionDelay":1.0602184632590295,"avgUptime":0.9989019010441459,"avgValidatorEffectiveness":94.24291996822708,"clientPercentages":[{"client":"Lighthouse","percentage":0.9995276334435522},{"client":"Nimbus","percentage":0.0004723665564478035}],"networkPenetration":0.008766350834318223},{"id":"Bitfinex","idType":"entity","timeWindow":"1d","validatorCount":3214,"avgCorrectness":0.9842875522676101,"avgInclusionDelay":1.0235193757254535,"avgUptime":0.9888266611353109,"avgValidatorEffectiveness":96.21436183139244,"clientPercentages":[{"client":"Lighthouse","percentage":0.0027427317608337905},{"client":"Teku","percentage":0.015907844212835986},{"client":"Prysm","percentage":0.8776741634668129},{"client":"Nimbus","percentage":0.10367526055951728}],"networkPenetration":0.0080477153903167},{"id":"Huobi","idType":"entity","timeWindow":"1d","validatorCount":2855,"avgCorrectness":0.9851452000442241,"avgInclusionDelay":1.0238382205695262,"avgUptime":0.9997011091652059,"avgValidatorEffectiveness":97.1233665523792,"clientPercentages":[{"client":"Prysm","percentage":0.8842676311030742},{"client":"Lighthouse","percentage":0.0024110910186859553},{"client":"Nimbus","percentage":0.09644364074743822},{"client":"Teku","percentage":0.016877637130801686}],"networkPenetration":0.007148795096252079},{"id":"wedex.eth","idType":"entity","timeWindow":"1d","validatorCount":2399,"avgCorrectness":0.9882030658688404,"avgInclusionDelay":1.0137692659016353,"avgUptime":0.9998916215089613,"avgValidatorEffectiveness":98.13832407388477,"clientPercentages":[{"client":"Lighthouse","percentage":1.0}],"networkPenetration":0.0060069910458524466},{"id":"Bloxstaking","idType":"entity","timeWindow":"1d","validatorCount":2288,"avgCorrectness":0.9863472376833725,"avgInclusionDelay":1.0158879103842589,"avgUptime":0.9998659673659678,"avgValidatorEffectiveness":97.84956833868581,"clientPercentages":[{"client":"Prysm","percentage":0.5015060240963856},{"client":"Teku","percentage":0.010542168674698794},{"client":"Lighthouse","percentage":0.45180722891566266},{"client":"Nimbus","percentage":0.03614457831325301}],"networkPenetration":0.005729051902005168},{"id":"Ankr","idType":"entity","timeWindow":"1d","validatorCount":2281,"avgCorrectness":0.8526442619179877,"avgInclusionDelay":1.481682676515997,"avgUptime":0.9698796824005076,"avgValidatorEffectiveness":68.44114181291297,"clientPercentages":[{"client":"Lighthouse","percentage":0.009544008483563097},{"client":"Prysm","percentage":0.887592788971368},{"client":"Nimbus","percentage":0.09650053022269353},{"client":"Teku","percentage":0.006362672322375398}],"networkPenetration":0.005711524208249033},{"id":"StakeWise","idType":"entity","timeWindow":"1d","validatorCount":1931,"avgCorrectness":0.9857396507693106,"avgInclusionDelay":1.024801259029095,"avgUptime":0.9985921755963596,"avgValidatorEffectiveness":97.00550666375747,"clientPercentages":[{"client":"Nimbus","percentage":0.04875717017208413},{"client":"Lighthouse","percentage":0.5277246653919694},{"client":"Teku","percentage":0.04397705544933078},{"client":"Prysm","percentage":0.3795411089866157}],"networkPenetration":0.004832635564191423},{"id":"Stakefish","idType":"entity","timeWindow":"1d","validatorCount":1518,"avgCorrectness":0.9837817157314719,"avgInclusionDelay":1.066613113884194,"avgUptime":0.9986722295417944,"avgValidatorEffectiveness":93.67462057657337,"clientPercentages":[{"client":"Prysm","percentage":0.0011261261261261261},{"client":"Lighthouse","percentage":0.9583333333333334},{"client":"Teku","percentage":0.04054054054054054}],"networkPenetration":0.0038010055888303518}]}