{"page":{"from":0,"size":15},"total":36,"next":"/v0/eth/operators?window=1d&from=15&size=15&idType=entity","data":[{"id":"Lido","idType":"entity","timeWindow":"1d","validatorCount":134669,"avgCorrectness":0.988553120539644,"avgInclusionDelay":1.0337343783649369,"avgUptime":0.9987448220773869,"avgValidatorEffectiveness":95.64764454384715,"clientPercentages":[{"client":"Lighthouse","percentage":0.45778842956887955},{"client":"Nimbus","percentage":0.01863293804721268},{"client":"Prysm","percentage":0.3560207248143633},{"client":"Teku","percentage":0.1635681037348997},{"client":"Lodestar","percentage":0.003989803834644797}],"networkPenetration":0.299544677669177,"relayerPercentages":[{"relayer":"manifold","percentage":0.018730232199336574},{"relayer":"flashbots","percentage":0.49878886060325545},{"relayer":"blocknative","percentage":0.03562446964437244},{"relayer":"bloxroute_regulated","percentage":0.012003394276016354},{"relayer":"bloxroute_ethical","percentage":0.04843014734243616},{"relayer":"no_mev_boost","percentage":0.31522024222787937},{"relayer":"bloxroute_maxprofit","percentage":0.03812389107459693},{"relayer":"edennetwork","percentage":0.03307876263210677}],"nodeOperatorCount":29},{"id":"Coinbase","idType":"entity","timeWindow":"1d","validatorCount":54468,"avgCorrectness":0.9870786618848882,"avgInclusionDelay":1.032698467294076,"avgUptime":0.998588947777407,"avgValidatorEffectiveness":95.57118038592569,"clientPercentages":[{"client":"Nimbus","percentage":0.006841309130913091},{"client":"Teku","percentage":0.20678630363036304},{"client":"Prysm","percentage":0.3576388888888889},{"client":"Lighthouse","percentage":0.428733498349835}],"networkPenetration":0.1212145489504887,"relayerPercentages":[{"relayer":"bloxroute_regulated","percentage":3.819709702062643e-05},{"relayer":"bloxroute_ethical","percentage":3.819709702062643e-05},{"relayer":"no_mev_boost","percentage":0.9935446906035141},{"relayer":"bloxroute_maxprofit","percentage":0.001336898395721925},{"relayer":"manifold","percentage":7.639419404125286e-05},{"relayer":"flashbots","percentage":0.004965622612681436}],"nodeOperatorCount":null},{"id":"Kraken","idType":"entity","timeWindow":"1d","validatorCount":37887,"avgCorrectness":0.9884623720190918,"avgInclusionDelay":1.0297540778677836,"avgUptime":0.9988322822082836,"avgValidatorEffectiveness":95.98032851137458,"clientPercentages":[{"client":"Lighthouse","percentage":0.25358074518875817},{"client":"Prysm","percentage":0.6941969779002806},{"client":"Teku","percentage":0.052123837180686125},{"client":"Nimbus","percentage":9.843973027513905e-05}],"networkPenetration":0.08430584486104435,"relayerPercentages":[{"relayer":"bloxroute_maxprofit","percentage":0.0070441762682247585},{"relayer":"no_mev_boost","percentage":0.5407087861082291},{"relayer":"blocknative","percentage":0.00748102440888986},{"relayer":"bloxroute_ethical","percentage":0.0018566045978266805},{"relayer":"edennetwork","percentage":0.0024572707912411946},{"relayer":"manifold","percentage":0.0033309670725713975},{"relayer":"flashbots","percentage":0.437121170753017}],"nodeOperatorCount":null},{"id":"Binance","idType":"entity","timeWindow":"1d","validatorCount":23826,"avgCorrectness":0.989754730054572,"avgInclusionDelay":1.026013927704741,"avgUptime":0.9996192638860597,"avgValidatorEffectiveness":96.51396459243267,"clientPercentages":[{"client":"Nimbus","percentage":0.0011181215557862791},{"client":"Prysm","percentage":0.5314272023001357},{"client":"Lighthouse","percentage":0.4613848734126667},{"client":"Teku","percentage":0.006069802731411229}],"networkPenetration":0.05302301981520056,"relayerPercentages":[{"relayer":"edennetwork","percentage":0.004058226731363035},{"relayer":"no_mev_boost","percentage":0.3822673136303485},{"relayer":"bloxroute_maxprofit","percentage":0.006793118659020732},{"relayer":"bloxroute_regulated","percentage":0.033083370092633436},{"relayer":"flashbots","percentage":0.5715041905602117},{"relayer":"blocknative","percentage":0.0022055580061755625},{"relayer":"bloxroute_ethical","percentage":8.82223202470225e-05}],"nodeOperatorCount":null},{"id":"Staked.us","idType":"entity","timeWindow":"1d","validatorCount":12734,"avgCorrectness":0.9880482354552156,"avgInclusionDelay":1.0300614451407644,"avgUptime":0.998767891265975,"avgValidatorEffectiveness":95.91325841434524,"clientPercentages":[{"client":"Prysm","percentage":0.6296512476287757},{"client":"Lighthouse","percentage":0.11148402159638114},{"client":"Nimbus","percentage":0.00029184298847220193},{"client":"Teku","percentage":0.25857288778637094}],"networkPenetration":0.02833858534066834,"relayerPercentages":[{"relayer":"bloxroute_ethical","percentage":0.00015489467162329616},{"relayer":"edennetwork","percentage":0.0017038413878562577},{"relayer":"no_mev_boost","percentage":0.411090458488228},{"relayer":"manifold","percentage":0.005266418835192069},{"relayer":"blocknative","percentage":0.0012391573729863693},{"relayer":"flashbots","percentage":0.5777571251548946},{"relayer":"bloxroute_maxprofit","percentage":0.0027881040892193307}],"nodeOperatorCount":null},{"id":"Bitcoin Suisse","idType":"entity","timeWindow":"1d","validatorCount":9214,"avgCorrectness":0.9899220624300665,"avgInclusionDelay":1.0329990265380518,"avgUptime":0.9947993994645836,"avgValidatorEffectiveness":95.4488448935438,"clientPercentages":[{"client":"Teku","percentage":0.9743690851735016},{"client":"Nimbus","percentage":0.024842271293375396},{"client":"Lighthouse","percentage":0.0001971608832807571},{"client":"Prysm","percentage":0.0005914826498422713}],"networkPenetration":0.020505082874895404,"relayerPercentages":[{"relayer":"no_mev_boost","percentage":1.0}],"nodeOperatorCount":null},{"id":"Rocketpool","idType":"entity","timeWindow":"1d","validatorCount":9039,"avgCorrectness":0.9868275923453493,"avgInclusionDelay":1.0347110814419225,"avgUptime":0.9236852045087187,"avgValidatorEffectiveness":88.30361263991745,"clientPercentages":[{"client":"Teku","percentage":0.3408782254413762},{"client":"Lighthouse","percentage":0.4125169760072431},{"client":"Nimbus","percentage":0.1949977365323676},{"client":"Prysm","percentage":0.05160706201901313}],"networkPenetration":0.020051095800174473,"relayerPercentages":[{"relayer":"blocknative","percentage":0.054407222618199094},{"relayer":"flashbots","percentage":0.5288667141838916},{"relayer":"bloxroute_maxprofit","percentage":0.09004514136374436},{"relayer":"no_mev_boost","percentage":0.18294131622713233},{"relayer":"manifold","percentage":0.001900688999762414},{"relayer":"edennetwork","percentage":0.03967688287004039},{"relayer":"bloxroute_ethical","percentage":0.03682584937039677},{"relayer":"bloxroute_regulated","percentage":0.06533618436683297}],"nodeOperatorCount":1566},{"id":"Stakefish","idType":"entity","timeWindow":"1d","validatorCount":8059,"avgCorrectness":0.9860185716438805,"avgInclusionDelay":1.0554178288223452,"avgUptime":0.997789247011623,"avgValidatorEffectiveness":93.49008504140974,"clientPercentages":[{"client":"Teku","percentage":0.30479016532428993},{"client":"Lighthouse","percentage":0.6877914370495973},{"client":"Nimbus","percentage":0.006570580754557015},{"client":"Prysm","percentage":0.000847816871555744}],"networkPenetration":0.017934714878313662,"relayerPercentages":[{"relayer":"bloxroute_maxprofit","percentage":0.001340782122905028},{"relayer":"no_mev_boost","percentage":0.02011173184357542},{"relayer":"flashbots","percentage":0.8887150837988826},{"relayer":"manifold","percentage":0.0893854748603352},{"relayer":"bloxroute_ethical","percentage":0.000223463687150838},{"relayer":"bloxroute_regulated","percentage":0.000223463687150838}],"nodeOperatorCount":null},{"id":"Celsius Network","idType":"entity","timeWindow":"1d","validatorCount":4943,"avgCorrectness":0.9899299920960752,"avgInclusionDelay":1.0263564106346768,"avgUptime":0.9996272907976335,"avgValidatorEffectiveness":96.50060395440606,"clientPercentages":[{"client":"Lighthouse","percentage":0.004900113079532605},{"client":"Prysm","percentage":0.9890689785148888},{"client":"Teku","percentage":0.00603090840557859}],"networkPenetration":0.011000284854635119,"relayerPercentages":[{"relayer":"flashbots","percentage":0.9539339584182633},{"relayer":"no_mev_boost","percentage":0.04606604158173665}],"nodeOperatorCount":null},{"id":"Bitfinex","idType":"entity","timeWindow":"1d","validatorCount":3214,"avgCorrectness":0.9902292807998082,"avgInclusionDelay":1.026809529079741,"avgUptime":0.9996411378542287,"avgValidatorEffectiveness":96.4902121062074,"clientPercentages":[{"client":"Teku","percentage":0.016724336793540944},{"client":"Prysm","percentage":0.9792387543252595},{"client":"Lighthouse","percentage":0.0034602076124567475},{"client":"Nimbus","percentage":0.0005767012687427913}],"networkPenetration":0.007152521853691538,"relayerPercentages":[{"relayer":"flashbots","percentage":0.5723153320918684},{"relayer":"edennetwork","percentage":0.0012414649286157666},{"relayer":"no_mev_boost","percentage":0.42582247051520794},{"relayer":"bloxroute_maxprofit","percentage":0.0006207324643078833}],"nodeOperatorCount":null},{"id":"Huobi","idType":"entity","timeWindow":"1d","validatorCount":2855,"avgCorrectness":0.9895408345371549,"avgInclusionDelay":1.0263529851530833,"avgUptime":0.9995726656103199,"avgValidatorEffectiveness":96.45526591092968,"clientPercentages":[{"client":"Lighthouse","percentage":0.007677543186180422},{"client":"Prysm","percentage":0.981445937300064},{"client":"Teku","percentage":0.010876519513755598}],"networkPenetration":0.0063535936192561735,"relayerPercentages":[{"relayer":"blocknative","percentage":0.051699716713881017},{"relayer":"bloxroute_ethical","percentage":0.05736543909348442},{"relayer":"manifold","percentage":0.053824362606232294},{"relayer":"bloxroute_regulated","percentage":0.05453257790368272},{"relayer":"edennetwork","percentage":0.09419263456090651},{"relayer":"flashbots","percentage":0.5757790368271954},{"relayer":"bloxroute_maxprofit","percentage":0.09631728045325778},{"relayer":"no_mev_boost","percentage":0.016288951841359773}],"nodeOperatorCount":null},{"id":"Abyss","idType":"entity","timeWindow":"1d","validatorCount":2824,"avgCorrectness":0.9896080706234763,"avgInclusionDelay":1.028501301751627,"avgUptime":0.9986990027065963,"avgValidatorEffectiveness":96.19732793673775,"clientPercentages":[{"client":"Prysm","percentage":0.033630748112560054},{"client":"Nimbus","percentage":0.04461221688400824},{"client":"Teku","percentage":0.8407687028140014},{"client":"Lighthouse","percentage":0.08098833218943034}],"networkPenetration":0.006282379960476419,"relayerPercentages":[{"relayer":"blocknative","percentage":0.0063784549964564135},{"relayer":"no_mev_boost","percentage":0.5839829907866761},{"relayer":"bloxroute_ethical","percentage":0.0063784549964564135},{"relayer":"edennetwork","percentage":0.013465627214741318},{"relayer":"flashbots","percentage":0.3479801559177888},{"relayer":"manifold","percentage":0.003543586109142452},{"relayer":"bloxroute_regulated","percentage":0.01559177888022679},{"relayer":"bloxroute_maxprofit","percentage":0.022678951098511695}],"nodeOperatorCount":null},{"id":"Bloxstaking","idType":"entity","timeWindow":"1d","validatorCount":2584,"avgCorrectness":0.9890891919541397,"avgInclusionDelay":1.0264814881754634,"avgUptime":0.999539790741572,"avgValidatorEffectiveness":96.39850469296852,"clientPercentages":[{"client":"Prysm","percentage":0.6855631141345427},{"client":"Teku","percentage":0.006046863189720333},{"client":"Lighthouse","percentage":0.30839002267573695}],"networkPenetration":0.0057482775196282644,"relayerPercentages":[{"relayer":"bloxroute_ethical","percentage":0.0031570639305445935},{"relayer":"blocknative","percentage":0.05367008681925809},{"relayer":"no_mev_boost","percentage":0.016574585635359115},{"relayer":"flashbots","percentage":0.9265982636148382}],"nodeOperatorCount":null},{"id":"wedex.eth","idType":"entity","timeWindow":"1d","validatorCount":2399,"avgCorrectness":0.989554229137881,"avgInclusionDelay":1.0264776938495799,"avgUptime":0.9996461281817157,"avgValidatorEffectiveness":96.45988017165372,"clientPercentages":[{"client":"Lighthouse","percentage":0.993841416474211},{"client":"Nimbus","percentage":0.006158583525789068}],"networkPenetration":0.005338798981644679,"relayerPercentages":[{"relayer":"bloxroute_maxprofit","percentage":0.14025974025974025},{"relayer":"bloxroute_ethical","percentage":0.009523809523809525},{"relayer":"blocknative","percentage":0.047619047619047616},{"relayer":"flashbots","percentage":0.44155844155844154},{"relayer":"edennetwork","percentage":0.09783549783549783},{"relayer":"manifold","percentage":0.04329004329004329},{"relayer":"no_mev_boost","percentage":0.21991341991341992}],"nodeOperatorCount":null},{"id":"Ankr","idType":"entity","timeWindow":"1d","validatorCount":2300,"avgCorrectness":0.9894381048585233,"avgInclusionDelay":1.0259138428523786,"avgUptime":0.9995825957556941,"avgValidatorEffectiveness":96.48725482584526,"clientPercentages":[{"client":"Prysm","percentage":0.162291169451074},{"client":"Lighthouse","percentage":0.8369132856006364},{"client":"Teku","percentage":0.0007955449482895784}],"networkPenetration":0.0051184817247948156,"relayerPercentages":[{"relayer":"flashbots","percentage":0.1480836236933798},{"relayer":"no_mev_boost","percentage":0.8519163763066202}],"nodeOperatorCount":null}]}