{"page":{"from":0,"size":15},"total":36,"next":"/v0/eth/operators?window=1d&from=15&size=15&idType=entity","data":[{"id":"Lido","idType":"entity","timeWindow":"1d","validatorCount":138056,"avgCorrectness":0.9894835404330817,"avgInclusionDelay":1.0239735743193403,"avgUptime":0.9991386134831018,"avgValidatorEffectiveness":96.63363466004981,"clientPercentages":[{"client":"Prysm","percentage":0.3560207248143633},{"client":"Teku","percentage":0.1635681037348997},{"client":"Nimbus","percentage":0.01863293804721268},{"client":"Lodestar","percentage":0.003989803834644797},{"client":"Lighthouse","percentage":0.45778842956887955}],"networkPenetration":0.3018016728088165,"relayerPercentages":[{"relayer":"blocknative","percentage":0.036703245388746204},{"relayer":"bloxroute_ethical","percentage":0.048501828936103976},{"relayer":"bloxroute_maxprofit","percentage":0.037403689003035256},{"relayer":"bloxroute_regulated","percentage":0.01299712039847459},{"relayer":"edennetwork","percentage":0.04461047552338703},{"relayer":"flashbots","percentage":0.5699587516538251},{"relayer":"manifold","percentage":0.019098762549614755},{"relayer":"no_mev_boost","percentage":0.230726126546813}],"nodeOperatorCount":29},{"id":"Coinbase","idType":"entity","timeWindow":"1d","validatorCount":54645,"avgCorrectness":0.9879852763660458,"avgInclusionDelay":1.0243293379576435,"avgUptime":0.9989474898787627,"avgValidatorEffectiveness":96.423517600704,"clientPercentages":[{"client":"Lighthouse","percentage":0.42874823804448725},{"client":"Teku","percentage":0.20679341286485373},{"client":"Prysm","percentage":0.3576168047581394},{"client":"Nimbus","percentage":0.0068415443325196825}],"networkPenetration":0.12037218564344986,"relayerPercentages":[{"relayer":"bloxroute_ethical","percentage":3.875217981011432e-05},{"relayer":"bloxroute_maxprofit","percentage":0.004727765936833947},{"relayer":"bloxroute_regulated","percentage":3.875217981011432e-05},{"relayer":"flashbots","percentage":0.036659562100368144},{"relayer":"manifold","percentage":7.750435962022864e-05},{"relayer":"no_mev_boost","percentage":0.9584576632435574}],"nodeOperatorCount":null},{"id":"Kraken","idType":"entity","timeWindow":"1d","validatorCount":37969,"avgCorrectness":0.9892969873091858,"avgInclusionDelay":1.0214268343233714,"avgUptime":0.9980286630572694,"avgValidatorEffectiveness":96.719223983908,"clientPercentages":[{"client":"Teku","percentage":0.052123837180686125},{"client":"Nimbus","percentage":9.843973027513905e-05},{"client":"Lighthouse","percentage":0.25358074518875817},{"client":"Prysm","percentage":0.6941969779002806}],"networkPenetration":0.08357435672636998,"relayerPercentages":[{"relayer":"blocknative","percentage":0.007677122175915771},{"relayer":"bloxroute_ethical","percentage":0.002632156174599693},{"relayer":"bloxroute_maxprofit","percentage":0.008664180741390656},{"relayer":"edennetwork","percentage":0.005264312349199386},{"relayer":"flashbots","percentage":0.43776047378811145},{"relayer":"manifold","percentage":0.004935292827374424},{"relayer":"no_mev_boost","percentage":0.5330664619434087}],"nodeOperatorCount":null},{"id":"Binance","idType":"entity","timeWindow":"1d","validatorCount":23826,"avgCorrectness":0.9907787249032225,"avgInclusionDelay":1.0178018958468773,"avgUptime":0.9999654905472075,"avgValidatorEffectiveness":97.37768068197173,"clientPercentages":[{"client":"Prysm","percentage":0.5314272023001357},{"client":"Nimbus","percentage":0.0011181215557862791},{"client":"Lighthouse","percentage":0.4613848734126667},{"client":"Teku","percentage":0.006069802731411229}],"networkPenetration":0.05248399112710836,"relayerPercentages":[{"relayer":"blocknative","percentage":0.0019448373408769448},{"relayer":"bloxroute_ethical","percentage":8.84016973125884e-05},{"relayer":"bloxroute_maxprofit","percentage":0.004154879773691655},{"relayer":"bloxroute_regulated","percentage":0.03933875530410184},{"relayer":"edennetwork","percentage":0.004331683168316832},{"relayer":"flashbots","percentage":0.6770685997171145},{"relayer":"no_mev_boost","percentage":0.2730728429985856}],"nodeOperatorCount":null},{"id":"Staked.us","idType":"entity","timeWindow":"1d","validatorCount":12816,"avgCorrectness":0.9892239915492914,"avgInclusionDelay":1.0211279875525412,"avgUptime":0.9993185297656424,"avgValidatorEffectiveness":96.86474849277505,"clientPercentages":[{"client":"Teku","percentage":0.25857288778637094},{"client":"Nimbus","percentage":0.00029184298847220193},{"client":"Lighthouse","percentage":0.11148402159638114},{"client":"Prysm","percentage":0.6296512476287757}],"networkPenetration":0.02818707086638456,"relayerPercentages":[{"relayer":"blocknative","percentage":0.005086313193588163},{"relayer":"bloxroute_ethical","percentage":0.00015413070283600493},{"relayer":"bloxroute_maxprofit","percentage":0.004932182490752158},{"relayer":"edennetwork","percentage":0.014488286066584463},{"relayer":"flashbots","percentage":0.5559494451294698},{"relayer":"manifold","percentage":0.004778051787916153},{"relayer":"no_mev_boost","percentage":0.4146115906288533}],"nodeOperatorCount":null},{"id":"Bitcoin Suisse","idType":"entity","timeWindow":"1d","validatorCount":9214,"avgCorrectness":0.991200352574486,"avgInclusionDelay":1.0198390691416033,"avgUptime":0.999808745146274,"avgValidatorEffectiveness":97.21757468330048,"clientPercentages":[{"client":"Teku","percentage":0.9743690851735016},{"client":"Prysm","percentage":0.0005914826498422713},{"client":"Nimbus","percentage":0.024842271293375396},{"client":"Lighthouse","percentage":0.0001971608832807571}],"networkPenetration":0.020296629490689853,"relayerPercentages":[{"relayer":"no_mev_boost","percentage":1.0}],"nodeOperatorCount":null},{"id":"Rocketpool","idType":"entity","timeWindow":"1d","validatorCount":9092,"avgCorrectness":0.9878300164452499,"avgInclusionDelay":1.026438626975362,"avgUptime":0.9812661573399575,"avgValidatorEffectiveness":94.61390455890027,"clientPercentages":[{"client":"Teku","percentage":0.3408782254413762},{"client":"Nimbus","percentage":0.1949977365323676},{"client":"Prysm","percentage":0.05160706201901313},{"client":"Lighthouse","percentage":0.4125169760072431}],"networkPenetration":0.020019076276469434,"relayerPercentages":[{"relayer":"blocknative","percentage":0.05269320843091335},{"relayer":"bloxroute_ethical","percentage":0.035597189695550355},{"relayer":"bloxroute_maxprofit","percentage":0.08594847775175644},{"relayer":"bloxroute_regulated","percentage":0.05714285714285714},{"relayer":"edennetwork","percentage":0.047775175644028105},{"relayer":"flashbots","percentage":0.5545667447306791},{"relayer":"manifold","percentage":0.001873536299765808},{"relayer":"no_mev_boost","percentage":0.16440281030444964}],"nodeOperatorCount":1583},{"id":"Stakefish","idType":"entity","timeWindow":"1d","validatorCount":8059,"avgCorrectness":0.9870217365532727,"avgInclusionDelay":1.0457529037016444,"avgUptime":0.9978472653072485,"avgValidatorEffectiveness":94.38499112646834,"clientPercentages":[{"client":"Lighthouse","percentage":0.6877914370495973},{"client":"Prysm","percentage":0.000847816871555744},{"client":"Nimbus","percentage":0.006570580754557015},{"client":"Teku","percentage":0.30479016532428993}],"networkPenetration":0.017752391693669364,"relayerPercentages":[{"relayer":"bloxroute_ethical","percentage":0.0004512635379061372},{"relayer":"bloxroute_maxprofit","percentage":0.002256317689530686},{"relayer":"bloxroute_regulated","percentage":0.0002256317689530686},{"relayer":"edennetwork","percentage":0.0004512635379061372},{"relayer":"flashbots","percentage":0.89485559566787},{"relayer":"manifold","percentage":0.08325812274368231},{"relayer":"no_mev_boost","percentage":0.018501805054151624}],"nodeOperatorCount":null},{"id":"Celsius Network","idType":"entity","timeWindow":"1d","validatorCount":4943,"avgCorrectness":0.9908172804715134,"avgInclusionDelay":1.0179672459574483,"avgUptime":0.9999388585429452,"avgValidatorEffectiveness":97.36400120809802,"clientPercentages":[{"client":"Prysm","percentage":0.9890689785148888},{"client":"Teku","percentage":0.00603090840557859},{"client":"Lighthouse","percentage":0.004900113079532605}],"networkPenetration":0.010888456649932704,"relayerPercentages":[{"relayer":"flashbots","percentage":0.9458677685950413},{"relayer":"no_mev_boost","percentage":0.05413223140495868}],"nodeOperatorCount":null},{"id":"Bitfinex","idType":"entity","timeWindow":"1d","validatorCount":3214,"avgCorrectness":0.9912776520703903,"avgInclusionDelay":1.0173070364700536,"avgUptime":0.9995139321026068,"avgValidatorEffectiveness":97.42896698100489,"clientPercentages":[{"client":"Teku","percentage":0.016724336793540944},{"client":"Prysm","percentage":0.9792387543252595},{"client":"Lighthouse","percentage":0.0034602076124567475},{"client":"Nimbus","percentage":0.0005767012687427913}],"networkPenetration":0.007079809765908095,"relayerPercentages":[{"relayer":"blocknative","percentage":0.0012674271229404308},{"relayer":"bloxroute_maxprofit","percentage":0.0012674271229404308},{"relayer":"edennetwork","percentage":0.0038022813688212928},{"relayer":"flashbots","percentage":0.7129277566539924},{"relayer":"no_mev_boost","percentage":0.28073510773130544}],"nodeOperatorCount":null},{"id":"Abyss","idType":"entity","timeWindow":"1d","validatorCount":2860,"avgCorrectness":0.9905029224076907,"avgInclusionDelay":1.0201946781322067,"avgUptime":0.9988049728049733,"avgValidatorEffectiveness":97.02887325037943,"clientPercentages":[{"client":"Lighthouse","percentage":0.08098833218943034},{"client":"Nimbus","percentage":0.04461221688400824},{"client":"Teku","percentage":0.8407687028140014},{"client":"Prysm","percentage":0.033630748112560054}],"networkPenetration":0.006300017402145971,"relayerPercentages":[{"relayer":"blocknative","percentage":0.0071581961345740875},{"relayer":"bloxroute_ethical","percentage":0.004294917680744453},{"relayer":"bloxroute_maxprofit","percentage":0.02219040801717967},{"relayer":"bloxroute_regulated","percentage":0.015748031496062992},{"relayer":"edennetwork","percentage":0.013600572655690766},{"relayer":"flashbots","percentage":0.36649964209019326},{"relayer":"manifold","percentage":0.004294917680744453},{"relayer":"no_mev_boost","percentage":0.5662133142448104}],"nodeOperatorCount":null},{"id":"Huobi","idType":"entity","timeWindow":"1d","validatorCount":2855,"avgCorrectness":0.9907405893880673,"avgInclusionDelay":1.0178608262870015,"avgUptime":0.999969643899591,"avgValidatorEffectiveness":97.3701572567605,"clientPercentages":[{"client":"Teku","percentage":0.010876519513755598},{"client":"Prysm","percentage":0.981445937300064},{"client":"Lighthouse","percentage":0.007677543186180422}],"networkPenetration":0.006289003385708653,"relayerPercentages":[{"relayer":"blocknative","percentage":0.056068133427963095},{"relayer":"bloxroute_ethical","percentage":0.029098651525904896},{"relayer":"bloxroute_maxprofit","percentage":0.10149041873669269},{"relayer":"bloxroute_regulated","percentage":0.05961674946770759},{"relayer":"edennetwork","percentage":0.10290986515259049},{"relayer":"flashbots","percentage":0.5869410929737402},{"relayer":"manifold","percentage":0.05961674946770759},{"relayer":"no_mev_boost","percentage":0.0042583392476933995}],"nodeOperatorCount":null},{"id":"Bloxstaking","idType":"entity","timeWindow":"1d","validatorCount":2587,"avgCorrectness":0.9898390325920632,"avgInclusionDelay":1.0179576472690288,"avgUptime":0.9999811020916552,"avgValidatorEffectiveness":97.26933020250186,"clientPercentages":[{"client":"Prysm","percentage":0.6855631141345427},{"client":"Lighthouse","percentage":0.30839002267573695},{"client":"Teku","percentage":0.006046863189720333}],"networkPenetration":0.005698652104668401,"relayerPercentages":[{"relayer":"blocknative","percentage":0.041666666666666664},{"relayer":"bloxroute_ethical","percentage":0.0032679738562091504},{"relayer":"flashbots","percentage":0.9395424836601307},{"relayer":"no_mev_boost","percentage":0.015522875816993464}],"nodeOperatorCount":null},{"id":"wedex.eth","idType":"entity","timeWindow":"1d","validatorCount":2399,"avgCorrectness":0.990311003898202,"avgInclusionDelay":1.0177262587635436,"avgUptime":0.999927747672641,"avgValidatorEffectiveness":97.33616588189899,"clientPercentages":[{"client":"Nimbus","percentage":0.006158583525789068},{"client":"Lighthouse","percentage":0.993841416474211}],"networkPenetration":0.005284525086625239,"relayerPercentages":[{"relayer":"blocknative","percentage":0.04498269896193772},{"relayer":"bloxroute_ethical","percentage":0.009515570934256055},{"relayer":"bloxroute_maxprofit","percentage":0.10207612456747404},{"relayer":"edennetwork","percentage":0.11937716262975778},{"relayer":"flashbots","percentage":0.47837370242214533},{"relayer":"manifold","percentage":0.04844290657439446},{"relayer":"no_mev_boost","percentage":0.1972318339100346}],"nodeOperatorCount":null},{"id":"Ankr","idType":"entity","timeWindow":"1d","validatorCount":2300,"avgCorrectness":0.9905768423113887,"avgInclusionDelay":1.0179570769337796,"avgUptime":0.999969082125604,"avgValidatorEffectiveness":97.34443780796934,"clientPercentages":[{"client":"Lighthouse","percentage":0.8369132856006364},{"client":"Prysm","percentage":0.162291169451074},{"client":"Teku","percentage":0.0007955449482895784}],"networkPenetration":0.00506644756116634,"relayerPercentages":[{"relayer":"flashbots","percentage":0.147005444646098},{"relayer":"no_mev_boost","percentage":0.852994555353902}],"nodeOperatorCount":null}]}