{"page":{"from":0,"size":15},"total":30,"next":"/v0/eth/operators?window=1d&from=15&size=15&idType=entity","data":[{"id":"Lido","idType":"entity","timeWindow":"1d","validatorCount":129515,"avgCorrectness":0.991478381458887,"avgInclusionDelay":1.0180107337063375,"avgUptime":0.9997103025834693,"avgValidatorEffectiveness":97.95464079991814,"clientPercentages":[{"client":"Nimbus","percentage":0.06436200112422709},{"client":"Teku","percentage":0.2215128884606119},{"client":"Lighthouse","percentage":0.3538103268288766},{"client":"Prysm","percentage":0.36031478358628444}],"networkPenetration":0.3139401843242012},{"id":"Coinbase","idType":"entity","timeWindow":"1d","validatorCount":55903,"avgCorrectness":0.9917313915349253,"avgInclusionDelay":1.0178819867454911,"avgUptime":0.9996009357478304,"avgValidatorEffectiveness":97.96428881553659,"clientPercentages":[{"client":"Prysm","percentage":0.3733046694698239},{"client":"Teku","percentage":0.14033701115993805},{"client":"Nimbus","percentage":0.0904176282760583},{"client":"Lighthouse","percentage":0.3959406910941798}],"networkPenetration":0.13551125482990492},{"id":"Kraken","idType":"entity","timeWindow":"1d","validatorCount":36127,"avgCorrectness":0.9856118825970595,"avgInclusionDelay":1.028189345838839,"avgUptime":0.9982729737038442,"avgValidatorEffectiveness":96.8422554730071,"clientPercentages":[{"client":"Lighthouse","percentage":0.2649754027201698},{"client":"Prysm","percentage":0.5996913282531108},{"client":"Teku","percentage":0.09004533616282434},{"client":"Nimbus","percentage":0.04528793286389505}],"networkPenetration":0.08754672342158465},{"id":"Binance","idType":"entity","timeWindow":"1d","validatorCount":21153,"avgCorrectness":0.9916242650755716,"avgInclusionDelay":1.0168994135314882,"avgUptime":0.9998198311770882,"avgValidatorEffectiveness":98.05722108784457,"clientPercentages":[{"client":"Prysm","percentage":0.5864233698836528},{"client":"Nimbus","percentage":0.06721352640830335},{"client":"Teku","percentage":0.003264417845484222},{"client":"Lighthouse","percentage":0.34309868586255965}],"networkPenetration":0.05127577363320357},{"id":"Bitcoin Suisse","idType":"entity","timeWindow":"1d","validatorCount":9000,"avgCorrectness":0.9901036615797741,"avgInclusionDelay":1.0325495434292309,"avgUptime":0.9998585185185181,"avgValidatorEffectiveness":96.70312824948547,"clientPercentages":[{"client":"Teku","percentage":0.9934552454282964},{"client":"Nimbus","percentage":0.0063522617901828685},{"client":"Prysm","percentage":0.00019249278152069297}],"networkPenetration":0.021816383619289562},{"id":"Rocketpool","idType":"entity","timeWindow":"1d","validatorCount":6626,"avgCorrectness":0.9896765017985306,"avgInclusionDelay":1.0236727996392767,"avgUptime":0.9907662902417398,"avgValidatorEffectiveness":96.72653801405859,"clientPercentages":[{"client":"Lighthouse","percentage":0.4055674518201285},{"client":"Nimbus","percentage":0.2328336902212705},{"client":"Prysm","percentage":0.07037830121341898},{"client":"Teku","percentage":0.291220556745182}],"networkPenetration":0.016032617917553463},{"id":"Staked.us","idType":"entity","timeWindow":"1d","validatorCount":5263,"avgCorrectness":0.9911305391710836,"avgInclusionDelay":1.0171531105045144,"avgUptime":0.9953828614858453,"avgValidatorEffectiveness":97.6309567909824,"clientPercentages":[{"client":"Prysm","percentage":0.4461385482267153},{"client":"Lighthouse","percentage":0.0019887305270135896},{"client":"Nimbus","percentage":0.043752071594298975},{"client":"Teku","percentage":0.5081206496519721}],"networkPenetration":0.012757736332035663},{"id":"f2pool.eth","idType":"entity","timeWindow":"1d","validatorCount":3501,"avgCorrectness":0.9921939763242248,"avgInclusionDelay":1.0167964708495985,"avgUptime":1.0,"avgValidatorEffectiveness":98.11346508948569,"clientPercentages":[{"client":"Lighthouse","percentage":1.0}],"networkPenetration":0.00848657322790364},{"id":"Bitfinex","idType":"entity","timeWindow":"1d","validatorCount":3214,"avgCorrectness":0.9902681494702575,"avgInclusionDelay":1.0189915264739706,"avgUptime":0.998673166009818,"avgValidatorEffectiveness":97.75545115435006,"clientPercentages":[{"client":"Teku","percentage":0.01579520697167756},{"client":"Nimbus","percentage":0.09640522875816994},{"client":"Prysm","percentage":0.8850762527233116},{"client":"Lighthouse","percentage":0.0027233115468409588}],"networkPenetration":0.007790872994710739},{"id":"Huobi","idType":"entity","timeWindow":"1d","validatorCount":2855,"avgCorrectness":0.990781643463471,"avgInclusionDelay":1.0193684734930897,"avgUptime":0.9999338392683403,"avgValidatorEffectiveness":97.81533658564906,"clientPercentages":[{"client":"Lighthouse","percentage":0.0012004801920768306},{"client":"Prysm","percentage":0.9123649459783914},{"client":"Nimbus","percentage":0.07923169267707082},{"client":"Teku","percentage":0.007202881152460984}],"networkPenetration":0.006920641692563522},{"id":"wedex.eth","idType":"entity","timeWindow":"1d","validatorCount":2399,"avgCorrectness":0.9890948265875866,"avgInclusionDelay":1.0349818131269837,"avgUptime":0.9995600018526245,"avgValidatorEffectiveness":96.46725555877188,"clientPercentages":[{"client":"Lighthouse","percentage":1.0}],"networkPenetration":0.005815278255852851},{"id":"Bloxstaking","idType":"entity","timeWindow":"1d","validatorCount":2354,"avgCorrectness":0.9906701991156918,"avgInclusionDelay":1.0183225336194792,"avgUptime":0.9999688473520245,"avgValidatorEffectiveness":97.89748445376536,"clientPercentages":[{"client":"Prysm","percentage":0.4458364038319823},{"client":"Lighthouse","percentage":0.49815770081061167},{"client":"Teku","percentage":0.0014738393515106854},{"client":"Nimbus","percentage":0.054532056005895356}],"networkPenetration":0.005706196337756403},{"id":"Ankr","idType":"entity","timeWindow":"1d","validatorCount":2290,"avgCorrectness":0.8527169176208939,"avgInclusionDelay":1.5514290866468308,"avgUptime":0.9686462882096074,"avgValidatorEffectiveness":66.62586422727674,"clientPercentages":[{"client":"Teku","percentage":0.004319654427645789},{"client":"Prysm","percentage":0.9071274298056156},{"client":"Nimbus","percentage":0.07235421166306695},{"client":"Lighthouse","percentage":0.016198704103671708}],"networkPenetration":0.0055510576097970105},{"id":"StakeWise","idType":"entity","timeWindow":"1d","validatorCount":1979,"avgCorrectness":0.9912412817143434,"avgInclusionDelay":1.0218819142603637,"avgUptime":0.9997978777160186,"avgValidatorEffectiveness":97.70596192599524,"clientPercentages":[{"client":"Lighthouse","percentage":0.5388646288209606},{"client":"Prysm","percentage":0.36069868995633186},{"client":"Teku","percentage":0.06026200873362445},{"client":"Nimbus","percentage":0.04017467248908297}],"networkPenetration":0.004797180353619338},{"id":"OKex","idType":"entity","timeWindow":"1d","validatorCount":1722,"avgCorrectness":0.991139398960628,"avgInclusionDelay":1.0177199115746602,"avgUptime":0.9999883855981411,"avgValidatorEffectiveness":97.97449357213054,"clientPercentages":[{"client":"Lighthouse","percentage":0.0022396416573348264},{"client":"Nimbus","percentage":0.1019036954087346},{"client":"Prysm","percentage":0.8891377379619261},{"client":"Teku","percentage":0.006718924972004479}],"networkPenetration":0.004174201399157403}]}