{"page":{"from":0,"size":15},"total":36,"next":"/v0/eth/operators?window=1d&from=15&size=15&idType=entity","data":[{"id":"Lido","idType":"entity","timeWindow":"1d","validatorCount":133403,"avgCorrectness":0.9892941664425842,"avgInclusionDelay":1.029763503562991,"avgUptime":0.998529999972454,"avgValidatorEffectiveness":96.54701604540043,"clientPercentages":[{"client":"Teku","percentage":0.19303246714277142},{"client":"Prysm","percentage":0.38788033367340813},{"client":"Lighthouse","percentage":0.3920362479745544},{"client":"Nimbus","percentage":0.02589569705335174},{"client":"Lodestar","percentage":0.001155254155914301}],"networkPenetration":0.301028619410818,"relayerPercentages":[{"relayer":"bloxroute_maxprofit","percentage":0.02203240244594339},{"relayer":"bloxroute_ethical","percentage":0.02995965454201601},{"relayer":"bloxroute_regulated","percentage":0.008478850154447456},{"relayer":"no_mev_boost","percentage":0.5419214524364874},{"relayer":"manifold","percentage":0.01416819012797075},{"relayer":"blocknative","percentage":0.02836790014499149},{"relayer":"edennetwork","percentage":0.010890121666771732},{"relayer":"flashbots","percentage":0.34418142848137173}],"nodeOperatorCount":29},{"id":"Coinbase","idType":"entity","timeWindow":"1d","validatorCount":54040,"avgCorrectness":0.9883537662304996,"avgInclusionDelay":1.0275499149312344,"avgUptime":0.998422477875005,"avgValidatorEffectiveness":96.61087425753334,"clientPercentages":[{"client":"Nimbus","percentage":0.02177831180534695},{"client":"Lighthouse","percentage":0.4350405527185341},{"client":"Prysm","percentage":0.3810078101531992},{"client":"Teku","percentage":0.1621733253229198}],"networkPenetration":0.12198067360238002,"relayerPercentages":[{"relayer":"flashbots","percentage":0.00043454215058860707},{"relayer":"manifold","percentage":7.90076637433831e-05},{"relayer":"bloxroute_regulated","percentage":3.950383187169155e-05},{"relayer":"no_mev_boost","percentage":0.9994469463537963}],"nodeOperatorCount":null},{"id":"Kraken","idType":"entity","timeWindow":"1d","validatorCount":37718,"avgCorrectness":0.9894542101840451,"avgInclusionDelay":1.0246786449867957,"avgUptime":0.9983587088335233,"avgValidatorEffectiveness":96.91605200762004,"clientPercentages":[{"client":"Nimbus","percentage":0.00010690042225666791},{"client":"Prysm","percentage":0.6222139077449356},{"client":"Lighthouse","percentage":0.2660751509968464},{"client":"Teku","percentage":0.1116040408359613}],"networkPenetration":0.08509980339532437,"relayerPercentages":[{"relayer":"edennetwork","percentage":0.0021831616659202867},{"relayer":"manifold","percentage":0.0008956560680698612},{"relayer":"flashbots","percentage":0.4048925212718316},{"relayer":"blocknative","percentage":0.00850873264666368},{"relayer":"bloxroute_maxprofit","percentage":0.002910882221227049},{"relayer":"no_mev_boost","percentage":0.5802731751007613},{"relayer":"bloxroute_ethical","percentage":0.0003358710255261979}],"nodeOperatorCount":null},{"id":"Binance","idType":"entity","timeWindow":"1d","validatorCount":23051,"avgCorrectness":0.9906840974922617,"avgInclusionDelay":1.0216397198717913,"avgUptime":0.999454915962739,"avgValidatorEffectiveness":97.35457060527935,"clientPercentages":[{"client":"Teku","percentage":0.013248542660307366},{"client":"Nimbus","percentage":0.00026497085320614734},{"client":"Lighthouse","percentage":0.42483660130718953},{"client":"Prysm","percentage":0.5616498851792969}],"networkPenetration":0.05203139354567842,"relayerPercentages":[{"relayer":"blocknative","percentage":0.0019116977696859354},{"relayer":"flashbots","percentage":0.2869367319071461},{"relayer":"edennetwork","percentage":0.002913063268092854},{"relayer":"bloxroute_maxprofit","percentage":0.006918525261720528},{"relayer":"bloxroute_regulated","percentage":0.009467455621301775},{"relayer":"no_mev_boost","percentage":0.691761492944925},{"relayer":"bloxroute_ethical","percentage":9.103322712790169e-05}],"nodeOperatorCount":null},{"id":"Staked.us","idType":"entity","timeWindow":"1d","validatorCount":12511,"avgCorrectness":0.9887429376325115,"avgInclusionDelay":1.0266751447689217,"avgUptime":0.9981581088320329,"avgValidatorEffectiveness":96.69598072769853,"clientPercentages":[{"client":"Lighthouse","percentage":0.055573610659733506},{"client":"Teku","percentage":0.39681507962300944},{"client":"Nimbus","percentage":0.0004874878128046799},{"client":"Prysm","percentage":0.5471238219044524}],"networkPenetration":0.028003187207829877,"relayerPercentages":[{"relayer":"no_mev_boost","percentage":0.42201247800351943},{"relayer":"bloxroute_maxprofit","percentage":0.00639897616381379},{"relayer":"manifold","percentage":0.004799232122860342},{"relayer":"flashbots","percentage":0.5667893137098065}],"nodeOperatorCount":null},{"id":"Bitcoin Suisse","idType":"entity","timeWindow":"1d","validatorCount":9184,"avgCorrectness":0.9907955126994351,"avgInclusionDelay":1.0259191007317936,"avgUptime":0.9992960551217436,"avgValidatorEffectiveness":97.01142528794406,"clientPercentages":[{"client":"Nimbus","percentage":0.0330117899249732},{"client":"Teku","percentage":0.9669882100750268}],"networkPenetration":0.02073039427024904,"relayerPercentages":[{"relayer":"no_mev_boost","percentage":1.0}],"nodeOperatorCount":null},{"id":"Rocketpool","idType":"entity","timeWindow":"1d","validatorCount":8801,"avgCorrectness":0.9855154667569263,"avgInclusionDelay":1.0364014298634208,"avgUptime":0.986425231983002,"avgValidatorEffectiveness":94.89628877544469,"clientPercentages":[{"client":"Teku","percentage":0.29987111556637547},{"client":"Lighthouse","percentage":0.43190605756838035},{"client":"Prysm","percentage":0.045825576399828157},{"client":"Nimbus","percentage":0.222397250465416}],"networkPenetration":0.019825245304398664,"relayerPercentages":[{"relayer":"bloxroute_maxprofit","percentage":0.09060745278203165},{"relayer":"bloxroute_ethical","percentage":0.03190403266972945},{"relayer":"no_mev_boost","percentage":0.2845839714139867},{"relayer":"bloxroute_regulated","percentage":0.0709545686574783},{"relayer":"edennetwork","percentage":0.01633486472690148},{"relayer":"flashbots","percentage":0.45941807044410415},{"relayer":"blocknative","percentage":0.04492087799897907},{"relayer":"manifold","percentage":0.001276161306789178}],"nodeOperatorCount":1540},{"id":"Celsius Network","idType":"entity","timeWindow":"1d","validatorCount":4943,"avgCorrectness":0.9908350262743242,"avgInclusionDelay":1.021894720363336,"avgUptime":0.9994411047850245,"avgValidatorEffectiveness":97.34695140899333,"clientPercentages":[{"client":"Prysm","percentage":0.966626936829559},{"client":"Teku","percentage":0.012316249503377036},{"client":"Lighthouse","percentage":0.021056813667063964}],"networkPenetration":0.011157484633911259,"relayerPercentages":[{"relayer":"no_mev_boost","percentage":0.03905579399141631},{"relayer":"flashbots","percentage":0.9609442060085837}],"nodeOperatorCount":null},{"id":"Stakefish","idType":"entity","timeWindow":"1d","validatorCount":4558,"avgCorrectness":0.9884940989743483,"avgInclusionDelay":1.0357284156522033,"avgUptime":0.9834418595945035,"avgValidatorEffectiveness":94.73238848788455,"clientPercentages":[{"client":"Lighthouse","percentage":0.9885792599360439},{"client":"Teku","percentage":0.009365006852444038},{"client":"Nimbus","percentage":0.0009136592051164915},{"client":"Prysm","percentage":0.0011420740063956144}],"networkPenetration":0.010288451337521246,"relayerPercentages":[{"relayer":"bloxroute_regulated","percentage":0.00023004370830457787},{"relayer":"bloxroute_maxprofit","percentage":0.0009201748332183115},{"relayer":"no_mev_boost","percentage":0.21854152288934897},{"relayer":"flashbots","percentage":0.7025534851621809},{"relayer":"manifold","percentage":0.07775477340694732}],"nodeOperatorCount":null},{"id":"Bitfinex","idType":"entity","timeWindow":"1d","validatorCount":3214,"avgCorrectness":0.9912453917617559,"avgInclusionDelay":1.0210312520018159,"avgUptime":0.9930719767683058,"avgValidatorEffectiveness":96.9050834462778,"clientPercentages":[{"client":"Lighthouse","percentage":0.009191176470588236},{"client":"Prysm","percentage":0.9564950980392157},{"client":"Teku","percentage":0.03431372549019608}],"networkPenetration":0.007254735102850655,"relayerPercentages":[{"relayer":"no_mev_boost","percentage":0.7357142857142858},{"relayer":"flashbots","percentage":0.2642857142857143}],"nodeOperatorCount":null},{"id":"Huobi","idType":"entity","timeWindow":"1d","validatorCount":2855,"avgCorrectness":0.9902562677116594,"avgInclusionDelay":1.0223623366582395,"avgUptime":0.9997649313373915,"avgValidatorEffectiveness":97.28556625311691,"clientPercentages":[{"client":"Teku","percentage":0.02301255230125523},{"client":"Lighthouse","percentage":0.007670850767085077},{"client":"Prysm","percentage":0.9693165969316597}],"networkPenetration":0.006444389769333734,"relayerPercentages":[{"relayer":"manifold","percentage":0.026555386949924126},{"relayer":"blocknative","percentage":0.03793626707132018},{"relayer":"flashbots","percentage":0.44309559939301973},{"relayer":"edennetwork","percentage":0.057663125948406675},{"relayer":"bloxroute_maxprofit","percentage":0.05918057663125948},{"relayer":"bloxroute_ethical","percentage":0.07663125948406677},{"relayer":"no_mev_boost","percentage":0.26327769347496205},{"relayer":"bloxroute_regulated","percentage":0.03566009104704097}],"nodeOperatorCount":null},{"id":"Abyss","idType":"entity","timeWindow":"1d","validatorCount":2700,"avgCorrectness":0.9904448911067986,"avgInclusionDelay":1.0247254016660725,"avgUptime":0.9985175925925922,"avgValidatorEffectiveness":97.02501867674846,"clientPercentages":[{"client":"Nimbus","percentage":0.026604068857589983},{"client":"Lighthouse","percentage":0.08607198748043818},{"client":"Prysm","percentage":0.025821596244131457},{"client":"Teku","percentage":0.8615023474178404}],"networkPenetration":0.006094519221436456,"relayerPercentages":[{"relayer":"flashbots","percentage":0.3207981580966999},{"relayer":"manifold","percentage":0.0015349194167306216},{"relayer":"blocknative","percentage":0.0030698388334612432},{"relayer":"edennetwork","percentage":0.00920951650038373},{"relayer":"no_mev_boost","percentage":0.6339217191097467},{"relayer":"bloxroute_ethical","percentage":0.0023023791250959325},{"relayer":"bloxroute_maxprofit","percentage":0.013814274750575594},{"relayer":"bloxroute_regulated","percentage":0.015349194167306216}],"nodeOperatorCount":null},{"id":"Bloxstaking","idType":"entity","timeWindow":"1d","validatorCount":2554,"avgCorrectness":0.9903200547055443,"avgInclusionDelay":1.0216373541154056,"avgUptime":0.9997702949621511,"avgValidatorEffectiveness":97.35014044936668,"clientPercentages":[{"client":"Teku","percentage":0.006751054852320675},{"client":"Lighthouse","percentage":0.5021097046413502},{"client":"Prysm","percentage":0.4911392405063291}],"networkPenetration":0.005764963737610633,"relayerPercentages":[{"relayer":"bloxroute_ethical","percentage":0.014657980456026058},{"relayer":"no_mev_boost","percentage":0.1482084690553746},{"relayer":"flashbots","percentage":0.7719869706840391},{"relayer":"blocknative","percentage":0.06514657980456026}],"nodeOperatorCount":null},{"id":"wedex.eth","idType":"entity","timeWindow":"1d","validatorCount":2399,"avgCorrectness":0.9901531360315841,"avgInclusionDelay":1.0219293490598993,"avgUptime":0.9997295169283493,"avgValidatorEffectiveness":97.30530073351377,"clientPercentages":[{"client":"Lighthouse","percentage":0.9983935742971888},{"client":"Prysm","percentage":0.001606425702811245}],"networkPenetration":0.0054150931897133546,"relayerPercentages":[{"relayer":"blocknative","percentage":0.05821025195482189},{"relayer":"bloxroute_maxprofit","percentage":0.20764552562988706},{"relayer":"flashbots","percentage":0.41702867072111205},{"relayer":"manifold","percentage":0.02519548218940052},{"relayer":"edennetwork","percentage":0.0634231103388358},{"relayer":"no_mev_boost","percentage":0.21894005212858383},{"relayer":"bloxroute_ethical","percentage":0.009556907037358819}],"nodeOperatorCount":null},{"id":"Ankr","idType":"entity","timeWindow":"1d","validatorCount":2299,"avgCorrectness":0.9904560243264541,"avgInclusionDelay":1.0217342750649012,"avgUptime":0.9998037794210046,"avgValidatorEffectiveness":97.35566521367993,"clientPercentages":[{"client":"Lighthouse","percentage":0.46731707317073173},{"client":"Prysm","percentage":0.526829268292683},{"client":"Teku","percentage":0.005853658536585366}],"networkPenetration":0.005189370255586078,"relayerPercentages":[{"relayer":"no_mev_boost","percentage":0.877208480565371},{"relayer":"flashbots","percentage":0.12279151943462897}],"nodeOperatorCount":null}]}