{"page":{"from":0,"size":15},"total":31,"next":"/v0/eth/operators?window=1d&from=15&size=15&idType=entity","data":[{"id":"Lido","idType":"entity","timeWindow":"1d","validatorCount":129314,"avgCorrectness":0.9899425212208084,"avgInclusionDelay":1.0172419132583521,"avgUptime":0.9996034458370713,"avgValidatorEffectiveness":97.92142714150532,"clientPercentages":[{"client":"Lighthouse","percentage":0.37658287404220997},{"client":"Teku","percentage":0.19212259712326926},{"client":"Nimbus","percentage":0.07909665277591074},{"client":"Prysm","percentage":0.35219787605861}],"networkPenetration":0.3151541742839732},{"id":"Coinbase","idType":"entity","timeWindow":"1d","validatorCount":56137,"avgCorrectness":0.99011820676162,"avgInclusionDelay":1.017623504520326,"avgUptime":0.998440129492455,"avgValidatorEffectiveness":97.80660121659395,"clientPercentages":[{"client":"Prysm","percentage":0.3645761759010557},{"client":"Nimbus","percentage":0.09138609532138173},{"client":"Lighthouse","percentage":0.37969267287150976},{"client":"Teku","percentage":0.16434505590605283}],"networkPenetration":0.1367775746496039},{"id":"Kraken","idType":"entity","timeWindow":"1d","validatorCount":35948,"avgCorrectness":0.9823781833677043,"avgInclusionDelay":1.0302621707903263,"avgUptime":0.9979284244914686,"avgValidatorEffectiveness":96.56907859329762,"clientPercentages":[{"client":"Lighthouse","percentage":0.26855364264176634},{"client":"Nimbus","percentage":0.04148429141134131},{"client":"Prysm","percentage":0.6030055442077619},{"client":"Teku","percentage":0.08695652173913043}],"networkPenetration":0.08761243144424131},{"id":"Binance","idType":"entity","timeWindow":"1d","validatorCount":21153,"avgCorrectness":0.9901242285978222,"avgInclusionDelay":1.0164660312147844,"avgUptime":0.9996410280653625,"avgValidatorEffectiveness":97.99030814560814,"clientPercentages":[{"client":"Nimbus","percentage":0.0726083675693804},{"client":"Teku","percentage":0.008803554959335961},{"client":"Lighthouse","percentage":0.3254800033537352},{"client":"Prysm","percentage":0.5931080741175484}],"networkPenetration":0.05156124314442413},{"id":"Bitcoin Suisse","idType":"entity","timeWindow":"1d","validatorCount":9000,"avgCorrectness":0.9883562242634475,"avgInclusionDelay":1.0343534355658226,"avgUptime":0.9998029629629623,"avgValidatorEffectiveness":96.46232388340877,"clientPercentages":[{"client":"Teku","percentage":0.9928966061562746},{"client":"Nimbus","percentage":0.006906077348066298},{"client":"Prysm","percentage":0.0001973164956590371}],"networkPenetration":0.021937842778793418},{"id":"Rocketpool","idType":"entity","timeWindow":"1d","validatorCount":6306,"avgCorrectness":0.9885227617146819,"avgInclusionDelay":1.0218551119919925,"avgUptime":0.9929386090040054,"avgValidatorEffectiveness":96.93269968838239,"clientPercentages":[{"client":"Teku","percentage":0.267433179035389},{"client":"Prysm","percentage":0.05987755711512618},{"client":"Lighthouse","percentage":0.41735105271016876},{"client":"Nimbus","percentage":0.2553382111393161}],"networkPenetration":0.015356489945155392},{"id":"Staked.us","idType":"entity","timeWindow":"1d","validatorCount":5263,"avgCorrectness":0.9892563520152131,"avgInclusionDelay":1.0176531614811684,"avgUptime":0.999166086093694,"avgValidatorEffectiveness":97.81018412108259,"clientPercentages":[{"client":"Teku","percentage":0.5096774193548387},{"client":"Lighthouse","percentage":0.000967741935483871},{"client":"Nimbus","percentage":0.05838709677419355},{"client":"Prysm","percentage":0.4309677419354839}],"networkPenetration":0.012828762949421084},{"id":"f2pool.eth","idType":"entity","timeWindow":"1d","validatorCount":3501,"avgCorrectness":0.9906740812771986,"avgInclusionDelay":1.0158113755579365,"avgUptime":0.9999987305214381,"avgValidatorEffectiveness":98.1123841040754,"clientPercentages":[{"client":"Lighthouse","percentage":1.0}],"networkPenetration":0.00853382084095064},{"id":"Bitfinex","idType":"entity","timeWindow":"1d","validatorCount":3214,"avgCorrectness":0.9888745701775822,"avgInclusionDelay":1.0196435545957145,"avgUptime":0.9931196847127148,"avgValidatorEffectiveness":97.17752650439263,"clientPercentages":[{"client":"Prysm","percentage":0.8753358409457281},{"client":"Teku","percentage":0.018807092960773777},{"client":"Nimbus","percentage":0.10370768404083826},{"client":"Lighthouse","percentage":0.0021493820526598604}],"networkPenetration":0.007834247410115782},{"id":"Huobi","idType":"entity","timeWindow":"1d","validatorCount":2855,"avgCorrectness":0.988766847976686,"avgInclusionDelay":1.017581986481143,"avgUptime":0.999979762599727,"avgValidatorEffectiveness":97.855019196922,"clientPercentages":[{"client":"Prysm","percentage":0.886150234741784},{"client":"Nimbus","percentage":0.09800469483568075},{"client":"Lighthouse","percentage":0.0017605633802816902},{"client":"Teku","percentage":0.014084507042253521}],"networkPenetration":0.006959171237050579},{"id":"wedex.eth","idType":"entity","timeWindow":"1d","validatorCount":2399,"avgCorrectness":0.9896830661643853,"avgInclusionDelay":1.0179627958515467,"avgUptime":0.9998073271270441,"avgValidatorEffectiveness":97.86297027436285,"clientPercentages":[{"client":"Lighthouse","percentage":1.0}],"networkPenetration":0.005847653869591712},{"id":"Bloxstaking","idType":"entity","timeWindow":"1d","validatorCount":2343,"avgCorrectness":0.9884593741311198,"avgInclusionDelay":1.0184873965528531,"avgUptime":0.999951597364163,"avgValidatorEffectiveness":97.7620198687103,"clientPercentages":[{"client":"Prysm","percentage":0.43810952738184544},{"client":"Nimbus","percentage":0.05101275318829707},{"client":"Lighthouse","percentage":0.5026256564141035},{"client":"Teku","percentage":0.008252063015753939}],"networkPenetration":0.005706276660572822},{"id":"Ankr","idType":"entity","timeWindow":"1d","validatorCount":2288,"avgCorrectness":0.8707705693676141,"avgInclusionDelay":1.5038946838676819,"avgUptime":0.9611052836052842,"avgValidatorEffectiveness":68.15744725470721,"clientPercentages":[{"client":"Teku","percentage":0.009268795056642637},{"client":"Prysm","percentage":0.8990731204943357},{"client":"Nimbus","percentage":0.08341915550978372},{"client":"Lighthouse","percentage":0.008238928939237899}],"networkPenetration":0.005577087141986593},{"id":"StakeWise","idType":"entity","timeWindow":"1d","validatorCount":1978,"avgCorrectness":0.9903998507667309,"avgInclusionDelay":1.0197486857808113,"avgUptime":0.9997550836984603,"avgValidatorEffectiveness":97.77322083311918,"clientPercentages":[{"client":"Teku","percentage":0.049239033124440466},{"client":"Nimbus","percentage":0.04028648164726947},{"client":"Prysm","percentage":0.36436884512085943},{"client":"Lighthouse","percentage":0.5461056401074306}],"networkPenetration":0.004821450335161487},{"id":"OKex","idType":"entity","timeWindow":"1d","validatorCount":1610,"avgCorrectness":0.9894115221896643,"avgInclusionDelay":1.01573572177628,"avgUptime":0.9999282263630089,"avgValidatorEffectiveness":98.04166907176793,"clientPercentages":[{"client":"Prysm","percentage":0.8736263736263736},{"client":"Nimbus","percentage":0.1087912087912088},{"client":"Teku","percentage":0.017582417582417582}],"networkPenetration":0.003924436319317489}]}