{"page":{"from":0,"size":15},"total":30,"next":"/v0/eth/operators?window=1d&from=15&size=15&idType=entity","data":[{"id":"Lido","idType":"entity","timeWindow":"1d","validatorCount":129904,"avgCorrectness":0.9869688084960929,"avgInclusionDelay":1.035332812497112,"avgUptime":0.9996629801776393,"avgValidatorEffectiveness":96.30008683570529,"clientPercentages":[{"client":"Prysm","percentage":0.40259494270290747},{"client":"Teku","percentage":0.22193660113917715},{"client":"Lodestar","percentage":0.00037882375224926605},{"client":"Lighthouse","percentage":0.3503037354727856},{"client":"Nimbus","percentage":0.02478589693288055}],"networkPenetration":0.3082878251727174},{"id":"Coinbase","idType":"entity","timeWindow":"1d","validatorCount":54286,"avgCorrectness":0.9882418816659203,"avgInclusionDelay":1.0302150976901703,"avgUptime":0.999790410459828,"avgValidatorEffectiveness":96.77366310631783,"clientPercentages":[{"client":"Nimbus","percentage":0.056104188759278896},{"client":"Lighthouse","percentage":0.4231508483563097},{"client":"Prysm","percentage":0.38421261930010603},{"client":"Teku","percentage":0.1365323435843054}],"networkPenetration":0.12883734066210517},{"id":"Kraken","idType":"entity","timeWindow":"1d","validatorCount":36644,"avgCorrectness":0.987214380518641,"avgInclusionDelay":1.0327763265899959,"avgUptime":0.9989152631116227,"avgValidatorEffectiveness":96.43058767633309,"clientPercentages":[{"client":"Lighthouse","percentage":0.26280473087134926},{"client":"Nimbus","percentage":0.01955104996379435},{"client":"Prysm","percentage":0.6236543567463191},{"client":"Teku","percentage":0.0939898624185373}],"networkPenetration":0.08695559305380524},{"id":"Binance","idType":"entity","timeWindow":"1d","validatorCount":21861,"avgCorrectness":0.9858919990070997,"avgInclusionDelay":1.0364770871778477,"avgUptime":0.9996306969794001,"avgValidatorEffectiveness":96.11273422657905,"clientPercentages":[{"client":"Nimbus","percentage":0.030764114076660846},{"client":"Teku","percentage":0.0005820237798287187},{"client":"Prysm","percentage":0.6109586763116321},{"client":"Lighthouse","percentage":0.35769518583187826}],"networkPenetration":0.05188286306256274},{"id":"Bitcoin Suisse","idType":"entity","timeWindow":"1d","validatorCount":9000,"avgCorrectness":0.9911591610277152,"avgInclusionDelay":1.0223597546145575,"avgUptime":0.9999888888888876,"avgValidatorEffectiveness":97.59284735614779,"clientPercentages":[{"client":"Teku","percentage":0.9935897435897436},{"client":"Nimbus","percentage":0.00641025641025641}],"networkPenetration":0.021359762479441227},{"id":"Rocketpool","idType":"entity","timeWindow":"1d","validatorCount":6911,"avgCorrectness":0.987028533117792,"avgInclusionDelay":1.0343489788430016,"avgUptime":0.9948891411614262,"avgValidatorEffectiveness":96.01869062709363,"clientPercentages":[{"client":"Lighthouse","percentage":0.41714285714285715},{"client":"Teku","percentage":0.30272108843537415},{"client":"Nimbus","percentage":0.2276190476190476},{"client":"Prysm","percentage":0.05251700680272109}],"networkPenetration":0.016390057742557904},{"id":"Staked.us","idType":"entity","timeWindow":"1d","validatorCount":5263,"avgCorrectness":0.9792700011198895,"avgInclusionDelay":1.0499086127950539,"avgUptime":0.9991365296514445,"avgValidatorEffectiveness":94.68596925786363,"clientPercentages":[{"client":"Nimbus","percentage":0.02821210061182869},{"client":"Teku","percentage":0.49422161794697483},{"client":"Lighthouse","percentage":0.005778382053025153},{"client":"Prysm","percentage":0.47178789938817134}],"networkPenetration":0.012490714436588798},{"id":"f2pool.eth","idType":"entity","timeWindow":"1d","validatorCount":3501,"avgCorrectness":0.9891659919234672,"avgInclusionDelay":1.0349696413339085,"avgUptime":0.996371195531436,"avgValidatorEffectiveness":96.15871960978123,"clientPercentages":[{"client":"Lighthouse","percentage":0.986387943607195},{"client":"Prysm","percentage":0.013612056392805057}],"networkPenetration":0.008308947604502638},{"id":"Bitfinex","idType":"entity","timeWindow":"1d","validatorCount":3214,"avgCorrectness":0.9860070485793424,"avgInclusionDelay":1.035165088621331,"avgUptime":0.9952561709188958,"avgValidatorEffectiveness":95.86298851148237,"clientPercentages":[{"client":"Nimbus","percentage":0.03939223410241981},{"client":"Prysm","percentage":0.943725379853686},{"client":"Lighthouse","percentage":0.004501969611705121},{"client":"Teku","percentage":0.012380416432189083}],"networkPenetration":0.007627808512102679},{"id":"Huobi","idType":"entity","timeWindow":"1d","validatorCount":2855,"avgCorrectness":0.9838636213225991,"avgInclusionDelay":1.0422924947347523,"avgUptime":0.9997003308036583,"avgValidatorEffectiveness":95.5445757225067,"clientPercentages":[{"client":"Teku","percentage":0.002430133657351154},{"client":"Prysm","percentage":0.9520048602673147},{"client":"Nimbus","percentage":0.04495747266099635},{"client":"Lighthouse","percentage":0.0006075334143377885}],"networkPenetration":0.00677579131986719},{"id":"Bloxstaking","idType":"entity","timeWindow":"1d","validatorCount":2404,"avgCorrectness":0.9838776749099158,"avgInclusionDelay":1.0420169939275576,"avgUptime":0.9963440562026238,"avgValidatorEffectiveness":95.28530856145473,"clientPercentages":[{"client":"Teku","percentage":0.0015015015015015015},{"client":"Lighthouse","percentage":0.4894894894894895},{"client":"Nimbus","percentage":0.024024024024024024},{"client":"Prysm","percentage":0.484984984984985}],"networkPenetration":0.005705429888952968},{"id":"wedex.eth","idType":"entity","timeWindow":"1d","validatorCount":2399,"avgCorrectness":0.9792186409468229,"avgInclusionDelay":1.073625280289868,"avgUptime":0.9980603029039872,"avgValidatorEffectiveness":92.80776088375046,"clientPercentages":[{"client":"Lighthouse","percentage":1.0}],"networkPenetration":0.005693563354242167},{"id":"Ankr","idType":"entity","timeWindow":"1d","validatorCount":2296,"avgCorrectness":0.8593952599838618,"avgInclusionDelay":1.4478384356851575,"avgUptime":0.9367857142857142,"avgValidatorEffectiveness":67.66672495344454,"clientPercentages":[{"client":"Teku","percentage":0.006066734074823054},{"client":"Prysm","percentage":0.9464105156723963},{"client":"Nimbus","percentage":0.03640040444893832},{"client":"Lighthouse","percentage":0.011122345803842264}],"networkPenetration":0.005449112739199674},{"id":"StakeWise","idType":"entity","timeWindow":"1d","validatorCount":1981,"avgCorrectness":0.9858168519536464,"avgInclusionDelay":1.0383830111845278,"avgUptime":0.9999551292837516,"avgValidatorEffectiveness":95.98917563579164,"clientPercentages":[{"client":"Nimbus","percentage":0.02456140350877193},{"client":"Teku","percentage":0.060526315789473685},{"client":"Prysm","percentage":0.3850877192982456},{"client":"Lighthouse","percentage":0.5298245614035088}],"networkPenetration":0.004701521052419231},{"id":"OKex","idType":"entity","timeWindow":"1d","validatorCount":1737,"avgCorrectness":0.9857682989548584,"avgInclusionDelay":1.0362663732215984,"avgUptime":0.9991812752308797,"avgValidatorEffectiveness":96.08407467044412,"clientPercentages":[{"client":"Nimbus","percentage":0.04512067156348373},{"client":"Lighthouse","percentage":0.012591815320041973},{"client":"Teku","percentage":0.002098635886673662},{"client":"Prysm","percentage":0.9401888772298006}],"networkPenetration":0.004112940930763516}]}