{"page":{"from":0,"size":15},"total":36,"next":"/v0/eth/operators?window=1d&from=15&size=15&idType=entity","data":[{"id":"Lido","idType":"entity","timeWindow":"1d","validatorCount":133362,"avgCorrectness":0.990431919205505,"avgInclusionDelay":1.0246303707216702,"avgUptime":0.9986051329981285,"avgValidatorEffectiveness":97.05847326422236,"clientPercentages":[{"client":"Lodestar","percentage":0.001155254155914301},{"client":"Teku","percentage":0.19303246714277142},{"client":"Prysm","percentage":0.38788033367340813},{"client":"Lighthouse","percentage":0.3920362479745544},{"client":"Nimbus","percentage":0.02589569705335174}],"networkPenetration":0.30120280428326696,"relayerPercentages":[{"relayer":"bloxroute_ethical","percentage":0.029280846862303946},{"relayer":"no_mev_boost","percentage":0.5507842216862789},{"relayer":"bloxroute_maxprofit","percentage":0.021414350690341692},{"relayer":"bloxroute_regulated","percentage":0.008319709943186416},{"relayer":"manifold","percentage":0.013191757983846166},{"relayer":"blocknative","percentage":0.028358233113740472},{"relayer":"flashbots","percentage":0.3390200870817889},{"relayer":"edennetwork","percentage":0.009630792638513458}],"nodeOperatorCount":29},{"id":"Coinbase","idType":"entity","timeWindow":"1d","validatorCount":54040,"avgCorrectness":0.9897825805016213,"avgInclusionDelay":1.0217151684926848,"avgUptime":0.9985636976725072,"avgValidatorEffectiveness":97.2076232822614,"clientPercentages":[{"client":"Prysm","percentage":0.3810078101531992},{"client":"Teku","percentage":0.1621733253229198},{"client":"Nimbus","percentage":0.02177831180534695},{"client":"Lighthouse","percentage":0.4350405527185341}],"networkPenetration":0.12213367806791935,"relayerPercentages":[{"relayer":"flashbots","percentage":0.00044570502431118313},{"relayer":"manifold","percentage":8.103727714748784e-05},{"relayer":"bloxroute_regulated","percentage":4.051863857374392e-05},{"relayer":"no_mev_boost","percentage":0.9994327390599675}],"nodeOperatorCount":null},{"id":"Kraken","idType":"entity","timeWindow":"1d","validatorCount":37701,"avgCorrectness":0.9906762379420203,"avgInclusionDelay":1.019091933726366,"avgUptime":0.9992286682723486,"avgValidatorEffectiveness":97.54133862252688,"clientPercentages":[{"client":"Prysm","percentage":0.6222139077449356},{"client":"Nimbus","percentage":0.00010690042225666791},{"client":"Lighthouse","percentage":0.2660751509968464},{"client":"Teku","percentage":0.1116040408359613}],"networkPenetration":0.08509580397137859,"relayerPercentages":[{"relayer":"edennetwork","percentage":0.0021830298155914286},{"relayer":"manifold","percentage":0.0008617222956281955},{"relayer":"flashbots","percentage":0.40150514160969725},{"relayer":"blocknative","percentage":0.008502326650198197},{"relayer":"bloxroute_ethical","percentage":0.00034468891825127824},{"relayer":"no_mev_boost","percentage":0.583615786752456},{"relayer":"bloxroute_maxprofit","percentage":0.002987303958177745}],"nodeOperatorCount":null},{"id":"Binance","idType":"entity","timeWindow":"1d","validatorCount":23051,"avgCorrectness":0.991891262709094,"avgInclusionDelay":1.0161219513770818,"avgUptime":0.9998074800321965,"avgValidatorEffectiveness":97.93294512184372,"clientPercentages":[{"client":"Teku","percentage":0.013248542660307366},{"client":"Nimbus","percentage":0.00026497085320614734},{"client":"Lighthouse","percentage":0.42483660130718953},{"client":"Prysm","percentage":0.5616498851792969}],"networkPenetration":0.05209665827430808,"relayerPercentages":[{"relayer":"edennetwork","percentage":0.0028032143524574847},{"relayer":"flashbots","percentage":0.26882825640067276},{"relayer":"blocknative","percentage":0.0018688095683049898},{"relayer":"bloxroute_regulated","percentage":0.008035881143711456},{"relayer":"bloxroute_ethical","percentage":9.344047841524949e-05},{"relayer":"no_mev_boost","percentage":0.711268921696879},{"relayer":"bloxroute_maxprofit","percentage":0.0071014763595589605}],"nodeOperatorCount":null},{"id":"Staked.us","idType":"entity","timeWindow":"1d","validatorCount":12406,"avgCorrectness":0.990012467238466,"avgInclusionDelay":1.0213291938605857,"avgUptime":0.9979898666884802,"avgValidatorEffectiveness":97.21375340040761,"clientPercentages":[{"client":"Lighthouse","percentage":0.055573610659733506},{"client":"Prysm","percentage":0.5471238219044524},{"client":"Nimbus","percentage":0.0004874878128046799},{"client":"Teku","percentage":0.39681507962300944}],"networkPenetration":0.02781682660362604,"relayerPercentages":[{"relayer":"bloxroute_maxprofit","percentage":0.006576783952647156},{"relayer":"flashbots","percentage":0.5677408747122658},{"relayer":"no_mev_boost","percentage":0.42091417296941797},{"relayer":"manifold","percentage":0.004768168365669187}],"nodeOperatorCount":null},{"id":"Bitcoin Suisse","idType":"entity","timeWindow":"1d","validatorCount":9184,"avgCorrectness":0.9920202756620304,"avgInclusionDelay":1.0189670288854091,"avgUptime":0.9993246709252814,"avgValidatorEffectiveness":97.67487878818605,"clientPercentages":[{"client":"Teku","percentage":0.9669882100750268},{"client":"Nimbus","percentage":0.0330117899249732}],"networkPenetration":0.020756397101698208,"relayerPercentages":[{"relayer":"no_mev_boost","percentage":1.0}],"nodeOperatorCount":null},{"id":"Rocketpool","idType":"entity","timeWindow":"1d","validatorCount":8783,"avgCorrectness":0.9869273191643572,"avgInclusionDelay":1.0302998342663534,"avgUptime":0.9875286503870737,"avgValidatorEffectiveness":95.6013163551024,"clientPercentages":[{"client":"Teku","percentage":0.29987111556637547},{"client":"Prysm","percentage":0.045825576399828157},{"client":"Nimbus","percentage":0.222397250465416},{"client":"Lighthouse","percentage":0.43190605756838035}],"networkPenetration":0.01970320883412511,"relayerPercentages":[{"relayer":"bloxroute_ethical","percentage":0.032206969376979935},{"relayer":"bloxroute_maxprofit","percentage":0.09213305174234425},{"relayer":"no_mev_boost","percentage":0.2911826821541711},{"relayer":"bloxroute_regulated","percentage":0.07074973600844774},{"relayer":"blocknative","percentage":0.044086589229144664},{"relayer":"edennetwork","percentage":0.014519535374868005},{"relayer":"manifold","percentage":0.0013199577613516368},{"relayer":"flashbots","percentage":0.4538014783526927}],"nodeOperatorCount":1539},{"id":"Celsius Network","idType":"entity","timeWindow":"1d","validatorCount":4943,"avgCorrectness":0.9919094935595755,"avgInclusionDelay":1.0162035027525353,"avgUptime":0.9994933351316106,"avgValidatorEffectiveness":97.90118847169589,"clientPercentages":[{"client":"Prysm","percentage":0.966626936829559},{"client":"Teku","percentage":0.012316249503377036},{"client":"Lighthouse","percentage":0.021056813667063964}],"networkPenetration":0.011171479842518973,"relayerPercentages":[{"relayer":"flashbots","percentage":0.958717610891524},{"relayer":"no_mev_boost","percentage":0.041282389108476064}],"nodeOperatorCount":null},{"id":"Stakefish","idType":"entity","timeWindow":"1d","validatorCount":4558,"avgCorrectness":0.9898360347057396,"avgInclusionDelay":1.03128967201986,"avgUptime":0.9839315489249656,"avgValidatorEffectiveness":95.23915909473419,"clientPercentages":[{"client":"Lighthouse","percentage":0.9885792599360439},{"client":"Teku","percentage":0.009365006852444038},{"client":"Prysm","percentage":0.0011420740063956144},{"client":"Nimbus","percentage":0.0009136592051164915}],"networkPenetration":0.010301356488408148,"relayerPercentages":[{"relayer":"no_mev_boost","percentage":0.2257075471698113},{"relayer":"bloxroute_regulated","percentage":0.0002358490566037736},{"relayer":"bloxroute_maxprofit","percentage":0.0009433962264150943},{"relayer":"flashbots","percentage":0.6971698113207547},{"relayer":"manifold","percentage":0.07594339622641509}],"nodeOperatorCount":null},{"id":"Bitfinex","idType":"entity","timeWindow":"1d","validatorCount":3214,"avgCorrectness":0.9922688016492731,"avgInclusionDelay":1.0157689616162286,"avgUptime":0.9998838415266542,"avgValidatorEffectiveness":97.99904655896955,"clientPercentages":[{"client":"Prysm","percentage":0.9564950980392157},{"client":"Teku","percentage":0.03431372549019608},{"client":"Lighthouse","percentage":0.009191176470588236}],"networkPenetration":0.007263834961330362,"relayerPercentages":[{"relayer":"no_mev_boost","percentage":0.7593333333333333},{"relayer":"flashbots","percentage":0.24066666666666667}],"nodeOperatorCount":null},{"id":"Huobi","idType":"entity","timeWindow":"1d","validatorCount":2855,"avgCorrectness":0.99149964394784,"avgInclusionDelay":1.0167759736417596,"avgUptime":0.9997711617046114,"avgValidatorEffectiveness":97.84244797192648,"clientPercentages":[{"client":"Teku","percentage":0.02301255230125523},{"client":"Prysm","percentage":0.9693165969316597},{"client":"Lighthouse","percentage":0.007670850767085077}],"networkPenetration":0.006452473184380269,"relayerPercentages":[{"relayer":"flashbots","percentage":0.4393468118195957},{"relayer":"blocknative","percentage":0.038102643856920686},{"relayer":"edennetwork","percentage":0.05598755832037325},{"relayer":"manifold","percentage":0.025660964230171075},{"relayer":"bloxroute_ethical","percentage":0.07620528771384137},{"relayer":"bloxroute_maxprofit","percentage":0.05754276827371695},{"relayer":"no_mev_boost","percentage":0.2729393468118196},{"relayer":"bloxroute_regulated","percentage":0.03421461897356143}],"nodeOperatorCount":null},{"id":"Abyss","idType":"entity","timeWindow":"1d","validatorCount":2700,"avgCorrectness":0.9915812680185091,"avgInclusionDelay":1.0187208042339229,"avgUptime":0.9986012263191185,"avgValidatorEffectiveness":97.60944872288883,"clientPercentages":[{"client":"Nimbus","percentage":0.026604068857589983},{"client":"Prysm","percentage":0.025821596244131457},{"client":"Teku","percentage":0.8615023474178404},{"client":"Lighthouse","percentage":0.08607198748043818}],"networkPenetration":0.006088603418115742,"relayerPercentages":[{"relayer":"manifold","percentage":0.0015873015873015873},{"relayer":"edennetwork","percentage":0.009523809523809525},{"relayer":"flashbots","percentage":0.31825396825396823},{"relayer":"blocknative","percentage":0.002380952380952381},{"relayer":"no_mev_boost","percentage":0.6365079365079365},{"relayer":"bloxroute_maxprofit","percentage":0.014285714285714285},{"relayer":"bloxroute_regulated","percentage":0.01507936507936508},{"relayer":"bloxroute_ethical","percentage":0.002380952380952381}],"nodeOperatorCount":null},{"id":"Bloxstaking","idType":"entity","timeWindow":"1d","validatorCount":2554,"avgCorrectness":0.9916625395700799,"avgInclusionDelay":1.0161344090186273,"avgUptime":0.9998459932132607,"avgValidatorEffectiveness":97.9131092744552,"clientPercentages":[{"client":"Teku","percentage":0.006751054852320675},{"client":"Prysm","percentage":0.4911392405063291},{"client":"Lighthouse","percentage":0.5021097046413502}],"networkPenetration":0.005772194925711806,"relayerPercentages":[{"relayer":"bloxroute_ethical","percentage":0.015189873417721518},{"relayer":"no_mev_boost","percentage":0.1518987341772152},{"relayer":"blocknative","percentage":0.06751054852320675},{"relayer":"flashbots","percentage":0.7654008438818566}],"nodeOperatorCount":null},{"id":"wedex.eth","idType":"entity","timeWindow":"1d","validatorCount":2399,"avgCorrectness":0.9912212759754618,"avgInclusionDelay":1.016439493325625,"avgUptime":0.9998165902459364,"avgValidatorEffectiveness":97.8447468349556,"clientPercentages":[{"client":"Prysm","percentage":0.001606425702811245},{"client":"Lighthouse","percentage":0.9983935742971888}],"networkPenetration":0.005421885523407448,"relayerPercentages":[{"relayer":"edennetwork","percentage":0.06205673758865248},{"relayer":"flashbots","percentage":0.4078014184397163},{"relayer":"no_mev_boost","percentage":0.22695035460992907},{"relayer":"blocknative","percentage":0.05851063829787234},{"relayer":"manifold","percentage":0.024822695035460994},{"relayer":"bloxroute_ethical","percentage":0.00975177304964539},{"relayer":"bloxroute_maxprofit","percentage":0.21010638297872342}],"nodeOperatorCount":null},{"id":"Ankr","idType":"entity","timeWindow":"1d","validatorCount":2299,"avgCorrectness":0.9916013233965804,"avgInclusionDelay":1.01595887120085,"avgUptime":0.9998637088589235,"avgValidatorEffectiveness":97.92454652101947,"clientPercentages":[{"client":"Prysm","percentage":0.526829268292683},{"client":"Lighthouse","percentage":0.46731707317073173},{"client":"Teku","percentage":0.005853658536585366}],"networkPenetration":0.005195879457404636,"relayerPercentages":[{"relayer":"no_mev_boost","percentage":0.8783783783783784},{"relayer":"flashbots","percentage":0.12162162162162163}],"nodeOperatorCount":null}]}