{"page":{"from":0,"size":15},"total":31,"next":"/v0/eth/operators?window=1d&from=15&size=15&idType=entity","data":[{"id":"Lido","idType":"entity","timeWindow":"1d","validatorCount":129044,"avgCorrectness":0.9863562447082467,"avgInclusionDelay":1.0242283129003167,"avgUptime":0.9995408546427338,"avgValidatorEffectiveness":97.1307348839244,"clientPercentages":[{"client":"Nimbus","percentage":0.07909665277591074},{"client":"Teku","percentage":0.19212259712326926},{"client":"Lighthouse","percentage":0.37658287404220997},{"client":"Prysm","percentage":0.35219787605861}],"networkPenetration":0.31754164482605024},{"id":"Coinbase","idType":"entity","timeWindow":"1d","validatorCount":57005,"avgCorrectness":0.9861949379444258,"avgInclusionDelay":1.0236704936226628,"avgUptime":0.9998774376516668,"avgValidatorEffectiveness":97.195617460672,"clientPercentages":[{"client":"Lighthouse","percentage":0.37688737623762375},{"client":"Nimbus","percentage":0.09226485148514851},{"client":"Teku","percentage":0.16704826732673267},{"client":"Prysm","percentage":0.36379950495049507}],"networkPenetration":0.14028443250080594},{"id":"Kraken","idType":"entity","timeWindow":"1d","validatorCount":35868,"avgCorrectness":0.9794886019150584,"avgInclusionDelay":1.0348522219587954,"avgUptime":0.9990403328642302,"avgValidatorEffectiveness":96.06820026399907,"clientPercentages":[{"client":"Lighthouse","percentage":0.26855364264176634},{"client":"Teku","percentage":0.08695652173913043},{"client":"Nimbus","percentage":0.04148429141134131},{"client":"Prysm","percentage":0.6030055442077619}],"networkPenetration":0.08824101212492587},{"id":"Binance","idType":"entity","timeWindow":"1d","validatorCount":20810,"avgCorrectness":0.9867933166388491,"avgInclusionDelay":1.0229408015039774,"avgUptime":0.9999435100646025,"avgValidatorEffectiveness":97.28593455618355,"clientPercentages":[{"client":"Teku","percentage":0.008803554959335961},{"client":"Nimbus","percentage":0.0726083675693804},{"client":"Prysm","percentage":0.5931080741175484},{"client":"Lighthouse","percentage":0.3254800033537352}],"networkPenetration":0.05121163126641123},{"id":"Bitcoin Suisse","idType":"entity","timeWindow":"1d","validatorCount":9000,"avgCorrectness":0.9832523750108095,"avgInclusionDelay":1.0565750429293241,"avgUptime":0.9993456790123467,"avgValidatorEffectiveness":94.40479194112777,"clientPercentages":[{"client":"Teku","percentage":0.9928966061562746},{"client":"Nimbus","percentage":0.006906077348066298},{"client":"Prysm","percentage":0.0001973164956590371}],"networkPenetration":0.022148230725502212},{"id":"Rocketpool","idType":"entity","timeWindow":"1d","validatorCount":6250,"avgCorrectness":0.985517648751988,"avgInclusionDelay":1.0263324133016296,"avgUptime":0.9725695428013323,"avgValidatorEffectiveness":94.66102561182569,"clientPercentages":[{"client":"Lighthouse","percentage":0.41735105271016876},{"client":"Teku","percentage":0.267433179035389},{"client":"Nimbus","percentage":0.2553382111393161},{"client":"Prysm","percentage":0.05987755711512618}],"networkPenetration":0.015341341149197866},{"id":"Staked.us","idType":"entity","timeWindow":"1d","validatorCount":5263,"avgCorrectness":0.9845913124352016,"avgInclusionDelay":1.0251943106123749,"avgUptime":0.9969675090252708,"avgValidatorEffectiveness":96.7359331970282,"clientPercentages":[{"client":"Prysm","percentage":0.4309677419354839},{"client":"Teku","percentage":0.5096774193548387},{"client":"Lighthouse","percentage":0.000967741935483871},{"client":"Nimbus","percentage":0.05838709677419355}],"networkPenetration":0.012951793145368682},{"id":"f2pool.eth","idType":"entity","timeWindow":"1d","validatorCount":3501,"avgCorrectness":0.9879157491975252,"avgInclusionDelay":1.021298825279811,"avgUptime":0.9999930178679102,"avgValidatorEffectiveness":97.48998323501786,"clientPercentages":[{"client":"Lighthouse","percentage":1.0}],"networkPenetration":0.00861566175222036},{"id":"Bitfinex","idType":"entity","timeWindow":"1d","validatorCount":3214,"avgCorrectness":0.9860845260097565,"avgInclusionDelay":1.0234780443496772,"avgUptime":0.9857671299177218,"avgValidatorEffectiveness":96.01729599100938,"clientPercentages":[{"client":"Teku","percentage":0.018807092960773777},{"client":"Prysm","percentage":0.8753358409457281},{"client":"Lighthouse","percentage":0.0021493820526598604},{"client":"Nimbus","percentage":0.10370768404083826}],"networkPenetration":0.007909379283529345},{"id":"Huobi","idType":"entity","timeWindow":"1d","validatorCount":2855,"avgCorrectness":0.984796213843136,"avgInclusionDelay":1.0243617087523742,"avgUptime":0.999945514691574,"avgValidatorEffectiveness":97.05738058161546,"clientPercentages":[{"client":"Teku","percentage":0.014084507042253521},{"client":"Prysm","percentage":0.886150234741784},{"client":"Lighthouse","percentage":0.0017605633802816902},{"client":"Nimbus","percentage":0.09800469483568075}],"networkPenetration":0.007025910969034313},{"id":"wedex.eth","idType":"entity","timeWindow":"1d","validatorCount":2399,"avgCorrectness":0.9845715535383169,"avgInclusionDelay":1.0349666355617375,"avgUptime":0.9996229910610904,"avgValidatorEffectiveness":96.17858719624965,"clientPercentages":[{"client":"Lighthouse","percentage":1.0}],"networkPenetration":0.005903733945608867},{"id":"Bloxstaking","idType":"entity","timeWindow":"1d","validatorCount":2323,"avgCorrectness":0.983837745062397,"avgInclusionDelay":1.0252620440777465,"avgUptime":0.9998985985555067,"avgValidatorEffectiveness":96.93034851570579,"clientPercentages":[{"client":"Teku","percentage":0.008308157099697885},{"client":"Nimbus","percentage":0.0513595166163142},{"client":"Prysm","percentage":0.4342900302114804},{"client":"Lighthouse","percentage":0.5060422960725075}],"networkPenetration":0.005716704441704626},{"id":"Ankr","idType":"entity","timeWindow":"1d","validatorCount":2288,"avgCorrectness":0.8768206922152265,"avgInclusionDelay":1.4323789898416557,"avgUptime":0.9445978132639703,"avgValidatorEffectiveness":72.62722061745151,"clientPercentages":[{"client":"Prysm","percentage":0.8990731204943357},{"client":"Nimbus","percentage":0.08341915550978372},{"client":"Teku","percentage":0.009268795056642637},{"client":"Lighthouse","percentage":0.008238928939237899}],"networkPenetration":0.005630572433327674},{"id":"StakeWise","idType":"entity","timeWindow":"1d","validatorCount":1976,"avgCorrectness":0.9872226383086238,"avgInclusionDelay":1.0236360888279297,"avgUptime":0.9970400359874051,"avgValidatorEffectiveness":97.01935133409891,"clientPercentages":[{"client":"Teku","percentage":0.049239033124440466},{"client":"Nimbus","percentage":0.04028648164726947},{"client":"Prysm","percentage":0.36436884512085943},{"client":"Lighthouse","percentage":0.5461056401074306}],"networkPenetration":0.004862767101510263},{"id":"OKex","idType":"entity","timeWindow":"1d","validatorCount":1555,"avgCorrectness":0.977330479947516,"avgInclusionDelay":1.0488699618116135,"avgUptime":0.9990316055439538,"avgValidatorEffectiveness":94.65674188659855,"clientPercentages":[{"client":"Nimbus","percentage":0.1087912087912088},{"client":"Teku","percentage":0.017582417582417582},{"client":"Prysm","percentage":0.8736263736263736}],"networkPenetration":0.0038193393428866034}]}