{"page":{"from":0,"size":15},"total":31,"next":"/v0/eth/operators?window=1d&from=15&size=15&idType=entity","data":[{"id":"Lido","idType":"entity","timeWindow":"1d","validatorCount":129058,"avgCorrectness":0.9869853223049444,"avgInclusionDelay":1.0228346801875448,"avgUptime":0.9996893547165098,"avgValidatorEffectiveness":97.29492014514568,"clientPercentages":[{"client":"Teku","percentage":0.19212259712326926},{"client":"Lighthouse","percentage":0.37658287404220997},{"client":"Prysm","percentage":0.35219787605861},{"client":"Nimbus","percentage":0.07909665277591074}],"networkPenetration":0.31594809646223526},{"id":"Coinbase","idType":"entity","timeWindow":"1d","validatorCount":56673,"avgCorrectness":0.9867528473907801,"avgInclusionDelay":1.0239299502779968,"avgUptime":0.999811465968024,"avgValidatorEffectiveness":97.20599678488946,"clientPercentages":[{"client":"Lighthouse","percentage":0.37969267287150976},{"client":"Nimbus","percentage":0.09138609532138173},{"client":"Prysm","percentage":0.3645761759010557},{"client":"Teku","percentage":0.16434505590605283}],"networkPenetration":0.13857999755171993},{"id":"Kraken","idType":"entity","timeWindow":"1d","validatorCount":35884,"avgCorrectness":0.9798391867623787,"avgInclusionDelay":1.0355827425747977,"avgUptime":0.9989379060730192,"avgValidatorEffectiveness":96.04478429322766,"clientPercentages":[{"client":"Lighthouse","percentage":0.26855364264176634},{"client":"Prysm","percentage":0.6030055442077619},{"client":"Teku","percentage":0.08695652173913043},{"client":"Nimbus","percentage":0.04148429141134131}],"networkPenetration":0.0878247031460399},{"id":"Binance","idType":"entity","timeWindow":"1d","validatorCount":20810,"avgCorrectness":0.9869563193420746,"avgInclusionDelay":1.0226533718942374,"avgUptime":0.9978669443109633,"avgValidatorEffectiveness":97.14679668308833,"clientPercentages":[{"client":"Nimbus","percentage":0.0726083675693804},{"client":"Lighthouse","percentage":0.3254800033537352},{"client":"Prysm","percentage":0.5931080741175484},{"client":"Teku","percentage":0.008803554959335961}],"networkPenetration":0.05094870853225609},{"id":"Bitcoin Suisse","idType":"entity","timeWindow":"1d","validatorCount":9000,"avgCorrectness":0.9841754315999163,"avgInclusionDelay":1.0511038416957554,"avgUptime":0.9992822222222224,"avgValidatorEffectiveness":94.86672243628894,"clientPercentages":[{"client":"Teku","percentage":0.9928966061562746},{"client":"Nimbus","percentage":0.006906077348066298},{"client":"Prysm","percentage":0.0001973164956590371}],"networkPenetration":0.022034520749173704},{"id":"Rocketpool","idType":"entity","timeWindow":"1d","validatorCount":6259,"avgCorrectness":0.9840469502660432,"avgInclusionDelay":1.0322134390907929,"avgUptime":0.9873774445502834,"avgValidatorEffectiveness":95.47223698476623,"clientPercentages":[{"client":"Lighthouse","percentage":0.41735105271016876},{"client":"Teku","percentage":0.267433179035389},{"client":"Prysm","percentage":0.05987755711512618},{"client":"Nimbus","percentage":0.2553382111393161}],"networkPenetration":0.015309095360509242},{"id":"Staked.us","idType":"entity","timeWindow":"1d","validatorCount":5263,"avgCorrectness":0.9850222879348346,"avgInclusionDelay":1.0255697132693016,"avgUptime":0.9986619376359065,"avgValidatorEffectiveness":96.87675512515838,"clientPercentages":[{"client":"Teku","percentage":0.5096774193548387},{"client":"Prysm","percentage":0.4309677419354839},{"client":"Lighthouse","percentage":0.000967741935483871},{"client":"Nimbus","percentage":0.05838709677419355}],"networkPenetration":0.012885298078100134},{"id":"f2pool.eth","idType":"entity","timeWindow":"1d","validatorCount":3501,"avgCorrectness":0.9880534203360353,"avgInclusionDelay":1.0216918555568957,"avgUptime":0.9999873052143824,"avgValidatorEffectiveness":97.47315005908787,"clientPercentages":[{"client":"Lighthouse","percentage":1.0}],"networkPenetration":0.008571428571428572},{"id":"Bitfinex","idType":"entity","timeWindow":"1d","validatorCount":3214,"avgCorrectness":0.9861390314045306,"avgInclusionDelay":1.0232900835196674,"avgUptime":0.9984726543593986,"avgValidatorEffectiveness":97.15705037894239,"clientPercentages":[{"client":"Teku","percentage":0.018807092960773777},{"client":"Lighthouse","percentage":0.0021493820526598604},{"client":"Nimbus","percentage":0.10370768404083826},{"client":"Prysm","percentage":0.8753358409457281}],"networkPenetration":0.007868772187538254},{"id":"Huobi","idType":"entity","timeWindow":"1d","validatorCount":2855,"avgCorrectness":0.9841013150499819,"avgInclusionDelay":1.0265664382804558,"avgUptime":0.9999346176298891,"avgValidatorEffectiveness":96.84685177190823,"clientPercentages":[{"client":"Lighthouse","percentage":0.0017605633802816902},{"client":"Nimbus","percentage":0.09800469483568075},{"client":"Teku","percentage":0.014084507042253521},{"client":"Prysm","percentage":0.886150234741784}],"networkPenetration":0.0069898396376545475},{"id":"wedex.eth","idType":"entity","timeWindow":"1d","validatorCount":2399,"avgCorrectness":0.986561440956685,"avgInclusionDelay":1.0247194259000885,"avgUptime":0.9998554953452826,"avgValidatorEffectiveness":97.12928827765917,"clientPercentages":[{"client":"Lighthouse","percentage":1.0}],"networkPenetration":0.005873423919696414},{"id":"Bloxstaking","idType":"entity","timeWindow":"1d","validatorCount":2336,"avgCorrectness":0.9850504567902763,"avgInclusionDelay":1.0239811325962382,"avgUptime":0.9999524177935534,"avgValidatorEffectiveness":97.11349625329096,"clientPercentages":[{"client":"Nimbus","percentage":0.05101275318829707},{"client":"Teku","percentage":0.008252063015753939},{"client":"Prysm","percentage":0.43810952738184544},{"client":"Lighthouse","percentage":0.5026256564141035}],"networkPenetration":0.005716733994368956},{"id":"Ankr","idType":"entity","timeWindow":"1d","validatorCount":2288,"avgCorrectness":0.8612111598299947,"avgInclusionDelay":1.5221064908029374,"avgUptime":0.9527107614607604,"avgValidatorEffectiveness":65.34031599255363,"clientPercentages":[{"client":"Prysm","percentage":0.8990731204943357},{"client":"Nimbus","percentage":0.08341915550978372},{"client":"Teku","percentage":0.009268795056642637},{"client":"Lighthouse","percentage":0.008238928939237899}],"networkPenetration":0.005601664830456605},{"id":"StakeWise","idType":"entity","timeWindow":"1d","validatorCount":1976,"avgCorrectness":0.987703027493653,"avgInclusionDelay":1.0241225027942538,"avgUptime":0.997122132253711,"avgValidatorEffectiveness":97.02418557689971,"clientPercentages":[{"client":"Nimbus","percentage":0.04028648164726947},{"client":"Teku","percentage":0.049239033124440466},{"client":"Lighthouse","percentage":0.5461056401074306},{"client":"Prysm","percentage":0.36436884512085943}],"networkPenetration":0.004837801444485249},{"id":"OKex","idType":"entity","timeWindow":"1d","validatorCount":1558,"avgCorrectness":0.977009507099606,"avgInclusionDelay":1.0468711155054022,"avgUptime":0.9992518986012335,"avgValidatorEffectiveness":94.79274970050423,"clientPercentages":[{"client":"Nimbus","percentage":0.1087912087912088},{"client":"Prysm","percentage":0.8736263736263736},{"client":"Teku","percentage":0.017582417582417582}],"networkPenetration":0.003807075529440568}]}