{"page":{"from":0,"size":15},"total":36,"next":"/v0/eth/operators?window=1d&from=15&size=15&idType=entity","data":[{"id":"Lido","idType":"entity","timeWindow":"1d","validatorCount":141738,"avgCorrectness":0.9898587172982045,"avgInclusionDelay":1.0223975041949387,"avgUptime":0.9985005636131052,"avgValidatorEffectiveness":96.77878203203754,"clientPercentages":[{"client":"Teku","percentage":0.1635681037348997},{"client":"Nimbus","percentage":0.01863293804721268},{"client":"Prysm","percentage":0.3560207248143633},{"client":"Lighthouse","percentage":0.45778842956887955},{"client":"Lodestar","percentage":0.003989803834644797}],"networkPenetration":0.30585868451874165,"relayerPercentages":[{"relayer":"manifold","percentage":0.0013416815742397137},{"relayer":"bloxroute_ethical","percentage":0.03801431127012522},{"relayer":"no_mev_boost","percentage":0.015652951699463326},{"relayer":"edennetwork","percentage":0.04740608228980322},{"relayer":"flashbots","percentage":0.7701252236135957},{"relayer":"bloxroute_maxprofit","percentage":0.0872093023255814},{"relayer":"bloxroute_regulated","percentage":0.01520572450805009},{"relayer":"blocknative","percentage":0.025044722719141325}],"nodeOperatorCount":29},{"id":"Coinbase","idType":"entity","timeWindow":"1d","validatorCount":54683,"avgCorrectness":0.9890215158441311,"avgInclusionDelay":1.0201274518079573,"avgUptime":0.9975221224552817,"avgValidatorEffectiveness":96.7745928058671,"clientPercentages":[{"client":"Teku","percentage":0.20679341286485373},{"client":"Lighthouse","percentage":0.42874823804448725},{"client":"Nimbus","percentage":0.0068415443325196825},{"client":"Prysm","percentage":0.3576168047581394}],"networkPenetration":0.11816555235259289,"relayerPercentages":[{"relayer":"bloxroute_maxprofit","percentage":0.1756601607347876},{"relayer":"bloxroute_ethical","percentage":0.009184845005740528},{"relayer":"flashbots","percentage":0.8059701492537313},{"relayer":"no_mev_boost","percentage":0.009184845005740528}],"nodeOperatorCount":null},{"id":"Kraken","idType":"entity","timeWindow":"1d","validatorCount":38245,"avgCorrectness":0.989938460829388,"avgInclusionDelay":1.0178545532165897,"avgUptime":0.9992055957278883,"avgValidatorEffectiveness":97.22638118897893,"clientPercentages":[{"client":"Prysm","percentage":0.6941969779002806},{"client":"Nimbus","percentage":9.843973027513905e-05},{"client":"Lighthouse","percentage":0.25358074518875817},{"client":"Teku","percentage":0.052123837180686125}],"networkPenetration":0.08255792344294957,"relayerPercentages":[{"relayer":"bloxroute_ethical","percentage":0.0034423407917383822},{"relayer":"edennetwork","percentage":0.012048192771084338},{"relayer":"flashbots","percentage":0.8450946643717728},{"relayer":"manifold","percentage":0.01721170395869191},{"relayer":"no_mev_boost","percentage":0.01549053356282272},{"relayer":"bloxroute_maxprofit","percentage":0.10499139414802065},{"relayer":"blocknative","percentage":0.0017211703958691911}],"nodeOperatorCount":null},{"id":"Binance","idType":"entity","timeWindow":"1d","validatorCount":23826,"avgCorrectness":0.9916604214508564,"avgInclusionDelay":1.0132835133951716,"avgUptime":0.9998606564257544,"avgValidatorEffectiveness":97.87623682129731,"clientPercentages":[{"client":"Teku","percentage":0.0060702875399361025},{"client":"Lighthouse","percentage":0.4614217252396166},{"client":"Nimbus","percentage":0.0011182108626198084},{"client":"Prysm","percentage":0.5313897763578275}],"networkPenetration":0.05148606423116651,"relayerPercentages":[{"relayer":"flashbots","percentage":0.8954802259887006},{"relayer":"bloxroute_regulated","percentage":0.05649717514124294},{"relayer":"blocknative","percentage":0.005649717514124294},{"relayer":"no_mev_boost","percentage":0.01694915254237288},{"relayer":"edennetwork","percentage":0.022598870056497175},{"relayer":"bloxroute_maxprofit","percentage":0.002824858757062147}],"nodeOperatorCount":null},{"id":"Staked.us","idType":"entity","timeWindow":"1d","validatorCount":12917,"avgCorrectness":0.9893679359422018,"avgInclusionDelay":1.0187654465673721,"avgUptime":0.9983019793037593,"avgValidatorEffectiveness":97.0041682303626,"clientPercentages":[{"client":"Teku","percentage":0.25857288778637094},{"client":"Nimbus","percentage":0.00029184298847220193},{"client":"Lighthouse","percentage":0.11148402159638114},{"client":"Prysm","percentage":0.6296512476287757}],"networkPenetration":0.027908273295790962,"relayerPercentages":[{"relayer":"blocknative","percentage":0.00510204081632653},{"relayer":"bloxroute_maxprofit","percentage":0.25},{"relayer":"bloxroute_ethical","percentage":0.04591836734693878},{"relayer":"flashbots","percentage":0.5255102040816326},{"relayer":"no_mev_boost","percentage":0.10204081632653061},{"relayer":"manifold","percentage":0.030612244897959183},{"relayer":"edennetwork","percentage":0.04081632653061224}],"nodeOperatorCount":null},{"id":"Rocketpool","idType":"entity","timeWindow":"1d","validatorCount":9218,"avgCorrectness":0.9888673439106981,"avgInclusionDelay":1.0240705374455785,"avgUptime":0.988736007650089,"avgValidatorEffectiveness":95.67903955047056,"clientPercentages":[{"client":"Prysm","percentage":0.05160706201901313},{"client":"Nimbus","percentage":0.1949977365323676},{"client":"Lighthouse","percentage":0.4125169760072431},{"client":"Teku","percentage":0.3408782254413762}],"networkPenetration":0.019906388974125153,"relayerPercentages":[{"relayer":"bloxroute_regulated","percentage":0.007042253521126761},{"relayer":"flashbots","percentage":0.6549295774647887},{"relayer":"no_mev_boost","percentage":0.09859154929577464},{"relayer":"bloxroute_maxprofit","percentage":0.1619718309859155},{"relayer":"edennetwork","percentage":0.028169014084507043},{"relayer":"bloxroute_ethical","percentage":0.04225352112676056},{"relayer":"blocknative","percentage":0.007042253521126761}],"nodeOperatorCount":1613},{"id":"Bitcoin Suisse","idType":"entity","timeWindow":"1d","validatorCount":9214,"avgCorrectness":0.991886685880632,"avgInclusionDelay":1.0152688265481,"avgUptime":0.9991606974893272,"avgValidatorEffectiveness":97.64747779364977,"clientPercentages":[{"client":"Prysm","percentage":0.0005915992900808519},{"client":"Teku","percentage":0.9743640307631631},{"client":"Nimbus","percentage":0.02484717018339578},{"client":"Lighthouse","percentage":0.00019719976336028398}],"networkPenetration":0.0199107108128082,"relayerPercentages":[{"relayer":"no_mev_boost","percentage":1.0}],"nodeOperatorCount":null},{"id":"Stakefish","idType":"entity","timeWindow":"1d","validatorCount":8078,"avgCorrectness":0.9881490313404467,"avgInclusionDelay":1.0381770910957657,"avgUptime":0.996731864322852,"avgValidatorEffectiveness":95.04948248655955,"clientPercentages":[{"client":"Teku","percentage":0.30479016532428993},{"client":"Lighthouse","percentage":0.6877914370495973},{"client":"Nimbus","percentage":0.006570580754557015},{"client":"Prysm","percentage":0.000847816871555744}],"networkPenetration":0.01745590644083619,"relayerPercentages":[{"relayer":"manifold","percentage":0.007352941176470588},{"relayer":"flashbots","percentage":0.9632352941176471},{"relayer":"edennetwork","percentage":0.014705882352941176},{"relayer":"bloxroute_maxprofit","percentage":0.007352941176470588},{"relayer":"no_mev_boost","percentage":0.007352941176470588}],"nodeOperatorCount":null},{"id":"Celsius Network","idType":"entity","timeWindow":"1d","validatorCount":4943,"avgCorrectness":0.991603279067913,"avgInclusionDelay":1.0139845423592238,"avgUptime":0.9997905005956794,"avgValidatorEffectiveness":97.80046465735049,"clientPercentages":[{"client":"Lighthouse","percentage":0.004900113079532605},{"client":"Teku","percentage":0.00603090840557859},{"client":"Prysm","percentage":0.9890689785148888}],"networkPenetration":0.010681424305156386,"relayerPercentages":[{"relayer":"flashbots","percentage":0.9375},{"relayer":"no_mev_boost","percentage":0.0625}],"nodeOperatorCount":null},{"id":"Bitfinex","idType":"entity","timeWindow":"1d","validatorCount":3214,"avgCorrectness":0.9921641517549064,"avgInclusionDelay":1.0134451317752913,"avgUptime":0.9999128811449911,"avgValidatorEffectiveness":97.91584176439491,"clientPercentages":[{"client":"Prysm","percentage":0.9792267743796884},{"client":"Teku","percentage":0.01673398730525101},{"client":"Lighthouse","percentage":0.003462204270051933},{"client":"Nimbus","percentage":0.0005770340450086555}],"networkPenetration":0.006945194763660251,"relayerPercentages":[{"relayer":"flashbots","percentage":0.953125},{"relayer":"blocknative","percentage":0.015625},{"relayer":"bloxroute_maxprofit","percentage":0.015625},{"relayer":"no_mev_boost","percentage":0.015625}],"nodeOperatorCount":null},{"id":"Abyss","idType":"entity","timeWindow":"1d","validatorCount":3069,"avgCorrectness":0.9914782763989021,"avgInclusionDelay":1.015489057641016,"avgUptime":0.9947098222367057,"avgValidatorEffectiveness":97.16296101258204,"clientPercentages":[{"client":"Teku","percentage":0.8407687028140014},{"client":"Lighthouse","percentage":0.08098833218943034},{"client":"Prysm","percentage":0.033630748112560054},{"client":"Nimbus","percentage":0.04461221688400824}],"networkPenetration":0.0066318614591391765,"relayerPercentages":[{"relayer":"bloxroute_ethical","percentage":0.022727272727272728},{"relayer":"no_mev_boost","percentage":0.4318181818181818},{"relayer":"relayooor","percentage":0.045454545454545456},{"relayer":"bloxroute_regulated","percentage":0.022727272727272728},{"relayer":"flashbots","percentage":0.4772727272727273}],"nodeOperatorCount":null},{"id":"Huobi","idType":"entity","timeWindow":"1d","validatorCount":2855,"avgCorrectness":0.9912665545730062,"avgInclusionDelay":1.0128378378378378,"avgUptime":0.9999143802296168,"avgValidatorEffectiveness":97.88315948195817,"clientPercentages":[{"client":"Lighthouse","percentage":0.007677543186180422},{"client":"Teku","percentage":0.010876519513755598},{"client":"Prysm","percentage":0.981445937300064}],"networkPenetration":0.006169424720052899,"relayerPercentages":[{"relayer":"edennetwork","percentage":0.08163265306122448},{"relayer":"bloxroute_regulated","percentage":0.04081632653061224},{"relayer":"flashbots","percentage":0.7551020408163265},{"relayer":"blocknative","percentage":0.04081632653061224},{"relayer":"bloxroute_maxprofit","percentage":0.08163265306122448}],"nodeOperatorCount":null},{"id":"Bloxstaking","idType":"entity","timeWindow":"1d","validatorCount":2687,"avgCorrectness":0.9916120598358485,"avgInclusionDelay":1.0132049245432884,"avgUptime":0.9998991026754336,"avgValidatorEffectiveness":97.88339757247151,"clientPercentages":[{"client":"Prysm","percentage":0.6838905775075987},{"client":"Teku","percentage":0.007598784194528876},{"client":"Lighthouse","percentage":0.30851063829787234}],"networkPenetration":0.005804229351335232,"relayerPercentages":[{"relayer":"blocknative","percentage":0.04878048780487805},{"relayer":"flashbots","percentage":0.9512195121951219}],"nodeOperatorCount":null},{"id":"wedex.eth","idType":"entity","timeWindow":"1d","validatorCount":2399,"avgCorrectness":0.9906614108145273,"avgInclusionDelay":1.0151559798290921,"avgUptime":0.9996554119772129,"avgValidatorEffectiveness":97.58183240661326,"clientPercentages":[{"client":"Nimbus","percentage":0.006158583525789068},{"client":"Lighthouse","percentage":0.993841416474211}],"networkPenetration":0.005184045500317655,"relayerPercentages":[{"relayer":"bloxroute_maxprofit","percentage":0.05405405405405406},{"relayer":"edennetwork","percentage":0.10810810810810811},{"relayer":"flashbots","percentage":0.7837837837837838},{"relayer":"blocknative","percentage":0.02702702702702703},{"relayer":"no_mev_boost","percentage":0.02702702702702703}],"nodeOperatorCount":null},{"id":"Ankr","idType":"entity","timeWindow":"1d","validatorCount":2304,"avgCorrectness":0.9917761444528039,"avgInclusionDelay":1.0135019387696047,"avgUptime":0.9999421296296302,"avgValidatorEffectiveness":97.87390820202049,"clientPercentages":[{"client":"Lighthouse","percentage":0.8369132856006364},{"client":"Prysm","percentage":0.162291169451074},{"client":"Teku","percentage":0.0007955449482895784}],"networkPenetration":0.004978758162872812,"relayerPercentages":[{"relayer":"no_mev_boost","percentage":0.7560975609756098},{"relayer":"flashbots","percentage":0.24390243902439024}],"nodeOperatorCount":null}]}